%!PS-Adobe-3.0 EPSF-3.0
%%Creator: (MATLAB, The Mathworks, Inc. Version 9.10.0.1684407 \(R2021a\) Update 3. Operating System: Linux)
%%Title: /home/adoan/Code/PRoSA_PI-ESN_Git/pi-esn/Results/MFE_results/Figures/FIG1_9.eps
%%CreationDate: 2021-07-21T18:46:13
%%Pages: (atend)
%%BoundingBox:     0     0   255   227
%%LanguageLevel: 3
%%EndComments
%%BeginProlog
%%BeginResource: procset (Apache XML Graphics Std ProcSet) 1.2 0
%%Version: 1.2 0
%%Copyright: (Copyright 2001-2003,2010 The Apache Software Foundation. License terms: http://www.apache.org/licenses/LICENSE-2.0)
/bd{bind def}bind def
/ld{load def}bd
/GR/grestore ld
/GS/gsave ld
/RM/rmoveto ld
/C/curveto ld
/t/show ld
/L/lineto ld
/ML/setmiterlimit ld
/CT/concat ld
/f/fill ld
/N/newpath ld
/S/stroke ld
/CC/setcmykcolor ld
/A/ashow ld
/cp/closepath ld
/RC/setrgbcolor ld
/LJ/setlinejoin ld
/GC/setgray ld
/LW/setlinewidth ld
/M/moveto ld
/re {4 2 roll M
1 index 0 rlineto
0 exch rlineto
neg 0 rlineto
cp } bd
/_ctm matrix def
/_tm matrix def
/BT { _ctm currentmatrix pop matrix _tm copy pop 0 0 moveto } bd
/ET { _ctm setmatrix } bd
/iTm { _ctm setmatrix _tm concat } bd
/Tm { _tm astore pop iTm 0 0 moveto } bd
/ux 0.0 def
/uy 0.0 def
/F {
  /Tp exch def
  /Tf exch def
  Tf findfont Tp scalefont setfont
  /cf Tf def  /cs Tp def
} bd
/ULS {currentpoint /uy exch def /ux exch def} bd
/ULE {
  /Tcx currentpoint pop def
  gsave
  newpath
  cf findfont cs scalefont dup
  /FontMatrix get 0 get /Ts exch def /FontInfo get dup
  /UnderlinePosition get Ts mul /To exch def
  /UnderlineThickness get Ts mul /Tt exch def
  ux uy To add moveto  Tcx uy To add lineto
  Tt setlinewidth stroke
  grestore
} bd
/OLE {
  /Tcx currentpoint pop def
  gsave
  newpath
  cf findfont cs scalefont dup
  /FontMatrix get 0 get /Ts exch def /FontInfo get dup
  /UnderlinePosition get Ts mul /To exch def
  /UnderlineThickness get Ts mul /Tt exch def
  ux uy To add cs add moveto Tcx uy To add cs add lineto
  Tt setlinewidth stroke
  grestore
} bd
/SOE {
  /Tcx currentpoint pop def
  gsave
  newpath
  cf findfont cs scalefont dup
  /FontMatrix get 0 get /Ts exch def /FontInfo get dup
  /UnderlinePosition get Ts mul /To exch def
  /UnderlineThickness get Ts mul /Tt exch def
  ux uy To add cs 10 mul 26 idiv add moveto Tcx uy To add cs 10 mul 26 idiv add lineto
  Tt setlinewidth stroke
  grestore
} bd
/QT {
/Y22 exch store
/X22 exch store
/Y21 exch store
/X21 exch store
currentpoint
/Y21 load 2 mul add 3 div exch
/X21 load 2 mul add 3 div exch
/X21 load 2 mul /X22 load add 3 div
/Y21 load 2 mul /Y22 load add 3 div
/X22 load /Y22 load curveto
} bd
/SSPD {
dup length /d exch dict def
{
/v exch def
/k exch def
currentpagedevice k known {
/cpdv currentpagedevice k get def
v cpdv ne {
/upd false def
/nullv v type /nulltype eq def
/nullcpdv cpdv type /nulltype eq def
nullv nullcpdv or
{
/upd true def
} {
/sametype v type cpdv type eq def
sametype {
v type /arraytype eq {
/vlen v length def
/cpdvlen cpdv length def
vlen cpdvlen eq {
0 1 vlen 1 sub {
/i exch def
/obj v i get def
/cpdobj cpdv i get def
obj cpdobj ne {
/upd true def
exit
} if
} for
} {
/upd true def
} ifelse
} {
v type /dicttype eq {
v {
/dv exch def
/dk exch def
/cpddv cpdv dk get def
dv cpddv ne {
/upd true def
exit
} if
} forall
} {
/upd true def
} ifelse
} ifelse
} if
} ifelse
upd true eq {
d k v put
} if
} if
} if
} forall
d length 0 gt {
d setpagedevice
} if
} bd
/RE { % /NewFontName [NewEncodingArray] /FontName RE -
  findfont dup length dict begin
  {
    1 index /FID ne
    {def} {pop pop} ifelse
  } forall
  /Encoding exch def
  /FontName 1 index def
  currentdict definefont pop
  end
} bind def
%%EndResource
%%BeginResource: procset (Apache XML Graphics EPS ProcSet) 1.0 0
%%Version: 1.0 0
%%Copyright: (Copyright 2002-2003 The Apache Software Foundation. License terms: http://www.apache.org/licenses/LICENSE-2.0)
/BeginEPSF { %def
/b4_Inc_state save def         % Save state for cleanup
/dict_count countdictstack def % Count objects on dict stack
/op_count count 1 sub def      % Count objects on operand stack
userdict begin                 % Push userdict on dict stack
/showpage { } def              % Redefine showpage, { } = null proc
0 setgray 0 setlinecap         % Prepare graphics state
1 setlinewidth 0 setlinejoin
10 setmiterlimit [ ] 0 setdash newpath
/languagelevel where           % If level not equal to 1 then
{pop languagelevel             % set strokeadjust and
1 ne                           % overprint to their defaults.
{false setstrokeadjust false setoverprint
} if
} if
} bd
/EndEPSF { %def
count op_count sub {pop} repeat            % Clean up stacks
countdictstack dict_count sub {end} repeat
b4_Inc_state restore
} bd
%%EndResource
%FOPBeginFontDict
%%IncludeResource: font Courier-Oblique
%%IncludeResource: font Courier-BoldOblique
%%IncludeResource: font Courier-Bold
%%IncludeResource: font ZapfDingbats
%%IncludeResource: font Symbol
%%IncludeResource: font Helvetica
%%IncludeResource: font Helvetica-Oblique
%%IncludeResource: font Helvetica-Bold
%%IncludeResource: font Helvetica-BoldOblique
%%IncludeResource: font Times-Roman
%%IncludeResource: font Times-Italic
%%IncludeResource: font Times-Bold
%%IncludeResource: font Times-BoldItalic
%%IncludeResource: font Courier
%FOPEndFontDict
%%BeginResource: encoding WinAnsiEncoding
/WinAnsiEncoding [
/.notdef /.notdef /.notdef /.notdef /.notdef
/.notdef /.notdef /.notdef /.notdef /.notdef
/.notdef /.notdef /.notdef /.notdef /.notdef
/.notdef /.notdef /.notdef /.notdef /.notdef
/.notdef /.notdef /.notdef /.notdef /.notdef
/.notdef /.notdef /.notdef /.notdef /.notdef
/.notdef /.notdef /space /exclam /quotedbl
/numbersign /dollar /percent /ampersand /quotesingle
/parenleft /parenright /asterisk /plus /comma
/hyphen /period /slash /zero /one
/two /three /four /five /six
/seven /eight /nine /colon /semicolon
/less /equal /greater /question /at
/A /B /C /D /E
/F /G /H /I /J
/K /L /M /N /O
/P /Q /R /S /T
/U /V /W /X /Y
/Z /bracketleft /backslash /bracketright /asciicircum
/underscore /quoteleft /a /b /c
/d /e /f /g /h
/i /j /k /l /m
/n /o /p /q /r
/s /t /u /v /w
/x /y /z /braceleft /bar
/braceright /asciitilde /bullet /Euro /bullet
/quotesinglbase /florin /quotedblbase /ellipsis /dagger
/daggerdbl /circumflex /perthousand /Scaron /guilsinglleft
/OE /bullet /Zcaron /bullet /bullet
/quoteleft /quoteright /quotedblleft /quotedblright /bullet
/endash /emdash /asciitilde /trademark /scaron
/guilsinglright /oe /bullet /zcaron /Ydieresis
/space /exclamdown /cent /sterling /currency
/yen /brokenbar /section /dieresis /copyright
/ordfeminine /guillemotleft /logicalnot /sfthyphen /registered
/macron /degree /plusminus /twosuperior /threesuperior
/acute /mu /paragraph /middot /cedilla
/onesuperior /ordmasculine /guillemotright /onequarter /onehalf
/threequarters /questiondown /Agrave /Aacute /Acircumflex
/Atilde /Adieresis /Aring /AE /Ccedilla
/Egrave /Eacute /Ecircumflex /Edieresis /Igrave
/Iacute /Icircumflex /Idieresis /Eth /Ntilde
/Ograve /Oacute /Ocircumflex /Otilde /Odieresis
/multiply /Oslash /Ugrave /Uacute /Ucircumflex
/Udieresis /Yacute /Thorn /germandbls /agrave
/aacute /acircumflex /atilde /adieresis /aring
/ae /ccedilla /egrave /eacute /ecircumflex
/edieresis /igrave /iacute /icircumflex /idieresis
/eth /ntilde /ograve /oacute /ocircumflex
/otilde /odieresis /divide /oslash /ugrave
/uacute /ucircumflex /udieresis /yacute /thorn
/ydieresis
] def
%%EndResource
%FOPBeginFontReencode
/Courier-Oblique findfont
dup length dict begin
  {1 index /FID ne {def} {pop pop} ifelse} forall
  /Encoding WinAnsiEncoding def
  currentdict
end
/Courier-Oblique exch definefont pop
/Courier-BoldOblique findfont
dup length dict begin
  {1 index /FID ne {def} {pop pop} ifelse} forall
  /Encoding WinAnsiEncoding def
  currentdict
end
/Courier-BoldOblique exch definefont pop
/Courier-Bold findfont
dup length dict begin
  {1 index /FID ne {def} {pop pop} ifelse} forall
  /Encoding WinAnsiEncoding def
  currentdict
end
/Courier-Bold exch definefont pop
/Helvetica findfont
dup length dict begin
  {1 index /FID ne {def} {pop pop} ifelse} forall
  /Encoding WinAnsiEncoding def
  currentdict
end
/Helvetica exch definefont pop
/Helvetica-Oblique findfont
dup length dict begin
  {1 index /FID ne {def} {pop pop} ifelse} forall
  /Encoding WinAnsiEncoding def
  currentdict
end
/Helvetica-Oblique exch definefont pop
/Helvetica-Bold findfont
dup length dict begin
  {1 index /FID ne {def} {pop pop} ifelse} forall
  /Encoding WinAnsiEncoding def
  currentdict
end
/Helvetica-Bold exch definefont pop
/Helvetica-BoldOblique findfont
dup length dict begin
  {1 index /FID ne {def} {pop pop} ifelse} forall
  /Encoding WinAnsiEncoding def
  currentdict
end
/Helvetica-BoldOblique exch definefont pop
/Times-Roman findfont
dup length dict begin
  {1 index /FID ne {def} {pop pop} ifelse} forall
  /Encoding WinAnsiEncoding def
  currentdict
end
/Times-Roman exch definefont pop
/Times-Italic findfont
dup length dict begin
  {1 index /FID ne {def} {pop pop} ifelse} forall
  /Encoding WinAnsiEncoding def
  currentdict
end
/Times-Italic exch definefont pop
/Times-Bold findfont
dup length dict begin
  {1 index /FID ne {def} {pop pop} ifelse} forall
  /Encoding WinAnsiEncoding def
  currentdict
end
/Times-Bold exch definefont pop
/Times-BoldItalic findfont
dup length dict begin
  {1 index /FID ne {def} {pop pop} ifelse} forall
  /Encoding WinAnsiEncoding def
  currentdict
end
/Times-BoldItalic exch definefont pop
/Courier findfont
dup length dict begin
  {1 index /FID ne {def} {pop pop} ifelse} forall
  /Encoding WinAnsiEncoding def
  currentdict
end
/Courier exch definefont pop
%FOPEndFontReencode
%%EndProlog
%%Page: 1 1
%%PageBoundingBox: 0 0 255 227
%%BeginPageSetup
[1 0 0 -1 0 227] CT
%%EndPageSetup
GS
[0.78257 0 0 0.78197 0 0.22835] CT
1 GC
N
0 0 326 290 re
f
GR
GS
[0.78257 0 0 0.78197 0 0.22835] CT
1 GC
N
0 0 326 290 re
f
GR
GS
[0.78257 0 0 0.78197 0 0.22835] CT
1 GC
N
42 226.743 M
295 226.743 L
295 53.257 L
42 53.257 L
cp
f
GR
GS
[0.78257 0 0 0.78197 0 0.22835] CT
0.235 0.443 0.996 RC
N
75.834 217.612 M
73.309 226.743 L
81.947 226.743 L
95.263 226.743 L
108.579 226.743 L
121.895 226.743 L
132.841 226.743 L
129.878 217.612 L
121.895 210.48 L
116.804 208.481 L
108.579 206.562 L
95.263 206.632 L
88.058 208.481 L
81.947 211.289 L
cp
212.593 153.696 M
215.105 155.288 L
228.421 159.115 L
241.737 159.001 L
255.053 154.559 L
256.241 153.696 L
261.969 144.565 L
261.969 135.435 L
256.241 126.304 L
255.053 125.441 L
241.737 120.999 L
228.421 120.885 L
215.105 124.712 L
212.593 126.304 L
205.998 135.435 L
205.998 144.565 L
cp
88.058 71.519 M
95.263 73.368 L
108.579 73.438 L
116.804 71.519 L
121.895 69.52 L
129.878 62.388 L
132.841 53.257 L
121.895 53.257 L
108.579 53.257 L
95.263 53.257 L
81.947 53.257 L
73.309 53.257 L
75.834 62.388 L
81.947 68.711 L
cp
f
GR
GS
[0.78257 0 0 0.78197 0 0.22835] CT
0.173 0.549 0.949 RC
N
55.316 219.819 M
54.764 226.743 L
55.316 226.743 L
68.632 226.743 L
73.309 226.743 L
75.834 217.612 L
81.947 211.289 L
88.058 208.481 L
95.263 206.632 L
108.579 206.562 L
116.804 208.481 L
121.895 210.48 L
129.878 217.612 L
132.841 226.743 L
135.211 226.743 L
148.526 226.743 L
151.026 226.743 L
150.032 217.612 L
148.526 213.412 L
146.07 208.481 L
135.211 199.356 L
135.199 199.35 L
121.895 195.546 L
108.579 193.953 L
95.263 193.695 L
81.947 194.823 L
68.632 198.55 L
67.191 199.35 L
58.651 208.481 L
55.529 217.612 L
cp
225.232 171.958 M
228.421 172.293 L
241.737 172.517 L
249.006 171.958 L
255.053 171.334 L
268.368 167.186 L
274.268 162.827 L
279.698 153.696 L
281.623 144.565 L
281.623 135.435 L
279.698 126.304 L
274.268 117.173 L
268.368 112.814 L
255.053 108.666 L
249.006 108.042 L
241.737 107.483 L
228.421 107.707 L
225.232 108.042 L
215.105 109.382 L
201.789 113.539 L
195.946 117.173 L
188.866 126.304 L
188.474 127.553 L
186.584 135.435 L
186.584 144.565 L
188.474 152.447 L
188.866 153.696 L
195.946 162.827 L
201.789 166.461 L
215.105 170.618 L
cp
215.105 155.288 M
212.593 153.696 L
205.998 144.565 L
205.998 135.435 L
212.593 126.304 L
215.105 124.712 L
228.421 120.885 L
241.737 120.999 L
255.053 125.441 L
256.241 126.304 L
261.969 135.435 L
261.969 144.565 L
256.241 153.696 L
255.053 154.559 L
241.737 159.001 L
228.421 159.115 L
cp
67.191 80.65 M
68.632 81.45 L
81.947 85.177 L
95.263 86.305 L
108.579 86.047 L
121.895 84.454 L
135.199 80.65 L
135.211 80.644 L
146.07 71.519 L
148.526 66.588 L
150.032 62.388 L
151.026 53.257 L
148.526 53.257 L
135.211 53.257 L
132.841 53.257 L
129.878 62.388 L
121.895 69.52 L
116.804 71.519 L
108.579 73.438 L
95.263 73.368 L
88.058 71.519 L
81.947 68.711 L
75.834 62.388 L
73.309 53.257 L
68.632 53.257 L
55.316 53.257 L
54.764 53.257 L
55.316 60.181 L
55.529 62.388 L
58.651 71.519 L
cp
f
GR
GS
[0.78257 0 0 0.78197 0 0.22835] CT
0.106 0.667 0.871 RC
N
42 217.612 M
42 226.743 L
54.764 226.743 L
55.316 219.819 L
55.529 217.612 L
58.651 208.481 L
67.191 199.35 L
68.632 198.55 L
81.947 194.823 L
95.263 193.695 L
108.579 193.953 L
121.895 195.546 L
135.199 199.35 L
135.211 199.356 L
146.07 208.481 L
148.526 213.412 L
150.032 217.612 L
151.026 226.743 L
161.842 226.743 L
166.175 226.743 L
166.043 217.612 L
165.561 208.481 L
164.284 199.35 L
161.842 193.163 L
159.343 190.22 L
148.526 186.172 L
135.211 184.684 L
121.895 183.922 L
108.579 183.366 L
95.263 182.841 L
81.947 182.208 L
68.632 181.189 L
67.721 181.089 L
55.316 178.44 L
47.968 171.958 L
45.571 162.827 L
44.758 153.696 L
44.462 144.565 L
44.462 135.435 L
44.758 126.304 L
45.571 117.173 L
47.968 108.042 L
55.316 101.56 L
67.721 98.911 L
68.632 98.811 L
81.947 97.792 L
95.263 97.159 L
108.579 96.634 L
121.895 96.078 L
135.211 95.316 L
148.526 93.828 L
159.343 89.78 L
161.842 86.837 L
164.284 80.65 L
165.561 71.519 L
166.043 62.388 L
166.175 53.257 L
161.842 53.257 L
151.026 53.257 L
150.032 62.388 L
148.526 66.588 L
146.07 71.519 L
135.211 80.644 L
135.199 80.65 L
121.895 84.454 L
108.579 86.047 L
95.263 86.305 L
81.947 85.177 L
68.632 81.45 L
67.191 80.65 L
58.651 71.519 L
55.529 62.388 L
55.316 60.181 L
54.764 53.257 L
42 53.257 L
42 62.388 L
42 71.519 L
42 80.65 L
42 89.78 L
42 98.911 L
42 108.042 L
42 117.173 L
42 126.304 L
42 135.435 L
42 144.565 L
42 153.696 L
42 162.827 L
42 171.958 L
42 181.089 L
42 190.22 L
42 199.35 L
42 208.481 L
cp
292.647 217.612 M
292.771 226.743 L
295 226.743 L
295 217.612 L
295 208.481 L
295 199.35 L
295 190.22 L
295 181.089 L
295 171.958 L
295 162.827 L
295 153.696 L
295 144.565 L
295 135.435 L
295 126.304 L
295 117.173 L
295 108.042 L
295 98.911 L
295 89.78 L
295 80.65 L
295 71.519 L
295 62.388 L
295 53.257 L
292.771 53.257 L
292.647 62.388 L
292.196 71.519 L
291.015 80.65 L
286.627 89.78 L
281.684 92.608 L
268.368 95.115 L
255.053 96.075 L
241.737 96.677 L
228.421 97.184 L
215.105 97.727 L
201.789 98.48 L
196.63 98.911 L
188.474 99.994 L
175.158 106.932 L
174.498 108.042 L
172.021 117.173 L
171.202 126.304 L
170.906 135.435 L
170.906 144.565 L
171.202 153.696 L
172.021 162.827 L
174.498 171.958 L
175.158 173.068 L
188.474 180.006 L
196.63 181.089 L
201.789 181.52 L
215.105 182.273 L
228.421 182.816 L
241.737 183.323 L
255.053 183.925 L
268.368 184.885 L
281.684 187.392 L
286.627 190.22 L
291.015 199.35 L
292.196 208.481 L
cp
228.421 172.293 M
225.232 171.958 L
215.105 170.618 L
201.789 166.461 L
195.946 162.827 L
188.866 153.696 L
188.474 152.447 L
186.584 144.565 L
186.584 135.435 L
188.474 127.553 L
188.866 126.304 L
195.946 117.173 L
201.789 113.539 L
215.105 109.382 L
225.232 108.042 L
228.421 107.707 L
241.737 107.483 L
249.006 108.042 L
255.053 108.666 L
268.368 112.814 L
274.268 117.173 L
279.698 126.304 L
281.623 135.435 L
281.623 144.565 L
279.698 153.696 L
274.268 162.827 L
268.368 167.186 L
255.053 171.334 L
249.006 171.958 L
241.737 172.517 L
cp
f
GR
GS
[0.78257 0 0 0.78197 0 0.22835] CT
0.075 0.745 0.722 RC
N
166.043 217.612 M
166.175 226.743 L
175.158 226.743 L
181.361 226.743 L
182.125 217.612 L
184.934 208.481 L
188.474 203.359 L
193.497 199.35 L
201.789 195.911 L
215.105 193.75 L
228.421 193.355 L
241.737 194.22 L
255.053 196.692 L
262.101 199.35 L
268.368 203.361 L
272.956 208.481 L
276.689 217.612 L
277.72 226.743 L
281.684 226.743 L
292.771 226.743 L
292.647 217.612 L
292.196 208.481 L
291.015 199.35 L
286.627 190.22 L
281.684 187.392 L
268.368 184.885 L
255.053 183.925 L
241.737 183.323 L
228.421 182.816 L
215.105 182.273 L
201.789 181.52 L
196.63 181.089 L
188.474 180.006 L
175.158 173.068 L
174.498 171.958 L
172.021 162.827 L
171.202 153.696 L
170.906 144.565 L
170.906 135.435 L
171.202 126.304 L
172.021 117.173 L
174.498 108.042 L
175.158 106.932 L
188.474 99.994 L
196.63 98.911 L
201.789 98.48 L
215.105 97.727 L
228.421 97.184 L
241.737 96.677 L
255.053 96.075 L
268.368 95.115 L
281.684 92.608 L
286.627 89.78 L
291.015 80.65 L
292.196 71.519 L
292.647 62.388 L
292.771 53.257 L
281.684 53.257 L
277.72 53.257 L
276.689 62.388 L
272.956 71.519 L
268.368 76.639 L
262.101 80.65 L
255.053 83.308 L
241.737 85.78 L
228.421 86.645 L
215.105 86.25 L
201.789 84.089 L
193.497 80.65 L
188.474 76.641 L
184.934 71.519 L
182.125 62.388 L
181.361 53.257 L
175.158 53.257 L
166.175 53.257 L
166.043 62.388 L
165.561 71.519 L
164.284 80.65 L
161.842 86.837 L
159.343 89.78 L
148.526 93.828 L
135.211 95.316 L
121.895 96.078 L
108.579 96.634 L
95.263 97.159 L
81.947 97.792 L
68.632 98.811 L
67.721 98.911 L
55.316 101.56 L
47.968 108.042 L
45.571 117.173 L
44.758 126.304 L
44.462 135.435 L
44.462 144.565 L
44.758 153.696 L
45.571 162.827 L
47.968 171.958 L
55.316 178.44 L
67.721 181.089 L
68.632 181.189 L
81.947 182.208 L
95.263 182.841 L
108.579 183.366 L
121.895 183.922 L
135.211 184.684 L
148.526 186.172 L
159.343 190.22 L
161.842 193.163 L
164.284 199.35 L
165.561 208.481 L
cp
95.263 172.021 M
94.853 171.958 L
81.947 169.289 L
68.692 162.827 L
68.632 162.772 L
62.381 153.696 L
60.065 144.565 L
60.065 135.435 L
62.381 126.304 L
68.632 117.228 L
68.692 117.173 L
81.947 110.711 L
94.853 108.042 L
95.263 107.979 L
108.579 107.142 L
121.895 107.503 L
126.02 108.042 L
135.211 109.772 L
148.526 117.051 L
148.642 117.173 L
153.449 126.304 L
155.17 135.435 L
155.17 144.565 L
153.449 153.696 L
148.642 162.827 L
148.526 162.949 L
135.211 170.228 L
126.02 171.958 L
121.895 172.497 L
108.579 172.858 L
cp
f
GR
GS
[0.78257 0 0 0.78197 0 0.22835] CT
0.278 0.796 0.525 RC
N
182.125 217.612 M
181.361 226.743 L
188.474 226.743 L
199.218 226.743 L
201.299 217.612 L
201.789 216.918 L
212.751 208.481 L
215.105 207.539 L
228.421 205.817 L
241.737 207.285 L
245.073 208.481 L
255.053 214.886 L
257.342 217.612 L
259.746 226.743 L
268.368 226.743 L
277.72 226.743 L
276.689 217.612 L
272.956 208.481 L
268.368 203.361 L
262.101 199.35 L
255.053 196.692 L
241.737 194.22 L
228.421 193.355 L
215.105 193.75 L
201.789 195.911 L
193.497 199.35 L
188.474 203.359 L
184.934 208.481 L
cp
94.853 171.958 M
95.263 172.021 L
108.579 172.858 L
121.895 172.497 L
126.02 171.958 L
135.211 170.228 L
148.526 162.949 L
148.642 162.827 L
153.449 153.696 L
155.17 144.565 L
155.17 135.435 L
153.449 126.304 L
148.642 117.173 L
148.526 117.051 L
135.211 109.772 L
126.02 108.042 L
121.895 107.503 L
108.579 107.142 L
95.263 107.979 L
94.853 108.042 L
81.947 110.711 L
68.692 117.173 L
68.632 117.228 L
62.381 126.304 L
60.065 135.435 L
60.065 144.565 L
62.381 153.696 L
68.632 162.772 L
68.692 162.827 L
81.947 169.289 L
cp
95.263 158.218 M
85.526 153.696 L
81.947 150.056 L
78.872 144.565 L
78.872 135.435 L
81.947 129.944 L
85.526 126.304 L
95.263 121.782 L
108.579 119.993 L
121.895 122.036 L
130.029 126.304 L
135.211 132.706 L
136.499 135.435 L
136.499 144.565 L
135.211 147.294 L
130.029 153.696 L
121.895 157.964 L
108.579 160.007 L
cp
193.497 80.65 M
201.789 84.089 L
215.105 86.25 L
228.421 86.645 L
241.737 85.78 L
255.053 83.308 L
262.101 80.65 L
268.368 76.639 L
272.956 71.519 L
276.689 62.388 L
277.72 53.257 L
268.368 53.257 L
259.746 53.257 L
257.342 62.388 L
255.053 65.114 L
245.073 71.519 L
241.737 72.715 L
228.421 74.183 L
215.105 72.461 L
212.751 71.519 L
201.789 63.082 L
201.299 62.388 L
199.218 53.257 L
188.474 53.257 L
181.361 53.257 L
182.125 62.388 L
184.934 71.519 L
188.474 76.641 L
cp
f
GR
GS
[0.78257 0 0 0.78197 0 0.22835] CT
0.627 0.784 0.251 RC
N
201.299 217.612 M
199.218 226.743 L
201.789 226.743 L
215.105 226.743 L
228.421 226.743 L
241.737 226.743 L
255.053 226.743 L
259.746 226.743 L
257.342 217.612 L
255.053 214.886 L
245.073 208.481 L
241.737 207.285 L
228.421 205.817 L
215.105 207.539 L
212.751 208.481 L
201.789 216.918 L
cp
85.526 153.696 M
95.263 158.218 L
108.579 160.007 L
121.895 157.964 L
130.029 153.696 L
135.211 147.294 L
136.499 144.565 L
136.499 135.435 L
135.211 132.706 L
130.029 126.304 L
121.895 122.036 L
108.579 119.993 L
95.263 121.782 L
85.526 126.304 L
81.947 129.944 L
78.872 135.435 L
78.872 144.565 L
81.947 150.056 L
cp
212.751 71.519 M
215.105 72.461 L
228.421 74.183 L
241.737 72.715 L
245.073 71.519 L
255.053 65.114 L
257.342 62.388 L
259.746 53.257 L
255.053 53.257 L
241.737 53.257 L
228.421 53.257 L
215.105 53.257 L
201.789 53.257 L
199.218 53.257 L
201.299 62.388 L
201.789 63.082 L
cp
f
GR
GS
[0.78257 0 0 0.78197 0 0.22835] CT
1 LJ
0.639 LW
N
73.309 226.743 M
75.834 217.612 L
S
GR
GS
[0.78257 0 0 0.78197 0 0.22835] CT
1 LJ
0.639 LW
N
129.878 217.612 M
132.841 226.743 L
S
GR
GS
[0.78257 0 0 0.78197 0 0.22835] CT
1 LJ
0.639 LW
N
75.834 217.612 M
81.947 211.289 L
88.058 208.481 L
S
GR
GS
[0.78257 0 0 0.78197 0 0.22835] CT
1 LJ
0.639 LW
N
116.804 208.481 M
121.895 210.48 L
129.878 217.612 L
S
GR
GS
[0.78257 0 0 0.78197 0 0.22835] CT
1 LJ
0.639 LW
N
88.058 208.481 M
95.263 206.632 L
108.579 206.562 L
116.804 208.481 L
S
GR
GS
[0.78257 0 0 0.78197 0 0.22835] CT
1 LJ
0.639 LW
N
256.241 153.696 M
255.053 154.559 L
241.737 159.001 L
228.421 159.115 L
215.105 155.288 L
212.593 153.696 L
S
GR
GS
[0.78257 0 0 0.78197 0 0.22835] CT
1 LJ
0.639 LW
N
212.593 153.696 M
205.998 144.565 L
S
GR
GS
[0.78257 0 0 0.78197 0 0.22835] CT
1 LJ
0.639 LW
N
261.969 144.565 M
256.241 153.696 L
S
GR
GS
[0.78257 0 0 0.78197 0 0.22835] CT
1 LJ
0.639 LW
N
205.998 144.565 M
205.998 135.435 L
S
GR
GS
[0.78257 0 0 0.78197 0 0.22835] CT
1 LJ
0.639 LW
N
261.969 135.435 M
261.969 144.565 L
S
GR
GS
[0.78257 0 0 0.78197 0 0.22835] CT
1 LJ
0.639 LW
N
205.998 135.435 M
212.593 126.304 L
S
GR
GS
[0.78257 0 0 0.78197 0 0.22835] CT
1 LJ
0.639 LW
N
256.241 126.304 M
261.969 135.435 L
S
GR
GS
[0.78257 0 0 0.78197 0 0.22835] CT
1 LJ
0.639 LW
N
212.593 126.304 M
215.105 124.712 L
228.421 120.885 L
241.737 120.999 L
255.053 125.441 L
256.241 126.304 L
S
GR
GS
[0.78257 0 0 0.78197 0 0.22835] CT
1 LJ
0.639 LW
N
116.804 71.519 M
108.579 73.438 L
95.263 73.368 L
88.058 71.519 L
S
GR
GS
[0.78257 0 0 0.78197 0 0.22835] CT
1 LJ
0.639 LW
N
88.058 71.519 M
81.947 68.711 L
75.834 62.388 L
S
GR
GS
[0.78257 0 0 0.78197 0 0.22835] CT
1 LJ
0.639 LW
N
129.878 62.388 M
121.895 69.52 L
116.804 71.519 L
S
GR
GS
[0.78257 0 0 0.78197 0 0.22835] CT
1 LJ
0.639 LW
N
75.834 62.388 M
73.309 53.257 L
S
GR
GS
[0.78257 0 0 0.78197 0 0.22835] CT
1 LJ
0.639 LW
N
132.841 53.257 M
129.878 62.388 L
S
GR
GS
[0.78257 0 0 0.78197 0 0.22835] CT
1 LJ
0.639 LW
N
54.764 226.743 M
55.316 219.819 L
55.529 217.612 L
S
GR
GS
[0.78257 0 0 0.78197 0 0.22835] CT
1 LJ
0.639 LW
N
150.032 217.612 M
151.026 226.743 L
S
GR
GS
[0.78257 0 0 0.78197 0 0.22835] CT
1 LJ
0.639 LW
N
55.529 217.612 M
58.651 208.481 L
S
GR
GS
[0.78257 0 0 0.78197 0 0.22835] CT
1 LJ
0.639 LW
N
146.07 208.481 M
148.526 213.412 L
150.032 217.612 L
S
GR
GS
[0.78257 0 0 0.78197 0 0.22835] CT
1 LJ
0.639 LW
N
58.651 208.481 M
67.191 199.35 L
S
GR
GS
[0.78257 0 0 0.78197 0 0.22835] CT
1 LJ
0.639 LW
N
135.199 199.35 M
135.211 199.356 L
146.07 208.481 L
S
GR
GS
[0.78257 0 0 0.78197 0 0.22835] CT
1 LJ
0.639 LW
N
67.191 199.35 M
68.632 198.55 L
81.947 194.823 L
95.263 193.695 L
108.579 193.953 L
121.895 195.546 L
135.199 199.35 L
S
GR
GS
[0.78257 0 0 0.78197 0 0.22835] CT
1 LJ
0.639 LW
N
249.006 171.958 M
241.737 172.517 L
228.421 172.293 L
225.232 171.958 L
S
GR
GS
[0.78257 0 0 0.78197 0 0.22835] CT
1 LJ
0.639 LW
N
225.232 171.958 M
215.105 170.618 L
201.789 166.461 L
195.946 162.827 L
S
GR
GS
[0.78257 0 0 0.78197 0 0.22835] CT
1 LJ
0.639 LW
N
274.268 162.827 M
268.368 167.186 L
255.053 171.334 L
249.006 171.958 L
S
GR
GS
[0.78257 0 0 0.78197 0 0.22835] CT
1 LJ
0.639 LW
N
195.946 162.827 M
188.866 153.696 L
S
GR
GS
[0.78257 0 0 0.78197 0 0.22835] CT
1 LJ
0.639 LW
N
279.698 153.696 M
274.268 162.827 L
S
GR
GS
[0.78257 0 0 0.78197 0 0.22835] CT
1 LJ
0.639 LW
N
188.866 153.696 M
188.474 152.447 L
186.584 144.565 L
S
GR
GS
[0.78257 0 0 0.78197 0 0.22835] CT
1 LJ
0.639 LW
N
281.623 144.565 M
279.698 153.696 L
S
GR
GS
[0.78257 0 0 0.78197 0 0.22835] CT
1 LJ
0.639 LW
N
186.584 144.565 M
186.584 135.435 L
S
GR
GS
[0.78257 0 0 0.78197 0 0.22835] CT
1 LJ
0.639 LW
N
281.623 135.435 M
281.623 144.565 L
S
GR
GS
[0.78257 0 0 0.78197 0 0.22835] CT
1 LJ
0.639 LW
N
186.584 135.435 M
188.474 127.553 L
188.866 126.304 L
S
GR
GS
[0.78257 0 0 0.78197 0 0.22835] CT
1 LJ
0.639 LW
N
279.698 126.304 M
281.623 135.435 L
S
GR
GS
[0.78257 0 0 0.78197 0 0.22835] CT
1 LJ
0.639 LW
N
188.866 126.304 M
195.946 117.173 L
S
GR
GS
[0.78257 0 0 0.78197 0 0.22835] CT
1 LJ
0.639 LW
N
274.268 117.173 M
279.698 126.304 L
S
GR
GS
[0.78257 0 0 0.78197 0 0.22835] CT
1 LJ
0.639 LW
N
195.946 117.173 M
201.789 113.539 L
215.105 109.382 L
225.232 108.042 L
S
GR
GS
[0.78257 0 0 0.78197 0 0.22835] CT
1 LJ
0.639 LW
N
249.006 108.042 M
255.053 108.666 L
268.368 112.814 L
274.268 117.173 L
S
GR
GS
[0.78257 0 0 0.78197 0 0.22835] CT
1 LJ
0.639 LW
N
225.232 108.042 M
228.421 107.707 L
241.737 107.483 L
249.006 108.042 L
S
GR
GS
[0.78257 0 0 0.78197 0 0.22835] CT
1 LJ
0.639 LW
N
135.199 80.65 M
121.895 84.454 L
108.579 86.047 L
95.263 86.305 L
81.947 85.177 L
68.632 81.45 L
67.191 80.65 L
S
GR
GS
[0.78257 0 0 0.78197 0 0.22835] CT
1 LJ
0.639 LW
N
67.191 80.65 M
58.651 71.519 L
S
GR
GS
[0.78257 0 0 0.78197 0 0.22835] CT
1 LJ
0.639 LW
N
146.07 71.519 M
135.211 80.644 L
135.199 80.65 L
S
GR
GS
[0.78257 0 0 0.78197 0 0.22835] CT
1 LJ
0.639 LW
N
58.651 71.519 M
55.529 62.388 L
S
GR
GS
[0.78257 0 0 0.78197 0 0.22835] CT
1 LJ
0.639 LW
N
150.032 62.388 M
148.526 66.588 L
146.07 71.519 L
S
GR
GS
[0.78257 0 0 0.78197 0 0.22835] CT
1 LJ
0.639 LW
N
55.529 62.388 M
55.316 60.181 L
54.764 53.257 L
S
GR
GS
[0.78257 0 0 0.78197 0 0.22835] CT
1 LJ
0.639 LW
N
151.026 53.257 M
150.032 62.388 L
S
GR
GS
[0.78257 0 0 0.78197 0 0.22835] CT
1 LJ
0.639 LW
N
166.043 217.612 M
166.175 226.743 L
S
GR
GS
[0.78257 0 0 0.78197 0 0.22835] CT
1 LJ
0.639 LW
N
292.771 226.743 M
292.647 217.612 L
S
GR
GS
[0.78257 0 0 0.78197 0 0.22835] CT
1 LJ
0.639 LW
N
165.561 208.481 M
166.043 217.612 L
S
GR
GS
[0.78257 0 0 0.78197 0 0.22835] CT
1 LJ
0.639 LW
N
292.647 217.612 M
292.196 208.481 L
S
GR
GS
[0.78257 0 0 0.78197 0 0.22835] CT
1 LJ
0.639 LW
N
164.284 199.35 M
165.561 208.481 L
S
GR
GS
[0.78257 0 0 0.78197 0 0.22835] CT
1 LJ
0.639 LW
N
292.196 208.481 M
291.015 199.35 L
S
GR
GS
[0.78257 0 0 0.78197 0 0.22835] CT
1 LJ
0.639 LW
N
159.343 190.22 M
161.842 193.163 L
164.284 199.35 L
S
GR
GS
[0.78257 0 0 0.78197 0 0.22835] CT
1 LJ
0.639 LW
N
291.015 199.35 M
286.627 190.22 L
S
GR
GS
[0.78257 0 0 0.78197 0 0.22835] CT
1 LJ
0.639 LW
N
67.721 181.089 M
68.632 181.189 L
81.947 182.208 L
95.263 182.841 L
108.579 183.366 L
121.895 183.922 L
135.211 184.684 L
148.526 186.172 L
159.343 190.22 L
S
GR
GS
[0.78257 0 0 0.78197 0 0.22835] CT
1 LJ
0.639 LW
N
286.627 190.22 M
281.684 187.392 L
268.368 184.885 L
255.053 183.925 L
241.737 183.323 L
228.421 182.816 L
215.105 182.273 L
201.789 181.52 L
196.63 181.089 L
S
GR
GS
[0.78257 0 0 0.78197 0 0.22835] CT
1 LJ
0.639 LW
N
47.968 171.958 M
55.316 178.44 L
67.721 181.089 L
S
GR
GS
[0.78257 0 0 0.78197 0 0.22835] CT
1 LJ
0.639 LW
N
196.63 181.089 M
188.474 180.006 L
175.158 173.068 L
174.498 171.958 L
S
GR
GS
[0.78257 0 0 0.78197 0 0.22835] CT
1 LJ
0.639 LW
N
45.571 162.827 M
47.968 171.958 L
S
GR
GS
[0.78257 0 0 0.78197 0 0.22835] CT
1 LJ
0.639 LW
N
174.498 171.958 M
172.021 162.827 L
S
GR
GS
[0.78257 0 0 0.78197 0 0.22835] CT
1 LJ
0.639 LW
N
44.758 153.696 M
45.571 162.827 L
S
GR
GS
[0.78257 0 0 0.78197 0 0.22835] CT
1 LJ
0.639 LW
N
172.021 162.827 M
171.202 153.696 L
S
GR
GS
[0.78257 0 0 0.78197 0 0.22835] CT
1 LJ
0.639 LW
N
44.462 144.565 M
44.758 153.696 L
S
GR
GS
[0.78257 0 0 0.78197 0 0.22835] CT
1 LJ
0.639 LW
N
171.202 153.696 M
170.906 144.565 L
S
GR
GS
[0.78257 0 0 0.78197 0 0.22835] CT
1 LJ
0.639 LW
N
44.462 135.435 M
44.462 144.565 L
S
GR
GS
[0.78257 0 0 0.78197 0 0.22835] CT
1 LJ
0.639 LW
N
170.906 144.565 M
170.906 135.435 L
S
GR
GS
[0.78257 0 0 0.78197 0 0.22835] CT
1 LJ
0.639 LW
N
44.758 126.304 M
44.462 135.435 L
S
GR
GS
[0.78257 0 0 0.78197 0 0.22835] CT
1 LJ
0.639 LW
N
170.906 135.435 M
171.202 126.304 L
S
GR
GS
[0.78257 0 0 0.78197 0 0.22835] CT
1 LJ
0.639 LW
N
45.571 117.173 M
44.758 126.304 L
S
GR
GS
[0.78257 0 0 0.78197 0 0.22835] CT
1 LJ
0.639 LW
N
171.202 126.304 M
172.021 117.173 L
S
GR
GS
[0.78257 0 0 0.78197 0 0.22835] CT
1 LJ
0.639 LW
N
47.968 108.042 M
45.571 117.173 L
S
GR
GS
[0.78257 0 0 0.78197 0 0.22835] CT
1 LJ
0.639 LW
N
172.021 117.173 M
174.498 108.042 L
S
GR
GS
[0.78257 0 0 0.78197 0 0.22835] CT
1 LJ
0.639 LW
N
67.721 98.911 M
55.316 101.56 L
47.968 108.042 L
S
GR
GS
[0.78257 0 0 0.78197 0 0.22835] CT
1 LJ
0.639 LW
N
174.498 108.042 M
175.158 106.932 L
188.474 99.994 L
196.63 98.911 L
S
GR
GS
[0.78257 0 0 0.78197 0 0.22835] CT
1 LJ
0.639 LW
N
159.343 89.78 M
148.526 93.828 L
135.211 95.316 L
121.895 96.078 L
108.579 96.634 L
95.263 97.159 L
81.947 97.792 L
68.632 98.811 L
67.721 98.911 L
S
GR
GS
[0.78257 0 0 0.78197 0 0.22835] CT
1 LJ
0.639 LW
N
196.63 98.911 M
201.789 98.48 L
215.105 97.727 L
228.421 97.184 L
241.737 96.677 L
255.053 96.075 L
268.368 95.115 L
281.684 92.608 L
286.627 89.78 L
S
GR
GS
[0.78257 0 0 0.78197 0 0.22835] CT
1 LJ
0.639 LW
N
164.284 80.65 M
161.842 86.837 L
159.343 89.78 L
S
GR
GS
[0.78257 0 0 0.78197 0 0.22835] CT
1 LJ
0.639 LW
N
286.627 89.78 M
291.015 80.65 L
S
GR
GS
[0.78257 0 0 0.78197 0 0.22835] CT
1 LJ
0.639 LW
N
165.561 71.519 M
164.284 80.65 L
S
GR
GS
[0.78257 0 0 0.78197 0 0.22835] CT
1 LJ
0.639 LW
N
291.015 80.65 M
292.196 71.519 L
S
GR
GS
[0.78257 0 0 0.78197 0 0.22835] CT
1 LJ
0.639 LW
N
166.043 62.388 M
165.561 71.519 L
S
GR
GS
[0.78257 0 0 0.78197 0 0.22835] CT
1 LJ
0.639 LW
N
292.196 71.519 M
292.647 62.388 L
S
GR
GS
[0.78257 0 0 0.78197 0 0.22835] CT
1 LJ
0.639 LW
N
166.175 53.257 M
166.043 62.388 L
S
GR
GS
[0.78257 0 0 0.78197 0 0.22835] CT
1 LJ
0.639 LW
N
292.647 62.388 M
292.771 53.257 L
S
GR
GS
[0.78257 0 0 0.78197 0 0.22835] CT
1 LJ
0.639 LW
N
182.125 217.612 M
181.361 226.743 L
S
GR
GS
[0.78257 0 0 0.78197 0 0.22835] CT
1 LJ
0.639 LW
N
277.72 226.743 M
276.689 217.612 L
S
GR
GS
[0.78257 0 0 0.78197 0 0.22835] CT
1 LJ
0.639 LW
N
184.934 208.481 M
182.125 217.612 L
S
GR
GS
[0.78257 0 0 0.78197 0 0.22835] CT
1 LJ
0.639 LW
N
276.689 217.612 M
272.956 208.481 L
S
GR
GS
[0.78257 0 0 0.78197 0 0.22835] CT
1 LJ
0.639 LW
N
193.497 199.35 M
188.474 203.359 L
184.934 208.481 L
S
GR
GS
[0.78257 0 0 0.78197 0 0.22835] CT
1 LJ
0.639 LW
N
272.956 208.481 M
268.368 203.361 L
262.101 199.35 L
S
GR
GS
[0.78257 0 0 0.78197 0 0.22835] CT
1 LJ
0.639 LW
N
262.101 199.35 M
255.053 196.692 L
241.737 194.22 L
228.421 193.355 L
215.105 193.75 L
201.789 195.911 L
193.497 199.35 L
S
GR
GS
[0.78257 0 0 0.78197 0 0.22835] CT
1 LJ
0.639 LW
N
94.853 171.958 M
95.263 172.021 L
108.579 172.858 L
121.895 172.497 L
126.02 171.958 L
S
GR
GS
[0.78257 0 0 0.78197 0 0.22835] CT
1 LJ
0.639 LW
N
68.692 162.827 M
81.947 169.289 L
94.853 171.958 L
S
GR
GS
[0.78257 0 0 0.78197 0 0.22835] CT
1 LJ
0.639 LW
N
126.02 171.958 M
135.211 170.228 L
148.526 162.949 L
148.642 162.827 L
S
GR
GS
[0.78257 0 0 0.78197 0 0.22835] CT
1 LJ
0.639 LW
N
62.381 153.696 M
68.632 162.772 L
68.692 162.827 L
S
GR
GS
[0.78257 0 0 0.78197 0 0.22835] CT
1 LJ
0.639 LW
N
148.642 162.827 M
153.449 153.696 L
S
GR
GS
[0.78257 0 0 0.78197 0 0.22835] CT
1 LJ
0.639 LW
N
60.065 144.565 M
62.381 153.696 L
S
GR
GS
[0.78257 0 0 0.78197 0 0.22835] CT
1 LJ
0.639 LW
N
153.449 153.696 M
155.17 144.565 L
S
GR
GS
[0.78257 0 0 0.78197 0 0.22835] CT
1 LJ
0.639 LW
N
60.065 135.435 M
60.065 144.565 L
S
GR
GS
[0.78257 0 0 0.78197 0 0.22835] CT
1 LJ
0.639 LW
N
155.17 144.565 M
155.17 135.435 L
S
GR
GS
[0.78257 0 0 0.78197 0 0.22835] CT
1 LJ
0.639 LW
N
62.381 126.304 M
60.065 135.435 L
S
GR
GS
[0.78257 0 0 0.78197 0 0.22835] CT
1 LJ
0.639 LW
N
155.17 135.435 M
153.449 126.304 L
S
GR
GS
[0.78257 0 0 0.78197 0 0.22835] CT
1 LJ
0.639 LW
N
68.692 117.173 M
68.632 117.228 L
62.381 126.304 L
S
GR
GS
[0.78257 0 0 0.78197 0 0.22835] CT
1 LJ
0.639 LW
N
153.449 126.304 M
148.642 117.173 L
S
GR
GS
[0.78257 0 0 0.78197 0 0.22835] CT
1 LJ
0.639 LW
N
94.853 108.042 M
81.947 110.711 L
68.692 117.173 L
S
GR
GS
[0.78257 0 0 0.78197 0 0.22835] CT
1 LJ
0.639 LW
N
148.642 117.173 M
148.526 117.051 L
135.211 109.772 L
126.02 108.042 L
S
GR
GS
[0.78257 0 0 0.78197 0 0.22835] CT
1 LJ
0.639 LW
N
126.02 108.042 M
121.895 107.503 L
108.579 107.142 L
95.263 107.979 L
94.853 108.042 L
S
GR
GS
[0.78257 0 0 0.78197 0 0.22835] CT
1 LJ
0.639 LW
N
193.497 80.65 M
201.789 84.089 L
215.105 86.25 L
228.421 86.645 L
241.737 85.78 L
255.053 83.308 L
262.101 80.65 L
S
GR
GS
[0.78257 0 0 0.78197 0 0.22835] CT
1 LJ
0.639 LW
N
184.934 71.519 M
188.474 76.641 L
193.497 80.65 L
S
GR
GS
[0.78257 0 0 0.78197 0 0.22835] CT
1 LJ
0.639 LW
N
262.101 80.65 M
268.368 76.639 L
272.956 71.519 L
S
GR
GS
[0.78257 0 0 0.78197 0 0.22835] CT
1 LJ
0.639 LW
N
182.125 62.388 M
184.934 71.519 L
S
GR
GS
[0.78257 0 0 0.78197 0 0.22835] CT
1 LJ
0.639 LW
N
272.956 71.519 M
276.689 62.388 L
S
GR
GS
[0.78257 0 0 0.78197 0 0.22835] CT
1 LJ
0.639 LW
N
181.361 53.257 M
182.125 62.388 L
S
GR
GS
[0.78257 0 0 0.78197 0 0.22835] CT
1 LJ
0.639 LW
N
276.689 62.388 M
277.72 53.257 L
S
GR
GS
[0.78257 0 0 0.78197 0 0.22835] CT
1 LJ
0.639 LW
N
201.299 217.612 M
199.218 226.743 L
S
GR
GS
[0.78257 0 0 0.78197 0 0.22835] CT
1 LJ
0.639 LW
N
259.746 226.743 M
257.342 217.612 L
S
GR
GS
[0.78257 0 0 0.78197 0 0.22835] CT
1 LJ
0.639 LW
N
212.751 208.481 M
201.789 216.918 L
201.299 217.612 L
S
GR
GS
[0.78257 0 0 0.78197 0 0.22835] CT
1 LJ
0.639 LW
N
257.342 217.612 M
255.053 214.886 L
245.073 208.481 L
S
GR
GS
[0.78257 0 0 0.78197 0 0.22835] CT
1 LJ
0.639 LW
N
245.073 208.481 M
241.737 207.285 L
228.421 205.817 L
215.105 207.539 L
212.751 208.481 L
S
GR
GS
[0.78257 0 0 0.78197 0 0.22835] CT
1 LJ
0.639 LW
N
85.526 153.696 M
95.263 158.218 L
108.579 160.007 L
121.895 157.964 L
130.029 153.696 L
S
GR
GS
[0.78257 0 0 0.78197 0 0.22835] CT
1 LJ
0.639 LW
N
78.872 144.565 M
81.947 150.056 L
85.526 153.696 L
S
GR
GS
[0.78257 0 0 0.78197 0 0.22835] CT
1 LJ
0.639 LW
N
130.029 153.696 M
135.211 147.294 L
136.499 144.565 L
S
GR
GS
[0.78257 0 0 0.78197 0 0.22835] CT
1 LJ
0.639 LW
N
78.872 135.435 M
78.872 144.565 L
S
GR
GS
[0.78257 0 0 0.78197 0 0.22835] CT
1 LJ
0.639 LW
N
136.499 144.565 M
136.499 135.435 L
S
GR
GS
[0.78257 0 0 0.78197 0 0.22835] CT
1 LJ
0.639 LW
N
85.526 126.304 M
81.947 129.944 L
78.872 135.435 L
S
GR
GS
[0.78257 0 0 0.78197 0 0.22835] CT
1 LJ
0.639 LW
N
136.499 135.435 M
135.211 132.706 L
130.029 126.304 L
S
GR
GS
[0.78257 0 0 0.78197 0 0.22835] CT
1 LJ
0.639 LW
N
130.029 126.304 M
121.895 122.036 L
108.579 119.993 L
95.263 121.782 L
85.526 126.304 L
S
GR
GS
[0.78257 0 0 0.78197 0 0.22835] CT
1 LJ
0.639 LW
N
212.751 71.519 M
215.105 72.461 L
228.421 74.183 L
241.737 72.715 L
245.073 71.519 L
S
GR
GS
[0.78257 0 0 0.78197 0 0.22835] CT
1 LJ
0.639 LW
N
201.299 62.388 M
201.789 63.082 L
212.751 71.519 L
S
GR
GS
[0.78257 0 0 0.78197 0 0.22835] CT
1 LJ
0.639 LW
N
245.073 71.519 M
255.053 65.114 L
257.342 62.388 L
S
GR
GS
[0.78257 0 0 0.78197 0 0.22835] CT
1 LJ
0.639 LW
N
199.218 53.257 M
201.299 62.388 L
S
GR
GS
[0.78257 0 0 0.78197 0 0.22835] CT
1 LJ
0.639 LW
N
257.342 62.388 M
259.746 53.257 L
S
GR
GS
[0.78257 0 0 0.78197 0 0.22835] CT
1 0 0 RC
1 LJ
0.639 LW
N
51.584 197.187 M
50.22 195.495 L
52.22 196.347 L
S
GR
GS
[0.78257 0 0 0.78197 0 0.22835] CT
1 0 0 RC
1 LJ
0.639 LW
N
50.943 188.514 M
47.542 191.214 L
49.272 187.231 L
S
GR
GS
[0.78257 0 0 0.78197 0 0.22835] CT
1 0 0 RC
1 LJ
0.639 LW
N
50.049 176.967 M
45.012 182.663 L
46.776 175.267 L
S
GR
GS
[0.78257 0 0 0.78197 0 0.22835] CT
1 0 0 RC
1 LJ
0.639 LW
N
49.279 159.715 M
43.697 165.747 L
45.784 157.798 L
S
GR
GS
[0.78257 0 0 0.78197 0 0.22835] CT
1 0 0 RC
1 LJ
0.639 LW
N
48.957 136.333 M
44.152 139.898 L
46.714 134.491 L
S
GR
GS
[0.78257 0 0 0.78197 0 0.22835] CT
1 0 0 RC
1 LJ
0.639 LW
N
49.22 108.979 M
46.184 108.317 L
49.175 107.473 L
S
GR
GS
[0.78257 0 0 0.78197 0 0.22835] CT
1 0 0 RC
1 LJ
0.639 LW
N
49.957 81.489 M
48.938 76.619 L
52.128 80.436 L
S
GR
GS
[0.78257 0 0 0.78197 0 0.22835] CT
1 0 0 RC
1 LJ
0.639 LW
N
82.526 194.616 M
83.655 192.495 L
83.657 194.898 L
S
GR
GS
[0.78257 0 0 0.78197 0 0.22835] CT
1 0 0 RC
1 LJ
0.639 LW
N
79.005 185.908 M
76.749 187.642 L
77.924 185.051 L
S
GR
GS
[0.78257 0 0 0.78197 0 0.22835] CT
1 0 0 RC
1 LJ
0.639 LW
N
75.513 175.318 M
70.226 180.026 L
72.675 173.383 L
S
GR
GS
[0.78257 0 0 0.78197 0 0.22835] CT
1 0 0 RC
1 LJ
0.639 LW
N
73.521 159.608 M
66.836 165.157 L
70.124 157.115 L
S
GR
GS
[0.78257 0 0 0.78197 0 0.22835] CT
1 0 0 RC
1 LJ
0.639 LW
N
73.87 137.705 M
68.008 141.604 L
71.346 135.405 L
S
GR
GS
[0.78257 0 0 0.78197 0 0.22835] CT
1 0 0 RC
1 LJ
0.639 LW
N
76.413 111.142 M
73.249 111.598 L
75.826 109.707 L
S
GR
GS
[0.78257 0 0 0.78197 0 0.22835] CT
1 0 0 RC
1 LJ
0.639 LW
N
80.076 83.422 M
80.348 80.093 L
81.675 83.158 L
S
GR
GS
[0.78257 0 0 0.78197 0 0.22835] CT
1 0 0 RC
1 LJ
0.639 LW
N
112.842 190.942 M
116.369 187.76 L
114.754 192.227 L
S
GR
GS
[0.78257 0 0 0.78197 0 0.22835] CT
1 0 0 RC
1 LJ
0.639 LW
N
108.366 181.738 M
108.149 182.006 L
108.215 181.667 L
S
GR
GS
[0.78257 0 0 0.78197 0 0.22835] CT
1 0 0 RC
1 LJ
0.639 LW
N
104.163 172.239 M
100.383 175.865 L
102.012 170.886 L
S
GR
GS
[0.78257 0 0 0.78197 0 0.22835] CT
1 0 0 RC
1 LJ
0.639 LW
N
102.006 158.747 M
96.347 164.226 L
98.762 156.729 L
S
GR
GS
[0.78257 0 0 0.78197 0 0.22835] CT
1 0 0 RC
1 LJ
0.639 LW
N
102.803 139.252 M
97.743 144.296 L
99.835 137.464 L
S
GR
GS
[0.78257 0 0 0.78197 0 0.22835] CT
1 0 0 RC
1 LJ
0.639 LW
N
106.22 114.274 M
103.982 116.778 L
104.778 113.516 L
S
GR
GS
[0.78257 0 0 0.78197 0 0.22835] CT
1 0 0 RC
1 LJ
0.639 LW
N
110.814 86.646 M
112.433 85.576 L
111.508 87.282 L
S
GR
GS
[0.78257 0 0 0.78197 0 0.22835] CT
1 0 0 RC
1 LJ
0.639 LW
N
140.979 187.714 M
145.798 183.286 L
143.629 189.461 L
S
GR
GS
[0.78257 0 0 0.78197 0 0.22835] CT
1 0 0 RC
1 LJ
0.639 LW
N
137.875 177.762 M
139.73 176.681 L
138.602 178.508 L
S
GR
GS
[0.78257 0 0 0.78197 0 0.22835] CT
1 0 0 RC
1 LJ
0.639 LW
N
135.149 169.029 M
133.997 171.934 L
133.646 168.828 L
S
GR
GS
[0.78257 0 0 0.78197 0 0.22835] CT
1 0 0 RC
1 LJ
0.639 LW
N
133.95 157.495 M
131.017 163.347 L
130.852 156.803 L
S
GR
GS
[0.78257 0 0 0.78197 0 0.22835] CT
1 0 0 RC
1 LJ
0.639 LW
N
134.786 140.323 M
132.048 146.839 L
131.397 139.801 L
S
GR
GS
[0.78257 0 0 0.78197 0 0.22835] CT
1 0 0 RC
1 LJ
0.639 LW
N
137.302 117.055 M
136.653 121.671 L
135.053 117.293 L
S
GR
GS
[0.78257 0 0 0.78197 0 0.22835] CT
1 0 0 RC
1 LJ
0.639 LW
N
140.438 89.8 M
142.892 90.756 L
140.277 91.068 L
S
GR
GS
[0.78257 0 0 0.78197 0 0.22835] CT
1 0 0 RC
1 LJ
0.639 LW
N
166.302 186.294 M
170.762 180.962 L
169.336 187.766 L
S
GR
GS
[0.78257 0 0 0.78197 0 0.22835] CT
1 0 0 RC
1 LJ
0.639 LW
N
166.317 175.657 M
169.405 173.913 L
167.501 176.905 L
S
GR
GS
[0.78257 0 0 0.78197 0 0.22835] CT
1 0 0 RC
1 LJ
0.639 LW
N
166.632 167.042 M
168.122 169.891 L
165.467 168.078 L
S
GR
GS
[0.78257 0 0 0.78197 0 0.22835] CT
1 0 0 RC
1 LJ
0.639 LW
N
167.115 156.379 M
167.456 162.889 L
164.091 157.306 L
S
GR
GS
[0.78257 0 0 0.78197 0 0.22835] CT
1 0 0 RC
1 LJ
0.639 LW
N
167.561 140.466 M
167.686 148.161 L
163.954 141.43 L
S
GR
GS
[0.78257 0 0 0.78197 0 0.22835] CT
1 0 0 RC
1 LJ
0.639 LW
N
167.782 118.31 M
168.716 124.214 L
165.114 119.445 L
S
GR
GS
[0.78257 0 0 0.78197 0 0.22835] CT
1 0 0 RC
1 LJ
0.639 LW
N
167.686 91.555 M
170.112 93.448 L
167.08 92.92 L
S
GR
GS
[0.78257 0 0 0.78197 0 0.22835] CT
1 0 0 RC
1 LJ
0.639 LW
N
189.362 187.281 M
191.965 181.766 L
192.263 187.857 L
S
GR
GS
[0.78257 0 0 0.78197 0 0.22835] CT
1 0 0 RC
1 LJ
0.639 LW
N
192.93 176.31 M
195.89 174.87 L
193.956 177.534 L
S
GR
GS
[0.78257 0 0 0.78197 0 0.22835] CT
1 0 0 RC
1 LJ
0.639 LW
N
196.569 167.115 M
199.599 170.597 L
195.287 168.951 L
S
GR
GS
[0.78257 0 0 0.78197 0 0.22835] CT
1 0 0 RC
1 LJ
0.639 LW
N
198.744 155.872 M
201.527 163.048 L
195.694 158.025 L
S
GR
GS
[0.78257 0 0 0.78197 0 0.22835] CT
1 0 0 RC
1 LJ
0.639 LW
N
198.538 139.62 M
200.86 147.703 L
195.007 141.663 L
S
GR
GS
[0.78257 0 0 0.78197 0 0.22835] CT
1 0 0 RC
1 LJ
0.639 LW
N
196.038 117.512 M
197.881 123.335 L
193.515 119.064 L
S
GR
GS
[0.78257 0 0 0.78197 0 0.22835] CT
1 0 0 RC
1 LJ
0.639 LW
N
192.298 91.171 M
193.845 92.517 L
191.846 92.057 L
S
GR
GS
[0.78257 0 0 0.78197 0 0.22835] CT
1 0 0 RC
1 LJ
0.639 LW
N
211.666 190.258 M
211.695 185.359 L
213.975 189.695 L
S
GR
GS
[0.78257 0 0 0.78197 0 0.22835] CT
1 0 0 RC
1 LJ
0.639 LW
N
217.721 179.447 M
219.248 179.148 L
218.041 180.13 L
S
GR
GS
[0.78257 0 0 0.78197 0 0.22835] CT
1 0 0 RC
1 LJ
0.639 LW
N
223.564 169.219 M
226.384 173.755 L
221.761 171.08 L
S
GR
GS
[0.78257 0 0 0.78197 0 0.22835] CT
1 0 0 RC
1 LJ
0.639 LW
N
226.73 156.185 M
230.093 163.754 L
223.564 158.658 L
S
GR
GS
[0.78257 0 0 0.78197 0 0.22835] CT
1 0 0 RC
1 LJ
0.639 LW
N
225.885 138.142 M
228.81 145.66 L
222.691 140.403 L
S
GR
GS
[0.78257 0 0 0.78197 0 0.22835] CT
1 0 0 RC
1 LJ
0.639 LW
N
221.384 114.997 M
223.078 119.404 L
219.509 116.312 L
S
GR
GS
[0.78257 0 0 0.78197 0 0.22835] CT
1 0 0 RC
1 LJ
0.639 LW
N
215.126 88.809 M
215.312 88.356 L
215.361 88.843 L
S
GR
GS
[0.78257 0 0 0.78197 0 0.22835] CT
1 0 0 RC
1 LJ
0.639 LW
N
235.039 193.97 M
232.863 190.227 L
236.544 192.506 L
S
GR
GS
[0.78257 0 0 0.78197 0 0.22835] CT
1 0 0 RC
1 LJ
0.639 LW
N
241.467 183.743 M
240.859 184.943 L
240.831 183.599 L
S
GR
GS
[0.78257 0 0 0.78197 0 0.22835] CT
1 0 0 RC
1 LJ
0.639 LW
N
247.464 172.465 M
248.413 178.033 L
244.955 173.566 L
S
GR
GS
[0.78257 0 0 0.78197 0 0.22835] CT
1 0 0 RC
1 LJ
0.639 LW
N
250.502 157.188 M
252.339 164.711 L
247.178 158.938 L
S
GR
GS
[0.78257 0 0 0.78197 0 0.22835] CT
1 0 0 RC
1 LJ
0.639 LW
N
249.299 136.656 M
250.981 142.893 L
246.562 138.181 L
S
GR
GS
[0.78257 0 0 0.78197 0 0.22835] CT
1 0 0 RC
1 LJ
0.639 LW
N
244.363 111.825 M
244.913 114.079 L
243.367 112.349 L
S
GR
GS
[0.78257 0 0 0.78197 0 0.22835] CT
1 0 0 RC
1 LJ
0.639 LW
N
237.774 85.465 M
236.692 82.719 L
238.94 84.633 L
S
GR
GS
[0.78257 0 0 0.78197 0 0.22835] CT
1 0 0 RC
1 LJ
0.639 LW
N
260.855 196.852 M
257.774 194.316 L
261.685 195.103 L
S
GR
GS
[0.78257 0 0 0.78197 0 0.22835] CT
1 0 0 RC
1 LJ
0.639 LW
N
265.384 187.389 M
262.84 189.811 L
263.945 186.476 L
S
GR
GS
[0.78257 0 0 0.78197 0 0.22835] CT
1 0 0 RC
1 LJ
0.639 LW
N
269.422 175.484 M
267.626 181.627 L
266.32 175.362 L
S
GR
GS
[0.78257 0 0 0.78197 0 0.22835] CT
1 0 0 RC
1 LJ
0.639 LW
N
271.266 158.458 M
270.114 165.515 L
267.809 158.746 L
S
GR
GS
[0.78257 0 0 0.78197 0 0.22835] CT
1 0 0 RC
1 LJ
0.639 LW
N
270.138 135.788 M
269.253 140.568 L
267.784 135.934 L
S
GR
GS
[0.78257 0 0 0.78197 0 0.22835] CT
1 0 0 RC
1 LJ
0.639 LW
N
266.514 109.334 M
265.408 109.606 L
266.256 108.845 L
S
GR
GS
[0.78257 0 0 0.78197 0 0.22835] CT
1 0 0 RC
1 LJ
0.639 LW
N
261.922 82.551 M
260.2 77.984 L
263.869 81.203 L
S
GR
GS
[0.78257 0 0 0.78197 0 0.22835] CT
1 0 0 RC
1 LJ
0.639 LW
N
55.316 199.35 M
50.22 195.495 L
S
GR
GS
[0.78257 0 0 0.78197 0 0.22835] CT
1 0 0 RC
1 LJ
0.639 LW
N
55.316 181.089 M
47.542 191.214 L
S
GR
GS
[0.78257 0 0 0.78197 0 0.22835] CT
1 0 0 RC
1 LJ
0.639 LW
N
55.316 162.827 M
45.012 182.663 L
S
GR
GS
[0.78257 0 0 0.78197 0 0.22835] CT
1 0 0 RC
1 LJ
0.639 LW
N
55.316 144.565 M
43.697 165.747 L
S
GR
GS
[0.78257 0 0 0.78197 0 0.22835] CT
1 0 0 RC
1 LJ
0.639 LW
N
55.316 126.304 M
44.152 139.898 L
S
GR
GS
[0.78257 0 0 0.78197 0 0.22835] CT
1 0 0 RC
1 LJ
0.639 LW
N
55.316 108.042 M
46.184 108.317 L
S
GR
GS
[0.78257 0 0 0.78197 0 0.22835] CT
1 0 0 RC
1 LJ
0.639 LW
N
55.316 89.78 M
48.938 76.619 L
S
GR
GS
[0.78257 0 0 0.78197 0 0.22835] CT
1 0 0 RC
1 LJ
0.639 LW
N
81.947 199.35 M
83.655 192.495 L
S
GR
GS
[0.78257 0 0 0.78197 0 0.22835] CT
1 0 0 RC
1 LJ
0.639 LW
N
81.947 181.089 M
76.749 187.642 L
S
GR
GS
[0.78257 0 0 0.78197 0 0.22835] CT
1 0 0 RC
1 LJ
0.639 LW
N
81.947 162.827 M
70.226 180.026 L
S
GR
GS
[0.78257 0 0 0.78197 0 0.22835] CT
1 0 0 RC
1 LJ
0.639 LW
N
81.947 144.565 M
66.836 165.157 L
S
GR
GS
[0.78257 0 0 0.78197 0 0.22835] CT
1 0 0 RC
1 LJ
0.639 LW
N
81.947 126.304 M
68.008 141.604 L
S
GR
GS
[0.78257 0 0 0.78197 0 0.22835] CT
1 0 0 RC
1 LJ
0.639 LW
N
81.947 108.042 M
73.249 111.598 L
S
GR
GS
[0.78257 0 0 0.78197 0 0.22835] CT
1 0 0 RC
1 LJ
0.639 LW
N
81.947 89.78 M
80.348 80.093 L
S
GR
GS
[0.78257 0 0 0.78197 0 0.22835] CT
1 0 0 RC
1 LJ
0.639 LW
N
108.579 199.35 M
116.369 187.76 L
S
GR
GS
[0.78257 0 0 0.78197 0 0.22835] CT
1 0 0 RC
1 LJ
0.639 LW
N
108.579 181.089 M
108.149 182.006 L
S
GR
GS
[0.78257 0 0 0.78197 0 0.22835] CT
1 0 0 RC
1 LJ
0.639 LW
N
108.579 162.827 M
100.383 175.865 L
S
GR
GS
[0.78257 0 0 0.78197 0 0.22835] CT
1 0 0 RC
1 LJ
0.639 LW
N
108.579 144.565 M
96.347 164.226 L
S
GR
GS
[0.78257 0 0 0.78197 0 0.22835] CT
1 0 0 RC
1 LJ
0.639 LW
N
108.579 126.304 M
97.743 144.296 L
S
GR
GS
[0.78257 0 0 0.78197 0 0.22835] CT
1 0 0 RC
1 LJ
0.639 LW
N
108.579 108.042 M
103.982 116.778 L
S
GR
GS
[0.78257 0 0 0.78197 0 0.22835] CT
1 0 0 RC
1 LJ
0.639 LW
N
108.579 89.78 M
112.433 85.576 L
S
GR
GS
[0.78257 0 0 0.78197 0 0.22835] CT
1 0 0 RC
1 LJ
0.639 LW
N
135.211 199.35 M
145.798 183.286 L
S
GR
GS
[0.78257 0 0 0.78197 0 0.22835] CT
1 0 0 RC
1 LJ
0.639 LW
N
135.211 181.089 M
139.73 176.681 L
S
GR
GS
[0.78257 0 0 0.78197 0 0.22835] CT
1 0 0 RC
1 LJ
0.639 LW
N
135.211 162.827 M
133.997 171.934 L
S
GR
GS
[0.78257 0 0 0.78197 0 0.22835] CT
1 0 0 RC
1 LJ
0.639 LW
N
135.211 144.565 M
131.017 163.347 L
S
GR
GS
[0.78257 0 0 0.78197 0 0.22835] CT
1 0 0 RC
1 LJ
0.639 LW
N
135.211 126.304 M
132.048 146.839 L
S
GR
GS
[0.78257 0 0 0.78197 0 0.22835] CT
1 0 0 RC
1 LJ
0.639 LW
N
135.211 108.042 M
136.653 121.671 L
S
GR
GS
[0.78257 0 0 0.78197 0 0.22835] CT
1 0 0 RC
1 LJ
0.639 LW
N
135.211 89.78 M
142.892 90.756 L
S
GR
GS
[0.78257 0 0 0.78197 0 0.22835] CT
1 0 0 RC
1 LJ
0.639 LW
N
161.842 199.35 M
170.762 180.962 L
S
GR
GS
[0.78257 0 0 0.78197 0 0.22835] CT
1 0 0 RC
1 LJ
0.639 LW
N
161.842 181.089 M
169.405 173.913 L
S
GR
GS
[0.78257 0 0 0.78197 0 0.22835] CT
1 0 0 RC
1 LJ
0.639 LW
N
161.842 162.827 M
168.122 169.891 L
S
GR
GS
[0.78257 0 0 0.78197 0 0.22835] CT
1 0 0 RC
1 LJ
0.639 LW
N
161.842 144.565 M
167.456 162.889 L
S
GR
GS
[0.78257 0 0 0.78197 0 0.22835] CT
1 0 0 RC
1 LJ
0.639 LW
N
161.842 126.304 M
167.686 148.161 L
S
GR
GS
[0.78257 0 0 0.78197 0 0.22835] CT
1 0 0 RC
1 LJ
0.639 LW
N
161.842 108.042 M
168.716 124.214 L
S
GR
GS
[0.78257 0 0 0.78197 0 0.22835] CT
1 0 0 RC
1 LJ
0.639 LW
N
161.842 89.78 M
170.112 93.448 L
S
GR
GS
[0.78257 0 0 0.78197 0 0.22835] CT
1 0 0 RC
1 LJ
0.639 LW
N
188.474 199.35 M
191.965 181.766 L
S
GR
GS
[0.78257 0 0 0.78197 0 0.22835] CT
1 0 0 RC
1 LJ
0.639 LW
N
188.474 181.089 M
195.89 174.87 L
S
GR
GS
[0.78257 0 0 0.78197 0 0.22835] CT
1 0 0 RC
1 LJ
0.639 LW
N
188.474 162.827 M
199.599 170.597 L
S
GR
GS
[0.78257 0 0 0.78197 0 0.22835] CT
1 0 0 RC
1 LJ
0.639 LW
N
188.474 144.565 M
201.527 163.048 L
S
GR
GS
[0.78257 0 0 0.78197 0 0.22835] CT
1 0 0 RC
1 LJ
0.639 LW
N
188.474 126.304 M
200.86 147.703 L
S
GR
GS
[0.78257 0 0 0.78197 0 0.22835] CT
1 0 0 RC
1 LJ
0.639 LW
N
188.474 108.042 M
197.881 123.335 L
S
GR
GS
[0.78257 0 0 0.78197 0 0.22835] CT
1 0 0 RC
1 LJ
0.639 LW
N
188.474 89.78 M
193.845 92.517 L
S
GR
GS
[0.78257 0 0 0.78197 0 0.22835] CT
1 0 0 RC
1 LJ
0.639 LW
N
215.105 199.35 M
211.695 185.359 L
S
GR
GS
[0.78257 0 0 0.78197 0 0.22835] CT
1 0 0 RC
1 LJ
0.639 LW
N
215.105 181.089 M
219.248 179.148 L
S
GR
GS
[0.78257 0 0 0.78197 0 0.22835] CT
1 0 0 RC
1 LJ
0.639 LW
N
215.105 162.827 M
226.384 173.755 L
S
GR
GS
[0.78257 0 0 0.78197 0 0.22835] CT
1 0 0 RC
1 LJ
0.639 LW
N
215.105 144.565 M
230.093 163.754 L
S
GR
GS
[0.78257 0 0 0.78197 0 0.22835] CT
1 0 0 RC
1 LJ
0.639 LW
N
215.105 126.304 M
228.81 145.66 L
S
GR
GS
[0.78257 0 0 0.78197 0 0.22835] CT
1 0 0 RC
1 LJ
0.639 LW
N
215.105 108.042 M
223.078 119.404 L
S
GR
GS
[0.78257 0 0 0.78197 0 0.22835] CT
1 0 0 RC
1 LJ
0.639 LW
N
215.105 89.78 M
215.312 88.356 L
S
GR
GS
[0.78257 0 0 0.78197 0 0.22835] CT
1 0 0 RC
1 LJ
0.639 LW
N
241.737 199.35 M
232.863 190.227 L
S
GR
GS
[0.78257 0 0 0.78197 0 0.22835] CT
1 0 0 RC
1 LJ
0.639 LW
N
241.737 181.089 M
240.859 184.943 L
S
GR
GS
[0.78257 0 0 0.78197 0 0.22835] CT
1 0 0 RC
1 LJ
0.639 LW
N
241.737 162.827 M
248.413 178.033 L
S
GR
GS
[0.78257 0 0 0.78197 0 0.22835] CT
1 0 0 RC
1 LJ
0.639 LW
N
241.737 144.565 M
252.339 164.711 L
S
GR
GS
[0.78257 0 0 0.78197 0 0.22835] CT
1 0 0 RC
1 LJ
0.639 LW
N
241.737 126.304 M
250.981 142.893 L
S
GR
GS
[0.78257 0 0 0.78197 0 0.22835] CT
1 0 0 RC
1 LJ
0.639 LW
N
241.737 108.042 M
244.913 114.079 L
S
GR
GS
[0.78257 0 0 0.78197 0 0.22835] CT
1 0 0 RC
1 LJ
0.639 LW
N
241.737 89.78 M
236.692 82.719 L
S
GR
GS
[0.78257 0 0 0.78197 0 0.22835] CT
1 0 0 RC
1 LJ
0.639 LW
N
268.368 199.35 M
257.774 194.316 L
S
GR
GS
[0.78257 0 0 0.78197 0 0.22835] CT
1 0 0 RC
1 LJ
0.639 LW
N
268.368 181.089 M
262.84 189.811 L
S
GR
GS
[0.78257 0 0 0.78197 0 0.22835] CT
1 0 0 RC
1 LJ
0.639 LW
N
268.368 162.827 M
267.626 181.627 L
S
GR
GS
[0.78257 0 0 0.78197 0 0.22835] CT
1 0 0 RC
1 LJ
0.639 LW
N
268.368 144.565 M
270.114 165.515 L
S
GR
GS
[0.78257 0 0 0.78197 0 0.22835] CT
1 0 0 RC
1 LJ
0.639 LW
N
268.368 126.304 M
269.253 140.568 L
S
GR
GS
[0.78257 0 0 0.78197 0 0.22835] CT
1 0 0 RC
1 LJ
0.639 LW
N
268.368 108.042 M
265.408 109.606 L
S
GR
GS
[0.78257 0 0 0.78197 0 0.22835] CT
1 0 0 RC
1 LJ
0.639 LW
N
268.368 89.78 M
260.2 77.984 L
S
GR
GS
[0.78257 0 0 0.78197 0 0.22835] CT
0.149 GC
2 setlinecap
1 LJ
0.639 LW
N
42 226.743 M
295 226.743 L
S
GR
GS
[0.78257 0 0 0.78197 0 0.22835] CT
0.149 GC
2 setlinecap
1 LJ
0.639 LW
N
42 53.257 M
295 53.257 L
S
GR
GS
[0.78257 0 0 0.78197 0 0.22835] CT
0.149 GC
2 setlinecap
1 LJ
0.639 LW
N
42 226.743 M
42 224.213 L
S
GR
GS
[0.78257 0 0 0.78197 0 0.22835] CT
0.149 GC
2 setlinecap
1 LJ
0.639 LW
N
88.019 226.743 M
88.019 224.213 L
S
GR
GS
[0.78257 0 0 0.78197 0 0.22835] CT
0.149 GC
2 setlinecap
1 LJ
0.639 LW
N
134.037 226.743 M
134.037 224.213 L
S
GR
GS
[0.78257 0 0 0.78197 0 0.22835] CT
0.149 GC
2 setlinecap
1 LJ
0.639 LW
N
180.056 226.743 M
180.056 224.213 L
S
GR
GS
[0.78257 0 0 0.78197 0 0.22835] CT
0.149 GC
2 setlinecap
1 LJ
0.639 LW
N
226.074 226.743 M
226.074 224.213 L
S
GR
GS
[0.78257 0 0 0.78197 0 0.22835] CT
0.149 GC
2 setlinecap
1 LJ
0.639 LW
N
272.093 226.743 M
272.093 224.213 L
S
GR
GS
[0.78257 0 0 0.78197 0 0.22835] CT
0.149 GC
2 setlinecap
1 LJ
0.639 LW
N
42 53.257 M
42 55.787 L
S
GR
GS
[0.78257 0 0 0.78197 0 0.22835] CT
0.149 GC
2 setlinecap
1 LJ
0.639 LW
N
88.019 53.257 M
88.019 55.787 L
S
GR
GS
[0.78257 0 0 0.78197 0 0.22835] CT
0.149 GC
2 setlinecap
1 LJ
0.639 LW
N
134.037 53.257 M
134.037 55.787 L
S
GR
GS
[0.78257 0 0 0.78197 0 0.22835] CT
0.149 GC
2 setlinecap
1 LJ
0.639 LW
N
180.056 53.257 M
180.056 55.787 L
S
GR
GS
[0.78257 0 0 0.78197 0 0.22835] CT
0.149 GC
2 setlinecap
1 LJ
0.639 LW
N
226.074 53.257 M
226.074 55.787 L
S
GR
GS
[0.78257 0 0 0.78197 0 0.22835] CT
0.149 GC
2 setlinecap
1 LJ
0.639 LW
N
272.093 53.257 M
272.093 55.787 L
S
GR
GS
[0.78257 0 0 0.78197 32.86798 180.93196] CT
0.149 GC
/Helvetica 12.139 F
GS
[1 0 0 1 0 0] CT
-4 12 moveto 
1 -1 scale
(0) t 
GR
GR
GS
[0.78257 0 0 0.78197 68.88073 180.93196] CT
0.149 GC
/Helvetica 12.139 F
GS
[1 0 0 1 0 0] CT
-4 12 moveto 
1 -1 scale
(1) t 
GR
GR
GS
[0.78257 0 0 0.78197 104.89348 180.93196] CT
0.149 GC
/Helvetica 12.139 F
GS
[1 0 0 1 0 0] CT
-4 12 moveto 
1 -1 scale
(2) t 
GR
GR
GS
[0.78257 0 0 0.78197 140.90622 180.93196] CT
0.149 GC
/Helvetica 12.139 F
GS
[1 0 0 1 0 0] CT
-4 12 moveto 
1 -1 scale
(3) t 
GR
GR
GS
[0.78257 0 0 0.78197 176.91898 180.93196] CT
0.149 GC
/Helvetica 12.139 F
GS
[1 0 0 1 0 0] CT
-4 12 moveto 
1 -1 scale
(4) t 
GR
GR
GS
[0.78257 0 0 0.78197 212.93171 180.93196] CT
0.149 GC
/Helvetica 12.139 F
GS
[1 0 0 1 0 0] CT
-4 12 moveto 
1 -1 scale
(5) t 
GR
GR
GS
[0.78257 0 0 0.78197 0 0.22835] CT
0.149 GC
2 setlinecap
1 LJ
0.639 LW
N
42 226.743 M
42 53.257 L
S
GR
GS
[0.78257 0 0 0.78197 0 0.22835] CT
0.149 GC
2 setlinecap
1 LJ
0.639 LW
N
295 226.743 M
295 53.257 L
S
GR
GS
[0.78257 0 0 0.78197 0 0.22835] CT
0.149 GC
2 setlinecap
1 LJ
0.639 LW
N
42 226.743 M
44.53 226.743 L
S
GR
GS
[0.78257 0 0 0.78197 0 0.22835] CT
0.149 GC
2 setlinecap
1 LJ
0.639 LW
N
42 180.724 M
44.53 180.724 L
S
GR
GS
[0.78257 0 0 0.78197 0 0.22835] CT
0.149 GC
2 setlinecap
1 LJ
0.639 LW
N
42 134.706 M
44.53 134.706 L
S
GR
GS
[0.78257 0 0 0.78197 0 0.22835] CT
0.149 GC
2 setlinecap
1 LJ
0.639 LW
N
42 88.687 M
44.53 88.687 L
S
GR
GS
[0.78257 0 0 0.78197 0 0.22835] CT
0.149 GC
2 setlinecap
1 LJ
0.639 LW
N
295 226.743 M
292.47 226.743 L
S
GR
GS
[0.78257 0 0 0.78197 0 0.22835] CT
0.149 GC
2 setlinecap
1 LJ
0.639 LW
N
295 180.724 M
292.47 180.724 L
S
GR
GS
[0.78257 0 0 0.78197 0 0.22835] CT
0.149 GC
2 setlinecap
1 LJ
0.639 LW
N
295 134.706 M
292.47 134.706 L
S
GR
GS
[0.78257 0 0 0.78197 0 0.22835] CT
0.149 GC
2 setlinecap
1 LJ
0.639 LW
N
295 88.687 M
292.47 88.687 L
S
GR
GS
[0.78257 0 0 0.78197 29.46814 177.53474] CT
0.149 GC
/Helvetica 12.139 F
GS
[1 0 0 1 0 0] CT
-8 4.5 moveto 
1 -1 scale
(0) t 
GR
GR
GS
[0.78257 0 0 0.78197 29.46814 141.54958] CT
0.149 GC
/Helvetica 12.139 F
GS
[1 0 0 1 0 0] CT
-8 4.5 moveto 
1 -1 scale
(1) t 
GR
GR
GS
[0.78257 0 0 0.78197 29.46814 105.56443] CT
0.149 GC
/Helvetica 12.139 F
GS
[1 0 0 1 0 0] CT
-8 4.5 moveto 
1 -1 scale
(2) t 
GR
GR
GS
[0.78257 0 0 0.78197 29.46814 69.57927] CT
0.149 GC
/Helvetica 12.139 F
GS
[1 0 0 1 0 0] CT
-8 4.5 moveto 
1 -1 scale
(3) t 
GR
GR
%%Trailer
%%Pages: 1
%%EOF
