%!PS-Adobe-3.0 EPSF-3.0
%%Creator: (MATLAB, The Mathworks, Inc. Version 9.10.0.1684407 \(R2021a\) Update 3. Operating System: Linux)
%%Title: /home/adoan/Code/PRoSA_PI-ESN_Git/pi-esn/Results/MFE_results/Figures/FIG1_3.eps
%%CreationDate: 2021-07-21T18:45:05
%%Pages: (atend)
%%BoundingBox:     0     0   255   227
%%LanguageLevel: 3
%%EndComments
%%BeginProlog
%%BeginResource: procset (Apache XML Graphics Std ProcSet) 1.2 0
%%Version: 1.2 0
%%Copyright: (Copyright 2001-2003,2010 The Apache Software Foundation. License terms: http://www.apache.org/licenses/LICENSE-2.0)
/bd{bind def}bind def
/ld{load def}bd
/GR/grestore ld
/GS/gsave ld
/RM/rmoveto ld
/C/curveto ld
/t/show ld
/L/lineto ld
/ML/setmiterlimit ld
/CT/concat ld
/f/fill ld
/N/newpath ld
/S/stroke ld
/CC/setcmykcolor ld
/A/ashow ld
/cp/closepath ld
/RC/setrgbcolor ld
/LJ/setlinejoin ld
/GC/setgray ld
/LW/setlinewidth ld
/M/moveto ld
/re {4 2 roll M
1 index 0 rlineto
0 exch rlineto
neg 0 rlineto
cp } bd
/_ctm matrix def
/_tm matrix def
/BT { _ctm currentmatrix pop matrix _tm copy pop 0 0 moveto } bd
/ET { _ctm setmatrix } bd
/iTm { _ctm setmatrix _tm concat } bd
/Tm { _tm astore pop iTm 0 0 moveto } bd
/ux 0.0 def
/uy 0.0 def
/F {
  /Tp exch def
  /Tf exch def
  Tf findfont Tp scalefont setfont
  /cf Tf def  /cs Tp def
} bd
/ULS {currentpoint /uy exch def /ux exch def} bd
/ULE {
  /Tcx currentpoint pop def
  gsave
  newpath
  cf findfont cs scalefont dup
  /FontMatrix get 0 get /Ts exch def /FontInfo get dup
  /UnderlinePosition get Ts mul /To exch def
  /UnderlineThickness get Ts mul /Tt exch def
  ux uy To add moveto  Tcx uy To add lineto
  Tt setlinewidth stroke
  grestore
} bd
/OLE {
  /Tcx currentpoint pop def
  gsave
  newpath
  cf findfont cs scalefont dup
  /FontMatrix get 0 get /Ts exch def /FontInfo get dup
  /UnderlinePosition get Ts mul /To exch def
  /UnderlineThickness get Ts mul /Tt exch def
  ux uy To add cs add moveto Tcx uy To add cs add lineto
  Tt setlinewidth stroke
  grestore
} bd
/SOE {
  /Tcx currentpoint pop def
  gsave
  newpath
  cf findfont cs scalefont dup
  /FontMatrix get 0 get /Ts exch def /FontInfo get dup
  /UnderlinePosition get Ts mul /To exch def
  /UnderlineThickness get Ts mul /Tt exch def
  ux uy To add cs 10 mul 26 idiv add moveto Tcx uy To add cs 10 mul 26 idiv add lineto
  Tt setlinewidth stroke
  grestore
} bd
/QT {
/Y22 exch store
/X22 exch store
/Y21 exch store
/X21 exch store
currentpoint
/Y21 load 2 mul add 3 div exch
/X21 load 2 mul add 3 div exch
/X21 load 2 mul /X22 load add 3 div
/Y21 load 2 mul /Y22 load add 3 div
/X22 load /Y22 load curveto
} bd
/SSPD {
dup length /d exch dict def
{
/v exch def
/k exch def
currentpagedevice k known {
/cpdv currentpagedevice k get def
v cpdv ne {
/upd false def
/nullv v type /nulltype eq def
/nullcpdv cpdv type /nulltype eq def
nullv nullcpdv or
{
/upd true def
} {
/sametype v type cpdv type eq def
sametype {
v type /arraytype eq {
/vlen v length def
/cpdvlen cpdv length def
vlen cpdvlen eq {
0 1 vlen 1 sub {
/i exch def
/obj v i get def
/cpdobj cpdv i get def
obj cpdobj ne {
/upd true def
exit
} if
} for
} {
/upd true def
} ifelse
} {
v type /dicttype eq {
v {
/dv exch def
/dk exch def
/cpddv cpdv dk get def
dv cpddv ne {
/upd true def
exit
} if
} forall
} {
/upd true def
} ifelse
} ifelse
} if
} ifelse
upd true eq {
d k v put
} if
} if
} if
} forall
d length 0 gt {
d setpagedevice
} if
} bd
/RE { % /NewFontName [NewEncodingArray] /FontName RE -
  findfont dup length dict begin
  {
    1 index /FID ne
    {def} {pop pop} ifelse
  } forall
  /Encoding exch def
  /FontName 1 index def
  currentdict definefont pop
  end
} bind def
%%EndResource
%%BeginResource: procset (Apache XML Graphics EPS ProcSet) 1.0 0
%%Version: 1.0 0
%%Copyright: (Copyright 2002-2003 The Apache Software Foundation. License terms: http://www.apache.org/licenses/LICENSE-2.0)
/BeginEPSF { %def
/b4_Inc_state save def         % Save state for cleanup
/dict_count countdictstack def % Count objects on dict stack
/op_count count 1 sub def      % Count objects on operand stack
userdict begin                 % Push userdict on dict stack
/showpage { } def              % Redefine showpage, { } = null proc
0 setgray 0 setlinecap         % Prepare graphics state
1 setlinewidth 0 setlinejoin
10 setmiterlimit [ ] 0 setdash newpath
/languagelevel where           % If level not equal to 1 then
{pop languagelevel             % set strokeadjust and
1 ne                           % overprint to their defaults.
{false setstrokeadjust false setoverprint
} if
} if
} bd
/EndEPSF { %def
count op_count sub {pop} repeat            % Clean up stacks
countdictstack dict_count sub {end} repeat
b4_Inc_state restore
} bd
%%EndResource
%FOPBeginFontDict
%%IncludeResource: font Courier-Oblique
%%IncludeResource: font Courier-BoldOblique
%%IncludeResource: font Courier-Bold
%%IncludeResource: font ZapfDingbats
%%IncludeResource: font Symbol
%%IncludeResource: font Helvetica
%%IncludeResource: font Helvetica-Oblique
%%IncludeResource: font Helvetica-Bold
%%IncludeResource: font Helvetica-BoldOblique
%%IncludeResource: font Times-Roman
%%IncludeResource: font Times-Italic
%%IncludeResource: font Times-Bold
%%IncludeResource: font Times-BoldItalic
%%IncludeResource: font Courier
%FOPEndFontDict
%%BeginResource: encoding WinAnsiEncoding
/WinAnsiEncoding [
/.notdef /.notdef /.notdef /.notdef /.notdef
/.notdef /.notdef /.notdef /.notdef /.notdef
/.notdef /.notdef /.notdef /.notdef /.notdef
/.notdef /.notdef /.notdef /.notdef /.notdef
/.notdef /.notdef /.notdef /.notdef /.notdef
/.notdef /.notdef /.notdef /.notdef /.notdef
/.notdef /.notdef /space /exclam /quotedbl
/numbersign /dollar /percent /ampersand /quotesingle
/parenleft /parenright /asterisk /plus /comma
/hyphen /period /slash /zero /one
/two /three /four /five /six
/seven /eight /nine /colon /semicolon
/less /equal /greater /question /at
/A /B /C /D /E
/F /G /H /I /J
/K /L /M /N /O
/P /Q /R /S /T
/U /V /W /X /Y
/Z /bracketleft /backslash /bracketright /asciicircum
/underscore /quoteleft /a /b /c
/d /e /f /g /h
/i /j /k /l /m
/n /o /p /q /r
/s /t /u /v /w
/x /y /z /braceleft /bar
/braceright /asciitilde /bullet /Euro /bullet
/quotesinglbase /florin /quotedblbase /ellipsis /dagger
/daggerdbl /circumflex /perthousand /Scaron /guilsinglleft
/OE /bullet /Zcaron /bullet /bullet
/quoteleft /quoteright /quotedblleft /quotedblright /bullet
/endash /emdash /asciitilde /trademark /scaron
/guilsinglright /oe /bullet /zcaron /Ydieresis
/space /exclamdown /cent /sterling /currency
/yen /brokenbar /section /dieresis /copyright
/ordfeminine /guillemotleft /logicalnot /sfthyphen /registered
/macron /degree /plusminus /twosuperior /threesuperior
/acute /mu /paragraph /middot /cedilla
/onesuperior /ordmasculine /guillemotright /onequarter /onehalf
/threequarters /questiondown /Agrave /Aacute /Acircumflex
/Atilde /Adieresis /Aring /AE /Ccedilla
/Egrave /Eacute /Ecircumflex /Edieresis /Igrave
/Iacute /Icircumflex /Idieresis /Eth /Ntilde
/Ograve /Oacute /Ocircumflex /Otilde /Odieresis
/multiply /Oslash /Ugrave /Uacute /Ucircumflex
/Udieresis /Yacute /Thorn /germandbls /agrave
/aacute /acircumflex /atilde /adieresis /aring
/ae /ccedilla /egrave /eacute /ecircumflex
/edieresis /igrave /iacute /icircumflex /idieresis
/eth /ntilde /ograve /oacute /ocircumflex
/otilde /odieresis /divide /oslash /ugrave
/uacute /ucircumflex /udieresis /yacute /thorn
/ydieresis
] def
%%EndResource
%FOPBeginFontReencode
/Courier-Oblique findfont
dup length dict begin
  {1 index /FID ne {def} {pop pop} ifelse} forall
  /Encoding WinAnsiEncoding def
  currentdict
end
/Courier-Oblique exch definefont pop
/Courier-BoldOblique findfont
dup length dict begin
  {1 index /FID ne {def} {pop pop} ifelse} forall
  /Encoding WinAnsiEncoding def
  currentdict
end
/Courier-BoldOblique exch definefont pop
/Courier-Bold findfont
dup length dict begin
  {1 index /FID ne {def} {pop pop} ifelse} forall
  /Encoding WinAnsiEncoding def
  currentdict
end
/Courier-Bold exch definefont pop
/Helvetica findfont
dup length dict begin
  {1 index /FID ne {def} {pop pop} ifelse} forall
  /Encoding WinAnsiEncoding def
  currentdict
end
/Helvetica exch definefont pop
/Helvetica-Oblique findfont
dup length dict begin
  {1 index /FID ne {def} {pop pop} ifelse} forall
  /Encoding WinAnsiEncoding def
  currentdict
end
/Helvetica-Oblique exch definefont pop
/Helvetica-Bold findfont
dup length dict begin
  {1 index /FID ne {def} {pop pop} ifelse} forall
  /Encoding WinAnsiEncoding def
  currentdict
end
/Helvetica-Bold exch definefont pop
/Helvetica-BoldOblique findfont
dup length dict begin
  {1 index /FID ne {def} {pop pop} ifelse} forall
  /Encoding WinAnsiEncoding def
  currentdict
end
/Helvetica-BoldOblique exch definefont pop
/Times-Roman findfont
dup length dict begin
  {1 index /FID ne {def} {pop pop} ifelse} forall
  /Encoding WinAnsiEncoding def
  currentdict
end
/Times-Roman exch definefont pop
/Times-Italic findfont
dup length dict begin
  {1 index /FID ne {def} {pop pop} ifelse} forall
  /Encoding WinAnsiEncoding def
  currentdict
end
/Times-Italic exch definefont pop
/Times-Bold findfont
dup length dict begin
  {1 index /FID ne {def} {pop pop} ifelse} forall
  /Encoding WinAnsiEncoding def
  currentdict
end
/Times-Bold exch definefont pop
/Times-BoldItalic findfont
dup length dict begin
  {1 index /FID ne {def} {pop pop} ifelse} forall
  /Encoding WinAnsiEncoding def
  currentdict
end
/Times-BoldItalic exch definefont pop
/Courier findfont
dup length dict begin
  {1 index /FID ne {def} {pop pop} ifelse} forall
  /Encoding WinAnsiEncoding def
  currentdict
end
/Courier exch definefont pop
%FOPEndFontReencode
%%EndProlog
%%Page: 1 1
%%PageBoundingBox: 0 0 255 227
%%BeginPageSetup
[1 0 0 -1 0 227] CT
%%EndPageSetup
GS
[0.78257 0 0 0.78197 0 0.22835] CT
1 GC
N
0 0 326 290 re
f
GR
GS
[0.78257 0 0 0.78197 0 0.22835] CT
1 GC
N
0 0 326 290 re
f
GR
GS
[0.78257 0 0 0.78197 0 0.22835] CT
1 GC
N
42 226.743 M
295 226.743 L
295 53.257 L
42 53.257 L
cp
f
GR
GS
[0.78257 0 0 0.78197 0 0.22835] CT
0.043 0.702 0.824 RC
N
236.718 217.612 M
232.745 226.743 L
241.737 226.743 L
255.053 226.743 L
268.368 226.743 L
281.684 226.743 L
283.311 226.743 L
282.302 217.612 L
281.684 215.916 L
274.269 208.481 L
268.368 206.458 L
255.053 207.628 L
252.609 208.481 L
241.737 213.546 L
cp
52.711 162.827 M
55.316 166.569 L
68.632 170.302 L
81.947 168.475 L
95.263 164.429 L
98.588 162.827 L
108.579 156.447 L
111.488 153.696 L
116.35 144.565 L
116.35 135.435 L
111.488 126.304 L
108.579 123.553 L
98.588 117.173 L
95.263 115.571 L
81.947 111.525 L
68.632 109.698 L
55.316 113.431 L
52.711 117.173 L
49.933 126.304 L
48.976 135.435 L
48.976 144.565 L
49.933 153.696 L
cp
252.609 71.519 M
255.053 72.372 L
268.368 73.542 L
274.269 71.519 L
281.684 64.084 L
282.302 62.388 L
283.311 53.257 L
281.684 53.257 L
268.368 53.257 L
255.053 53.257 L
241.737 53.257 L
232.745 53.257 L
236.718 62.388 L
241.737 66.454 L
cp
f
GR
GS
[0.78257 0 0 0.78197 0 0.22835] CT
0.004 0.718 0.792 RC
N
42 217.612 M
42 226.743 L
51.741 226.743 L
52.246 217.612 L
54.052 208.481 L
55.316 205.299 L
58.017 199.35 L
67.331 190.22 L
68.632 189.488 L
81.947 182.98 L
86.29 181.089 L
95.263 177.618 L
108.349 171.958 L
108.579 171.846 L
121.895 163.177 L
122.311 162.827 L
129.391 153.696 L
132.564 144.565 L
132.564 135.435 L
129.391 126.304 L
122.311 117.173 L
121.895 116.823 L
108.579 108.154 L
108.349 108.042 L
95.263 102.382 L
86.29 98.911 L
81.947 97.02 L
68.632 90.512 L
67.331 89.78 L
58.017 80.65 L
55.316 74.701 L
54.052 71.519 L
52.246 62.388 L
51.741 53.257 L
42 53.257 L
42 62.388 L
42 71.519 L
42 80.65 L
42 89.78 L
42 98.911 L
42 108.042 L
42 117.173 L
42 126.304 L
42 135.435 L
42 144.565 L
42 153.696 L
42 162.827 L
42 171.958 L
42 181.089 L
42 190.22 L
42 199.35 L
42 208.481 L
cp
213.367 217.612 M
211.375 226.743 L
215.105 226.743 L
228.421 226.743 L
232.745 226.743 L
236.718 217.612 L
241.737 213.546 L
252.609 208.481 L
255.053 207.628 L
268.368 206.458 L
274.269 208.481 L
281.684 215.916 L
282.302 217.612 L
283.311 226.743 L
295 226.743 L
295 217.612 L
295 208.481 L
295 199.35 L
295 190.22 L
295 181.089 L
295 171.958 L
295 162.827 L
295 153.696 L
295 144.565 L
295 135.435 L
295 126.304 L
295 117.173 L
295 108.042 L
295 98.911 L
295 89.78 L
295 80.65 L
295 71.519 L
295 62.388 L
295 53.257 L
283.311 53.257 L
282.302 62.388 L
281.684 64.084 L
274.269 71.519 L
268.368 73.542 L
255.053 72.372 L
252.609 71.519 L
241.737 66.454 L
236.718 62.388 L
232.745 53.257 L
228.421 53.257 L
215.105 53.257 L
211.375 53.257 L
213.367 62.388 L
215.105 64.991 L
220.641 71.519 L
228.421 76.972 L
235.226 80.65 L
241.737 83.556 L
255.053 88.908 L
257.428 89.78 L
268.368 94.815 L
275.131 98.911 L
281.684 106.63 L
282.597 108.042 L
286.03 117.173 L
287.544 126.304 L
288.155 135.435 L
288.155 144.565 L
287.544 153.696 L
286.03 162.827 L
282.597 171.958 L
281.684 173.37 L
275.131 181.089 L
268.368 185.185 L
257.428 190.22 L
255.053 191.092 L
241.737 196.444 L
235.226 199.35 L
228.421 203.028 L
220.641 208.481 L
215.105 215.009 L
cp
55.316 166.569 M
52.711 162.827 L
49.933 153.696 L
48.976 144.565 L
48.976 135.435 L
49.933 126.304 L
52.711 117.173 L
55.316 113.431 L
68.632 109.698 L
81.947 111.525 L
95.263 115.571 L
98.588 117.173 L
108.579 123.553 L
111.488 126.304 L
116.35 135.435 L
116.35 144.565 L
111.488 153.696 L
108.579 156.447 L
98.588 162.827 L
95.263 164.429 L
81.947 168.475 L
68.632 170.302 L
cp
f
GR
GS
[0.78257 0 0 0.78197 0 0.22835] CT
0.008 0.729 0.761 RC
N
52.246 217.612 M
51.741 226.743 L
55.316 226.743 L
66.289 226.743 L
67.393 217.612 L
68.632 214.364 L
71.189 208.481 L
79.071 199.35 L
81.947 197.25 L
93.824 190.22 L
95.263 189.544 L
108.579 183.621 L
114.233 181.089 L
121.895 177.25 L
130.567 171.958 L
135.211 167.874 L
139.781 162.827 L
144.374 153.696 L
146.323 144.565 L
146.323 135.435 L
144.374 126.304 L
139.781 117.173 L
135.211 112.126 L
130.567 108.042 L
121.895 102.75 L
114.233 98.911 L
108.579 96.379 L
95.263 90.456 L
93.824 89.78 L
81.947 82.75 L
79.071 80.65 L
71.189 71.519 L
68.632 65.636 L
67.393 62.388 L
66.289 53.257 L
55.316 53.257 L
51.741 53.257 L
52.246 62.388 L
54.052 71.519 L
55.316 74.701 L
58.017 80.65 L
67.331 89.78 L
68.632 90.512 L
81.947 97.02 L
86.29 98.911 L
95.263 102.382 L
108.349 108.042 L
108.579 108.154 L
121.895 116.823 L
122.311 117.173 L
129.391 126.304 L
132.564 135.435 L
132.564 144.565 L
129.391 153.696 L
122.311 162.827 L
121.895 163.177 L
108.579 171.846 L
108.349 171.958 L
95.263 177.618 L
86.29 181.089 L
81.947 182.98 L
68.632 189.488 L
67.331 190.22 L
58.017 199.35 L
55.316 205.299 L
54.052 208.481 L
cp
196.246 217.612 M
194.95 226.743 L
201.789 226.743 L
211.375 226.743 L
213.367 217.612 L
215.105 215.009 L
220.641 208.481 L
228.421 203.028 L
235.226 199.35 L
241.737 196.444 L
255.053 191.092 L
257.428 190.22 L
268.368 185.185 L
275.131 181.089 L
281.684 173.37 L
282.597 171.958 L
286.03 162.827 L
287.544 153.696 L
288.155 144.565 L
288.155 135.435 L
287.544 126.304 L
286.03 117.173 L
282.597 108.042 L
281.684 106.63 L
275.131 98.911 L
268.368 94.815 L
257.428 89.78 L
255.053 88.908 L
241.737 83.556 L
235.226 80.65 L
228.421 76.972 L
220.641 71.519 L
215.105 64.991 L
213.367 62.388 L
211.375 53.257 L
201.789 53.257 L
194.95 53.257 L
196.246 62.388 L
200.692 71.519 L
201.789 72.763 L
210.272 80.65 L
215.105 83.55 L
227.475 89.78 L
228.421 90.183 L
241.737 95.892 L
248.147 98.911 L
255.053 102.783 L
262.382 108.042 L
268.368 114.821 L
270.027 117.173 L
273.835 126.304 L
275.439 135.435 L
275.439 144.565 L
273.835 153.696 L
270.027 162.827 L
268.368 165.179 L
262.382 171.958 L
255.053 177.217 L
248.147 181.089 L
241.737 184.108 L
228.421 189.817 L
227.475 190.22 L
215.105 196.45 L
210.272 199.35 L
201.789 207.237 L
200.692 208.481 L
cp
f
GR
GS
[0.78257 0 0 0.78197 0 0.22835] CT
0.075 0.745 0.722 RC
N
67.393 217.612 M
66.289 226.743 L
68.632 226.743 L
81.037 226.743 L
81.947 221.655 L
82.809 217.612 L
88.898 208.481 L
95.263 203.095 L
101.067 199.35 L
108.579 195.562 L
121.095 190.22 L
121.895 189.878 L
135.211 184.364 L
141.915 181.089 L
148.526 175.956 L
152.482 171.958 L
157.026 162.827 L
159.029 153.696 L
159.836 144.565 L
159.836 135.435 L
159.029 126.304 L
157.026 117.173 L
152.482 108.042 L
148.526 104.044 L
141.915 98.911 L
135.211 95.636 L
121.895 90.122 L
121.095 89.78 L
108.579 84.438 L
101.067 80.65 L
95.263 76.905 L
88.898 71.519 L
82.809 62.388 L
81.947 58.345 L
81.037 53.257 L
68.632 53.257 L
66.289 53.257 L
67.393 62.388 L
68.632 65.636 L
71.189 71.519 L
79.071 80.65 L
81.947 82.75 L
93.824 89.78 L
95.263 90.456 L
108.579 96.379 L
114.233 98.911 L
121.895 102.75 L
130.567 108.042 L
135.211 112.126 L
139.781 117.173 L
144.374 126.304 L
146.323 135.435 L
146.323 144.565 L
144.374 153.696 L
139.781 162.827 L
135.211 167.874 L
130.567 171.958 L
121.895 177.25 L
114.233 181.089 L
108.579 183.621 L
95.263 189.544 L
93.824 190.22 L
81.947 197.25 L
79.071 199.35 L
71.189 208.481 L
68.632 214.364 L
cp
179.519 217.612 M
178.951 226.743 L
188.474 226.743 L
194.95 226.743 L
196.246 217.612 L
200.692 208.481 L
201.789 207.237 L
210.272 199.35 L
215.105 196.45 L
227.475 190.22 L
228.421 189.817 L
241.737 184.108 L
248.147 181.089 L
255.053 177.217 L
262.382 171.958 L
268.368 165.179 L
270.027 162.827 L
273.835 153.696 L
275.439 144.565 L
275.439 135.435 L
273.835 126.304 L
270.027 117.173 L
268.368 114.821 L
262.382 108.042 L
255.053 102.783 L
248.147 98.911 L
241.737 95.892 L
228.421 90.183 L
227.475 89.78 L
215.105 83.55 L
210.272 80.65 L
201.789 72.763 L
200.692 71.519 L
196.246 62.388 L
194.95 53.257 L
188.474 53.257 L
178.951 53.257 L
179.519 62.388 L
181.556 71.519 L
186.684 80.65 L
188.474 82.34 L
198.63 89.78 L
201.789 91.156 L
215.105 96.579 L
220.902 98.911 L
228.421 101.769 L
241.737 107.97 L
241.862 108.042 L
253.82 117.173 L
255.053 118.656 L
259.943 126.304 L
262.566 135.435 L
262.566 144.565 L
259.943 153.696 L
255.053 161.344 L
253.82 162.827 L
241.862 171.958 L
241.737 172.03 L
228.421 178.231 L
220.902 181.089 L
215.105 183.421 L
201.789 188.844 L
198.63 190.22 L
188.474 197.661 L
186.684 199.35 L
181.556 208.481 L
cp
f
GR
GS
[0.78257 0 0 0.78197 0 0.22835] CT
0.133 0.757 0.686 RC
N
81.947 221.655 M
81.037 226.743 L
81.947 226.743 L
95.263 226.743 L
99.212 226.743 L
102.254 217.612 L
108.579 211.175 L
112.865 208.481 L
121.895 204.486 L
135.211 201.169 L
148.526 201.494 L
156.523 208.481 L
159.604 217.612 L
160.34 226.743 L
161.842 226.743 L
175.158 226.743 L
178.951 226.743 L
179.519 217.612 L
181.556 208.481 L
186.684 199.35 L
188.474 197.661 L
198.63 190.22 L
201.789 188.844 L
215.105 183.421 L
220.902 181.089 L
228.421 178.231 L
241.737 172.03 L
241.862 171.958 L
253.82 162.827 L
255.053 161.344 L
259.943 153.696 L
262.566 144.565 L
262.566 135.435 L
259.943 126.304 L
255.053 118.656 L
253.82 117.173 L
241.862 108.042 L
241.737 107.97 L
228.421 101.769 L
220.902 98.911 L
215.105 96.579 L
201.789 91.156 L
198.63 89.78 L
188.474 82.34 L
186.684 80.65 L
181.556 71.519 L
179.519 62.388 L
178.951 53.257 L
175.158 53.257 L
161.842 53.257 L
160.34 53.257 L
159.604 62.388 L
156.523 71.519 L
148.526 78.506 L
135.211 78.831 L
121.895 75.514 L
112.865 71.519 L
108.579 68.825 L
102.254 62.388 L
99.212 53.257 L
95.263 53.257 L
81.947 53.257 L
81.037 53.257 L
81.947 58.345 L
82.809 62.388 L
88.898 71.519 L
95.263 76.905 L
101.067 80.65 L
108.579 84.438 L
121.095 89.78 L
121.895 90.122 L
135.211 95.636 L
141.915 98.911 L
148.526 104.044 L
152.482 108.042 L
157.026 117.173 L
159.029 126.304 L
159.836 135.435 L
159.836 144.565 L
159.029 153.696 L
157.026 162.827 L
152.482 171.958 L
148.526 175.956 L
141.915 181.089 L
135.211 184.364 L
121.895 189.878 L
121.095 190.22 L
108.579 195.562 L
101.067 199.35 L
95.263 203.095 L
88.898 208.481 L
82.809 217.612 L
cp
188.474 172.733 M
186.719 171.958 L
178.025 162.827 L
175.495 153.696 L
175.158 150.452 L
174.741 144.565 L
174.741 135.435 L
175.158 129.548 L
175.495 126.304 L
178.025 117.173 L
186.719 108.042 L
188.474 107.267 L
201.789 106.964 L
207.002 108.042 L
215.105 109.601 L
228.421 114.477 L
233.251 117.173 L
241.737 123.809 L
243.939 126.304 L
247.929 135.435 L
247.929 144.565 L
243.939 153.696 L
241.737 156.191 L
233.251 162.827 L
228.421 165.523 L
215.105 170.399 L
207.002 171.958 L
201.789 173.036 L
cp
f
GR
GS
[0.78257 0 0 0.78197 0 0.22835] CT
0.173 0.765 0.651 RC
N
102.254 217.612 M
99.212 226.743 L
108.579 226.743 L
121.895 226.743 L
135.211 226.743 L
148.526 226.743 L
160.34 226.743 L
159.604 217.612 L
156.523 208.481 L
148.526 201.494 L
135.211 201.169 L
121.895 204.486 L
112.865 208.481 L
108.579 211.175 L
cp
186.719 171.958 M
188.474 172.733 L
201.789 173.036 L
207.002 171.958 L
215.105 170.399 L
228.421 165.523 L
233.251 162.827 L
241.737 156.191 L
243.939 153.696 L
247.929 144.565 L
247.929 135.435 L
243.939 126.304 L
241.737 123.809 L
233.251 117.173 L
228.421 114.477 L
215.105 109.601 L
207.002 108.042 L
201.789 106.964 L
188.474 107.267 L
186.719 108.042 L
178.025 117.173 L
175.495 126.304 L
175.158 129.548 L
174.741 135.435 L
174.741 144.565 L
175.158 150.452 L
175.495 153.696 L
178.025 162.827 L
cp
201.789 149.883 M
198.131 144.565 L
198.131 135.435 L
201.789 130.117 L
215.105 127.947 L
225.459 135.435 L
225.459 144.565 L
215.105 152.053 L
cp
112.865 71.519 M
121.895 75.514 L
135.211 78.831 L
148.526 78.506 L
156.523 71.519 L
159.604 62.388 L
160.34 53.257 L
148.526 53.257 L
135.211 53.257 L
121.895 53.257 L
108.579 53.257 L
99.212 53.257 L
102.254 62.388 L
108.579 68.825 L
cp
f
GR
GS
[0.78257 0 0 0.78197 0 0.22835] CT
0.2 0.776 0.612 RC
N
198.131 144.565 M
201.789 149.883 L
215.105 152.053 L
225.459 144.565 L
225.459 135.435 L
215.105 127.947 L
201.789 130.117 L
198.131 135.435 L
cp
f
GR
GS
[0.78257 0 0 0.78197 0 0.22835] CT
1 LJ
0.639 LW
N
232.745 226.743 M
236.718 217.612 L
S
GR
GS
[0.78257 0 0 0.78197 0 0.22835] CT
1 LJ
0.639 LW
N
282.302 217.612 M
283.311 226.743 L
S
GR
GS
[0.78257 0 0 0.78197 0 0.22835] CT
1 LJ
0.639 LW
N
236.718 217.612 M
241.737 213.546 L
252.609 208.481 L
S
GR
GS
[0.78257 0 0 0.78197 0 0.22835] CT
1 LJ
0.639 LW
N
274.269 208.481 M
281.684 215.916 L
282.302 217.612 L
S
GR
GS
[0.78257 0 0 0.78197 0 0.22835] CT
1 LJ
0.639 LW
N
252.609 208.481 M
255.053 207.628 L
268.368 206.458 L
274.269 208.481 L
S
GR
GS
[0.78257 0 0 0.78197 0 0.22835] CT
1 LJ
0.639 LW
N
98.588 162.827 M
95.263 164.429 L
81.947 168.475 L
68.632 170.302 L
55.316 166.569 L
52.711 162.827 L
S
GR
GS
[0.78257 0 0 0.78197 0 0.22835] CT
1 LJ
0.639 LW
N
52.711 162.827 M
49.933 153.696 L
S
GR
GS
[0.78257 0 0 0.78197 0 0.22835] CT
1 LJ
0.639 LW
N
111.488 153.696 M
108.579 156.447 L
98.588 162.827 L
S
GR
GS
[0.78257 0 0 0.78197 0 0.22835] CT
1 LJ
0.639 LW
N
49.933 153.696 M
48.976 144.565 L
S
GR
GS
[0.78257 0 0 0.78197 0 0.22835] CT
1 LJ
0.639 LW
N
116.35 144.565 M
111.488 153.696 L
S
GR
GS
[0.78257 0 0 0.78197 0 0.22835] CT
1 LJ
0.639 LW
N
48.976 144.565 M
48.976 135.435 L
S
GR
GS
[0.78257 0 0 0.78197 0 0.22835] CT
1 LJ
0.639 LW
N
116.35 135.435 M
116.35 144.565 L
S
GR
GS
[0.78257 0 0 0.78197 0 0.22835] CT
1 LJ
0.639 LW
N
48.976 135.435 M
49.933 126.304 L
S
GR
GS
[0.78257 0 0 0.78197 0 0.22835] CT
1 LJ
0.639 LW
N
111.488 126.304 M
116.35 135.435 L
S
GR
GS
[0.78257 0 0 0.78197 0 0.22835] CT
1 LJ
0.639 LW
N
49.933 126.304 M
52.711 117.173 L
S
GR
GS
[0.78257 0 0 0.78197 0 0.22835] CT
1 LJ
0.639 LW
N
98.588 117.173 M
108.579 123.553 L
111.488 126.304 L
S
GR
GS
[0.78257 0 0 0.78197 0 0.22835] CT
1 LJ
0.639 LW
N
52.711 117.173 M
55.316 113.431 L
68.632 109.698 L
81.947 111.525 L
95.263 115.571 L
98.588 117.173 L
S
GR
GS
[0.78257 0 0 0.78197 0 0.22835] CT
1 LJ
0.639 LW
N
274.269 71.519 M
268.368 73.542 L
255.053 72.372 L
252.609 71.519 L
S
GR
GS
[0.78257 0 0 0.78197 0 0.22835] CT
1 LJ
0.639 LW
N
252.609 71.519 M
241.737 66.454 L
236.718 62.388 L
S
GR
GS
[0.78257 0 0 0.78197 0 0.22835] CT
1 LJ
0.639 LW
N
282.302 62.388 M
281.684 64.084 L
274.269 71.519 L
S
GR
GS
[0.78257 0 0 0.78197 0 0.22835] CT
1 LJ
0.639 LW
N
236.718 62.388 M
232.745 53.257 L
S
GR
GS
[0.78257 0 0 0.78197 0 0.22835] CT
1 LJ
0.639 LW
N
283.311 53.257 M
282.302 62.388 L
S
GR
GS
[0.78257 0 0 0.78197 0 0.22835] CT
1 LJ
0.639 LW
N
52.246 217.612 M
51.741 226.743 L
S
GR
GS
[0.78257 0 0 0.78197 0 0.22835] CT
1 LJ
0.639 LW
N
211.375 226.743 M
213.367 217.612 L
S
GR
GS
[0.78257 0 0 0.78197 0 0.22835] CT
1 LJ
0.639 LW
N
54.052 208.481 M
52.246 217.612 L
S
GR
GS
[0.78257 0 0 0.78197 0 0.22835] CT
1 LJ
0.639 LW
N
213.367 217.612 M
215.105 215.009 L
220.641 208.481 L
S
GR
GS
[0.78257 0 0 0.78197 0 0.22835] CT
1 LJ
0.639 LW
N
58.017 199.35 M
55.316 205.299 L
54.052 208.481 L
S
GR
GS
[0.78257 0 0 0.78197 0 0.22835] CT
1 LJ
0.639 LW
N
220.641 208.481 M
228.421 203.028 L
235.226 199.35 L
S
GR
GS
[0.78257 0 0 0.78197 0 0.22835] CT
1 LJ
0.639 LW
N
67.331 190.22 M
58.017 199.35 L
S
GR
GS
[0.78257 0 0 0.78197 0 0.22835] CT
1 LJ
0.639 LW
N
235.226 199.35 M
241.737 196.444 L
255.053 191.092 L
257.428 190.22 L
S
GR
GS
[0.78257 0 0 0.78197 0 0.22835] CT
1 LJ
0.639 LW
N
86.29 181.089 M
81.947 182.98 L
68.632 189.488 L
67.331 190.22 L
S
GR
GS
[0.78257 0 0 0.78197 0 0.22835] CT
1 LJ
0.639 LW
N
257.428 190.22 M
268.368 185.185 L
275.131 181.089 L
S
GR
GS
[0.78257 0 0 0.78197 0 0.22835] CT
1 LJ
0.639 LW
N
108.349 171.958 M
95.263 177.618 L
86.29 181.089 L
S
GR
GS
[0.78257 0 0 0.78197 0 0.22835] CT
1 LJ
0.639 LW
N
275.131 181.089 M
281.684 173.37 L
282.597 171.958 L
S
GR
GS
[0.78257 0 0 0.78197 0 0.22835] CT
1 LJ
0.639 LW
N
122.311 162.827 M
121.895 163.177 L
108.579 171.846 L
108.349 171.958 L
S
GR
GS
[0.78257 0 0 0.78197 0 0.22835] CT
1 LJ
0.639 LW
N
282.597 171.958 M
286.03 162.827 L
S
GR
GS
[0.78257 0 0 0.78197 0 0.22835] CT
1 LJ
0.639 LW
N
129.391 153.696 M
122.311 162.827 L
S
GR
GS
[0.78257 0 0 0.78197 0 0.22835] CT
1 LJ
0.639 LW
N
286.03 162.827 M
287.544 153.696 L
S
GR
GS
[0.78257 0 0 0.78197 0 0.22835] CT
1 LJ
0.639 LW
N
132.564 144.565 M
129.391 153.696 L
S
GR
GS
[0.78257 0 0 0.78197 0 0.22835] CT
1 LJ
0.639 LW
N
287.544 153.696 M
288.155 144.565 L
S
GR
GS
[0.78257 0 0 0.78197 0 0.22835] CT
1 LJ
0.639 LW
N
132.564 135.435 M
132.564 144.565 L
S
GR
GS
[0.78257 0 0 0.78197 0 0.22835] CT
1 LJ
0.639 LW
N
288.155 144.565 M
288.155 135.435 L
S
GR
GS
[0.78257 0 0 0.78197 0 0.22835] CT
1 LJ
0.639 LW
N
129.391 126.304 M
132.564 135.435 L
S
GR
GS
[0.78257 0 0 0.78197 0 0.22835] CT
1 LJ
0.639 LW
N
288.155 135.435 M
287.544 126.304 L
S
GR
GS
[0.78257 0 0 0.78197 0 0.22835] CT
1 LJ
0.639 LW
N
122.311 117.173 M
129.391 126.304 L
S
GR
GS
[0.78257 0 0 0.78197 0 0.22835] CT
1 LJ
0.639 LW
N
287.544 126.304 M
286.03 117.173 L
S
GR
GS
[0.78257 0 0 0.78197 0 0.22835] CT
1 LJ
0.639 LW
N
108.349 108.042 M
108.579 108.154 L
121.895 116.823 L
122.311 117.173 L
S
GR
GS
[0.78257 0 0 0.78197 0 0.22835] CT
1 LJ
0.639 LW
N
286.03 117.173 M
282.597 108.042 L
S
GR
GS
[0.78257 0 0 0.78197 0 0.22835] CT
1 LJ
0.639 LW
N
86.29 98.911 M
95.263 102.382 L
108.349 108.042 L
S
GR
GS
[0.78257 0 0 0.78197 0 0.22835] CT
1 LJ
0.639 LW
N
282.597 108.042 M
281.684 106.63 L
275.131 98.911 L
S
GR
GS
[0.78257 0 0 0.78197 0 0.22835] CT
1 LJ
0.639 LW
N
67.331 89.78 M
68.632 90.512 L
81.947 97.02 L
86.29 98.911 L
S
GR
GS
[0.78257 0 0 0.78197 0 0.22835] CT
1 LJ
0.639 LW
N
275.131 98.911 M
268.368 94.815 L
257.428 89.78 L
S
GR
GS
[0.78257 0 0 0.78197 0 0.22835] CT
1 LJ
0.639 LW
N
58.017 80.65 M
67.331 89.78 L
S
GR
GS
[0.78257 0 0 0.78197 0 0.22835] CT
1 LJ
0.639 LW
N
257.428 89.78 M
255.053 88.908 L
241.737 83.556 L
235.226 80.65 L
S
GR
GS
[0.78257 0 0 0.78197 0 0.22835] CT
1 LJ
0.639 LW
N
54.052 71.519 M
55.316 74.701 L
58.017 80.65 L
S
GR
GS
[0.78257 0 0 0.78197 0 0.22835] CT
1 LJ
0.639 LW
N
235.226 80.65 M
228.421 76.972 L
220.641 71.519 L
S
GR
GS
[0.78257 0 0 0.78197 0 0.22835] CT
1 LJ
0.639 LW
N
52.246 62.388 M
54.052 71.519 L
S
GR
GS
[0.78257 0 0 0.78197 0 0.22835] CT
1 LJ
0.639 LW
N
220.641 71.519 M
215.105 64.991 L
213.367 62.388 L
S
GR
GS
[0.78257 0 0 0.78197 0 0.22835] CT
1 LJ
0.639 LW
N
51.741 53.257 M
52.246 62.388 L
S
GR
GS
[0.78257 0 0 0.78197 0 0.22835] CT
1 LJ
0.639 LW
N
213.367 62.388 M
211.375 53.257 L
S
GR
GS
[0.78257 0 0 0.78197 0 0.22835] CT
1 LJ
0.639 LW
N
67.393 217.612 M
66.289 226.743 L
S
GR
GS
[0.78257 0 0 0.78197 0 0.22835] CT
1 LJ
0.639 LW
N
194.95 226.743 M
196.246 217.612 L
S
GR
GS
[0.78257 0 0 0.78197 0 0.22835] CT
1 LJ
0.639 LW
N
71.189 208.481 M
68.632 214.364 L
67.393 217.612 L
S
GR
GS
[0.78257 0 0 0.78197 0 0.22835] CT
1 LJ
0.639 LW
N
196.246 217.612 M
200.692 208.481 L
S
GR
GS
[0.78257 0 0 0.78197 0 0.22835] CT
1 LJ
0.639 LW
N
79.071 199.35 M
71.189 208.481 L
S
GR
GS
[0.78257 0 0 0.78197 0 0.22835] CT
1 LJ
0.639 LW
N
200.692 208.481 M
201.789 207.237 L
210.272 199.35 L
S
GR
GS
[0.78257 0 0 0.78197 0 0.22835] CT
1 LJ
0.639 LW
N
93.824 190.22 M
81.947 197.25 L
79.071 199.35 L
S
GR
GS
[0.78257 0 0 0.78197 0 0.22835] CT
1 LJ
0.639 LW
N
210.272 199.35 M
215.105 196.45 L
227.475 190.22 L
S
GR
GS
[0.78257 0 0 0.78197 0 0.22835] CT
1 LJ
0.639 LW
N
114.233 181.089 M
108.579 183.621 L
95.263 189.544 L
93.824 190.22 L
S
GR
GS
[0.78257 0 0 0.78197 0 0.22835] CT
1 LJ
0.639 LW
N
227.475 190.22 M
228.421 189.817 L
241.737 184.108 L
248.147 181.089 L
S
GR
GS
[0.78257 0 0 0.78197 0 0.22835] CT
1 LJ
0.639 LW
N
130.567 171.958 M
121.895 177.25 L
114.233 181.089 L
S
GR
GS
[0.78257 0 0 0.78197 0 0.22835] CT
1 LJ
0.639 LW
N
248.147 181.089 M
255.053 177.217 L
262.382 171.958 L
S
GR
GS
[0.78257 0 0 0.78197 0 0.22835] CT
1 LJ
0.639 LW
N
139.781 162.827 M
135.211 167.874 L
130.567 171.958 L
S
GR
GS
[0.78257 0 0 0.78197 0 0.22835] CT
1 LJ
0.639 LW
N
262.382 171.958 M
268.368 165.179 L
270.027 162.827 L
S
GR
GS
[0.78257 0 0 0.78197 0 0.22835] CT
1 LJ
0.639 LW
N
144.374 153.696 M
139.781 162.827 L
S
GR
GS
[0.78257 0 0 0.78197 0 0.22835] CT
1 LJ
0.639 LW
N
270.027 162.827 M
273.835 153.696 L
S
GR
GS
[0.78257 0 0 0.78197 0 0.22835] CT
1 LJ
0.639 LW
N
146.323 144.565 M
144.374 153.696 L
S
GR
GS
[0.78257 0 0 0.78197 0 0.22835] CT
1 LJ
0.639 LW
N
273.835 153.696 M
275.439 144.565 L
S
GR
GS
[0.78257 0 0 0.78197 0 0.22835] CT
1 LJ
0.639 LW
N
146.323 135.435 M
146.323 144.565 L
S
GR
GS
[0.78257 0 0 0.78197 0 0.22835] CT
1 LJ
0.639 LW
N
275.439 144.565 M
275.439 135.435 L
S
GR
GS
[0.78257 0 0 0.78197 0 0.22835] CT
1 LJ
0.639 LW
N
144.374 126.304 M
146.323 135.435 L
S
GR
GS
[0.78257 0 0 0.78197 0 0.22835] CT
1 LJ
0.639 LW
N
275.439 135.435 M
273.835 126.304 L
S
GR
GS
[0.78257 0 0 0.78197 0 0.22835] CT
1 LJ
0.639 LW
N
139.781 117.173 M
144.374 126.304 L
S
GR
GS
[0.78257 0 0 0.78197 0 0.22835] CT
1 LJ
0.639 LW
N
273.835 126.304 M
270.027 117.173 L
S
GR
GS
[0.78257 0 0 0.78197 0 0.22835] CT
1 LJ
0.639 LW
N
130.567 108.042 M
135.211 112.126 L
139.781 117.173 L
S
GR
GS
[0.78257 0 0 0.78197 0 0.22835] CT
1 LJ
0.639 LW
N
270.027 117.173 M
268.368 114.821 L
262.382 108.042 L
S
GR
GS
[0.78257 0 0 0.78197 0 0.22835] CT
1 LJ
0.639 LW
N
114.233 98.911 M
121.895 102.75 L
130.567 108.042 L
S
GR
GS
[0.78257 0 0 0.78197 0 0.22835] CT
1 LJ
0.639 LW
N
262.382 108.042 M
255.053 102.783 L
248.147 98.911 L
S
GR
GS
[0.78257 0 0 0.78197 0 0.22835] CT
1 LJ
0.639 LW
N
93.824 89.78 M
95.263 90.456 L
108.579 96.379 L
114.233 98.911 L
S
GR
GS
[0.78257 0 0 0.78197 0 0.22835] CT
1 LJ
0.639 LW
N
248.147 98.911 M
241.737 95.892 L
228.421 90.183 L
227.475 89.78 L
S
GR
GS
[0.78257 0 0 0.78197 0 0.22835] CT
1 LJ
0.639 LW
N
79.071 80.65 M
81.947 82.75 L
93.824 89.78 L
S
GR
GS
[0.78257 0 0 0.78197 0 0.22835] CT
1 LJ
0.639 LW
N
227.475 89.78 M
215.105 83.55 L
210.272 80.65 L
S
GR
GS
[0.78257 0 0 0.78197 0 0.22835] CT
1 LJ
0.639 LW
N
71.189 71.519 M
79.071 80.65 L
S
GR
GS
[0.78257 0 0 0.78197 0 0.22835] CT
1 LJ
0.639 LW
N
210.272 80.65 M
201.789 72.763 L
200.692 71.519 L
S
GR
GS
[0.78257 0 0 0.78197 0 0.22835] CT
1 LJ
0.639 LW
N
67.393 62.388 M
68.632 65.636 L
71.189 71.519 L
S
GR
GS
[0.78257 0 0 0.78197 0 0.22835] CT
1 LJ
0.639 LW
N
200.692 71.519 M
196.246 62.388 L
S
GR
GS
[0.78257 0 0 0.78197 0 0.22835] CT
1 LJ
0.639 LW
N
66.289 53.257 M
67.393 62.388 L
S
GR
GS
[0.78257 0 0 0.78197 0 0.22835] CT
1 LJ
0.639 LW
N
196.246 62.388 M
194.95 53.257 L
S
GR
GS
[0.78257 0 0 0.78197 0 0.22835] CT
1 LJ
0.639 LW
N
82.809 217.612 M
81.947 221.655 L
81.037 226.743 L
S
GR
GS
[0.78257 0 0 0.78197 0 0.22835] CT
1 LJ
0.639 LW
N
178.951 226.743 M
179.519 217.612 L
S
GR
GS
[0.78257 0 0 0.78197 0 0.22835] CT
1 LJ
0.639 LW
N
88.898 208.481 M
82.809 217.612 L
S
GR
GS
[0.78257 0 0 0.78197 0 0.22835] CT
1 LJ
0.639 LW
N
179.519 217.612 M
181.556 208.481 L
S
GR
GS
[0.78257 0 0 0.78197 0 0.22835] CT
1 LJ
0.639 LW
N
101.067 199.35 M
95.263 203.095 L
88.898 208.481 L
S
GR
GS
[0.78257 0 0 0.78197 0 0.22835] CT
1 LJ
0.639 LW
N
181.556 208.481 M
186.684 199.35 L
S
GR
GS
[0.78257 0 0 0.78197 0 0.22835] CT
1 LJ
0.639 LW
N
121.095 190.22 M
108.579 195.562 L
101.067 199.35 L
S
GR
GS
[0.78257 0 0 0.78197 0 0.22835] CT
1 LJ
0.639 LW
N
186.684 199.35 M
188.474 197.661 L
198.63 190.22 L
S
GR
GS
[0.78257 0 0 0.78197 0 0.22835] CT
1 LJ
0.639 LW
N
141.915 181.089 M
135.211 184.364 L
121.895 189.878 L
121.095 190.22 L
S
GR
GS
[0.78257 0 0 0.78197 0 0.22835] CT
1 LJ
0.639 LW
N
198.63 190.22 M
201.789 188.844 L
215.105 183.421 L
220.902 181.089 L
S
GR
GS
[0.78257 0 0 0.78197 0 0.22835] CT
1 LJ
0.639 LW
N
152.482 171.958 M
148.526 175.956 L
141.915 181.089 L
S
GR
GS
[0.78257 0 0 0.78197 0 0.22835] CT
1 LJ
0.639 LW
N
220.902 181.089 M
228.421 178.231 L
241.737 172.03 L
241.862 171.958 L
S
GR
GS
[0.78257 0 0 0.78197 0 0.22835] CT
1 LJ
0.639 LW
N
157.026 162.827 M
152.482 171.958 L
S
GR
GS
[0.78257 0 0 0.78197 0 0.22835] CT
1 LJ
0.639 LW
N
241.862 171.958 M
253.82 162.827 L
S
GR
GS
[0.78257 0 0 0.78197 0 0.22835] CT
1 LJ
0.639 LW
N
159.029 153.696 M
157.026 162.827 L
S
GR
GS
[0.78257 0 0 0.78197 0 0.22835] CT
1 LJ
0.639 LW
N
253.82 162.827 M
255.053 161.344 L
259.943 153.696 L
S
GR
GS
[0.78257 0 0 0.78197 0 0.22835] CT
1 LJ
0.639 LW
N
159.836 144.565 M
159.029 153.696 L
S
GR
GS
[0.78257 0 0 0.78197 0 0.22835] CT
1 LJ
0.639 LW
N
259.943 153.696 M
262.566 144.565 L
S
GR
GS
[0.78257 0 0 0.78197 0 0.22835] CT
1 LJ
0.639 LW
N
159.836 135.435 M
159.836 144.565 L
S
GR
GS
[0.78257 0 0 0.78197 0 0.22835] CT
1 LJ
0.639 LW
N
262.566 144.565 M
262.566 135.435 L
S
GR
GS
[0.78257 0 0 0.78197 0 0.22835] CT
1 LJ
0.639 LW
N
159.029 126.304 M
159.836 135.435 L
S
GR
GS
[0.78257 0 0 0.78197 0 0.22835] CT
1 LJ
0.639 LW
N
262.566 135.435 M
259.943 126.304 L
S
GR
GS
[0.78257 0 0 0.78197 0 0.22835] CT
1 LJ
0.639 LW
N
157.026 117.173 M
159.029 126.304 L
S
GR
GS
[0.78257 0 0 0.78197 0 0.22835] CT
1 LJ
0.639 LW
N
259.943 126.304 M
255.053 118.656 L
253.82 117.173 L
S
GR
GS
[0.78257 0 0 0.78197 0 0.22835] CT
1 LJ
0.639 LW
N
152.482 108.042 M
157.026 117.173 L
S
GR
GS
[0.78257 0 0 0.78197 0 0.22835] CT
1 LJ
0.639 LW
N
253.82 117.173 M
241.862 108.042 L
S
GR
GS
[0.78257 0 0 0.78197 0 0.22835] CT
1 LJ
0.639 LW
N
141.915 98.911 M
148.526 104.044 L
152.482 108.042 L
S
GR
GS
[0.78257 0 0 0.78197 0 0.22835] CT
1 LJ
0.639 LW
N
241.862 108.042 M
241.737 107.97 L
228.421 101.769 L
220.902 98.911 L
S
GR
GS
[0.78257 0 0 0.78197 0 0.22835] CT
1 LJ
0.639 LW
N
121.095 89.78 M
121.895 90.122 L
135.211 95.636 L
141.915 98.911 L
S
GR
GS
[0.78257 0 0 0.78197 0 0.22835] CT
1 LJ
0.639 LW
N
220.902 98.911 M
215.105 96.579 L
201.789 91.156 L
198.63 89.78 L
S
GR
GS
[0.78257 0 0 0.78197 0 0.22835] CT
1 LJ
0.639 LW
N
101.067 80.65 M
108.579 84.438 L
121.095 89.78 L
S
GR
GS
[0.78257 0 0 0.78197 0 0.22835] CT
1 LJ
0.639 LW
N
198.63 89.78 M
188.474 82.34 L
186.684 80.65 L
S
GR
GS
[0.78257 0 0 0.78197 0 0.22835] CT
1 LJ
0.639 LW
N
88.898 71.519 M
95.263 76.905 L
101.067 80.65 L
S
GR
GS
[0.78257 0 0 0.78197 0 0.22835] CT
1 LJ
0.639 LW
N
186.684 80.65 M
181.556 71.519 L
S
GR
GS
[0.78257 0 0 0.78197 0 0.22835] CT
1 LJ
0.639 LW
N
82.809 62.388 M
88.898 71.519 L
S
GR
GS
[0.78257 0 0 0.78197 0 0.22835] CT
1 LJ
0.639 LW
N
181.556 71.519 M
179.519 62.388 L
S
GR
GS
[0.78257 0 0 0.78197 0 0.22835] CT
1 LJ
0.639 LW
N
81.037 53.257 M
81.947 58.345 L
82.809 62.388 L
S
GR
GS
[0.78257 0 0 0.78197 0 0.22835] CT
1 LJ
0.639 LW
N
179.519 62.388 M
178.951 53.257 L
S
GR
GS
[0.78257 0 0 0.78197 0 0.22835] CT
1 LJ
0.639 LW
N
102.254 217.612 M
99.212 226.743 L
S
GR
GS
[0.78257 0 0 0.78197 0 0.22835] CT
1 LJ
0.639 LW
N
160.34 226.743 M
159.604 217.612 L
S
GR
GS
[0.78257 0 0 0.78197 0 0.22835] CT
1 LJ
0.639 LW
N
112.865 208.481 M
108.579 211.175 L
102.254 217.612 L
S
GR
GS
[0.78257 0 0 0.78197 0 0.22835] CT
1 LJ
0.639 LW
N
159.604 217.612 M
156.523 208.481 L
S
GR
GS
[0.78257 0 0 0.78197 0 0.22835] CT
1 LJ
0.639 LW
N
156.523 208.481 M
148.526 201.494 L
135.211 201.169 L
121.895 204.486 L
112.865 208.481 L
S
GR
GS
[0.78257 0 0 0.78197 0 0.22835] CT
1 LJ
0.639 LW
N
186.719 171.958 M
188.474 172.733 L
201.789 173.036 L
207.002 171.958 L
S
GR
GS
[0.78257 0 0 0.78197 0 0.22835] CT
1 LJ
0.639 LW
N
178.025 162.827 M
186.719 171.958 L
S
GR
GS
[0.78257 0 0 0.78197 0 0.22835] CT
1 LJ
0.639 LW
N
207.002 171.958 M
215.105 170.399 L
228.421 165.523 L
233.251 162.827 L
S
GR
GS
[0.78257 0 0 0.78197 0 0.22835] CT
1 LJ
0.639 LW
N
175.495 153.696 M
178.025 162.827 L
S
GR
GS
[0.78257 0 0 0.78197 0 0.22835] CT
1 LJ
0.639 LW
N
233.251 162.827 M
241.737 156.191 L
243.939 153.696 L
S
GR
GS
[0.78257 0 0 0.78197 0 0.22835] CT
1 LJ
0.639 LW
N
174.741 144.565 M
175.158 150.452 L
175.495 153.696 L
S
GR
GS
[0.78257 0 0 0.78197 0 0.22835] CT
1 LJ
0.639 LW
N
243.939 153.696 M
247.929 144.565 L
S
GR
GS
[0.78257 0 0 0.78197 0 0.22835] CT
1 LJ
0.639 LW
N
174.741 135.435 M
174.741 144.565 L
S
GR
GS
[0.78257 0 0 0.78197 0 0.22835] CT
1 LJ
0.639 LW
N
247.929 144.565 M
247.929 135.435 L
S
GR
GS
[0.78257 0 0 0.78197 0 0.22835] CT
1 LJ
0.639 LW
N
175.495 126.304 M
175.158 129.548 L
174.741 135.435 L
S
GR
GS
[0.78257 0 0 0.78197 0 0.22835] CT
1 LJ
0.639 LW
N
247.929 135.435 M
243.939 126.304 L
S
GR
GS
[0.78257 0 0 0.78197 0 0.22835] CT
1 LJ
0.639 LW
N
178.025 117.173 M
175.495 126.304 L
S
GR
GS
[0.78257 0 0 0.78197 0 0.22835] CT
1 LJ
0.639 LW
N
243.939 126.304 M
241.737 123.809 L
233.251 117.173 L
S
GR
GS
[0.78257 0 0 0.78197 0 0.22835] CT
1 LJ
0.639 LW
N
186.719 108.042 M
178.025 117.173 L
S
GR
GS
[0.78257 0 0 0.78197 0 0.22835] CT
1 LJ
0.639 LW
N
233.251 117.173 M
228.421 114.477 L
215.105 109.601 L
207.002 108.042 L
S
GR
GS
[0.78257 0 0 0.78197 0 0.22835] CT
1 LJ
0.639 LW
N
207.002 108.042 M
201.789 106.964 L
188.474 107.267 L
186.719 108.042 L
S
GR
GS
[0.78257 0 0 0.78197 0 0.22835] CT
1 LJ
0.639 LW
N
112.865 71.519 M
121.895 75.514 L
135.211 78.831 L
148.526 78.506 L
156.523 71.519 L
S
GR
GS
[0.78257 0 0 0.78197 0 0.22835] CT
1 LJ
0.639 LW
N
102.254 62.388 M
108.579 68.825 L
112.865 71.519 L
S
GR
GS
[0.78257 0 0 0.78197 0 0.22835] CT
1 LJ
0.639 LW
N
156.523 71.519 M
159.604 62.388 L
S
GR
GS
[0.78257 0 0 0.78197 0 0.22835] CT
1 LJ
0.639 LW
N
99.212 53.257 M
102.254 62.388 L
S
GR
GS
[0.78257 0 0 0.78197 0 0.22835] CT
1 LJ
0.639 LW
N
159.604 62.388 M
160.34 53.257 L
S
GR
GS
[0.78257 0 0 0.78197 0 0.22835] CT
1 LJ
0.639 LW
N
198.131 144.565 M
201.789 149.883 L
215.105 152.053 L
225.459 144.565 L
S
GR
GS
[0.78257 0 0 0.78197 0 0.22835] CT
1 LJ
0.639 LW
N
198.131 135.435 M
198.131 144.565 L
S
GR
GS
[0.78257 0 0 0.78197 0 0.22835] CT
1 LJ
0.639 LW
N
225.459 144.565 M
225.459 135.435 L
S
GR
GS
[0.78257 0 0 0.78197 0 0.22835] CT
1 LJ
0.639 LW
N
225.459 135.435 M
215.105 127.947 L
201.789 130.117 L
198.131 135.435 L
S
GR
GS
[0.78257 0 0 0.78197 0 0.22835] CT
1 0 0 RC
1 LJ
0.639 LW
N
64.877 195.125 M
70.138 194.868 L
65.616 197.57 L
S
GR
GS
[0.78257 0 0 0.78197 0 0.22835] CT
1 0 0 RC
1 LJ
0.639 LW
N
66.516 172.348 M
73.365 170.266 L
68.302 175.326 L
S
GR
GS
[0.78257 0 0 0.78197 0 0.22835] CT
1 0 0 RC
1 LJ
0.639 LW
N
68.412 152.645 M
76.414 150.227 L
70.491 156.126 L
S
GR
GS
[0.78257 0 0 0.78197 0 0.22835] CT
1 0 0 RC
1 LJ
0.639 LW
N
69.766 136.622 M
77.999 135.502 L
71.261 140.365 L
S
GR
GS
[0.78257 0 0 0.78197 0 0.22835] CT
1 0 0 RC
1 LJ
0.639 LW
N
70.006 123.336 M
77.451 124.6 L
70.287 126.988 L
S
GR
GS
[0.78257 0 0 0.78197 0 0.22835] CT
1 0 0 RC
1 LJ
0.639 LW
N
69.031 110.688 M
75.001 114.415 L
67.979 113.936 L
S
GR
GS
[0.78257 0 0 0.78197 0 0.22835] CT
1 0 0 RC
1 LJ
0.639 LW
N
67.252 96.311 M
71.683 101.543 L
65.312 99.012 L
S
GR
GS
[0.78257 0 0 0.78197 0 0.22835] CT
1 0 0 RC
1 LJ
0.639 LW
N
83.861 198.525 M
84.91 198.484 L
84.004 199.014 L
S
GR
GS
[0.78257 0 0 0.78197 0 0.22835] CT
1 0 0 RC
1 LJ
0.639 LW
N
88.97 175.79 M
93.232 174.57 L
90.046 177.652 L
S
GR
GS
[0.78257 0 0 0.78197 0 0.22835] CT
1 0 0 RC
1 LJ
0.639 LW
N
93.997 154.935 M
101.093 153.405 L
95.552 158.093 L
S
GR
GS
[0.78257 0 0 0.78197 0 0.22835] CT
1 0 0 RC
1 LJ
0.639 LW
N
96.823 137.053 M
105.178 136.213 L
98.201 140.886 L
S
GR
GS
[0.78257 0 0 0.78197 0 0.22835] CT
1 0 0 RC
1 LJ
0.639 LW
N
96.255 121.985 M
103.765 122.544 L
96.875 125.585 L
S
GR
GS
[0.78257 0 0 0.78197 0 0.22835] CT
1 0 0 RC
1 LJ
0.639 LW
N
92.534 108.384 M
97.45 110.461 L
92.134 110.941 L
S
GR
GS
[0.78257 0 0 0.78197 0 0.22835] CT
1 0 0 RC
1 LJ
0.639 LW
N
87.228 94.284 M
88.895 97.357 L
85.977 95.43 L
S
GR
GS
[0.78257 0 0 0.78197 0 0.22835] CT
1 0 0 RC
1 LJ
0.639 LW
N
102.181 203.43 M
98.434 204.19 L
101.382 201.756 L
S
GR
GS
[0.78257 0 0 0.78197 0 0.22835] CT
1 0 0 RC
1 LJ
0.639 LW
N
108.441 181.292 M
108.339 181.362 L
108.396 181.252 L
S
GR
GS
[0.78257 0 0 0.78197 0 0.22835] CT
1 0 0 RC
1 LJ
0.639 LW
N
114.325 159.121 M
117.697 158.419 L
115.052 160.626 L
S
GR
GS
[0.78257 0 0 0.78197 0 0.22835] CT
1 0 0 RC
1 LJ
0.639 LW
N
117.35 138.568 M
122.561 137.335 L
118.543 140.875 L
S
GR
GS
[0.78257 0 0 0.78197 0 0.22835] CT
1 0 0 RC
1 LJ
0.639 LW
N
116.242 120.597 M
120.879 119.3 L
117.398 122.626 L
S
GR
GS
[0.78257 0 0 0.78197 0 0.22835] CT
1 0 0 RC
1 LJ
0.639 LW
N
111.467 105.086 M
113.361 104.219 L
112.098 105.875 L
S
GR
GS
[0.78257 0 0 0.78197 0 0.22835] CT
1 0 0 RC
1 LJ
0.639 LW
N
105.04 90.876 M
103.177 90.75 L
104.88 89.984 L
S
GR
GS
[0.78257 0 0 0.78197 0 0.22835] CT
1 0 0 RC
1 LJ
0.639 LW
N
123.341 207.77 M
116.235 209.58 L
121.653 204.639 L
S
GR
GS
[0.78257 0 0 0.78197 0 0.22835] CT
1 0 0 RC
1 LJ
0.639 LW
N
127.949 186.533 M
123.548 187.779 L
126.845 184.609 L
S
GR
GS
[0.78257 0 0 0.78197 0 0.22835] CT
1 0 0 RC
1 LJ
0.639 LW
N
132.053 163.44 M
130.457 163.156 L
131.998 162.655 L
S
GR
GS
[0.78257 0 0 0.78197 0 0.22835] CT
1 0 0 RC
1 LJ
0.639 LW
N
133.922 140.527 M
134.047 138.395 L
134.94 140.335 L
S
GR
GS
[0.78257 0 0 0.78197 0 0.22835] CT
1 0 0 RC
1 LJ
0.639 LW
N
132.768 119.757 M
132.805 116.236 L
134.43 119.36 L
S
GR
GS
[0.78257 0 0 0.78197 0 0.22835] CT
1 0 0 RC
1 LJ
0.639 LW
N
129.079 102.186 M
127.255 98.322 L
130.682 100.874 L
S
GR
GS
[0.78257 0 0 0.78197 0 0.22835] CT
1 0 0 RC
1 LJ
0.639 LW
N
124.408 87.525 M
119.737 84.508 L
125.278 84.971 L
S
GR
GS
[0.78257 0 0 0.78197 0 0.22835] CT
1 0 0 RC
1 LJ
0.639 LW
N
149.649 209.715 M
142.039 212.382 L
147.499 206.448 L
S
GR
GS
[0.78257 0 0 0.78197 0 0.22835] CT
1 0 0 RC
1 LJ
0.639 LW
N
150.497 189.304 M
143.675 191.114 L
148.843 186.307 L
S
GR
GS
[0.78257 0 0 0.78197 0 0.22835] CT
1 0 0 RC
1 LJ
0.639 LW
N
150.936 166.068 M
145.221 165.618 L
150.475 163.326 L
S
GR
GS
[0.78257 0 0 0.78197 0 0.22835] CT
1 0 0 RC
1 LJ
0.639 LW
N
150.78 142.105 M
146.024 138.946 L
151.708 139.495 L
S
GR
GS
[0.78257 0 0 0.78197 0 0.22835] CT
1 0 0 RC
1 LJ
0.639 LW
N
150.096 119.819 M
145.746 114.643 L
152.02 117.163 L
S
GR
GS
[0.78257 0 0 0.78197 0 0.22835] CT
1 0 0 RC
1 LJ
0.639 LW
N
149.171 100.907 M
144.504 95.258 L
151.281 98.046 L
S
GR
GS
[0.78257 0 0 0.78197 0 0.22835] CT
1 0 0 RC
1 LJ
0.639 LW
N
148.396 85.644 M
142.823 81.264 L
149.802 82.505 L
S
GR
GS
[0.78257 0 0 0.78197 0 0.22835] CT
1 0 0 RC
1 LJ
0.639 LW
N
181.242 208.445 M
176.194 211.413 L
179.251 206.419 L
S
GR
GS
[0.78257 0 0 0.78197 0 0.22835] CT
1 0 0 RC
1 LJ
0.639 LW
N
177.809 188.436 M
171.463 189.961 L
176.345 185.629 L
S
GR
GS
[0.78257 0 0 0.78197 0 0.22835] CT
1 0 0 RC
1 LJ
0.639 LW
N
174.243 165.899 M
166.994 164.767 L
173.923 162.355 L
S
GR
GS
[0.78257 0 0 0.78197 0 0.22835] CT
1 0 0 RC
1 LJ
0.639 LW
N
172.047 142.636 M
164.672 138.755 L
173.006 138.709 L
S
GR
GS
[0.78257 0 0 0.78197 0 0.22835] CT
1 0 0 RC
1 LJ
0.639 LW
N
172.148 120.757 M
165.475 115.194 L
173.981 116.963 L
S
GR
GS
[0.78257 0 0 0.78197 0 0.22835] CT
1 0 0 RC
1 LJ
0.639 LW
N
174.503 101.788 M
169.065 96.318 L
176.437 98.586 L
S
GR
GS
[0.78257 0 0 0.78197 0 0.22835] CT
1 0 0 RC
1 LJ
0.639 LW
N
178.119 86.026 M
173.929 82.386 L
179.339 83.626 L
S
GR
GS
[0.78257 0 0 0.78197 0 0.22835] CT
1 0 0 RC
1 LJ
0.639 LW
N
216.026 204.496 M
215.528 207.082 L
214.751 204.566 L
S
GR
GS
[0.78257 0 0 0.78197 0 0.22835] CT
1 0 0 RC
1 LJ
0.639 LW
N
209.596 184.295 M
206.425 184.805 L
208.983 182.863 L
S
GR
GS
[0.78257 0 0 0.78197 0 0.22835] CT
1 0 0 RC
1 LJ
0.639 LW
N
203.374 163.002 M
197.826 160.961 L
203.682 160.151 L
S
GR
GS
[0.78257 0 0 0.78197 0 0.22835] CT
1 0 0 RC
1 LJ
0.639 LW
N
199.984 141.896 M
193.357 137.904 L
201.084 138.308 L
S
GR
GS
[0.78257 0 0 0.78197 0 0.22835] CT
1 0 0 RC
1 LJ
0.639 LW
N
200.856 122.176 M
194.903 117.656 L
202.283 118.843 L
S
GR
GS
[0.78257 0 0 0.78197 0 0.22835] CT
1 0 0 RC
1 LJ
0.639 LW
N
205.622 104.457 M
201.811 101.055 L
206.775 102.264 L
S
GR
GS
[0.78257 0 0 0.78197 0 0.22835] CT
1 0 0 RC
1 LJ
0.639 LW
N
212.272 88.511 M
211.169 87.401 L
212.664 87.861 L
S
GR
GS
[0.78257 0 0 0.78197 0 0.22835] CT
1 0 0 RC
1 LJ
0.639 LW
N
250.565 199.532 M
254.683 201.216 L
250.257 201.669 L
S
GR
GS
[0.78257 0 0 0.78197 0 0.22835] CT
1 0 0 RC
1 LJ
0.639 LW
N
243.686 178.627 M
245.048 177.822 L
244.225 179.173 L
S
GR
GS
[0.78257 0 0 0.78197 0 0.22835] CT
1 0 0 RC
1 LJ
0.639 LW
N
237.277 158.601 M
235.945 155.806 L
238.436 157.645 L
S
GR
GS
[0.78257 0 0 0.78197 0 0.22835] CT
1 0 0 RC
1 LJ
0.639 LW
N
234.042 140.197 M
231.214 136.75 L
235.331 138.461 L
S
GR
GS
[0.78257 0 0 0.78197 0 0.22835] CT
1 0 0 RC
1 LJ
0.639 LW
N
235.345 123.477 M
232.85 120.991 L
236.221 122.011 L
S
GR
GS
[0.78257 0 0 0.78197 0 0.22835] CT
1 0 0 RC
1 LJ
0.639 LW
N
240.635 107.79 M
240.163 107.472 L
240.73 107.53 L
S
GR
GS
[0.78257 0 0 0.78197 0 0.22835] CT
1 0 0 RC
1 LJ
0.639 LW
N
247.683 92.05 M
250.069 94.193 L
246.955 93.424 L
S
GR
GS
[0.78257 0 0 0.78197 0 0.22835] CT
1 0 0 RC
1 LJ
0.639 LW
N
281.523 195.648 M
288.379 196.289 L
282.028 198.95 L
S
GR
GS
[0.78257 0 0 0.78197 0 0.22835] CT
1 0 0 RC
1 LJ
0.639 LW
N
276.932 173.823 M
282.274 171.956 L
278.438 176.117 L
S
GR
GS
[0.78257 0 0 0.78197 0 0.22835] CT
1 0 0 RC
1 LJ
0.639 LW
N
272.884 154.55 M
276.506 151.475 L
274.757 155.893 L
S
GR
GS
[0.78257 0 0 0.78197 0 0.22835] CT
1 0 0 RC
1 LJ
0.639 LW
N
271.088 138.256 M
273.509 135.782 L
272.537 139.104 L
S
GR
GS
[0.78257 0 0 0.78197 0 0.22835] CT
1 0 0 RC
1 LJ
0.639 LW
N
272.3 124.111 M
274.546 123.792 L
272.714 125.131 L
S
GR
GS
[0.78257 0 0 0.78197 0 0.22835] CT
1 0 0 RC
1 LJ
0.639 LW
N
276.009 110.38 M
279.179 112.862 L
275.214 112.163 L
S
GR
GS
[0.78257 0 0 0.78197 0 0.22835] CT
1 0 0 RC
1 LJ
0.639 LW
N
280.651 95.15 M
285.455 99.899 L
278.982 97.97 L
S
GR
GS
[0.78257 0 0 0.78197 0 0.22835] CT
1 0 0 RC
1 LJ
0.639 LW
N
55.316 199.35 M
70.138 194.868 L
S
GR
GS
[0.78257 0 0 0.78197 0 0.22835] CT
1 0 0 RC
1 LJ
0.639 LW
N
55.316 181.089 M
73.365 170.266 L
S
GR
GS
[0.78257 0 0 0.78197 0 0.22835] CT
1 0 0 RC
1 LJ
0.639 LW
N
55.316 162.827 M
76.414 150.227 L
S
GR
GS
[0.78257 0 0 0.78197 0 0.22835] CT
1 0 0 RC
1 LJ
0.639 LW
N
55.316 144.565 M
77.999 135.502 L
S
GR
GS
[0.78257 0 0 0.78197 0 0.22835] CT
1 0 0 RC
1 LJ
0.639 LW
N
55.316 126.304 M
77.451 124.6 L
S
GR
GS
[0.78257 0 0 0.78197 0 0.22835] CT
1 0 0 RC
1 LJ
0.639 LW
N
55.316 108.042 M
75.001 114.415 L
S
GR
GS
[0.78257 0 0 0.78197 0 0.22835] CT
1 0 0 RC
1 LJ
0.639 LW
N
55.316 89.78 M
71.683 101.543 L
S
GR
GS
[0.78257 0 0 0.78197 0 0.22835] CT
1 0 0 RC
1 LJ
0.639 LW
N
81.947 199.35 M
84.91 198.484 L
S
GR
GS
[0.78257 0 0 0.78197 0 0.22835] CT
1 0 0 RC
1 LJ
0.639 LW
N
81.947 181.089 M
93.232 174.57 L
S
GR
GS
[0.78257 0 0 0.78197 0 0.22835] CT
1 0 0 RC
1 LJ
0.639 LW
N
81.947 162.827 M
101.093 153.405 L
S
GR
GS
[0.78257 0 0 0.78197 0 0.22835] CT
1 0 0 RC
1 LJ
0.639 LW
N
81.947 144.565 M
105.178 136.213 L
S
GR
GS
[0.78257 0 0 0.78197 0 0.22835] CT
1 0 0 RC
1 LJ
0.639 LW
N
81.947 126.304 M
103.765 122.544 L
S
GR
GS
[0.78257 0 0 0.78197 0 0.22835] CT
1 0 0 RC
1 LJ
0.639 LW
N
81.947 108.042 M
97.45 110.461 L
S
GR
GS
[0.78257 0 0 0.78197 0 0.22835] CT
1 0 0 RC
1 LJ
0.639 LW
N
81.947 89.78 M
88.895 97.357 L
S
GR
GS
[0.78257 0 0 0.78197 0 0.22835] CT
1 0 0 RC
1 LJ
0.639 LW
N
108.579 199.35 M
98.434 204.19 L
S
GR
GS
[0.78257 0 0 0.78197 0 0.22835] CT
1 0 0 RC
1 LJ
0.639 LW
N
108.579 181.089 M
108.339 181.362 L
S
GR
GS
[0.78257 0 0 0.78197 0 0.22835] CT
1 0 0 RC
1 LJ
0.639 LW
N
108.579 162.827 M
117.697 158.419 L
S
GR
GS
[0.78257 0 0 0.78197 0 0.22835] CT
1 0 0 RC
1 LJ
0.639 LW
N
108.579 144.565 M
122.561 137.335 L
S
GR
GS
[0.78257 0 0 0.78197 0 0.22835] CT
1 0 0 RC
1 LJ
0.639 LW
N
108.579 126.304 M
120.879 119.3 L
S
GR
GS
[0.78257 0 0 0.78197 0 0.22835] CT
1 0 0 RC
1 LJ
0.639 LW
N
108.579 108.042 M
113.361 104.219 L
S
GR
GS
[0.78257 0 0 0.78197 0 0.22835] CT
1 0 0 RC
1 LJ
0.639 LW
N
108.579 89.78 M
103.177 90.75 L
S
GR
GS
[0.78257 0 0 0.78197 0 0.22835] CT
1 0 0 RC
1 LJ
0.639 LW
N
135.211 199.35 M
116.235 209.58 L
S
GR
GS
[0.78257 0 0 0.78197 0 0.22835] CT
1 0 0 RC
1 LJ
0.639 LW
N
135.211 181.089 M
123.548 187.779 L
S
GR
GS
[0.78257 0 0 0.78197 0 0.22835] CT
1 0 0 RC
1 LJ
0.639 LW
N
135.211 162.827 M
130.457 163.156 L
S
GR
GS
[0.78257 0 0 0.78197 0 0.22835] CT
1 0 0 RC
1 LJ
0.639 LW
N
135.211 144.565 M
134.047 138.395 L
S
GR
GS
[0.78257 0 0 0.78197 0 0.22835] CT
1 0 0 RC
1 LJ
0.639 LW
N
135.211 126.304 M
132.805 116.236 L
S
GR
GS
[0.78257 0 0 0.78197 0 0.22835] CT
1 0 0 RC
1 LJ
0.639 LW
N
135.211 108.042 M
127.255 98.322 L
S
GR
GS
[0.78257 0 0 0.78197 0 0.22835] CT
1 0 0 RC
1 LJ
0.639 LW
N
135.211 89.78 M
119.737 84.508 L
S
GR
GS
[0.78257 0 0 0.78197 0 0.22835] CT
1 0 0 RC
1 LJ
0.639 LW
N
161.842 199.35 M
142.039 212.382 L
S
GR
GS
[0.78257 0 0 0.78197 0 0.22835] CT
1 0 0 RC
1 LJ
0.639 LW
N
161.842 181.089 M
143.675 191.114 L
S
GR
GS
[0.78257 0 0 0.78197 0 0.22835] CT
1 0 0 RC
1 LJ
0.639 LW
N
161.842 162.827 M
145.221 165.618 L
S
GR
GS
[0.78257 0 0 0.78197 0 0.22835] CT
1 0 0 RC
1 LJ
0.639 LW
N
161.842 144.565 M
146.024 138.946 L
S
GR
GS
[0.78257 0 0 0.78197 0 0.22835] CT
1 0 0 RC
1 LJ
0.639 LW
N
161.842 126.304 M
145.746 114.643 L
S
GR
GS
[0.78257 0 0 0.78197 0 0.22835] CT
1 0 0 RC
1 LJ
0.639 LW
N
161.842 108.042 M
144.504 95.258 L
S
GR
GS
[0.78257 0 0 0.78197 0 0.22835] CT
1 0 0 RC
1 LJ
0.639 LW
N
161.842 89.78 M
142.823 81.264 L
S
GR
GS
[0.78257 0 0 0.78197 0 0.22835] CT
1 0 0 RC
1 LJ
0.639 LW
N
188.474 199.35 M
176.194 211.413 L
S
GR
GS
[0.78257 0 0 0.78197 0 0.22835] CT
1 0 0 RC
1 LJ
0.639 LW
N
188.474 181.089 M
171.463 189.961 L
S
GR
GS
[0.78257 0 0 0.78197 0 0.22835] CT
1 0 0 RC
1 LJ
0.639 LW
N
188.474 162.827 M
166.994 164.767 L
S
GR
GS
[0.78257 0 0 0.78197 0 0.22835] CT
1 0 0 RC
1 LJ
0.639 LW
N
188.474 144.565 M
164.672 138.755 L
S
GR
GS
[0.78257 0 0 0.78197 0 0.22835] CT
1 0 0 RC
1 LJ
0.639 LW
N
188.474 126.304 M
165.475 115.194 L
S
GR
GS
[0.78257 0 0 0.78197 0 0.22835] CT
1 0 0 RC
1 LJ
0.639 LW
N
188.474 108.042 M
169.065 96.318 L
S
GR
GS
[0.78257 0 0 0.78197 0 0.22835] CT
1 0 0 RC
1 LJ
0.639 LW
N
188.474 89.78 M
173.929 82.386 L
S
GR
GS
[0.78257 0 0 0.78197 0 0.22835] CT
1 0 0 RC
1 LJ
0.639 LW
N
215.105 199.35 M
215.528 207.082 L
S
GR
GS
[0.78257 0 0 0.78197 0 0.22835] CT
1 0 0 RC
1 LJ
0.639 LW
N
215.105 181.089 M
206.425 184.805 L
S
GR
GS
[0.78257 0 0 0.78197 0 0.22835] CT
1 0 0 RC
1 LJ
0.639 LW
N
215.105 162.827 M
197.826 160.961 L
S
GR
GS
[0.78257 0 0 0.78197 0 0.22835] CT
1 0 0 RC
1 LJ
0.639 LW
N
215.105 144.565 M
193.357 137.904 L
S
GR
GS
[0.78257 0 0 0.78197 0 0.22835] CT
1 0 0 RC
1 LJ
0.639 LW
N
215.105 126.304 M
194.903 117.656 L
S
GR
GS
[0.78257 0 0 0.78197 0 0.22835] CT
1 0 0 RC
1 LJ
0.639 LW
N
215.105 108.042 M
201.811 101.055 L
S
GR
GS
[0.78257 0 0 0.78197 0 0.22835] CT
1 0 0 RC
1 LJ
0.639 LW
N
215.105 89.78 M
211.169 87.401 L
S
GR
GS
[0.78257 0 0 0.78197 0 0.22835] CT
1 0 0 RC
1 LJ
0.639 LW
N
241.737 199.35 M
254.683 201.216 L
S
GR
GS
[0.78257 0 0 0.78197 0 0.22835] CT
1 0 0 RC
1 LJ
0.639 LW
N
241.737 181.089 M
245.048 177.822 L
S
GR
GS
[0.78257 0 0 0.78197 0 0.22835] CT
1 0 0 RC
1 LJ
0.639 LW
N
241.737 162.827 M
235.945 155.806 L
S
GR
GS
[0.78257 0 0 0.78197 0 0.22835] CT
1 0 0 RC
1 LJ
0.639 LW
N
241.737 144.565 M
231.214 136.75 L
S
GR
GS
[0.78257 0 0 0.78197 0 0.22835] CT
1 0 0 RC
1 LJ
0.639 LW
N
241.737 126.304 M
232.85 120.991 L
S
GR
GS
[0.78257 0 0 0.78197 0 0.22835] CT
1 0 0 RC
1 LJ
0.639 LW
N
241.737 108.042 M
240.163 107.472 L
S
GR
GS
[0.78257 0 0 0.78197 0 0.22835] CT
1 0 0 RC
1 LJ
0.639 LW
N
241.737 89.78 M
250.069 94.193 L
S
GR
GS
[0.78257 0 0 0.78197 0 0.22835] CT
1 0 0 RC
1 LJ
0.639 LW
N
268.368 199.35 M
288.379 196.289 L
S
GR
GS
[0.78257 0 0 0.78197 0 0.22835] CT
1 0 0 RC
1 LJ
0.639 LW
N
268.368 181.089 M
282.274 171.956 L
S
GR
GS
[0.78257 0 0 0.78197 0 0.22835] CT
1 0 0 RC
1 LJ
0.639 LW
N
268.368 162.827 M
276.506 151.475 L
S
GR
GS
[0.78257 0 0 0.78197 0 0.22835] CT
1 0 0 RC
1 LJ
0.639 LW
N
268.368 144.565 M
273.509 135.782 L
S
GR
GS
[0.78257 0 0 0.78197 0 0.22835] CT
1 0 0 RC
1 LJ
0.639 LW
N
268.368 126.304 M
274.546 123.792 L
S
GR
GS
[0.78257 0 0 0.78197 0 0.22835] CT
1 0 0 RC
1 LJ
0.639 LW
N
268.368 108.042 M
279.179 112.862 L
S
GR
GS
[0.78257 0 0 0.78197 0 0.22835] CT
1 0 0 RC
1 LJ
0.639 LW
N
268.368 89.78 M
285.455 99.899 L
S
GR
GS
[0.78257 0 0 0.78197 0 0.22835] CT
0.149 GC
2 setlinecap
1 LJ
0.639 LW
N
42 226.743 M
295 226.743 L
S
GR
GS
[0.78257 0 0 0.78197 0 0.22835] CT
0.149 GC
2 setlinecap
1 LJ
0.639 LW
N
42 53.257 M
295 53.257 L
S
GR
GS
[0.78257 0 0 0.78197 0 0.22835] CT
0.149 GC
2 setlinecap
1 LJ
0.639 LW
N
42 226.743 M
42 224.213 L
S
GR
GS
[0.78257 0 0 0.78197 0 0.22835] CT
0.149 GC
2 setlinecap
1 LJ
0.639 LW
N
88.019 226.743 M
88.019 224.213 L
S
GR
GS
[0.78257 0 0 0.78197 0 0.22835] CT
0.149 GC
2 setlinecap
1 LJ
0.639 LW
N
134.037 226.743 M
134.037 224.213 L
S
GR
GS
[0.78257 0 0 0.78197 0 0.22835] CT
0.149 GC
2 setlinecap
1 LJ
0.639 LW
N
180.056 226.743 M
180.056 224.213 L
S
GR
GS
[0.78257 0 0 0.78197 0 0.22835] CT
0.149 GC
2 setlinecap
1 LJ
0.639 LW
N
226.074 226.743 M
226.074 224.213 L
S
GR
GS
[0.78257 0 0 0.78197 0 0.22835] CT
0.149 GC
2 setlinecap
1 LJ
0.639 LW
N
272.093 226.743 M
272.093 224.213 L
S
GR
GS
[0.78257 0 0 0.78197 0 0.22835] CT
0.149 GC
2 setlinecap
1 LJ
0.639 LW
N
42 53.257 M
42 55.787 L
S
GR
GS
[0.78257 0 0 0.78197 0 0.22835] CT
0.149 GC
2 setlinecap
1 LJ
0.639 LW
N
88.019 53.257 M
88.019 55.787 L
S
GR
GS
[0.78257 0 0 0.78197 0 0.22835] CT
0.149 GC
2 setlinecap
1 LJ
0.639 LW
N
134.037 53.257 M
134.037 55.787 L
S
GR
GS
[0.78257 0 0 0.78197 0 0.22835] CT
0.149 GC
2 setlinecap
1 LJ
0.639 LW
N
180.056 53.257 M
180.056 55.787 L
S
GR
GS
[0.78257 0 0 0.78197 0 0.22835] CT
0.149 GC
2 setlinecap
1 LJ
0.639 LW
N
226.074 53.257 M
226.074 55.787 L
S
GR
GS
[0.78257 0 0 0.78197 0 0.22835] CT
0.149 GC
2 setlinecap
1 LJ
0.639 LW
N
272.093 53.257 M
272.093 55.787 L
S
GR
GS
[0.78257 0 0 0.78197 32.86798 180.93196] CT
0.149 GC
/Helvetica 12.139 F
GS
[1 0 0 1 0 0] CT
-4 12 moveto 
1 -1 scale
(0) t 
GR
GR
GS
[0.78257 0 0 0.78197 68.88073 180.93196] CT
0.149 GC
/Helvetica 12.139 F
GS
[1 0 0 1 0 0] CT
-4 12 moveto 
1 -1 scale
(1) t 
GR
GR
GS
[0.78257 0 0 0.78197 104.89348 180.93196] CT
0.149 GC
/Helvetica 12.139 F
GS
[1 0 0 1 0 0] CT
-4 12 moveto 
1 -1 scale
(2) t 
GR
GR
GS
[0.78257 0 0 0.78197 140.90622 180.93196] CT
0.149 GC
/Helvetica 12.139 F
GS
[1 0 0 1 0 0] CT
-4 12 moveto 
1 -1 scale
(3) t 
GR
GR
GS
[0.78257 0 0 0.78197 176.91898 180.93196] CT
0.149 GC
/Helvetica 12.139 F
GS
[1 0 0 1 0 0] CT
-4 12 moveto 
1 -1 scale
(4) t 
GR
GR
GS
[0.78257 0 0 0.78197 212.93171 180.93196] CT
0.149 GC
/Helvetica 12.139 F
GS
[1 0 0 1 0 0] CT
-4 12 moveto 
1 -1 scale
(5) t 
GR
GR
GS
[0.78257 0 0 0.78197 0 0.22835] CT
0.149 GC
2 setlinecap
1 LJ
0.639 LW
N
42 226.743 M
42 53.257 L
S
GR
GS
[0.78257 0 0 0.78197 0 0.22835] CT
0.149 GC
2 setlinecap
1 LJ
0.639 LW
N
295 226.743 M
295 53.257 L
S
GR
GS
[0.78257 0 0 0.78197 0 0.22835] CT
0.149 GC
2 setlinecap
1 LJ
0.639 LW
N
42 226.743 M
44.53 226.743 L
S
GR
GS
[0.78257 0 0 0.78197 0 0.22835] CT
0.149 GC
2 setlinecap
1 LJ
0.639 LW
N
42 180.724 M
44.53 180.724 L
S
GR
GS
[0.78257 0 0 0.78197 0 0.22835] CT
0.149 GC
2 setlinecap
1 LJ
0.639 LW
N
42 134.706 M
44.53 134.706 L
S
GR
GS
[0.78257 0 0 0.78197 0 0.22835] CT
0.149 GC
2 setlinecap
1 LJ
0.639 LW
N
42 88.687 M
44.53 88.687 L
S
GR
GS
[0.78257 0 0 0.78197 0 0.22835] CT
0.149 GC
2 setlinecap
1 LJ
0.639 LW
N
295 226.743 M
292.47 226.743 L
S
GR
GS
[0.78257 0 0 0.78197 0 0.22835] CT
0.149 GC
2 setlinecap
1 LJ
0.639 LW
N
295 180.724 M
292.47 180.724 L
S
GR
GS
[0.78257 0 0 0.78197 0 0.22835] CT
0.149 GC
2 setlinecap
1 LJ
0.639 LW
N
295 134.706 M
292.47 134.706 L
S
GR
GS
[0.78257 0 0 0.78197 0 0.22835] CT
0.149 GC
2 setlinecap
1 LJ
0.639 LW
N
295 88.687 M
292.47 88.687 L
S
GR
GS
[0.78257 0 0 0.78197 29.46814 177.53474] CT
0.149 GC
/Helvetica 12.139 F
GS
[1 0 0 1 0 0] CT
-8 4.5 moveto 
1 -1 scale
(0) t 
GR
GR
GS
[0.78257 0 0 0.78197 29.46814 141.54958] CT
0.149 GC
/Helvetica 12.139 F
GS
[1 0 0 1 0 0] CT
-8 4.5 moveto 
1 -1 scale
(1) t 
GR
GR
GS
[0.78257 0 0 0.78197 29.46814 105.56443] CT
0.149 GC
/Helvetica 12.139 F
GS
[1 0 0 1 0 0] CT
-8 4.5 moveto 
1 -1 scale
(2) t 
GR
GR
GS
[0.78257 0 0 0.78197 29.46814 69.57927] CT
0.149 GC
/Helvetica 12.139 F
GS
[1 0 0 1 0 0] CT
-8 4.5 moveto 
1 -1 scale
(3) t 
GR
GR
%%Trailer
%%Pages: 1
%%EOF
