%!PS-Adobe-3.0 EPSF-3.0
%%Creator: (MATLAB, The Mathworks, Inc. Version 9.10.0.1684407 \(R2021a\) Update 3. Operating System: Linux)
%%Title: /home/adoan/Code/PRoSA_PI-ESN_Git/pi-esn/Results/MFE_results/Figures/FIG1_8.eps
%%CreationDate: 2021-07-21T18:46:05
%%Pages: (atend)
%%BoundingBox:     0     0   255   227
%%LanguageLevel: 3
%%EndComments
%%BeginProlog
%%BeginResource: procset (Apache XML Graphics Std ProcSet) 1.2 0
%%Version: 1.2 0
%%Copyright: (Copyright 2001-2003,2010 The Apache Software Foundation. License terms: http://www.apache.org/licenses/LICENSE-2.0)
/bd{bind def}bind def
/ld{load def}bd
/GR/grestore ld
/GS/gsave ld
/RM/rmoveto ld
/C/curveto ld
/t/show ld
/L/lineto ld
/ML/setmiterlimit ld
/CT/concat ld
/f/fill ld
/N/newpath ld
/S/stroke ld
/CC/setcmykcolor ld
/A/ashow ld
/cp/closepath ld
/RC/setrgbcolor ld
/LJ/setlinejoin ld
/GC/setgray ld
/LW/setlinewidth ld
/M/moveto ld
/re {4 2 roll M
1 index 0 rlineto
0 exch rlineto
neg 0 rlineto
cp } bd
/_ctm matrix def
/_tm matrix def
/BT { _ctm currentmatrix pop matrix _tm copy pop 0 0 moveto } bd
/ET { _ctm setmatrix } bd
/iTm { _ctm setmatrix _tm concat } bd
/Tm { _tm astore pop iTm 0 0 moveto } bd
/ux 0.0 def
/uy 0.0 def
/F {
  /Tp exch def
  /Tf exch def
  Tf findfont Tp scalefont setfont
  /cf Tf def  /cs Tp def
} bd
/ULS {currentpoint /uy exch def /ux exch def} bd
/ULE {
  /Tcx currentpoint pop def
  gsave
  newpath
  cf findfont cs scalefont dup
  /FontMatrix get 0 get /Ts exch def /FontInfo get dup
  /UnderlinePosition get Ts mul /To exch def
  /UnderlineThickness get Ts mul /Tt exch def
  ux uy To add moveto  Tcx uy To add lineto
  Tt setlinewidth stroke
  grestore
} bd
/OLE {
  /Tcx currentpoint pop def
  gsave
  newpath
  cf findfont cs scalefont dup
  /FontMatrix get 0 get /Ts exch def /FontInfo get dup
  /UnderlinePosition get Ts mul /To exch def
  /UnderlineThickness get Ts mul /Tt exch def
  ux uy To add cs add moveto Tcx uy To add cs add lineto
  Tt setlinewidth stroke
  grestore
} bd
/SOE {
  /Tcx currentpoint pop def
  gsave
  newpath
  cf findfont cs scalefont dup
  /FontMatrix get 0 get /Ts exch def /FontInfo get dup
  /UnderlinePosition get Ts mul /To exch def
  /UnderlineThickness get Ts mul /Tt exch def
  ux uy To add cs 10 mul 26 idiv add moveto Tcx uy To add cs 10 mul 26 idiv add lineto
  Tt setlinewidth stroke
  grestore
} bd
/QT {
/Y22 exch store
/X22 exch store
/Y21 exch store
/X21 exch store
currentpoint
/Y21 load 2 mul add 3 div exch
/X21 load 2 mul add 3 div exch
/X21 load 2 mul /X22 load add 3 div
/Y21 load 2 mul /Y22 load add 3 div
/X22 load /Y22 load curveto
} bd
/SSPD {
dup length /d exch dict def
{
/v exch def
/k exch def
currentpagedevice k known {
/cpdv currentpagedevice k get def
v cpdv ne {
/upd false def
/nullv v type /nulltype eq def
/nullcpdv cpdv type /nulltype eq def
nullv nullcpdv or
{
/upd true def
} {
/sametype v type cpdv type eq def
sametype {
v type /arraytype eq {
/vlen v length def
/cpdvlen cpdv length def
vlen cpdvlen eq {
0 1 vlen 1 sub {
/i exch def
/obj v i get def
/cpdobj cpdv i get def
obj cpdobj ne {
/upd true def
exit
} if
} for
} {
/upd true def
} ifelse
} {
v type /dicttype eq {
v {
/dv exch def
/dk exch def
/cpddv cpdv dk get def
dv cpddv ne {
/upd true def
exit
} if
} forall
} {
/upd true def
} ifelse
} ifelse
} if
} ifelse
upd true eq {
d k v put
} if
} if
} if
} forall
d length 0 gt {
d setpagedevice
} if
} bd
/RE { % /NewFontName [NewEncodingArray] /FontName RE -
  findfont dup length dict begin
  {
    1 index /FID ne
    {def} {pop pop} ifelse
  } forall
  /Encoding exch def
  /FontName 1 index def
  currentdict definefont pop
  end
} bind def
%%EndResource
%%BeginResource: procset (Apache XML Graphics EPS ProcSet) 1.0 0
%%Version: 1.0 0
%%Copyright: (Copyright 2002-2003 The Apache Software Foundation. License terms: http://www.apache.org/licenses/LICENSE-2.0)
/BeginEPSF { %def
/b4_Inc_state save def         % Save state for cleanup
/dict_count countdictstack def % Count objects on dict stack
/op_count count 1 sub def      % Count objects on operand stack
userdict begin                 % Push userdict on dict stack
/showpage { } def              % Redefine showpage, { } = null proc
0 setgray 0 setlinecap         % Prepare graphics state
1 setlinewidth 0 setlinejoin
10 setmiterlimit [ ] 0 setdash newpath
/languagelevel where           % If level not equal to 1 then
{pop languagelevel             % set strokeadjust and
1 ne                           % overprint to their defaults.
{false setstrokeadjust false setoverprint
} if
} if
} bd
/EndEPSF { %def
count op_count sub {pop} repeat            % Clean up stacks
countdictstack dict_count sub {end} repeat
b4_Inc_state restore
} bd
%%EndResource
%FOPBeginFontDict
%%IncludeResource: font Courier-Oblique
%%IncludeResource: font Courier-BoldOblique
%%IncludeResource: font Courier-Bold
%%IncludeResource: font ZapfDingbats
%%IncludeResource: font Symbol
%%IncludeResource: font Helvetica
%%IncludeResource: font Helvetica-Oblique
%%IncludeResource: font Helvetica-Bold
%%IncludeResource: font Helvetica-BoldOblique
%%IncludeResource: font Times-Roman
%%IncludeResource: font Times-Italic
%%IncludeResource: font Times-Bold
%%IncludeResource: font Times-BoldItalic
%%IncludeResource: font Courier
%FOPEndFontDict
%%BeginResource: encoding WinAnsiEncoding
/WinAnsiEncoding [
/.notdef /.notdef /.notdef /.notdef /.notdef
/.notdef /.notdef /.notdef /.notdef /.notdef
/.notdef /.notdef /.notdef /.notdef /.notdef
/.notdef /.notdef /.notdef /.notdef /.notdef
/.notdef /.notdef /.notdef /.notdef /.notdef
/.notdef /.notdef /.notdef /.notdef /.notdef
/.notdef /.notdef /space /exclam /quotedbl
/numbersign /dollar /percent /ampersand /quotesingle
/parenleft /parenright /asterisk /plus /comma
/hyphen /period /slash /zero /one
/two /three /four /five /six
/seven /eight /nine /colon /semicolon
/less /equal /greater /question /at
/A /B /C /D /E
/F /G /H /I /J
/K /L /M /N /O
/P /Q /R /S /T
/U /V /W /X /Y
/Z /bracketleft /backslash /bracketright /asciicircum
/underscore /quoteleft /a /b /c
/d /e /f /g /h
/i /j /k /l /m
/n /o /p /q /r
/s /t /u /v /w
/x /y /z /braceleft /bar
/braceright /asciitilde /bullet /Euro /bullet
/quotesinglbase /florin /quotedblbase /ellipsis /dagger
/daggerdbl /circumflex /perthousand /Scaron /guilsinglleft
/OE /bullet /Zcaron /bullet /bullet
/quoteleft /quoteright /quotedblleft /quotedblright /bullet
/endash /emdash /asciitilde /trademark /scaron
/guilsinglright /oe /bullet /zcaron /Ydieresis
/space /exclamdown /cent /sterling /currency
/yen /brokenbar /section /dieresis /copyright
/ordfeminine /guillemotleft /logicalnot /sfthyphen /registered
/macron /degree /plusminus /twosuperior /threesuperior
/acute /mu /paragraph /middot /cedilla
/onesuperior /ordmasculine /guillemotright /onequarter /onehalf
/threequarters /questiondown /Agrave /Aacute /Acircumflex
/Atilde /Adieresis /Aring /AE /Ccedilla
/Egrave /Eacute /Ecircumflex /Edieresis /Igrave
/Iacute /Icircumflex /Idieresis /Eth /Ntilde
/Ograve /Oacute /Ocircumflex /Otilde /Odieresis
/multiply /Oslash /Ugrave /Uacute /Ucircumflex
/Udieresis /Yacute /Thorn /germandbls /agrave
/aacute /acircumflex /atilde /adieresis /aring
/ae /ccedilla /egrave /eacute /ecircumflex
/edieresis /igrave /iacute /icircumflex /idieresis
/eth /ntilde /ograve /oacute /ocircumflex
/otilde /odieresis /divide /oslash /ugrave
/uacute /ucircumflex /udieresis /yacute /thorn
/ydieresis
] def
%%EndResource
%FOPBeginFontReencode
/Courier-Oblique findfont
dup length dict begin
  {1 index /FID ne {def} {pop pop} ifelse} forall
  /Encoding WinAnsiEncoding def
  currentdict
end
/Courier-Oblique exch definefont pop
/Courier-BoldOblique findfont
dup length dict begin
  {1 index /FID ne {def} {pop pop} ifelse} forall
  /Encoding WinAnsiEncoding def
  currentdict
end
/Courier-BoldOblique exch definefont pop
/Courier-Bold findfont
dup length dict begin
  {1 index /FID ne {def} {pop pop} ifelse} forall
  /Encoding WinAnsiEncoding def
  currentdict
end
/Courier-Bold exch definefont pop
/Helvetica findfont
dup length dict begin
  {1 index /FID ne {def} {pop pop} ifelse} forall
  /Encoding WinAnsiEncoding def
  currentdict
end
/Helvetica exch definefont pop
/Helvetica-Oblique findfont
dup length dict begin
  {1 index /FID ne {def} {pop pop} ifelse} forall
  /Encoding WinAnsiEncoding def
  currentdict
end
/Helvetica-Oblique exch definefont pop
/Helvetica-Bold findfont
dup length dict begin
  {1 index /FID ne {def} {pop pop} ifelse} forall
  /Encoding WinAnsiEncoding def
  currentdict
end
/Helvetica-Bold exch definefont pop
/Helvetica-BoldOblique findfont
dup length dict begin
  {1 index /FID ne {def} {pop pop} ifelse} forall
  /Encoding WinAnsiEncoding def
  currentdict
end
/Helvetica-BoldOblique exch definefont pop
/Times-Roman findfont
dup length dict begin
  {1 index /FID ne {def} {pop pop} ifelse} forall
  /Encoding WinAnsiEncoding def
  currentdict
end
/Times-Roman exch definefont pop
/Times-Italic findfont
dup length dict begin
  {1 index /FID ne {def} {pop pop} ifelse} forall
  /Encoding WinAnsiEncoding def
  currentdict
end
/Times-Italic exch definefont pop
/Times-Bold findfont
dup length dict begin
  {1 index /FID ne {def} {pop pop} ifelse} forall
  /Encoding WinAnsiEncoding def
  currentdict
end
/Times-Bold exch definefont pop
/Times-BoldItalic findfont
dup length dict begin
  {1 index /FID ne {def} {pop pop} ifelse} forall
  /Encoding WinAnsiEncoding def
  currentdict
end
/Times-BoldItalic exch definefont pop
/Courier findfont
dup length dict begin
  {1 index /FID ne {def} {pop pop} ifelse} forall
  /Encoding WinAnsiEncoding def
  currentdict
end
/Courier exch definefont pop
%FOPEndFontReencode
%%EndProlog
%%Page: 1 1
%%PageBoundingBox: 0 0 255 227
%%BeginPageSetup
[1 0 0 -1 0 227] CT
%%EndPageSetup
GS
[0.78257 0 0 0.78197 0 0.22835] CT
1 GC
N
0 0 326 290 re
f
GR
GS
[0.78257 0 0 0.78197 0 0.22835] CT
1 GC
N
0 0 326 290 re
f
GR
GS
[0.78257 0 0 0.78197 0 0.22835] CT
1 GC
N
42 226.743 M
295 226.743 L
295 53.257 L
42 53.257 L
cp
f
GR
GS
[0.78257 0 0 0.78197 0 0.22835] CT
0.216 0.459 0.996 RC
N
81.947 220.433 M
80.177 226.743 L
81.947 226.743 L
95.263 226.743 L
108.579 226.743 L
121.895 226.743 L
135.109 226.743 L
131.652 217.612 L
121.895 210.438 L
112.927 208.481 L
108.579 207.917 L
103.553 208.481 L
95.263 209.959 L
83.268 217.612 L
cp
208.641 153.696 M
215.105 157.187 L
228.421 159.398 L
241.737 157.607 L
250.051 153.696 L
255.053 148.542 L
257.246 144.565 L
257.246 135.435 L
255.053 131.458 L
250.051 126.304 L
241.737 122.393 L
228.421 120.602 L
215.105 122.813 L
208.641 126.304 L
201.789 135.016 L
201.596 135.435 L
201.596 144.565 L
201.789 144.984 L
cp
103.553 71.519 M
108.579 72.083 L
112.927 71.519 L
121.895 69.562 L
131.652 62.388 L
135.109 53.257 L
121.895 53.257 L
108.579 53.257 L
95.263 53.257 L
81.947 53.257 L
80.177 53.257 L
81.947 59.567 L
83.268 62.388 L
95.263 70.041 L
cp
f
GR
GS
[0.78257 0 0 0.78197 0 0.22835] CT
0.173 0.549 0.949 RC
N
61.661 217.612 M
60.54 226.743 L
68.632 226.743 L
80.177 226.743 L
81.947 220.433 L
83.268 217.612 L
95.263 209.959 L
103.553 208.481 L
108.579 207.917 L
112.927 208.481 L
121.895 210.438 L
131.652 217.612 L
135.109 226.743 L
135.211 226.743 L
148.526 226.743 L
154.577 226.743 L
153.733 217.612 L
150.616 208.481 L
148.526 205.535 L
140.461 199.35 L
135.211 197.258 L
121.895 194.956 L
108.579 194.52 L
95.263 195.413 L
81.947 197.995 L
78.246 199.35 L
68.632 205.325 L
65.739 208.481 L
cp
210.953 171.958 M
215.105 172.54 L
228.421 172.965 L
241.737 172.141 L
242.895 171.958 L
255.053 169.382 L
268.208 162.827 L
268.368 162.679 L
274.436 153.696 L
276.731 144.565 L
276.731 135.435 L
274.436 126.304 L
268.368 117.321 L
268.208 117.173 L
255.053 110.618 L
242.895 108.042 L
241.737 107.859 L
228.421 107.035 L
215.105 107.46 L
210.953 108.042 L
201.789 109.895 L
188.988 117.173 L
188.474 117.789 L
184.071 126.304 L
182.329 135.435 L
182.329 144.565 L
184.071 153.696 L
188.474 162.211 L
188.988 162.827 L
201.789 170.105 L
cp
215.105 157.187 M
208.641 153.696 L
201.789 144.984 L
201.596 144.565 L
201.596 135.435 L
201.789 135.016 L
208.641 126.304 L
215.105 122.813 L
228.421 120.602 L
241.737 122.393 L
250.051 126.304 L
255.053 131.458 L
257.246 135.435 L
257.246 144.565 L
255.053 148.542 L
250.051 153.696 L
241.737 157.607 L
228.421 159.398 L
cp
78.246 80.65 M
81.947 82.005 L
95.263 84.587 L
108.579 85.48 L
121.895 85.044 L
135.211 82.742 L
140.461 80.65 L
148.526 74.465 L
150.616 71.519 L
153.733 62.388 L
154.577 53.257 L
148.526 53.257 L
135.211 53.257 L
135.109 53.257 L
131.652 62.388 L
121.895 69.562 L
112.927 71.519 L
108.579 72.083 L
103.553 71.519 L
95.263 70.041 L
83.268 62.388 L
81.947 59.567 L
80.177 53.257 L
68.632 53.257 L
60.54 53.257 L
61.661 62.388 L
65.739 71.519 L
68.632 74.675 L
cp
f
GR
GS
[0.78257 0 0 0.78197 0 0.22835] CT
0.106 0.667 0.871 RC
N
44.533 217.612 M
44.397 226.743 L
55.316 226.743 L
60.54 226.743 L
61.661 217.612 L
65.739 208.481 L
68.632 205.325 L
78.246 199.35 L
81.947 197.995 L
95.263 195.413 L
108.579 194.52 L
121.895 194.956 L
135.211 197.258 L
140.461 199.35 L
148.526 205.535 L
150.616 208.481 L
153.733 217.612 L
154.577 226.743 L
161.842 226.743 L
170.841 226.743 L
170.977 217.612 L
171.475 208.481 L
172.817 199.35 L
175.158 193.632 L
178.291 190.22 L
188.474 186.695 L
201.789 185.23 L
215.105 184.487 L
228.421 183.95 L
241.737 183.45 L
255.053 182.856 L
268.368 181.909 L
274.815 181.089 L
281.684 179.388 L
289.734 171.958 L
291.792 162.827 L
292.507 153.696 L
292.77 144.565 L
292.77 135.435 L
292.507 126.304 L
291.792 117.173 L
289.734 108.042 L
281.684 100.612 L
274.815 98.911 L
268.368 98.091 L
255.053 97.144 L
241.737 96.55 L
228.421 96.05 L
215.105 95.513 L
201.789 94.77 L
188.474 93.305 L
178.291 89.78 L
175.158 86.368 L
172.817 80.65 L
171.475 71.519 L
170.977 62.388 L
170.841 53.257 L
161.842 53.257 L
154.577 53.257 L
153.733 62.388 L
150.616 71.519 L
148.526 74.465 L
140.461 80.65 L
135.211 82.742 L
121.895 85.044 L
108.579 85.48 L
95.263 84.587 L
81.947 82.005 L
78.246 80.65 L
68.632 74.675 L
65.739 71.519 L
61.661 62.388 L
60.54 53.257 L
55.316 53.257 L
44.397 53.257 L
44.533 62.388 L
45.031 71.519 L
46.352 80.65 L
51.512 89.78 L
55.316 91.802 L
68.632 94.443 L
81.947 95.449 L
95.263 96.074 L
108.579 96.592 L
121.895 97.141 L
135.211 97.893 L
145.564 98.911 L
148.526 99.374 L
161.842 106.225 L
162.869 108.042 L
165.127 117.173 L
165.894 126.304 L
166.173 135.435 L
166.173 144.565 L
165.894 153.696 L
165.127 162.827 L
162.869 171.958 L
161.842 173.775 L
148.526 180.626 L
145.564 181.089 L
135.211 182.107 L
121.895 182.859 L
108.579 183.408 L
95.263 183.926 L
81.947 184.551 L
68.632 185.557 L
55.316 188.198 L
51.512 190.22 L
46.352 199.35 L
45.031 208.481 L
cp
215.105 172.54 M
210.953 171.958 L
201.789 170.105 L
188.988 162.827 L
188.474 162.211 L
184.071 153.696 L
182.329 144.565 L
182.329 135.435 L
184.071 126.304 L
188.474 117.789 L
188.988 117.173 L
201.789 109.895 L
210.953 108.042 L
215.105 107.46 L
228.421 107.035 L
241.737 107.859 L
242.895 108.042 L
255.053 110.618 L
268.208 117.173 L
268.368 117.321 L
274.436 126.304 L
276.731 135.435 L
276.731 144.565 L
274.436 153.696 L
268.368 162.679 L
268.208 162.827 L
255.053 169.382 L
242.895 171.958 L
241.737 172.141 L
228.421 172.965 L
cp
f
GR
GS
[0.78257 0 0 0.78197 0 0.22835] CT
0.075 0.745 0.722 RC
N
42 217.612 M
42 226.743 L
44.397 226.743 L
44.533 217.612 L
45.031 208.481 L
46.352 199.35 L
51.512 190.22 L
55.316 188.198 L
68.632 185.557 L
81.947 184.551 L
95.263 183.926 L
108.579 183.408 L
121.895 182.859 L
135.211 182.107 L
145.564 181.089 L
148.526 180.626 L
161.842 173.775 L
162.869 171.958 L
165.127 162.827 L
165.894 153.696 L
166.173 144.565 L
166.173 135.435 L
165.894 126.304 L
165.127 117.173 L
162.869 108.042 L
161.842 106.225 L
148.526 99.374 L
145.564 98.911 L
135.211 97.893 L
121.895 97.141 L
108.579 96.592 L
95.263 96.074 L
81.947 95.449 L
68.632 94.443 L
55.316 91.802 L
51.512 89.78 L
46.352 80.65 L
45.031 71.519 L
44.533 62.388 L
44.397 53.257 L
42 53.257 L
42 62.388 L
42 71.519 L
42 80.65 L
42 89.78 L
42 98.911 L
42 108.042 L
42 117.173 L
42 126.304 L
42 135.435 L
42 144.565 L
42 153.696 L
42 162.827 L
42 171.958 L
42 181.089 L
42 190.22 L
42 199.35 L
42 208.481 L
cp
170.977 217.612 M
170.841 226.743 L
175.158 226.743 L
187.031 226.743 L
188.106 217.612 L
188.474 216.608 L
192.626 208.481 L
201.789 200.976 L
205.594 199.35 L
215.105 196.728 L
228.421 195.11 L
241.737 194.895 L
255.053 196.15 L
266.238 199.35 L
268.368 200.384 L
276.539 208.481 L
280.038 217.612 L
280.98 226.743 L
281.684 226.743 L
295 226.743 L
295 217.612 L
295 208.481 L
295 199.35 L
295 190.22 L
295 181.089 L
295 171.958 L
295 162.827 L
295 153.696 L
295 144.565 L
295 135.435 L
295 126.304 L
295 117.173 L
295 108.042 L
295 98.911 L
295 89.78 L
295 80.65 L
295 71.519 L
295 62.388 L
295 53.257 L
281.684 53.257 L
280.98 53.257 L
280.038 62.388 L
276.539 71.519 L
268.368 79.616 L
266.238 80.65 L
255.053 83.85 L
241.737 85.105 L
228.421 84.89 L
215.105 83.272 L
205.594 80.65 L
201.789 79.024 L
192.626 71.519 L
188.474 63.392 L
188.106 62.388 L
187.031 53.257 L
175.158 53.257 L
170.841 53.257 L
170.977 62.388 L
171.475 71.519 L
172.817 80.65 L
175.158 86.368 L
178.291 89.78 L
188.474 93.305 L
201.789 94.77 L
215.105 95.513 L
228.421 96.05 L
241.737 96.55 L
255.053 97.144 L
268.368 98.091 L
274.815 98.911 L
281.684 100.612 L
289.734 108.042 L
291.792 117.173 L
292.507 126.304 L
292.77 135.435 L
292.77 144.565 L
292.507 153.696 L
291.792 162.827 L
289.734 171.958 L
281.684 179.388 L
274.815 181.089 L
268.368 181.909 L
255.053 182.856 L
241.737 183.45 L
228.421 183.95 L
215.105 184.487 L
201.789 185.23 L
188.474 186.695 L
178.291 190.22 L
175.158 193.632 L
172.817 199.35 L
171.475 208.481 L
cp
95.263 172.63 M
87.038 171.958 L
81.947 171.4 L
68.632 167.06 L
63.068 162.827 L
57.678 153.696 L
55.748 144.565 L
55.748 135.435 L
57.678 126.304 L
63.068 117.173 L
68.632 112.94 L
81.947 108.6 L
87.038 108.042 L
95.263 107.37 L
108.579 107.593 L
112.701 108.042 L
121.895 109.306 L
135.211 113.612 L
140.777 117.173 L
147.764 126.304 L
148.526 128.785 L
150.089 135.435 L
150.089 144.565 L
148.526 151.215 L
147.764 153.696 L
140.777 162.827 L
135.211 166.388 L
121.895 170.694 L
112.701 171.958 L
108.579 172.407 L
cp
f
GR
GS
[0.78257 0 0 0.78197 0 0.22835] CT
0.278 0.796 0.525 RC
N
188.106 217.612 M
187.031 226.743 L
188.474 226.743 L
201.789 226.743 L
207.584 226.743 L
210.796 217.612 L
215.105 213.847 L
228.421 208.746 L
241.737 208.963 L
255.053 215.038 L
257.588 217.612 L
260.367 226.743 L
268.368 226.743 L
280.98 226.743 L
280.038 217.612 L
276.539 208.481 L
268.368 200.384 L
266.238 199.35 L
255.053 196.15 L
241.737 194.895 L
228.421 195.11 L
215.105 196.728 L
205.594 199.35 L
201.789 200.976 L
192.626 208.481 L
188.474 216.608 L
cp
87.038 171.958 M
95.263 172.63 L
108.579 172.407 L
112.701 171.958 L
121.895 170.694 L
135.211 166.388 L
140.777 162.827 L
147.764 153.696 L
148.526 151.215 L
150.089 144.565 L
150.089 135.435 L
148.526 128.785 L
147.764 126.304 L
140.777 117.173 L
135.211 113.612 L
121.895 109.306 L
112.701 108.042 L
108.579 107.593 L
95.263 107.37 L
87.038 108.042 L
81.947 108.6 L
68.632 112.94 L
63.068 117.173 L
57.678 126.304 L
55.748 135.435 L
55.748 144.565 L
57.678 153.696 L
63.068 162.827 L
68.632 167.06 L
81.947 171.4 L
cp
81.947 153.722 M
81.913 153.696 L
76.162 144.565 L
76.162 135.435 L
81.913 126.304 L
81.947 126.278 L
95.263 121.62 L
108.579 121.482 L
121.895 125.455 L
123.206 126.304 L
129.793 135.435 L
129.793 144.565 L
123.206 153.696 L
121.895 154.545 L
108.579 158.518 L
95.263 158.38 L
cp
205.594 80.65 M
215.105 83.272 L
228.421 84.89 L
241.737 85.105 L
255.053 83.85 L
266.238 80.65 L
268.368 79.616 L
276.539 71.519 L
280.038 62.388 L
280.98 53.257 L
268.368 53.257 L
260.367 53.257 L
257.588 62.388 L
255.053 64.962 L
241.737 71.037 L
228.421 71.254 L
215.105 66.153 L
210.796 62.388 L
207.584 53.257 L
201.789 53.257 L
188.474 53.257 L
187.031 53.257 L
188.106 62.388 L
188.474 63.392 L
192.626 71.519 L
201.789 79.024 L
cp
f
GR
GS
[0.78257 0 0 0.78197 0 0.22835] CT
0.627 0.784 0.251 RC
N
210.796 217.612 M
207.584 226.743 L
215.105 226.743 L
228.421 226.743 L
241.737 226.743 L
255.053 226.743 L
260.367 226.743 L
257.588 217.612 L
255.053 215.038 L
241.737 208.963 L
228.421 208.746 L
215.105 213.847 L
cp
81.913 153.696 M
81.947 153.722 L
95.263 158.38 L
108.579 158.518 L
121.895 154.545 L
123.206 153.696 L
129.793 144.565 L
129.793 135.435 L
123.206 126.304 L
121.895 125.455 L
108.579 121.482 L
95.263 121.62 L
81.947 126.278 L
81.913 126.304 L
76.162 135.435 L
76.162 144.565 L
cp
210.796 62.388 M
215.105 66.153 L
228.421 71.254 L
241.737 71.037 L
255.053 64.962 L
257.588 62.388 L
260.367 53.257 L
255.053 53.257 L
241.737 53.257 L
228.421 53.257 L
215.105 53.257 L
207.584 53.257 L
cp
f
GR
GS
[0.78257 0 0 0.78197 0 0.22835] CT
1 LJ
0.639 LW
N
80.177 226.743 M
81.947 220.433 L
83.268 217.612 L
S
GR
GS
[0.78257 0 0 0.78197 0 0.22835] CT
1 LJ
0.639 LW
N
131.652 217.612 M
135.109 226.743 L
S
GR
GS
[0.78257 0 0 0.78197 0 0.22835] CT
1 LJ
0.639 LW
N
83.268 217.612 M
95.263 209.959 L
103.553 208.481 L
S
GR
GS
[0.78257 0 0 0.78197 0 0.22835] CT
1 LJ
0.639 LW
N
112.927 208.481 M
121.895 210.438 L
131.652 217.612 L
S
GR
GS
[0.78257 0 0 0.78197 0 0.22835] CT
1 LJ
0.639 LW
N
103.553 208.481 M
108.579 207.917 L
112.927 208.481 L
S
GR
GS
[0.78257 0 0 0.78197 0 0.22835] CT
1 LJ
0.639 LW
N
250.051 153.696 M
241.737 157.607 L
228.421 159.398 L
215.105 157.187 L
208.641 153.696 L
S
GR
GS
[0.78257 0 0 0.78197 0 0.22835] CT
1 LJ
0.639 LW
N
208.641 153.696 M
201.789 144.984 L
201.596 144.565 L
S
GR
GS
[0.78257 0 0 0.78197 0 0.22835] CT
1 LJ
0.639 LW
N
257.246 144.565 M
255.053 148.542 L
250.051 153.696 L
S
GR
GS
[0.78257 0 0 0.78197 0 0.22835] CT
1 LJ
0.639 LW
N
201.596 144.565 M
201.596 135.435 L
S
GR
GS
[0.78257 0 0 0.78197 0 0.22835] CT
1 LJ
0.639 LW
N
257.246 135.435 M
257.246 144.565 L
S
GR
GS
[0.78257 0 0 0.78197 0 0.22835] CT
1 LJ
0.639 LW
N
201.596 135.435 M
201.789 135.016 L
208.641 126.304 L
S
GR
GS
[0.78257 0 0 0.78197 0 0.22835] CT
1 LJ
0.639 LW
N
250.051 126.304 M
255.053 131.458 L
257.246 135.435 L
S
GR
GS
[0.78257 0 0 0.78197 0 0.22835] CT
1 LJ
0.639 LW
N
208.641 126.304 M
215.105 122.813 L
228.421 120.602 L
241.737 122.393 L
250.051 126.304 L
S
GR
GS
[0.78257 0 0 0.78197 0 0.22835] CT
1 LJ
0.639 LW
N
112.927 71.519 M
108.579 72.083 L
103.553 71.519 L
S
GR
GS
[0.78257 0 0 0.78197 0 0.22835] CT
1 LJ
0.639 LW
N
103.553 71.519 M
95.263 70.041 L
83.268 62.388 L
S
GR
GS
[0.78257 0 0 0.78197 0 0.22835] CT
1 LJ
0.639 LW
N
131.652 62.388 M
121.895 69.562 L
112.927 71.519 L
S
GR
GS
[0.78257 0 0 0.78197 0 0.22835] CT
1 LJ
0.639 LW
N
83.268 62.388 M
81.947 59.567 L
80.177 53.257 L
S
GR
GS
[0.78257 0 0 0.78197 0 0.22835] CT
1 LJ
0.639 LW
N
135.109 53.257 M
131.652 62.388 L
S
GR
GS
[0.78257 0 0 0.78197 0 0.22835] CT
1 LJ
0.639 LW
N
60.54 226.743 M
61.661 217.612 L
S
GR
GS
[0.78257 0 0 0.78197 0 0.22835] CT
1 LJ
0.639 LW
N
153.733 217.612 M
154.577 226.743 L
S
GR
GS
[0.78257 0 0 0.78197 0 0.22835] CT
1 LJ
0.639 LW
N
61.661 217.612 M
65.739 208.481 L
S
GR
GS
[0.78257 0 0 0.78197 0 0.22835] CT
1 LJ
0.639 LW
N
150.616 208.481 M
153.733 217.612 L
S
GR
GS
[0.78257 0 0 0.78197 0 0.22835] CT
1 LJ
0.639 LW
N
65.739 208.481 M
68.632 205.325 L
78.246 199.35 L
S
GR
GS
[0.78257 0 0 0.78197 0 0.22835] CT
1 LJ
0.639 LW
N
140.461 199.35 M
148.526 205.535 L
150.616 208.481 L
S
GR
GS
[0.78257 0 0 0.78197 0 0.22835] CT
1 LJ
0.639 LW
N
78.246 199.35 M
81.947 197.995 L
95.263 195.413 L
108.579 194.52 L
121.895 194.956 L
135.211 197.258 L
140.461 199.35 L
S
GR
GS
[0.78257 0 0 0.78197 0 0.22835] CT
1 LJ
0.639 LW
N
242.895 171.958 M
241.737 172.141 L
228.421 172.965 L
215.105 172.54 L
210.953 171.958 L
S
GR
GS
[0.78257 0 0 0.78197 0 0.22835] CT
1 LJ
0.639 LW
N
210.953 171.958 M
201.789 170.105 L
188.988 162.827 L
S
GR
GS
[0.78257 0 0 0.78197 0 0.22835] CT
1 LJ
0.639 LW
N
268.208 162.827 M
255.053 169.382 L
242.895 171.958 L
S
GR
GS
[0.78257 0 0 0.78197 0 0.22835] CT
1 LJ
0.639 LW
N
188.988 162.827 M
188.474 162.211 L
184.071 153.696 L
S
GR
GS
[0.78257 0 0 0.78197 0 0.22835] CT
1 LJ
0.639 LW
N
274.436 153.696 M
268.368 162.679 L
268.208 162.827 L
S
GR
GS
[0.78257 0 0 0.78197 0 0.22835] CT
1 LJ
0.639 LW
N
184.071 153.696 M
182.329 144.565 L
S
GR
GS
[0.78257 0 0 0.78197 0 0.22835] CT
1 LJ
0.639 LW
N
276.731 144.565 M
274.436 153.696 L
S
GR
GS
[0.78257 0 0 0.78197 0 0.22835] CT
1 LJ
0.639 LW
N
182.329 144.565 M
182.329 135.435 L
S
GR
GS
[0.78257 0 0 0.78197 0 0.22835] CT
1 LJ
0.639 LW
N
276.731 135.435 M
276.731 144.565 L
S
GR
GS
[0.78257 0 0 0.78197 0 0.22835] CT
1 LJ
0.639 LW
N
182.329 135.435 M
184.071 126.304 L
S
GR
GS
[0.78257 0 0 0.78197 0 0.22835] CT
1 LJ
0.639 LW
N
274.436 126.304 M
276.731 135.435 L
S
GR
GS
[0.78257 0 0 0.78197 0 0.22835] CT
1 LJ
0.639 LW
N
184.071 126.304 M
188.474 117.789 L
188.988 117.173 L
S
GR
GS
[0.78257 0 0 0.78197 0 0.22835] CT
1 LJ
0.639 LW
N
268.208 117.173 M
268.368 117.321 L
274.436 126.304 L
S
GR
GS
[0.78257 0 0 0.78197 0 0.22835] CT
1 LJ
0.639 LW
N
188.988 117.173 M
201.789 109.895 L
210.953 108.042 L
S
GR
GS
[0.78257 0 0 0.78197 0 0.22835] CT
1 LJ
0.639 LW
N
242.895 108.042 M
255.053 110.618 L
268.208 117.173 L
S
GR
GS
[0.78257 0 0 0.78197 0 0.22835] CT
1 LJ
0.639 LW
N
210.953 108.042 M
215.105 107.46 L
228.421 107.035 L
241.737 107.859 L
242.895 108.042 L
S
GR
GS
[0.78257 0 0 0.78197 0 0.22835] CT
1 LJ
0.639 LW
N
140.461 80.65 M
135.211 82.742 L
121.895 85.044 L
108.579 85.48 L
95.263 84.587 L
81.947 82.005 L
78.246 80.65 L
S
GR
GS
[0.78257 0 0 0.78197 0 0.22835] CT
1 LJ
0.639 LW
N
78.246 80.65 M
68.632 74.675 L
65.739 71.519 L
S
GR
GS
[0.78257 0 0 0.78197 0 0.22835] CT
1 LJ
0.639 LW
N
150.616 71.519 M
148.526 74.465 L
140.461 80.65 L
S
GR
GS
[0.78257 0 0 0.78197 0 0.22835] CT
1 LJ
0.639 LW
N
65.739 71.519 M
61.661 62.388 L
S
GR
GS
[0.78257 0 0 0.78197 0 0.22835] CT
1 LJ
0.639 LW
N
153.733 62.388 M
150.616 71.519 L
S
GR
GS
[0.78257 0 0 0.78197 0 0.22835] CT
1 LJ
0.639 LW
N
61.661 62.388 M
60.54 53.257 L
S
GR
GS
[0.78257 0 0 0.78197 0 0.22835] CT
1 LJ
0.639 LW
N
154.577 53.257 M
153.733 62.388 L
S
GR
GS
[0.78257 0 0 0.78197 0 0.22835] CT
1 LJ
0.639 LW
N
44.397 226.743 M
44.533 217.612 L
S
GR
GS
[0.78257 0 0 0.78197 0 0.22835] CT
1 LJ
0.639 LW
N
170.977 217.612 M
170.841 226.743 L
S
GR
GS
[0.78257 0 0 0.78197 0 0.22835] CT
1 LJ
0.639 LW
N
44.533 217.612 M
45.031 208.481 L
S
GR
GS
[0.78257 0 0 0.78197 0 0.22835] CT
1 LJ
0.639 LW
N
171.475 208.481 M
170.977 217.612 L
S
GR
GS
[0.78257 0 0 0.78197 0 0.22835] CT
1 LJ
0.639 LW
N
45.031 208.481 M
46.352 199.35 L
S
GR
GS
[0.78257 0 0 0.78197 0 0.22835] CT
1 LJ
0.639 LW
N
172.817 199.35 M
171.475 208.481 L
S
GR
GS
[0.78257 0 0 0.78197 0 0.22835] CT
1 LJ
0.639 LW
N
46.352 199.35 M
51.512 190.22 L
S
GR
GS
[0.78257 0 0 0.78197 0 0.22835] CT
1 LJ
0.639 LW
N
178.291 190.22 M
175.158 193.632 L
172.817 199.35 L
S
GR
GS
[0.78257 0 0 0.78197 0 0.22835] CT
1 LJ
0.639 LW
N
51.512 190.22 M
55.316 188.198 L
68.632 185.557 L
81.947 184.551 L
95.263 183.926 L
108.579 183.408 L
121.895 182.859 L
135.211 182.107 L
145.564 181.089 L
S
GR
GS
[0.78257 0 0 0.78197 0 0.22835] CT
1 LJ
0.639 LW
N
274.815 181.089 M
268.368 181.909 L
255.053 182.856 L
241.737 183.45 L
228.421 183.95 L
215.105 184.487 L
201.789 185.23 L
188.474 186.695 L
178.291 190.22 L
S
GR
GS
[0.78257 0 0 0.78197 0 0.22835] CT
1 LJ
0.639 LW
N
145.564 181.089 M
148.526 180.626 L
161.842 173.775 L
162.869 171.958 L
S
GR
GS
[0.78257 0 0 0.78197 0 0.22835] CT
1 LJ
0.639 LW
N
289.734 171.958 M
281.684 179.388 L
274.815 181.089 L
S
GR
GS
[0.78257 0 0 0.78197 0 0.22835] CT
1 LJ
0.639 LW
N
162.869 171.958 M
165.127 162.827 L
S
GR
GS
[0.78257 0 0 0.78197 0 0.22835] CT
1 LJ
0.639 LW
N
291.792 162.827 M
289.734 171.958 L
S
GR
GS
[0.78257 0 0 0.78197 0 0.22835] CT
1 LJ
0.639 LW
N
165.127 162.827 M
165.894 153.696 L
S
GR
GS
[0.78257 0 0 0.78197 0 0.22835] CT
1 LJ
0.639 LW
N
292.507 153.696 M
291.792 162.827 L
S
GR
GS
[0.78257 0 0 0.78197 0 0.22835] CT
1 LJ
0.639 LW
N
165.894 153.696 M
166.173 144.565 L
S
GR
GS
[0.78257 0 0 0.78197 0 0.22835] CT
1 LJ
0.639 LW
N
292.77 144.565 M
292.507 153.696 L
S
GR
GS
[0.78257 0 0 0.78197 0 0.22835] CT
1 LJ
0.639 LW
N
166.173 144.565 M
166.173 135.435 L
S
GR
GS
[0.78257 0 0 0.78197 0 0.22835] CT
1 LJ
0.639 LW
N
292.77 135.435 M
292.77 144.565 L
S
GR
GS
[0.78257 0 0 0.78197 0 0.22835] CT
1 LJ
0.639 LW
N
166.173 135.435 M
165.894 126.304 L
S
GR
GS
[0.78257 0 0 0.78197 0 0.22835] CT
1 LJ
0.639 LW
N
292.507 126.304 M
292.77 135.435 L
S
GR
GS
[0.78257 0 0 0.78197 0 0.22835] CT
1 LJ
0.639 LW
N
165.894 126.304 M
165.127 117.173 L
S
GR
GS
[0.78257 0 0 0.78197 0 0.22835] CT
1 LJ
0.639 LW
N
291.792 117.173 M
292.507 126.304 L
S
GR
GS
[0.78257 0 0 0.78197 0 0.22835] CT
1 LJ
0.639 LW
N
165.127 117.173 M
162.869 108.042 L
S
GR
GS
[0.78257 0 0 0.78197 0 0.22835] CT
1 LJ
0.639 LW
N
289.734 108.042 M
291.792 117.173 L
S
GR
GS
[0.78257 0 0 0.78197 0 0.22835] CT
1 LJ
0.639 LW
N
162.869 108.042 M
161.842 106.225 L
148.526 99.374 L
145.564 98.911 L
S
GR
GS
[0.78257 0 0 0.78197 0 0.22835] CT
1 LJ
0.639 LW
N
274.815 98.911 M
281.684 100.612 L
289.734 108.042 L
S
GR
GS
[0.78257 0 0 0.78197 0 0.22835] CT
1 LJ
0.639 LW
N
145.564 98.911 M
135.211 97.893 L
121.895 97.141 L
108.579 96.592 L
95.263 96.074 L
81.947 95.449 L
68.632 94.443 L
55.316 91.802 L
51.512 89.78 L
S
GR
GS
[0.78257 0 0 0.78197 0 0.22835] CT
1 LJ
0.639 LW
N
178.291 89.78 M
188.474 93.305 L
201.789 94.77 L
215.105 95.513 L
228.421 96.05 L
241.737 96.55 L
255.053 97.144 L
268.368 98.091 L
274.815 98.911 L
S
GR
GS
[0.78257 0 0 0.78197 0 0.22835] CT
1 LJ
0.639 LW
N
51.512 89.78 M
46.352 80.65 L
S
GR
GS
[0.78257 0 0 0.78197 0 0.22835] CT
1 LJ
0.639 LW
N
172.817 80.65 M
175.158 86.368 L
178.291 89.78 L
S
GR
GS
[0.78257 0 0 0.78197 0 0.22835] CT
1 LJ
0.639 LW
N
46.352 80.65 M
45.031 71.519 L
S
GR
GS
[0.78257 0 0 0.78197 0 0.22835] CT
1 LJ
0.639 LW
N
171.475 71.519 M
172.817 80.65 L
S
GR
GS
[0.78257 0 0 0.78197 0 0.22835] CT
1 LJ
0.639 LW
N
45.031 71.519 M
44.533 62.388 L
S
GR
GS
[0.78257 0 0 0.78197 0 0.22835] CT
1 LJ
0.639 LW
N
170.977 62.388 M
171.475 71.519 L
S
GR
GS
[0.78257 0 0 0.78197 0 0.22835] CT
1 LJ
0.639 LW
N
44.533 62.388 M
44.397 53.257 L
S
GR
GS
[0.78257 0 0 0.78197 0 0.22835] CT
1 LJ
0.639 LW
N
170.841 53.257 M
170.977 62.388 L
S
GR
GS
[0.78257 0 0 0.78197 0 0.22835] CT
1 LJ
0.639 LW
N
188.106 217.612 M
187.031 226.743 L
S
GR
GS
[0.78257 0 0 0.78197 0 0.22835] CT
1 LJ
0.639 LW
N
280.98 226.743 M
280.038 217.612 L
S
GR
GS
[0.78257 0 0 0.78197 0 0.22835] CT
1 LJ
0.639 LW
N
192.626 208.481 M
188.474 216.608 L
188.106 217.612 L
S
GR
GS
[0.78257 0 0 0.78197 0 0.22835] CT
1 LJ
0.639 LW
N
280.038 217.612 M
276.539 208.481 L
S
GR
GS
[0.78257 0 0 0.78197 0 0.22835] CT
1 LJ
0.639 LW
N
205.594 199.35 M
201.789 200.976 L
192.626 208.481 L
S
GR
GS
[0.78257 0 0 0.78197 0 0.22835] CT
1 LJ
0.639 LW
N
276.539 208.481 M
268.368 200.384 L
266.238 199.35 L
S
GR
GS
[0.78257 0 0 0.78197 0 0.22835] CT
1 LJ
0.639 LW
N
266.238 199.35 M
255.053 196.15 L
241.737 194.895 L
228.421 195.11 L
215.105 196.728 L
205.594 199.35 L
S
GR
GS
[0.78257 0 0 0.78197 0 0.22835] CT
1 LJ
0.639 LW
N
87.038 171.958 M
95.263 172.63 L
108.579 172.407 L
112.701 171.958 L
S
GR
GS
[0.78257 0 0 0.78197 0 0.22835] CT
1 LJ
0.639 LW
N
63.068 162.827 M
68.632 167.06 L
81.947 171.4 L
87.038 171.958 L
S
GR
GS
[0.78257 0 0 0.78197 0 0.22835] CT
1 LJ
0.639 LW
N
112.701 171.958 M
121.895 170.694 L
135.211 166.388 L
140.777 162.827 L
S
GR
GS
[0.78257 0 0 0.78197 0 0.22835] CT
1 LJ
0.639 LW
N
57.678 153.696 M
63.068 162.827 L
S
GR
GS
[0.78257 0 0 0.78197 0 0.22835] CT
1 LJ
0.639 LW
N
140.777 162.827 M
147.764 153.696 L
S
GR
GS
[0.78257 0 0 0.78197 0 0.22835] CT
1 LJ
0.639 LW
N
55.748 144.565 M
57.678 153.696 L
S
GR
GS
[0.78257 0 0 0.78197 0 0.22835] CT
1 LJ
0.639 LW
N
147.764 153.696 M
148.526 151.215 L
150.089 144.565 L
S
GR
GS
[0.78257 0 0 0.78197 0 0.22835] CT
1 LJ
0.639 LW
N
55.748 135.435 M
55.748 144.565 L
S
GR
GS
[0.78257 0 0 0.78197 0 0.22835] CT
1 LJ
0.639 LW
N
150.089 144.565 M
150.089 135.435 L
S
GR
GS
[0.78257 0 0 0.78197 0 0.22835] CT
1 LJ
0.639 LW
N
57.678 126.304 M
55.748 135.435 L
S
GR
GS
[0.78257 0 0 0.78197 0 0.22835] CT
1 LJ
0.639 LW
N
150.089 135.435 M
148.526 128.785 L
147.764 126.304 L
S
GR
GS
[0.78257 0 0 0.78197 0 0.22835] CT
1 LJ
0.639 LW
N
63.068 117.173 M
57.678 126.304 L
S
GR
GS
[0.78257 0 0 0.78197 0 0.22835] CT
1 LJ
0.639 LW
N
147.764 126.304 M
140.777 117.173 L
S
GR
GS
[0.78257 0 0 0.78197 0 0.22835] CT
1 LJ
0.639 LW
N
87.038 108.042 M
81.947 108.6 L
68.632 112.94 L
63.068 117.173 L
S
GR
GS
[0.78257 0 0 0.78197 0 0.22835] CT
1 LJ
0.639 LW
N
140.777 117.173 M
135.211 113.612 L
121.895 109.306 L
112.701 108.042 L
S
GR
GS
[0.78257 0 0 0.78197 0 0.22835] CT
1 LJ
0.639 LW
N
112.701 108.042 M
108.579 107.593 L
95.263 107.37 L
87.038 108.042 L
S
GR
GS
[0.78257 0 0 0.78197 0 0.22835] CT
1 LJ
0.639 LW
N
205.594 80.65 M
215.105 83.272 L
228.421 84.89 L
241.737 85.105 L
255.053 83.85 L
266.238 80.65 L
S
GR
GS
[0.78257 0 0 0.78197 0 0.22835] CT
1 LJ
0.639 LW
N
192.626 71.519 M
201.789 79.024 L
205.594 80.65 L
S
GR
GS
[0.78257 0 0 0.78197 0 0.22835] CT
1 LJ
0.639 LW
N
266.238 80.65 M
268.368 79.616 L
276.539 71.519 L
S
GR
GS
[0.78257 0 0 0.78197 0 0.22835] CT
1 LJ
0.639 LW
N
188.106 62.388 M
188.474 63.392 L
192.626 71.519 L
S
GR
GS
[0.78257 0 0 0.78197 0 0.22835] CT
1 LJ
0.639 LW
N
276.539 71.519 M
280.038 62.388 L
S
GR
GS
[0.78257 0 0 0.78197 0 0.22835] CT
1 LJ
0.639 LW
N
187.031 53.257 M
188.106 62.388 L
S
GR
GS
[0.78257 0 0 0.78197 0 0.22835] CT
1 LJ
0.639 LW
N
280.038 62.388 M
280.98 53.257 L
S
GR
GS
[0.78257 0 0 0.78197 0 0.22835] CT
1 LJ
0.639 LW
N
210.796 217.612 M
207.584 226.743 L
S
GR
GS
[0.78257 0 0 0.78197 0 0.22835] CT
1 LJ
0.639 LW
N
260.367 226.743 M
257.588 217.612 L
S
GR
GS
[0.78257 0 0 0.78197 0 0.22835] CT
1 LJ
0.639 LW
N
257.588 217.612 M
255.053 215.038 L
241.737 208.963 L
228.421 208.746 L
215.105 213.847 L
210.796 217.612 L
S
GR
GS
[0.78257 0 0 0.78197 0 0.22835] CT
1 LJ
0.639 LW
N
81.913 153.696 M
81.947 153.722 L
95.263 158.38 L
108.579 158.518 L
121.895 154.545 L
123.206 153.696 L
S
GR
GS
[0.78257 0 0 0.78197 0 0.22835] CT
1 LJ
0.639 LW
N
76.162 144.565 M
81.913 153.696 L
S
GR
GS
[0.78257 0 0 0.78197 0 0.22835] CT
1 LJ
0.639 LW
N
123.206 153.696 M
129.793 144.565 L
S
GR
GS
[0.78257 0 0 0.78197 0 0.22835] CT
1 LJ
0.639 LW
N
76.162 135.435 M
76.162 144.565 L
S
GR
GS
[0.78257 0 0 0.78197 0 0.22835] CT
1 LJ
0.639 LW
N
129.793 144.565 M
129.793 135.435 L
S
GR
GS
[0.78257 0 0 0.78197 0 0.22835] CT
1 LJ
0.639 LW
N
81.913 126.304 M
76.162 135.435 L
S
GR
GS
[0.78257 0 0 0.78197 0 0.22835] CT
1 LJ
0.639 LW
N
129.793 135.435 M
123.206 126.304 L
S
GR
GS
[0.78257 0 0 0.78197 0 0.22835] CT
1 LJ
0.639 LW
N
123.206 126.304 M
121.895 125.455 L
108.579 121.482 L
95.263 121.62 L
81.947 126.278 L
81.913 126.304 L
S
GR
GS
[0.78257 0 0 0.78197 0 0.22835] CT
1 LJ
0.639 LW
N
210.796 62.388 M
215.105 66.153 L
228.421 71.254 L
241.737 71.037 L
255.053 64.962 L
257.588 62.388 L
S
GR
GS
[0.78257 0 0 0.78197 0 0.22835] CT
1 LJ
0.639 LW
N
207.584 53.257 M
210.796 62.388 L
S
GR
GS
[0.78257 0 0 0.78197 0 0.22835] CT
1 LJ
0.639 LW
N
257.588 62.388 M
260.367 53.257 L
S
GR
GS
[0.78257 0 0 0.78197 0 0.22835] CT
1 0 0 RC
1 LJ
0.639 LW
N
64.298 208.087 M
66.94 213.822 L
61.91 210.005 L
S
GR
GS
[0.78257 0 0 0.78197 0 0.22835] CT
1 0 0 RC
1 LJ
0.639 LW
N
62.608 180.74 M
66.1 181.896 L
62.475 182.519 L
S
GR
GS
[0.78257 0 0 0.78197 0 0.22835] CT
1 0 0 RC
1 LJ
0.639 LW
N
60.921 153.161 M
65.307 149.63 L
63.098 154.809 L
S
GR
GS
[0.78257 0 0 0.78197 0 0.22835] CT
1 0 0 RC
1 LJ
0.639 LW
N
59.948 129.279 M
64.894 122.929 L
63.518 130.859 L
S
GR
GS
[0.78257 0 0 0.78197 0 0.22835] CT
1 0 0 RC
1 LJ
0.639 LW
N
60.101 111.465 M
65.037 105.353 L
63.557 113.069 L
S
GR
GS
[0.78257 0 0 0.78197 0 0.22835] CT
1 0 0 RC
1 LJ
0.639 LW
N
61.313 99.53 M
65.674 96.612 L
63.199 101.239 L
S
GR
GS
[0.78257 0 0 0.78197 0 0.22835] CT
1 0 0 RC
1 LJ
0.639 LW
N
63.074 90.805 M
66.537 92.692 L
62.594 92.657 L
S
GR
GS
[0.78257 0 0 0.78197 0 0.22835] CT
1 0 0 RC
1 LJ
0.639 LW
N
88.545 207.741 M
90.128 212.881 L
86.312 209.091 L
S
GR
GS
[0.78257 0 0 0.78197 0 0.22835] CT
1 0 0 RC
1 LJ
0.639 LW
N
85.952 180.383 M
87.963 180.776 L
86.004 181.376 L
S
GR
GS
[0.78257 0 0 0.78197 0 0.22835] CT
1 0 0 RC
1 LJ
0.639 LW
N
83.451 153.103 M
85.918 148.803 L
85.765 153.759 L
S
GR
GS
[0.78257 0 0 0.78197 0 0.22835] CT
1 0 0 RC
1 LJ
0.639 LW
N
82.095 129.705 M
84.855 122.744 L
85.696 130.185 L
S
GR
GS
[0.78257 0 0 0.78197 0 0.22835] CT
1 0 0 RC
1 LJ
0.639 LW
N
82.457 112.355 M
85.223 105.888 L
85.826 112.895 L
S
GR
GS
[0.78257 0 0 0.78197 0 0.22835] CT
1 0 0 RC
1 LJ
0.639 LW
N
84.385 100.668 M
86.866 97.641 L
86.101 101.479 L
S
GR
GS
[0.78257 0 0 0.78197 0 0.22835] CT
1 0 0 RC
1 LJ
0.639 LW
N
87.064 91.871 M
89.092 93.781 L
86.404 93.05 L
S
GR
GS
[0.78257 0 0 0.78197 0 0.22835] CT
1 0 0 RC
1 LJ
0.639 LW
N
110.436 207.315 M
109.867 211.396 L
108.448 207.527 L
S
GR
GS
[0.78257 0 0 0.78197 0 0.22835] CT
1 0 0 RC
1 LJ
0.639 LW
N
107.544 179.802 M
107.29 179.009 L
107.887 179.589 L
S
GR
GS
[0.78257 0 0 0.78197 0 0.22835] CT
1 0 0 RC
1 LJ
0.639 LW
N
104.819 152.864 M
104.855 147.498 L
107.348 152.25 L
S
GR
GS
[0.78257 0 0 0.78197 0 0.22835] CT
1 0 0 RC
1 LJ
0.639 LW
N
103.412 130.161 M
103.59 122.452 L
107.06 129.338 L
S
GR
GS
[0.78257 0 0 0.78197 0 0.22835] CT
1 0 0 RC
1 LJ
0.639 LW
N
103.915 113.566 M
104.027 106.732 L
107.144 112.815 L
S
GR
GS
[0.78257 0 0 0.78197 0 0.22835] CT
1 0 0 RC
1 LJ
0.639 LW
N
106.116 102.376 M
105.983 99.265 L
107.564 101.947 L
S
GR
GS
[0.78257 0 0 0.78197 0 0.22835] CT
1 0 0 RC
1 LJ
0.639 LW
N
109.087 93.608 M
108.633 95.5 L
108.143 93.617 L
S
GR
GS
[0.78257 0 0 0.78197 0 0.22835] CT
1 0 0 RC
1 LJ
0.639 LW
N
131.969 206.989 M
129.062 209.994 L
130.213 205.974 L
S
GR
GS
[0.78257 0 0 0.78197 0 0.22835] CT
1 0 0 RC
1 LJ
0.639 LW
N
129.507 179.241 M
127.16 177.339 L
130.126 177.912 L
S
GR
GS
[0.78257 0 0 0.78197 0 0.22835] CT
1 0 0 RC
1 LJ
0.639 LW
N
127.246 152.544 M
125.362 146.266 L
129.979 150.919 L
S
GR
GS
[0.78257 0 0 0.78197 0 0.22835] CT
1 0 0 RC
1 LJ
0.639 LW
N
126.139 130.454 M
124.428 122.177 L
129.833 128.675 L
S
GR
GS
[0.78257 0 0 0.78197 0 0.22835] CT
1 0 0 RC
1 LJ
0.639 LW
N
126.654 114.588 M
124.751 107.529 L
129.752 112.862 L
S
GR
GS
[0.78257 0 0 0.78197 0 0.22835] CT
1 0 0 RC
1 LJ
0.639 LW
N
128.573 103.933 M
126.195 100.799 L
129.768 102.446 L
S
GR
GS
[0.78257 0 0 0.78197 0 0.22835] CT
1 0 0 RC
1 LJ
0.639 LW
N
131.087 95.283 M
128.151 97.124 L
129.875 94.118 L
S
GR
GS
[0.78257 0 0 0.78197 0 0.22835] CT
1 0 0 RC
1 LJ
0.639 LW
N
155.296 206.9 M
150.851 209.265 L
153.66 205.086 L
S
GR
GS
[0.78257 0 0 0.78197 0 0.22835] CT
1 0 0 RC
1 LJ
0.639 LW
N
153.812 178.937 M
150.425 176.472 L
154.574 177.053 L
S
GR
GS
[0.78257 0 0 0.78197 0 0.22835] CT
1 0 0 RC
1 LJ
0.639 LW
N
152.504 152.277 M
150.023 145.625 L
155.342 150.327 L
S
GR
GS
[0.78257 0 0 0.78197 0 0.22835] CT
1 0 0 RC
1 LJ
0.639 LW
N
151.924 130.461 M
149.814 122.033 L
155.642 128.477 L
S
GR
GS
[0.78257 0 0 0.78197 0 0.22835] CT
1 0 0 RC
1 LJ
0.639 LW
N
152.317 114.989 M
149.886 107.944 L
155.346 113.016 L
S
GR
GS
[0.78257 0 0 0.78197 0 0.22835] CT
1 0 0 RC
1 LJ
0.639 LW
N
153.516 104.683 M
150.209 101.597 L
154.58 102.764 L
S
GR
GS
[0.78257 0 0 0.78197 0 0.22835] CT
1 0 0 RC
1 LJ
0.639 LW
N
155.017 96.19 M
150.647 97.968 L
153.666 94.342 L
S
GR
GS
[0.78257 0 0 0.78197 0 0.22835] CT
1 0 0 RC
1 LJ
0.639 LW
N
181.809 207.086 M
177.274 209.517 L
180.131 205.238 L
S
GR
GS
[0.78257 0 0 0.78197 0 0.22835] CT
1 0 0 RC
1 LJ
0.639 LW
N
181.439 179.019 M
178.505 176.772 L
182.151 177.374 L
S
GR
GS
[0.78257 0 0 0.78197 0 0.22835] CT
1 0 0 RC
1 LJ
0.639 LW
N
181.173 152.177 M
179.668 145.847 L
183.975 150.724 L
S
GR
GS
[0.78257 0 0 0.78197 0 0.22835] CT
1 0 0 RC
1 LJ
0.639 LW
N
181.124 130.179 M
180.272 122.083 L
184.833 128.825 L
S
GR
GS
[0.78257 0 0 0.78197 0 0.22835] CT
1 0 0 RC
1 LJ
0.639 LW
N
181.312 114.6 M
180.063 107.8 L
184.365 113.213 L
S
GR
GS
[0.78257 0 0 0.78197 0 0.22835] CT
1 0 0 RC
1 LJ
0.639 LW
N
181.658 104.31 M
179.129 101.321 L
182.767 102.768 L
S
GR
GS
[0.78257 0 0 0.78197 0 0.22835] CT
1 0 0 RC
1 LJ
0.639 LW
N
182.016 95.946 M
177.864 97.676 L
180.714 94.195 L
S
GR
GS
[0.78257 0 0 0.78197 0 0.22835] CT
1 0 0 RC
1 LJ
0.639 LW
N
211.558 207.468 M
208.421 210.644 L
209.695 206.365 L
S
GR
GS
[0.78257 0 0 0.78197 0 0.22835] CT
1 0 0 RC
1 LJ
0.639 LW
N
211.968 179.451 M
210.789 178.113 L
212.459 178.739 L
S
GR
GS
[0.78257 0 0 0.78197 0 0.22835] CT
1 0 0 RC
1 LJ
0.639 LW
N
212.393 152.285 M
213.026 146.837 L
215.032 151.942 L
S
GR
GS
[0.78257 0 0 0.78197 0 0.22835] CT
1 0 0 RC
1 LJ
0.639 LW
N
212.655 129.726 M
214.189 122.304 L
216.328 129.575 L
S
GR
GS
[0.78257 0 0 0.78197 0 0.22835] CT
1 0 0 RC
1 LJ
0.639 LW
N
212.643 113.586 M
213.787 107.16 L
215.801 113.368 L
S
GR
GS
[0.78257 0 0 0.78197 0 0.22835] CT
1 0 0 RC
1 LJ
0.639 LW
N
212.362 102.97 M
211.99 100.088 L
213.674 102.456 L
S
GR
GS
[0.78257 0 0 0.78197 0 0.22835] CT
1 0 0 RC
1 LJ
0.639 LW
N
211.93 94.654 M
209.555 96.371 L
210.843 93.738 L
S
GR
GS
[0.78257 0 0 0.78197 0 0.22835] CT
1 0 0 RC
1 LJ
0.639 LW
N
243.23 207.886 M
242.386 212.17 L
241.114 207.993 L
S
GR
GS
[0.78257 0 0 0.78197 0 0.22835] CT
1 0 0 RC
1 LJ
0.639 LW
N
243.756 180.052 M
244.893 179.93 L
243.947 180.573 L
S
GR
GS
[0.78257 0 0 0.78197 0 0.22835] CT
1 0 0 RC
1 LJ
0.639 LW
N
244.23 152.557 M
247.262 148.178 L
246.647 153.468 L
S
GR
GS
[0.78257 0 0 0.78197 0 0.22835] CT
1 0 0 RC
1 LJ
0.639 LW
N
244.451 129.294 M
248.493 122.604 L
248.075 130.409 L
S
GR
GS
[0.78257 0 0 0.78197 0 0.22835] CT
1 0 0 RC
1 LJ
0.639 LW
N
244.327 112.374 M
248.067 106.292 L
247.629 113.418 L
S
GR
GS
[0.78257 0 0 0.78197 0 0.22835] CT
1 0 0 RC
1 LJ
0.639 LW
N
243.909 101.229 M
246.164 98.419 L
245.497 101.96 L
S
GR
GS
[0.78257 0 0 0.78197 0 0.22835] CT
1 0 0 RC
1 LJ
0.639 LW
N
243.374 92.86 M
243.587 94.604 L
242.578 93.165 L
S
GR
GS
[0.78257 0 0 0.78197 0 0.22835] CT
1 0 0 RC
1 LJ
0.639 LW
N
274.697 208.163 M
276.078 213.452 L
272.37 209.435 L
S
GR
GS
[0.78257 0 0 0.78197 0 0.22835] CT
1 0 0 RC
1 LJ
0.639 LW
N
274.628 180.568 M
277.666 181.456 L
274.568 182.102 L
S
GR
GS
[0.78257 0 0 0.78197 0 0.22835] CT
1 0 0 RC
1 LJ
0.639 LW
N
274.488 152.876 M
279.167 149.305 L
276.719 154.658 L
S
GR
GS
[0.78257 0 0 0.78197 0 0.22835] CT
1 0 0 RC
1 LJ
0.639 LW
N
274.335 129.065 M
279.947 122.857 L
277.917 130.976 L
S
GR
GS
[0.78257 0 0 0.78197 0 0.22835] CT
1 0 0 RC
1 LJ
0.639 LW
N
274.234 111.475 M
279.677 105.563 L
277.656 113.34 L
S
GR
GS
[0.78257 0 0 0.78197 0 0.22835] CT
1 0 0 RC
1 LJ
0.639 LW
N
274.228 99.821 M
278.472 97.016 L
276.047 101.488 L
S
GR
GS
[0.78257 0 0 0.78197 0 0.22835] CT
1 0 0 RC
1 LJ
0.639 LW
N
274.319 91.319 M
276.839 93.119 L
273.768 92.716 L
S
GR
GS
[0.78257 0 0 0.78197 0 0.22835] CT
1 0 0 RC
1 LJ
0.639 LW
N
55.316 199.35 M
66.94 213.822 L
S
GR
GS
[0.78257 0 0 0.78197 0 0.22835] CT
1 0 0 RC
1 LJ
0.639 LW
N
55.316 181.089 M
66.1 181.896 L
S
GR
GS
[0.78257 0 0 0.78197 0 0.22835] CT
1 0 0 RC
1 LJ
0.639 LW
N
55.316 162.827 M
65.307 149.63 L
S
GR
GS
[0.78257 0 0 0.78197 0 0.22835] CT
1 0 0 RC
1 LJ
0.639 LW
N
55.316 144.565 M
64.894 122.929 L
S
GR
GS
[0.78257 0 0 0.78197 0 0.22835] CT
1 0 0 RC
1 LJ
0.639 LW
N
55.316 126.304 M
65.037 105.353 L
S
GR
GS
[0.78257 0 0 0.78197 0 0.22835] CT
1 0 0 RC
1 LJ
0.639 LW
N
55.316 108.042 M
65.674 96.612 L
S
GR
GS
[0.78257 0 0 0.78197 0 0.22835] CT
1 0 0 RC
1 LJ
0.639 LW
N
55.316 89.78 M
66.537 92.692 L
S
GR
GS
[0.78257 0 0 0.78197 0 0.22835] CT
1 0 0 RC
1 LJ
0.639 LW
N
81.947 199.35 M
90.128 212.881 L
S
GR
GS
[0.78257 0 0 0.78197 0 0.22835] CT
1 0 0 RC
1 LJ
0.639 LW
N
81.947 181.089 M
87.963 180.776 L
S
GR
GS
[0.78257 0 0 0.78197 0 0.22835] CT
1 0 0 RC
1 LJ
0.639 LW
N
81.947 162.827 M
85.918 148.803 L
S
GR
GS
[0.78257 0 0 0.78197 0 0.22835] CT
1 0 0 RC
1 LJ
0.639 LW
N
81.947 144.565 M
84.855 122.744 L
S
GR
GS
[0.78257 0 0 0.78197 0 0.22835] CT
1 0 0 RC
1 LJ
0.639 LW
N
81.947 126.304 M
85.223 105.888 L
S
GR
GS
[0.78257 0 0 0.78197 0 0.22835] CT
1 0 0 RC
1 LJ
0.639 LW
N
81.947 108.042 M
86.866 97.641 L
S
GR
GS
[0.78257 0 0 0.78197 0 0.22835] CT
1 0 0 RC
1 LJ
0.639 LW
N
81.947 89.78 M
89.092 93.781 L
S
GR
GS
[0.78257 0 0 0.78197 0 0.22835] CT
1 0 0 RC
1 LJ
0.639 LW
N
108.579 199.35 M
109.867 211.396 L
S
GR
GS
[0.78257 0 0 0.78197 0 0.22835] CT
1 0 0 RC
1 LJ
0.639 LW
N
108.579 181.089 M
107.29 179.009 L
S
GR
GS
[0.78257 0 0 0.78197 0 0.22835] CT
1 0 0 RC
1 LJ
0.639 LW
N
108.579 162.827 M
104.855 147.498 L
S
GR
GS
[0.78257 0 0 0.78197 0 0.22835] CT
1 0 0 RC
1 LJ
0.639 LW
N
108.579 144.565 M
103.59 122.452 L
S
GR
GS
[0.78257 0 0 0.78197 0 0.22835] CT
1 0 0 RC
1 LJ
0.639 LW
N
108.579 126.304 M
104.027 106.732 L
S
GR
GS
[0.78257 0 0 0.78197 0 0.22835] CT
1 0 0 RC
1 LJ
0.639 LW
N
108.579 108.042 M
105.983 99.265 L
S
GR
GS
[0.78257 0 0 0.78197 0 0.22835] CT
1 0 0 RC
1 LJ
0.639 LW
N
108.579 89.78 M
108.633 95.5 L
S
GR
GS
[0.78257 0 0 0.78197 0 0.22835] CT
1 0 0 RC
1 LJ
0.639 LW
N
135.211 199.35 M
129.062 209.994 L
S
GR
GS
[0.78257 0 0 0.78197 0 0.22835] CT
1 0 0 RC
1 LJ
0.639 LW
N
135.211 181.089 M
127.16 177.339 L
S
GR
GS
[0.78257 0 0 0.78197 0 0.22835] CT
1 0 0 RC
1 LJ
0.639 LW
N
135.211 162.827 M
125.362 146.266 L
S
GR
GS
[0.78257 0 0 0.78197 0 0.22835] CT
1 0 0 RC
1 LJ
0.639 LW
N
135.211 144.565 M
124.428 122.177 L
S
GR
GS
[0.78257 0 0 0.78197 0 0.22835] CT
1 0 0 RC
1 LJ
0.639 LW
N
135.211 126.304 M
124.751 107.529 L
S
GR
GS
[0.78257 0 0 0.78197 0 0.22835] CT
1 0 0 RC
1 LJ
0.639 LW
N
135.211 108.042 M
126.195 100.799 L
S
GR
GS
[0.78257 0 0 0.78197 0 0.22835] CT
1 0 0 RC
1 LJ
0.639 LW
N
135.211 89.78 M
128.151 97.124 L
S
GR
GS
[0.78257 0 0 0.78197 0 0.22835] CT
1 0 0 RC
1 LJ
0.639 LW
N
161.842 199.35 M
150.851 209.265 L
S
GR
GS
[0.78257 0 0 0.78197 0 0.22835] CT
1 0 0 RC
1 LJ
0.639 LW
N
161.842 181.089 M
150.425 176.472 L
S
GR
GS
[0.78257 0 0 0.78197 0 0.22835] CT
1 0 0 RC
1 LJ
0.639 LW
N
161.842 162.827 M
150.023 145.625 L
S
GR
GS
[0.78257 0 0 0.78197 0 0.22835] CT
1 0 0 RC
1 LJ
0.639 LW
N
161.842 144.565 M
149.814 122.033 L
S
GR
GS
[0.78257 0 0 0.78197 0 0.22835] CT
1 0 0 RC
1 LJ
0.639 LW
N
161.842 126.304 M
149.886 107.944 L
S
GR
GS
[0.78257 0 0 0.78197 0 0.22835] CT
1 0 0 RC
1 LJ
0.639 LW
N
161.842 108.042 M
150.209 101.597 L
S
GR
GS
[0.78257 0 0 0.78197 0 0.22835] CT
1 0 0 RC
1 LJ
0.639 LW
N
161.842 89.78 M
150.647 97.968 L
S
GR
GS
[0.78257 0 0 0.78197 0 0.22835] CT
1 0 0 RC
1 LJ
0.639 LW
N
188.474 199.35 M
177.274 209.517 L
S
GR
GS
[0.78257 0 0 0.78197 0 0.22835] CT
1 0 0 RC
1 LJ
0.639 LW
N
188.474 181.089 M
178.505 176.772 L
S
GR
GS
[0.78257 0 0 0.78197 0 0.22835] CT
1 0 0 RC
1 LJ
0.639 LW
N
188.474 162.827 M
179.668 145.847 L
S
GR
GS
[0.78257 0 0 0.78197 0 0.22835] CT
1 0 0 RC
1 LJ
0.639 LW
N
188.474 144.565 M
180.272 122.083 L
S
GR
GS
[0.78257 0 0 0.78197 0 0.22835] CT
1 0 0 RC
1 LJ
0.639 LW
N
188.474 126.304 M
180.063 107.8 L
S
GR
GS
[0.78257 0 0 0.78197 0 0.22835] CT
1 0 0 RC
1 LJ
0.639 LW
N
188.474 108.042 M
179.129 101.321 L
S
GR
GS
[0.78257 0 0 0.78197 0 0.22835] CT
1 0 0 RC
1 LJ
0.639 LW
N
188.474 89.78 M
177.864 97.676 L
S
GR
GS
[0.78257 0 0 0.78197 0 0.22835] CT
1 0 0 RC
1 LJ
0.639 LW
N
215.105 199.35 M
208.421 210.644 L
S
GR
GS
[0.78257 0 0 0.78197 0 0.22835] CT
1 0 0 RC
1 LJ
0.639 LW
N
215.105 181.089 M
210.789 178.113 L
S
GR
GS
[0.78257 0 0 0.78197 0 0.22835] CT
1 0 0 RC
1 LJ
0.639 LW
N
215.105 162.827 M
213.026 146.837 L
S
GR
GS
[0.78257 0 0 0.78197 0 0.22835] CT
1 0 0 RC
1 LJ
0.639 LW
N
215.105 144.565 M
214.189 122.304 L
S
GR
GS
[0.78257 0 0 0.78197 0 0.22835] CT
1 0 0 RC
1 LJ
0.639 LW
N
215.105 126.304 M
213.787 107.16 L
S
GR
GS
[0.78257 0 0 0.78197 0 0.22835] CT
1 0 0 RC
1 LJ
0.639 LW
N
215.105 108.042 M
211.99 100.088 L
S
GR
GS
[0.78257 0 0 0.78197 0 0.22835] CT
1 0 0 RC
1 LJ
0.639 LW
N
215.105 89.78 M
209.555 96.371 L
S
GR
GS
[0.78257 0 0 0.78197 0 0.22835] CT
1 0 0 RC
1 LJ
0.639 LW
N
241.737 199.35 M
242.386 212.17 L
S
GR
GS
[0.78257 0 0 0.78197 0 0.22835] CT
1 0 0 RC
1 LJ
0.639 LW
N
241.737 181.089 M
244.893 179.93 L
S
GR
GS
[0.78257 0 0 0.78197 0 0.22835] CT
1 0 0 RC
1 LJ
0.639 LW
N
241.737 162.827 M
247.262 148.178 L
S
GR
GS
[0.78257 0 0 0.78197 0 0.22835] CT
1 0 0 RC
1 LJ
0.639 LW
N
241.737 144.565 M
248.493 122.604 L
S
GR
GS
[0.78257 0 0 0.78197 0 0.22835] CT
1 0 0 RC
1 LJ
0.639 LW
N
241.737 126.304 M
248.067 106.292 L
S
GR
GS
[0.78257 0 0 0.78197 0 0.22835] CT
1 0 0 RC
1 LJ
0.639 LW
N
241.737 108.042 M
246.164 98.419 L
S
GR
GS
[0.78257 0 0 0.78197 0 0.22835] CT
1 0 0 RC
1 LJ
0.639 LW
N
241.737 89.78 M
243.587 94.604 L
S
GR
GS
[0.78257 0 0 0.78197 0 0.22835] CT
1 0 0 RC
1 LJ
0.639 LW
N
268.368 199.35 M
276.078 213.452 L
S
GR
GS
[0.78257 0 0 0.78197 0 0.22835] CT
1 0 0 RC
1 LJ
0.639 LW
N
268.368 181.089 M
277.666 181.456 L
S
GR
GS
[0.78257 0 0 0.78197 0 0.22835] CT
1 0 0 RC
1 LJ
0.639 LW
N
268.368 162.827 M
279.167 149.305 L
S
GR
GS
[0.78257 0 0 0.78197 0 0.22835] CT
1 0 0 RC
1 LJ
0.639 LW
N
268.368 144.565 M
279.947 122.857 L
S
GR
GS
[0.78257 0 0 0.78197 0 0.22835] CT
1 0 0 RC
1 LJ
0.639 LW
N
268.368 126.304 M
279.677 105.563 L
S
GR
GS
[0.78257 0 0 0.78197 0 0.22835] CT
1 0 0 RC
1 LJ
0.639 LW
N
268.368 108.042 M
278.472 97.016 L
S
GR
GS
[0.78257 0 0 0.78197 0 0.22835] CT
1 0 0 RC
1 LJ
0.639 LW
N
268.368 89.78 M
276.839 93.119 L
S
GR
GS
[0.78257 0 0 0.78197 0 0.22835] CT
0.149 GC
2 setlinecap
1 LJ
0.639 LW
N
42 226.743 M
295 226.743 L
S
GR
GS
[0.78257 0 0 0.78197 0 0.22835] CT
0.149 GC
2 setlinecap
1 LJ
0.639 LW
N
42 53.257 M
295 53.257 L
S
GR
GS
[0.78257 0 0 0.78197 0 0.22835] CT
0.149 GC
2 setlinecap
1 LJ
0.639 LW
N
42 226.743 M
42 224.213 L
S
GR
GS
[0.78257 0 0 0.78197 0 0.22835] CT
0.149 GC
2 setlinecap
1 LJ
0.639 LW
N
88.019 226.743 M
88.019 224.213 L
S
GR
GS
[0.78257 0 0 0.78197 0 0.22835] CT
0.149 GC
2 setlinecap
1 LJ
0.639 LW
N
134.037 226.743 M
134.037 224.213 L
S
GR
GS
[0.78257 0 0 0.78197 0 0.22835] CT
0.149 GC
2 setlinecap
1 LJ
0.639 LW
N
180.056 226.743 M
180.056 224.213 L
S
GR
GS
[0.78257 0 0 0.78197 0 0.22835] CT
0.149 GC
2 setlinecap
1 LJ
0.639 LW
N
226.074 226.743 M
226.074 224.213 L
S
GR
GS
[0.78257 0 0 0.78197 0 0.22835] CT
0.149 GC
2 setlinecap
1 LJ
0.639 LW
N
272.093 226.743 M
272.093 224.213 L
S
GR
GS
[0.78257 0 0 0.78197 0 0.22835] CT
0.149 GC
2 setlinecap
1 LJ
0.639 LW
N
42 53.257 M
42 55.787 L
S
GR
GS
[0.78257 0 0 0.78197 0 0.22835] CT
0.149 GC
2 setlinecap
1 LJ
0.639 LW
N
88.019 53.257 M
88.019 55.787 L
S
GR
GS
[0.78257 0 0 0.78197 0 0.22835] CT
0.149 GC
2 setlinecap
1 LJ
0.639 LW
N
134.037 53.257 M
134.037 55.787 L
S
GR
GS
[0.78257 0 0 0.78197 0 0.22835] CT
0.149 GC
2 setlinecap
1 LJ
0.639 LW
N
180.056 53.257 M
180.056 55.787 L
S
GR
GS
[0.78257 0 0 0.78197 0 0.22835] CT
0.149 GC
2 setlinecap
1 LJ
0.639 LW
N
226.074 53.257 M
226.074 55.787 L
S
GR
GS
[0.78257 0 0 0.78197 0 0.22835] CT
0.149 GC
2 setlinecap
1 LJ
0.639 LW
N
272.093 53.257 M
272.093 55.787 L
S
GR
GS
[0.78257 0 0 0.78197 32.86798 180.93196] CT
0.149 GC
/Helvetica 12.139 F
GS
[1 0 0 1 0 0] CT
-4 12 moveto 
1 -1 scale
(0) t 
GR
GR
GS
[0.78257 0 0 0.78197 68.88073 180.93196] CT
0.149 GC
/Helvetica 12.139 F
GS
[1 0 0 1 0 0] CT
-4 12 moveto 
1 -1 scale
(1) t 
GR
GR
GS
[0.78257 0 0 0.78197 104.89348 180.93196] CT
0.149 GC
/Helvetica 12.139 F
GS
[1 0 0 1 0 0] CT
-4 12 moveto 
1 -1 scale
(2) t 
GR
GR
GS
[0.78257 0 0 0.78197 140.90622 180.93196] CT
0.149 GC
/Helvetica 12.139 F
GS
[1 0 0 1 0 0] CT
-4 12 moveto 
1 -1 scale
(3) t 
GR
GR
GS
[0.78257 0 0 0.78197 176.91898 180.93196] CT
0.149 GC
/Helvetica 12.139 F
GS
[1 0 0 1 0 0] CT
-4 12 moveto 
1 -1 scale
(4) t 
GR
GR
GS
[0.78257 0 0 0.78197 212.93171 180.93196] CT
0.149 GC
/Helvetica 12.139 F
GS
[1 0 0 1 0 0] CT
-4 12 moveto 
1 -1 scale
(5) t 
GR
GR
GS
[0.78257 0 0 0.78197 0 0.22835] CT
0.149 GC
2 setlinecap
1 LJ
0.639 LW
N
42 226.743 M
42 53.257 L
S
GR
GS
[0.78257 0 0 0.78197 0 0.22835] CT
0.149 GC
2 setlinecap
1 LJ
0.639 LW
N
295 226.743 M
295 53.257 L
S
GR
GS
[0.78257 0 0 0.78197 0 0.22835] CT
0.149 GC
2 setlinecap
1 LJ
0.639 LW
N
42 226.743 M
44.53 226.743 L
S
GR
GS
[0.78257 0 0 0.78197 0 0.22835] CT
0.149 GC
2 setlinecap
1 LJ
0.639 LW
N
42 180.724 M
44.53 180.724 L
S
GR
GS
[0.78257 0 0 0.78197 0 0.22835] CT
0.149 GC
2 setlinecap
1 LJ
0.639 LW
N
42 134.706 M
44.53 134.706 L
S
GR
GS
[0.78257 0 0 0.78197 0 0.22835] CT
0.149 GC
2 setlinecap
1 LJ
0.639 LW
N
42 88.687 M
44.53 88.687 L
S
GR
GS
[0.78257 0 0 0.78197 0 0.22835] CT
0.149 GC
2 setlinecap
1 LJ
0.639 LW
N
295 226.743 M
292.47 226.743 L
S
GR
GS
[0.78257 0 0 0.78197 0 0.22835] CT
0.149 GC
2 setlinecap
1 LJ
0.639 LW
N
295 180.724 M
292.47 180.724 L
S
GR
GS
[0.78257 0 0 0.78197 0 0.22835] CT
0.149 GC
2 setlinecap
1 LJ
0.639 LW
N
295 134.706 M
292.47 134.706 L
S
GR
GS
[0.78257 0 0 0.78197 0 0.22835] CT
0.149 GC
2 setlinecap
1 LJ
0.639 LW
N
295 88.687 M
292.47 88.687 L
S
GR
GS
[0.78257 0 0 0.78197 29.46814 177.53474] CT
0.149 GC
/Helvetica 12.139 F
GS
[1 0 0 1 0 0] CT
-8 4.5 moveto 
1 -1 scale
(0) t 
GR
GR
GS
[0.78257 0 0 0.78197 29.46814 141.54958] CT
0.149 GC
/Helvetica 12.139 F
GS
[1 0 0 1 0 0] CT
-8 4.5 moveto 
1 -1 scale
(1) t 
GR
GR
GS
[0.78257 0 0 0.78197 29.46814 105.56443] CT
0.149 GC
/Helvetica 12.139 F
GS
[1 0 0 1 0 0] CT
-8 4.5 moveto 
1 -1 scale
(2) t 
GR
GR
GS
[0.78257 0 0 0.78197 29.46814 69.57927] CT
0.149 GC
/Helvetica 12.139 F
GS
[1 0 0 1 0 0] CT
-8 4.5 moveto 
1 -1 scale
(3) t 
GR
GR
%%Trailer
%%Pages: 1
%%EOF
