%!PS-Adobe-3.0 EPSF-3.0
%%Creator: (MATLAB, The Mathworks, Inc. Version 9.10.0.1684407 \(R2021a\) Update 3. Operating System: Linux)
%%Title: /home/adoan/Code/PRoSA_PI-ESN_Git/pi-esn/Results/MFE_results/Figures/FIG1_4.eps
%%CreationDate: 2021-07-21T18:45:14
%%Pages: (atend)
%%BoundingBox:     0     0   255   227
%%LanguageLevel: 3
%%EndComments
%%BeginProlog
%%BeginResource: procset (Apache XML Graphics Std ProcSet) 1.2 0
%%Version: 1.2 0
%%Copyright: (Copyright 2001-2003,2010 The Apache Software Foundation. License terms: http://www.apache.org/licenses/LICENSE-2.0)
/bd{bind def}bind def
/ld{load def}bd
/GR/grestore ld
/GS/gsave ld
/RM/rmoveto ld
/C/curveto ld
/t/show ld
/L/lineto ld
/ML/setmiterlimit ld
/CT/concat ld
/f/fill ld
/N/newpath ld
/S/stroke ld
/CC/setcmykcolor ld
/A/ashow ld
/cp/closepath ld
/RC/setrgbcolor ld
/LJ/setlinejoin ld
/GC/setgray ld
/LW/setlinewidth ld
/M/moveto ld
/re {4 2 roll M
1 index 0 rlineto
0 exch rlineto
neg 0 rlineto
cp } bd
/_ctm matrix def
/_tm matrix def
/BT { _ctm currentmatrix pop matrix _tm copy pop 0 0 moveto } bd
/ET { _ctm setmatrix } bd
/iTm { _ctm setmatrix _tm concat } bd
/Tm { _tm astore pop iTm 0 0 moveto } bd
/ux 0.0 def
/uy 0.0 def
/F {
  /Tp exch def
  /Tf exch def
  Tf findfont Tp scalefont setfont
  /cf Tf def  /cs Tp def
} bd
/ULS {currentpoint /uy exch def /ux exch def} bd
/ULE {
  /Tcx currentpoint pop def
  gsave
  newpath
  cf findfont cs scalefont dup
  /FontMatrix get 0 get /Ts exch def /FontInfo get dup
  /UnderlinePosition get Ts mul /To exch def
  /UnderlineThickness get Ts mul /Tt exch def
  ux uy To add moveto  Tcx uy To add lineto
  Tt setlinewidth stroke
  grestore
} bd
/OLE {
  /Tcx currentpoint pop def
  gsave
  newpath
  cf findfont cs scalefont dup
  /FontMatrix get 0 get /Ts exch def /FontInfo get dup
  /UnderlinePosition get Ts mul /To exch def
  /UnderlineThickness get Ts mul /Tt exch def
  ux uy To add cs add moveto Tcx uy To add cs add lineto
  Tt setlinewidth stroke
  grestore
} bd
/SOE {
  /Tcx currentpoint pop def
  gsave
  newpath
  cf findfont cs scalefont dup
  /FontMatrix get 0 get /Ts exch def /FontInfo get dup
  /UnderlinePosition get Ts mul /To exch def
  /UnderlineThickness get Ts mul /Tt exch def
  ux uy To add cs 10 mul 26 idiv add moveto Tcx uy To add cs 10 mul 26 idiv add lineto
  Tt setlinewidth stroke
  grestore
} bd
/QT {
/Y22 exch store
/X22 exch store
/Y21 exch store
/X21 exch store
currentpoint
/Y21 load 2 mul add 3 div exch
/X21 load 2 mul add 3 div exch
/X21 load 2 mul /X22 load add 3 div
/Y21 load 2 mul /Y22 load add 3 div
/X22 load /Y22 load curveto
} bd
/SSPD {
dup length /d exch dict def
{
/v exch def
/k exch def
currentpagedevice k known {
/cpdv currentpagedevice k get def
v cpdv ne {
/upd false def
/nullv v type /nulltype eq def
/nullcpdv cpdv type /nulltype eq def
nullv nullcpdv or
{
/upd true def
} {
/sametype v type cpdv type eq def
sametype {
v type /arraytype eq {
/vlen v length def
/cpdvlen cpdv length def
vlen cpdvlen eq {
0 1 vlen 1 sub {
/i exch def
/obj v i get def
/cpdobj cpdv i get def
obj cpdobj ne {
/upd true def
exit
} if
} for
} {
/upd true def
} ifelse
} {
v type /dicttype eq {
v {
/dv exch def
/dk exch def
/cpddv cpdv dk get def
dv cpddv ne {
/upd true def
exit
} if
} forall
} {
/upd true def
} ifelse
} ifelse
} if
} ifelse
upd true eq {
d k v put
} if
} if
} if
} forall
d length 0 gt {
d setpagedevice
} if
} bd
/RE { % /NewFontName [NewEncodingArray] /FontName RE -
  findfont dup length dict begin
  {
    1 index /FID ne
    {def} {pop pop} ifelse
  } forall
  /Encoding exch def
  /FontName 1 index def
  currentdict definefont pop
  end
} bind def
%%EndResource
%%BeginResource: procset (Apache XML Graphics EPS ProcSet) 1.0 0
%%Version: 1.0 0
%%Copyright: (Copyright 2002-2003 The Apache Software Foundation. License terms: http://www.apache.org/licenses/LICENSE-2.0)
/BeginEPSF { %def
/b4_Inc_state save def         % Save state for cleanup
/dict_count countdictstack def % Count objects on dict stack
/op_count count 1 sub def      % Count objects on operand stack
userdict begin                 % Push userdict on dict stack
/showpage { } def              % Redefine showpage, { } = null proc
0 setgray 0 setlinecap         % Prepare graphics state
1 setlinewidth 0 setlinejoin
10 setmiterlimit [ ] 0 setdash newpath
/languagelevel where           % If level not equal to 1 then
{pop languagelevel             % set strokeadjust and
1 ne                           % overprint to their defaults.
{false setstrokeadjust false setoverprint
} if
} if
} bd
/EndEPSF { %def
count op_count sub {pop} repeat            % Clean up stacks
countdictstack dict_count sub {end} repeat
b4_Inc_state restore
} bd
%%EndResource
%FOPBeginFontDict
%%IncludeResource: font Courier-Oblique
%%IncludeResource: font Courier-BoldOblique
%%IncludeResource: font Courier-Bold
%%IncludeResource: font ZapfDingbats
%%IncludeResource: font Symbol
%%IncludeResource: font Helvetica
%%IncludeResource: font Helvetica-Oblique
%%IncludeResource: font Helvetica-Bold
%%IncludeResource: font Helvetica-BoldOblique
%%IncludeResource: font Times-Roman
%%IncludeResource: font Times-Italic
%%IncludeResource: font Times-Bold
%%IncludeResource: font Times-BoldItalic
%%IncludeResource: font Courier
%FOPEndFontDict
%%BeginResource: encoding WinAnsiEncoding
/WinAnsiEncoding [
/.notdef /.notdef /.notdef /.notdef /.notdef
/.notdef /.notdef /.notdef /.notdef /.notdef
/.notdef /.notdef /.notdef /.notdef /.notdef
/.notdef /.notdef /.notdef /.notdef /.notdef
/.notdef /.notdef /.notdef /.notdef /.notdef
/.notdef /.notdef /.notdef /.notdef /.notdef
/.notdef /.notdef /space /exclam /quotedbl
/numbersign /dollar /percent /ampersand /quotesingle
/parenleft /parenright /asterisk /plus /comma
/hyphen /period /slash /zero /one
/two /three /four /five /six
/seven /eight /nine /colon /semicolon
/less /equal /greater /question /at
/A /B /C /D /E
/F /G /H /I /J
/K /L /M /N /O
/P /Q /R /S /T
/U /V /W /X /Y
/Z /bracketleft /backslash /bracketright /asciicircum
/underscore /quoteleft /a /b /c
/d /e /f /g /h
/i /j /k /l /m
/n /o /p /q /r
/s /t /u /v /w
/x /y /z /braceleft /bar
/braceright /asciitilde /bullet /Euro /bullet
/quotesinglbase /florin /quotedblbase /ellipsis /dagger
/daggerdbl /circumflex /perthousand /Scaron /guilsinglleft
/OE /bullet /Zcaron /bullet /bullet
/quoteleft /quoteright /quotedblleft /quotedblright /bullet
/endash /emdash /asciitilde /trademark /scaron
/guilsinglright /oe /bullet /zcaron /Ydieresis
/space /exclamdown /cent /sterling /currency
/yen /brokenbar /section /dieresis /copyright
/ordfeminine /guillemotleft /logicalnot /sfthyphen /registered
/macron /degree /plusminus /twosuperior /threesuperior
/acute /mu /paragraph /middot /cedilla
/onesuperior /ordmasculine /guillemotright /onequarter /onehalf
/threequarters /questiondown /Agrave /Aacute /Acircumflex
/Atilde /Adieresis /Aring /AE /Ccedilla
/Egrave /Eacute /Ecircumflex /Edieresis /Igrave
/Iacute /Icircumflex /Idieresis /Eth /Ntilde
/Ograve /Oacute /Ocircumflex /Otilde /Odieresis
/multiply /Oslash /Ugrave /Uacute /Ucircumflex
/Udieresis /Yacute /Thorn /germandbls /agrave
/aacute /acircumflex /atilde /adieresis /aring
/ae /ccedilla /egrave /eacute /ecircumflex
/edieresis /igrave /iacute /icircumflex /idieresis
/eth /ntilde /ograve /oacute /ocircumflex
/otilde /odieresis /divide /oslash /ugrave
/uacute /ucircumflex /udieresis /yacute /thorn
/ydieresis
] def
%%EndResource
%FOPBeginFontReencode
/Courier-Oblique findfont
dup length dict begin
  {1 index /FID ne {def} {pop pop} ifelse} forall
  /Encoding WinAnsiEncoding def
  currentdict
end
/Courier-Oblique exch definefont pop
/Courier-BoldOblique findfont
dup length dict begin
  {1 index /FID ne {def} {pop pop} ifelse} forall
  /Encoding WinAnsiEncoding def
  currentdict
end
/Courier-BoldOblique exch definefont pop
/Courier-Bold findfont
dup length dict begin
  {1 index /FID ne {def} {pop pop} ifelse} forall
  /Encoding WinAnsiEncoding def
  currentdict
end
/Courier-Bold exch definefont pop
/Helvetica findfont
dup length dict begin
  {1 index /FID ne {def} {pop pop} ifelse} forall
  /Encoding WinAnsiEncoding def
  currentdict
end
/Helvetica exch definefont pop
/Helvetica-Oblique findfont
dup length dict begin
  {1 index /FID ne {def} {pop pop} ifelse} forall
  /Encoding WinAnsiEncoding def
  currentdict
end
/Helvetica-Oblique exch definefont pop
/Helvetica-Bold findfont
dup length dict begin
  {1 index /FID ne {def} {pop pop} ifelse} forall
  /Encoding WinAnsiEncoding def
  currentdict
end
/Helvetica-Bold exch definefont pop
/Helvetica-BoldOblique findfont
dup length dict begin
  {1 index /FID ne {def} {pop pop} ifelse} forall
  /Encoding WinAnsiEncoding def
  currentdict
end
/Helvetica-BoldOblique exch definefont pop
/Times-Roman findfont
dup length dict begin
  {1 index /FID ne {def} {pop pop} ifelse} forall
  /Encoding WinAnsiEncoding def
  currentdict
end
/Times-Roman exch definefont pop
/Times-Italic findfont
dup length dict begin
  {1 index /FID ne {def} {pop pop} ifelse} forall
  /Encoding WinAnsiEncoding def
  currentdict
end
/Times-Italic exch definefont pop
/Times-Bold findfont
dup length dict begin
  {1 index /FID ne {def} {pop pop} ifelse} forall
  /Encoding WinAnsiEncoding def
  currentdict
end
/Times-Bold exch definefont pop
/Times-BoldItalic findfont
dup length dict begin
  {1 index /FID ne {def} {pop pop} ifelse} forall
  /Encoding WinAnsiEncoding def
  currentdict
end
/Times-BoldItalic exch definefont pop
/Courier findfont
dup length dict begin
  {1 index /FID ne {def} {pop pop} ifelse} forall
  /Encoding WinAnsiEncoding def
  currentdict
end
/Courier exch definefont pop
%FOPEndFontReencode
%%EndProlog
%%Page: 1 1
%%PageBoundingBox: 0 0 255 227
%%BeginPageSetup
[1 0 0 -1 0 227] CT
%%EndPageSetup
GS
[0.78257 0 0 0.78197 0 0.22835] CT
1 GC
N
0 0 326 290 re
f
GR
GS
[0.78257 0 0 0.78197 0 0.22835] CT
1 GC
N
0 0 326 290 re
f
GR
GS
[0.78257 0 0 0.78197 0 0.22835] CT
1 GC
N
42 226.743 M
295 226.743 L
295 53.257 L
42 53.257 L
cp
f
GR
GS
[0.78257 0 0 0.78197 0 0.22835] CT
0.078 0.69 0.843 RC
N
65.827 217.612 M
64.128 226.743 L
68.632 226.743 L
81.947 226.743 L
95.263 226.743 L
108.579 226.743 L
118.473 226.743 L
115.035 217.612 L
108.579 212.04 L
100.325 208.481 L
95.263 207.03 L
81.947 206.653 L
75.986 208.481 L
68.632 213.233 L
cp
228.83 144.565 M
241.737 152.447 L
255.053 152.677 L
264.708 144.565 L
264.708 135.435 L
255.053 127.323 L
241.737 127.553 L
228.83 135.435 L
cp
75.986 71.519 M
81.947 73.347 L
95.263 72.97 L
100.325 71.519 L
108.579 67.96 L
115.035 62.388 L
118.473 53.257 L
108.579 53.257 L
95.263 53.257 L
81.947 53.257 L
68.632 53.257 L
64.128 53.257 L
65.827 62.388 L
68.632 66.767 L
cp
f
GR
GS
[0.78257 0 0 0.78197 0 0.22835] CT
0.043 0.702 0.824 RC
N
50.186 217.612 M
49.715 226.743 L
55.316 226.743 L
64.128 226.743 L
65.827 217.612 L
68.632 213.233 L
75.986 208.481 L
81.947 206.653 L
95.263 207.03 L
100.325 208.481 L
108.579 212.04 L
115.035 217.612 L
118.473 226.743 L
121.895 226.743 L
132.603 226.743 L
130.611 217.612 L
123.981 208.481 L
121.895 206.862 L
108.579 200.038 L
106.27 199.35 L
95.263 196.645 L
81.947 194.94 L
68.632 195.148 L
57.686 199.35 L
55.316 201.493 L
51.94 208.481 L
cp
231.966 162.827 M
241.737 165.352 L
255.053 166.975 L
268.368 166.283 L
276.37 162.827 L
281.684 156.908 L
283.048 153.696 L
284.641 144.565 L
284.641 135.435 L
283.048 126.304 L
281.684 123.092 L
276.37 117.173 L
268.368 113.717 L
255.053 113.026 L
241.737 114.648 L
231.966 117.173 L
228.421 118.387 L
215.299 126.304 L
215.105 126.544 L
210.237 135.435 L
210.237 144.565 L
215.105 153.456 L
215.299 153.696 L
228.421 161.613 L
cp
241.737 152.447 M
228.83 144.565 L
228.83 135.435 L
241.737 127.553 L
255.053 127.323 L
264.708 135.435 L
264.708 144.565 L
255.053 152.677 L
cp
57.686 80.65 M
68.632 84.852 L
81.947 85.06 L
95.263 83.355 L
106.27 80.65 L
108.579 79.962 L
121.895 73.138 L
123.981 71.519 L
130.611 62.388 L
132.603 53.257 L
121.895 53.257 L
118.473 53.257 L
115.035 62.388 L
108.579 67.96 L
100.325 71.519 L
95.263 72.97 L
81.947 73.347 L
75.986 71.519 L
68.632 66.767 L
65.827 62.388 L
64.128 53.257 L
55.316 53.257 L
49.715 53.257 L
50.186 62.388 L
51.94 71.519 L
55.316 78.507 L
cp
f
GR
GS
[0.78257 0 0 0.78197 0 0.22835] CT
0.004 0.718 0.792 RC
N
42 217.612 M
42 226.743 L
49.715 226.743 L
50.186 217.612 L
51.94 208.481 L
55.316 201.493 L
57.686 199.35 L
68.632 195.148 L
81.947 194.94 L
95.263 196.645 L
106.27 199.35 L
108.579 200.038 L
121.895 206.862 L
123.981 208.481 L
130.611 217.612 L
132.603 226.743 L
135.211 226.743 L
143.935 226.743 L
142.71 217.612 L
138.504 208.481 L
135.211 204.776 L
128.415 199.35 L
121.895 195.99 L
108.579 191.269 L
104.506 190.22 L
95.263 187.968 L
81.947 185.114 L
68.632 181.877 L
65.684 181.089 L
55.316 175.696 L
51.531 171.958 L
47.959 162.827 L
46.674 153.696 L
46.195 144.565 L
46.195 135.435 L
46.674 126.304 L
47.959 117.173 L
51.531 108.042 L
55.316 104.304 L
65.684 98.911 L
68.632 98.123 L
81.947 94.886 L
95.263 92.032 L
104.506 89.78 L
108.579 88.731 L
121.895 84.01 L
128.415 80.65 L
135.211 75.224 L
138.504 71.519 L
142.71 62.388 L
143.935 53.257 L
135.211 53.257 L
132.603 53.257 L
130.611 62.388 L
123.981 71.519 L
121.895 73.138 L
108.579 79.962 L
106.27 80.65 L
95.263 83.355 L
81.947 85.06 L
68.632 84.852 L
57.686 80.65 L
55.316 78.507 L
51.94 71.519 L
50.186 62.388 L
49.715 53.257 L
42 53.257 L
42 62.388 L
42 71.519 L
42 80.65 L
42 89.78 L
42 98.911 L
42 108.042 L
42 117.173 L
42 126.304 L
42 135.435 L
42 144.565 L
42 153.696 L
42 162.827 L
42 171.958 L
42 181.089 L
42 190.22 L
42 199.35 L
42 208.481 L
cp
292.041 217.612 M
292.176 226.743 L
295 226.743 L
295 217.612 L
295 208.481 L
295 199.35 L
295 190.22 L
295 181.089 L
295 171.958 L
295 162.827 L
295 153.696 L
295 144.565 L
295 135.435 L
295 126.304 L
295 117.173 L
295 108.042 L
295 98.911 L
295 89.78 L
295 80.65 L
295 71.519 L
295 62.388 L
295 53.257 L
292.176 53.257 L
292.041 62.388 L
291.565 71.519 L
290.428 80.65 L
287.224 89.78 L
281.684 94.763 L
271.852 98.911 L
268.368 99.71 L
255.053 102.637 L
241.737 105.363 L
230.562 108.042 L
228.421 108.62 L
215.105 113.688 L
208.85 117.173 L
201.789 123.846 L
199.888 126.304 L
196.662 135.435 L
196.662 144.565 L
199.888 153.696 L
201.789 156.154 L
208.85 162.827 L
215.105 166.312 L
228.421 171.38 L
230.562 171.958 L
241.737 174.637 L
255.053 177.363 L
268.368 180.29 L
271.852 181.089 L
281.684 185.237 L
287.224 190.22 L
290.428 199.35 L
291.565 208.481 L
cp
241.737 165.352 M
231.966 162.827 L
228.421 161.613 L
215.299 153.696 L
215.105 153.456 L
210.237 144.565 L
210.237 135.435 L
215.105 126.544 L
215.299 126.304 L
228.421 118.387 L
231.966 117.173 L
241.737 114.648 L
255.053 113.026 L
268.368 113.717 L
276.37 117.173 L
281.684 123.092 L
283.048 126.304 L
284.641 135.435 L
284.641 144.565 L
283.048 153.696 L
281.684 156.908 L
276.37 162.827 L
268.368 166.283 L
255.053 166.975 L
cp
f
GR
GS
[0.78257 0 0 0.78197 0 0.22835] CT
0.008 0.729 0.761 RC
N
142.71 217.612 M
143.935 226.743 L
148.526 226.743 L
154.461 226.743 L
153.77 217.612 L
151.338 208.481 L
148.526 203.413 L
145.55 199.35 L
135.211 192.015 L
131.42 190.22 L
121.895 186.889 L
108.579 183.251 L
100.118 181.089 L
95.263 179.777 L
81.947 175.518 L
74.013 171.958 L
68.632 168.147 L
63.395 162.827 L
59.04 153.696 L
57.343 144.565 L
57.343 135.435 L
59.04 126.304 L
63.395 117.173 L
68.632 111.853 L
74.013 108.042 L
81.947 104.482 L
95.263 100.223 L
100.118 98.911 L
108.579 96.749 L
121.895 93.111 L
131.42 89.78 L
135.211 87.985 L
145.55 80.65 L
148.526 76.587 L
151.338 71.519 L
153.77 62.388 L
154.461 53.257 L
148.526 53.257 L
143.935 53.257 L
142.71 62.388 L
138.504 71.519 L
135.211 75.224 L
128.415 80.65 L
121.895 84.01 L
108.579 88.731 L
104.506 89.78 L
95.263 92.032 L
81.947 94.886 L
68.632 98.123 L
65.684 98.911 L
55.316 104.304 L
51.531 108.042 L
47.959 117.173 L
46.674 126.304 L
46.195 135.435 L
46.195 144.565 L
46.674 153.696 L
47.959 162.827 L
51.531 171.958 L
55.316 175.696 L
65.684 181.089 L
68.632 181.877 L
81.947 185.114 L
95.263 187.968 L
104.506 190.22 L
108.579 191.269 L
121.895 195.99 L
128.415 199.35 L
135.211 204.776 L
138.504 208.481 L
cp
281.737 217.612 M
282.344 226.743 L
292.176 226.743 L
292.041 217.612 L
291.565 208.481 L
290.428 199.35 L
287.224 190.22 L
281.684 185.237 L
271.852 181.089 L
268.368 180.29 L
255.053 177.363 L
241.737 174.637 L
230.562 171.958 L
228.421 171.38 L
215.105 166.312 L
208.85 162.827 L
201.789 156.154 L
199.888 153.696 L
196.662 144.565 L
196.662 135.435 L
199.888 126.304 L
201.789 123.846 L
208.85 117.173 L
215.105 113.688 L
228.421 108.62 L
230.562 108.042 L
241.737 105.363 L
255.053 102.637 L
268.368 99.71 L
271.852 98.911 L
281.684 94.763 L
287.224 89.78 L
290.428 80.65 L
291.565 71.519 L
292.041 62.388 L
292.176 53.257 L
282.344 53.257 L
281.737 62.388 L
281.684 62.651 L
279.615 71.519 L
274.804 80.65 L
268.368 86.555 L
263.09 89.78 L
255.053 93.092 L
241.737 97.032 L
234.275 98.911 L
228.421 100.386 L
215.105 104.043 L
204.139 108.042 L
201.789 109.277 L
191.546 117.173 L
188.474 122.162 L
186.467 126.304 L
184.576 135.435 L
184.576 144.565 L
186.467 153.696 L
188.474 157.838 L
191.546 162.827 L
201.789 170.723 L
204.139 171.958 L
215.105 175.957 L
228.421 179.614 L
234.275 181.089 L
241.737 182.968 L
255.053 186.908 L
263.09 190.22 L
268.368 193.445 L
274.804 199.35 L
279.615 208.481 L
281.684 217.349 L
cp
f
GR
GS
[0.78257 0 0 0.78197 0 0.22835] CT
0.075 0.745 0.722 RC
N
153.77 217.612 M
154.461 226.743 L
161.842 226.743 L
164.865 226.743 L
164.67 217.612 L
163.969 208.481 L
162.179 199.35 L
161.842 198.409 L
157.413 190.22 L
148.526 184.998 L
135.211 181.124 L
135.08 181.089 L
121.895 178.177 L
108.579 175.157 L
97.215 171.958 L
95.263 171.304 L
81.947 164.839 L
79.083 162.827 L
71.53 153.696 L
68.632 145.178 L
68.459 144.565 L
68.459 135.435 L
68.632 134.822 L
71.53 126.304 L
79.083 117.173 L
81.947 115.161 L
95.263 108.696 L
97.215 108.042 L
108.579 104.843 L
121.895 101.823 L
135.08 98.911 L
135.211 98.876 L
148.526 95.002 L
157.413 89.78 L
161.842 81.591 L
162.179 80.65 L
163.969 71.519 L
164.67 62.388 L
164.865 53.257 L
161.842 53.257 L
154.461 53.257 L
153.77 62.388 L
151.338 71.519 L
148.526 76.587 L
145.55 80.65 L
135.211 87.985 L
131.42 89.78 L
121.895 93.111 L
108.579 96.749 L
100.118 98.911 L
95.263 100.223 L
81.947 104.482 L
74.013 108.042 L
68.632 111.853 L
63.395 117.173 L
59.04 126.304 L
57.343 135.435 L
57.343 144.565 L
59.04 153.696 L
63.395 162.827 L
68.632 168.147 L
74.013 171.958 L
81.947 175.518 L
95.263 179.777 L
100.118 181.089 L
108.579 183.251 L
121.895 186.889 L
131.42 190.22 L
135.211 192.015 L
145.55 199.35 L
148.526 203.413 L
151.338 208.481 L
cp
271.326 217.612 M
272.373 226.743 L
281.684 226.743 L
282.344 226.743 L
281.737 217.612 L
281.684 217.349 L
279.615 208.481 L
274.804 199.35 L
268.368 193.445 L
263.09 190.22 L
255.053 186.908 L
241.737 182.968 L
234.275 181.089 L
228.421 179.614 L
215.105 175.957 L
204.139 171.958 L
201.789 170.723 L
191.546 162.827 L
188.474 157.838 L
186.467 153.696 L
184.576 144.565 L
184.576 135.435 L
186.467 126.304 L
188.474 122.162 L
191.546 117.173 L
201.789 109.277 L
204.139 108.042 L
215.105 104.043 L
228.421 100.386 L
234.275 98.911 L
241.737 97.032 L
255.053 93.092 L
263.09 89.78 L
268.368 86.555 L
274.804 80.65 L
279.615 71.519 L
281.684 62.651 L
281.737 62.388 L
282.344 53.257 L
281.684 53.257 L
272.373 53.257 L
271.326 62.388 L
268.368 70.044 L
267.645 71.519 L
258.948 80.65 L
255.053 83.107 L
241.737 88.796 L
238.402 89.78 L
228.421 92.413 L
215.105 95.27 L
201.789 98.085 L
197.826 98.911 L
188.474 102.012 L
178.995 108.042 L
175.158 116.215 L
174.843 117.173 L
173.266 126.304 L
172.712 135.435 L
172.712 144.565 L
173.266 153.696 L
174.843 162.827 L
175.158 163.785 L
178.995 171.958 L
188.474 177.988 L
197.826 181.089 L
201.789 181.915 L
215.105 184.73 L
228.421 187.587 L
238.402 190.22 L
241.737 191.204 L
255.053 196.893 L
258.948 199.35 L
267.645 208.481 L
268.368 209.956 L
cp
f
GR
GS
[0.78257 0 0 0.78197 0 0.22835] CT
0.133 0.757 0.686 RC
N
164.67 217.612 M
164.865 226.743 L
175.158 226.743 L
175.732 226.743 L
176.193 217.612 L
177.907 208.481 L
182.685 199.35 L
188.474 195.078 L
201.789 192.877 L
215.105 193.64 L
228.421 195.988 L
239.419 199.35 L
241.737 200.257 L
254.261 208.481 L
255.053 209.412 L
259.937 217.612 L
261.572 226.743 L
268.368 226.743 L
272.373 226.743 L
271.326 217.612 L
268.368 209.956 L
267.645 208.481 L
258.948 199.35 L
255.053 196.893 L
241.737 191.204 L
238.402 190.22 L
228.421 187.587 L
215.105 184.73 L
201.789 181.915 L
197.826 181.089 L
188.474 177.988 L
178.995 171.958 L
175.158 163.785 L
174.843 162.827 L
173.266 153.696 L
172.712 144.565 L
172.712 135.435 L
173.266 126.304 L
174.843 117.173 L
175.158 116.215 L
178.995 108.042 L
188.474 102.012 L
197.826 98.911 L
201.789 98.085 L
215.105 95.27 L
228.421 92.413 L
238.402 89.78 L
241.737 88.796 L
255.053 83.107 L
258.948 80.65 L
267.645 71.519 L
268.368 70.044 L
271.326 62.388 L
272.373 53.257 L
268.368 53.257 L
261.572 53.257 L
259.937 62.388 L
255.053 70.588 L
254.261 71.519 L
241.737 79.743 L
239.419 80.65 L
228.421 84.012 L
215.105 86.36 L
201.789 87.123 L
188.474 84.922 L
182.685 80.65 L
177.907 71.519 L
176.193 62.388 L
175.732 53.257 L
175.158 53.257 L
164.865 53.257 L
164.67 62.388 L
163.969 71.519 L
162.179 80.65 L
161.842 81.591 L
157.413 89.78 L
148.526 95.002 L
135.211 98.876 L
135.08 98.911 L
121.895 101.823 L
108.579 104.843 L
97.215 108.042 L
95.263 108.696 L
81.947 115.161 L
79.083 117.173 L
71.53 126.304 L
68.632 134.822 L
68.459 135.435 L
68.459 144.565 L
68.632 145.178 L
71.53 153.696 L
79.083 162.827 L
81.947 164.839 L
95.263 171.304 L
97.215 171.958 L
108.579 175.157 L
121.895 178.177 L
135.08 181.089 L
135.211 181.124 L
148.526 184.998 L
157.413 190.22 L
161.842 198.409 L
162.179 199.35 L
163.969 208.481 L
cp
108.579 166.218 M
98.739 162.827 L
95.263 161.148 L
85.751 153.696 L
81.947 147.17 L
80.834 144.565 L
80.834 135.435 L
81.947 132.83 L
85.751 126.304 L
95.263 118.852 L
98.739 117.173 L
108.579 113.782 L
121.895 111.118 L
135.211 110.219 L
148.526 112.589 L
154.238 117.173 L
158.497 126.304 L
159.88 135.435 L
159.88 144.565 L
158.497 153.696 L
154.238 162.827 L
148.526 167.411 L
135.211 169.781 L
121.895 168.882 L
cp
f
GR
GS
[0.78257 0 0 0.78197 0 0.22835] CT
0.173 0.765 0.651 RC
N
176.193 217.612 M
175.732 226.743 L
188.474 226.743 L
188.556 226.743 L
190.335 217.612 L
197.318 208.481 L
201.789 205.848 L
215.105 203.937 L
228.421 205.911 L
234.859 208.481 L
241.737 212.845 L
246.037 217.612 L
248.682 226.743 L
255.053 226.743 L
261.572 226.743 L
259.937 217.612 L
255.053 209.412 L
254.261 208.481 L
241.737 200.257 L
239.419 199.35 L
228.421 195.988 L
215.105 193.64 L
201.789 192.877 L
188.474 195.078 L
182.685 199.35 L
177.907 208.481 L
cp
98.739 162.827 M
108.579 166.218 L
121.895 168.882 L
135.211 169.781 L
148.526 167.411 L
154.238 162.827 L
158.497 153.696 L
159.88 144.565 L
159.88 135.435 L
158.497 126.304 L
154.238 117.173 L
148.526 112.589 L
135.211 110.219 L
121.895 111.118 L
108.579 113.782 L
98.739 117.173 L
95.263 118.852 L
85.751 126.304 L
81.947 132.83 L
80.834 135.435 L
80.834 144.565 L
81.947 147.17 L
85.751 153.696 L
95.263 161.148 L
cp
108.579 154.577 M
106.775 153.696 L
97.124 144.565 L
97.124 135.435 L
106.775 126.304 L
108.579 125.423 L
121.895 122.927 L
135.211 125.131 L
137.014 126.304 L
142.919 135.435 L
142.919 144.565 L
137.014 153.696 L
135.211 154.869 L
121.895 157.073 L
cp
182.685 80.65 M
188.474 84.922 L
201.789 87.123 L
215.105 86.36 L
228.421 84.012 L
239.419 80.65 L
241.737 79.743 L
254.261 71.519 L
255.053 70.588 L
259.937 62.388 L
261.572 53.257 L
255.053 53.257 L
248.682 53.257 L
246.037 62.388 L
241.737 67.155 L
234.859 71.519 L
228.421 74.089 L
215.105 76.063 L
201.789 74.152 L
197.318 71.519 L
190.335 62.388 L
188.556 53.257 L
188.474 53.257 L
175.732 53.257 L
176.193 62.388 L
177.907 71.519 L
cp
f
GR
GS
[0.78257 0 0 0.78197 0 0.22835] CT
0.2 0.776 0.612 RC
N
190.335 217.612 M
188.556 226.743 L
201.789 226.743 L
212.438 226.743 L
215.105 223.168 L
225.292 226.743 L
228.421 226.743 L
241.737 226.743 L
248.682 226.743 L
246.037 217.612 L
241.737 212.845 L
234.859 208.481 L
228.421 205.911 L
215.105 203.937 L
201.789 205.848 L
197.318 208.481 L
cp
106.775 153.696 M
108.579 154.577 L
121.895 157.073 L
135.211 154.869 L
137.014 153.696 L
142.919 144.565 L
142.919 135.435 L
137.014 126.304 L
135.211 125.131 L
121.895 122.927 L
108.579 125.423 L
106.775 126.304 L
97.124 135.435 L
97.124 144.565 L
cp
197.318 71.519 M
201.789 74.152 L
215.105 76.063 L
228.421 74.089 L
234.859 71.519 L
241.737 67.155 L
246.037 62.388 L
248.682 53.257 L
241.737 53.257 L
228.421 53.257 L
225.292 53.257 L
215.105 56.832 L
212.438 53.257 L
201.789 53.257 L
188.556 53.257 L
190.335 62.388 L
cp
f
GR
GS
[0.78257 0 0 0.78197 0 0.22835] CT
0.231 0.788 0.569 RC
N
215.105 223.168 M
212.438 226.743 L
215.105 226.743 L
225.292 226.743 L
cp
215.105 53.257 M
212.438 53.257 L
215.105 56.832 L
225.292 53.257 L
cp
f
GR
GS
[0.78257 0 0 0.78197 0 0.22835] CT
1 LJ
0.639 LW
N
64.128 226.743 M
65.827 217.612 L
S
GR
GS
[0.78257 0 0 0.78197 0 0.22835] CT
1 LJ
0.639 LW
N
115.035 217.612 M
118.473 226.743 L
S
GR
GS
[0.78257 0 0 0.78197 0 0.22835] CT
1 LJ
0.639 LW
N
65.827 217.612 M
68.632 213.233 L
75.986 208.481 L
S
GR
GS
[0.78257 0 0 0.78197 0 0.22835] CT
1 LJ
0.639 LW
N
100.325 208.481 M
108.579 212.04 L
115.035 217.612 L
S
GR
GS
[0.78257 0 0 0.78197 0 0.22835] CT
1 LJ
0.639 LW
N
75.986 208.481 M
81.947 206.653 L
95.263 207.03 L
100.325 208.481 L
S
GR
GS
[0.78257 0 0 0.78197 0 0.22835] CT
1 LJ
0.639 LW
N
264.708 144.565 M
255.053 152.677 L
241.737 152.447 L
228.83 144.565 L
S
GR
GS
[0.78257 0 0 0.78197 0 0.22835] CT
1 LJ
0.639 LW
N
228.83 144.565 M
228.83 135.435 L
S
GR
GS
[0.78257 0 0 0.78197 0 0.22835] CT
1 LJ
0.639 LW
N
264.708 135.435 M
264.708 144.565 L
S
GR
GS
[0.78257 0 0 0.78197 0 0.22835] CT
1 LJ
0.639 LW
N
228.83 135.435 M
241.737 127.553 L
255.053 127.323 L
264.708 135.435 L
S
GR
GS
[0.78257 0 0 0.78197 0 0.22835] CT
1 LJ
0.639 LW
N
100.325 71.519 M
95.263 72.97 L
81.947 73.347 L
75.986 71.519 L
S
GR
GS
[0.78257 0 0 0.78197 0 0.22835] CT
1 LJ
0.639 LW
N
75.986 71.519 M
68.632 66.767 L
65.827 62.388 L
S
GR
GS
[0.78257 0 0 0.78197 0 0.22835] CT
1 LJ
0.639 LW
N
115.035 62.388 M
108.579 67.96 L
100.325 71.519 L
S
GR
GS
[0.78257 0 0 0.78197 0 0.22835] CT
1 LJ
0.639 LW
N
65.827 62.388 M
64.128 53.257 L
S
GR
GS
[0.78257 0 0 0.78197 0 0.22835] CT
1 LJ
0.639 LW
N
118.473 53.257 M
115.035 62.388 L
S
GR
GS
[0.78257 0 0 0.78197 0 0.22835] CT
1 LJ
0.639 LW
N
49.715 226.743 M
50.186 217.612 L
S
GR
GS
[0.78257 0 0 0.78197 0 0.22835] CT
1 LJ
0.639 LW
N
130.611 217.612 M
132.603 226.743 L
S
GR
GS
[0.78257 0 0 0.78197 0 0.22835] CT
1 LJ
0.639 LW
N
50.186 217.612 M
51.94 208.481 L
S
GR
GS
[0.78257 0 0 0.78197 0 0.22835] CT
1 LJ
0.639 LW
N
123.981 208.481 M
130.611 217.612 L
S
GR
GS
[0.78257 0 0 0.78197 0 0.22835] CT
1 LJ
0.639 LW
N
51.94 208.481 M
55.316 201.493 L
57.686 199.35 L
S
GR
GS
[0.78257 0 0 0.78197 0 0.22835] CT
1 LJ
0.639 LW
N
106.27 199.35 M
108.579 200.038 L
121.895 206.862 L
123.981 208.481 L
S
GR
GS
[0.78257 0 0 0.78197 0 0.22835] CT
1 LJ
0.639 LW
N
57.686 199.35 M
68.632 195.148 L
81.947 194.94 L
95.263 196.645 L
106.27 199.35 L
S
GR
GS
[0.78257 0 0 0.78197 0 0.22835] CT
1 LJ
0.639 LW
N
276.37 162.827 M
268.368 166.283 L
255.053 166.975 L
241.737 165.352 L
231.966 162.827 L
S
GR
GS
[0.78257 0 0 0.78197 0 0.22835] CT
1 LJ
0.639 LW
N
231.966 162.827 M
228.421 161.613 L
215.299 153.696 L
S
GR
GS
[0.78257 0 0 0.78197 0 0.22835] CT
1 LJ
0.639 LW
N
283.048 153.696 M
281.684 156.908 L
276.37 162.827 L
S
GR
GS
[0.78257 0 0 0.78197 0 0.22835] CT
1 LJ
0.639 LW
N
215.299 153.696 M
215.105 153.456 L
210.237 144.565 L
S
GR
GS
[0.78257 0 0 0.78197 0 0.22835] CT
1 LJ
0.639 LW
N
284.641 144.565 M
283.048 153.696 L
S
GR
GS
[0.78257 0 0 0.78197 0 0.22835] CT
1 LJ
0.639 LW
N
210.237 144.565 M
210.237 135.435 L
S
GR
GS
[0.78257 0 0 0.78197 0 0.22835] CT
1 LJ
0.639 LW
N
284.641 135.435 M
284.641 144.565 L
S
GR
GS
[0.78257 0 0 0.78197 0 0.22835] CT
1 LJ
0.639 LW
N
210.237 135.435 M
215.105 126.544 L
215.299 126.304 L
S
GR
GS
[0.78257 0 0 0.78197 0 0.22835] CT
1 LJ
0.639 LW
N
283.048 126.304 M
284.641 135.435 L
S
GR
GS
[0.78257 0 0 0.78197 0 0.22835] CT
1 LJ
0.639 LW
N
215.299 126.304 M
228.421 118.387 L
231.966 117.173 L
S
GR
GS
[0.78257 0 0 0.78197 0 0.22835] CT
1 LJ
0.639 LW
N
276.37 117.173 M
281.684 123.092 L
283.048 126.304 L
S
GR
GS
[0.78257 0 0 0.78197 0 0.22835] CT
1 LJ
0.639 LW
N
231.966 117.173 M
241.737 114.648 L
255.053 113.026 L
268.368 113.717 L
276.37 117.173 L
S
GR
GS
[0.78257 0 0 0.78197 0 0.22835] CT
1 LJ
0.639 LW
N
106.27 80.65 M
95.263 83.355 L
81.947 85.06 L
68.632 84.852 L
57.686 80.65 L
S
GR
GS
[0.78257 0 0 0.78197 0 0.22835] CT
1 LJ
0.639 LW
N
57.686 80.65 M
55.316 78.507 L
51.94 71.519 L
S
GR
GS
[0.78257 0 0 0.78197 0 0.22835] CT
1 LJ
0.639 LW
N
123.981 71.519 M
121.895 73.138 L
108.579 79.962 L
106.27 80.65 L
S
GR
GS
[0.78257 0 0 0.78197 0 0.22835] CT
1 LJ
0.639 LW
N
51.94 71.519 M
50.186 62.388 L
S
GR
GS
[0.78257 0 0 0.78197 0 0.22835] CT
1 LJ
0.639 LW
N
130.611 62.388 M
123.981 71.519 L
S
GR
GS
[0.78257 0 0 0.78197 0 0.22835] CT
1 LJ
0.639 LW
N
50.186 62.388 M
49.715 53.257 L
S
GR
GS
[0.78257 0 0 0.78197 0 0.22835] CT
1 LJ
0.639 LW
N
132.603 53.257 M
130.611 62.388 L
S
GR
GS
[0.78257 0 0 0.78197 0 0.22835] CT
1 LJ
0.639 LW
N
142.71 217.612 M
143.935 226.743 L
S
GR
GS
[0.78257 0 0 0.78197 0 0.22835] CT
1 LJ
0.639 LW
N
292.176 226.743 M
292.041 217.612 L
S
GR
GS
[0.78257 0 0 0.78197 0 0.22835] CT
1 LJ
0.639 LW
N
138.504 208.481 M
142.71 217.612 L
S
GR
GS
[0.78257 0 0 0.78197 0 0.22835] CT
1 LJ
0.639 LW
N
292.041 217.612 M
291.565 208.481 L
S
GR
GS
[0.78257 0 0 0.78197 0 0.22835] CT
1 LJ
0.639 LW
N
128.415 199.35 M
135.211 204.776 L
138.504 208.481 L
S
GR
GS
[0.78257 0 0 0.78197 0 0.22835] CT
1 LJ
0.639 LW
N
291.565 208.481 M
290.428 199.35 L
S
GR
GS
[0.78257 0 0 0.78197 0 0.22835] CT
1 LJ
0.639 LW
N
104.506 190.22 M
108.579 191.269 L
121.895 195.99 L
128.415 199.35 L
S
GR
GS
[0.78257 0 0 0.78197 0 0.22835] CT
1 LJ
0.639 LW
N
290.428 199.35 M
287.224 190.22 L
S
GR
GS
[0.78257 0 0 0.78197 0 0.22835] CT
1 LJ
0.639 LW
N
65.684 181.089 M
68.632 181.877 L
81.947 185.114 L
95.263 187.968 L
104.506 190.22 L
S
GR
GS
[0.78257 0 0 0.78197 0 0.22835] CT
1 LJ
0.639 LW
N
287.224 190.22 M
281.684 185.237 L
271.852 181.089 L
S
GR
GS
[0.78257 0 0 0.78197 0 0.22835] CT
1 LJ
0.639 LW
N
51.531 171.958 M
55.316 175.696 L
65.684 181.089 L
S
GR
GS
[0.78257 0 0 0.78197 0 0.22835] CT
1 LJ
0.639 LW
N
271.852 181.089 M
268.368 180.29 L
255.053 177.363 L
241.737 174.637 L
230.562 171.958 L
S
GR
GS
[0.78257 0 0 0.78197 0 0.22835] CT
1 LJ
0.639 LW
N
47.959 162.827 M
51.531 171.958 L
S
GR
GS
[0.78257 0 0 0.78197 0 0.22835] CT
1 LJ
0.639 LW
N
230.562 171.958 M
228.421 171.38 L
215.105 166.312 L
208.85 162.827 L
S
GR
GS
[0.78257 0 0 0.78197 0 0.22835] CT
1 LJ
0.639 LW
N
46.674 153.696 M
47.959 162.827 L
S
GR
GS
[0.78257 0 0 0.78197 0 0.22835] CT
1 LJ
0.639 LW
N
208.85 162.827 M
201.789 156.154 L
199.888 153.696 L
S
GR
GS
[0.78257 0 0 0.78197 0 0.22835] CT
1 LJ
0.639 LW
N
46.195 144.565 M
46.674 153.696 L
S
GR
GS
[0.78257 0 0 0.78197 0 0.22835] CT
1 LJ
0.639 LW
N
199.888 153.696 M
196.662 144.565 L
S
GR
GS
[0.78257 0 0 0.78197 0 0.22835] CT
1 LJ
0.639 LW
N
46.195 135.435 M
46.195 144.565 L
S
GR
GS
[0.78257 0 0 0.78197 0 0.22835] CT
1 LJ
0.639 LW
N
196.662 144.565 M
196.662 135.435 L
S
GR
GS
[0.78257 0 0 0.78197 0 0.22835] CT
1 LJ
0.639 LW
N
46.674 126.304 M
46.195 135.435 L
S
GR
GS
[0.78257 0 0 0.78197 0 0.22835] CT
1 LJ
0.639 LW
N
196.662 135.435 M
199.888 126.304 L
S
GR
GS
[0.78257 0 0 0.78197 0 0.22835] CT
1 LJ
0.639 LW
N
47.959 117.173 M
46.674 126.304 L
S
GR
GS
[0.78257 0 0 0.78197 0 0.22835] CT
1 LJ
0.639 LW
N
199.888 126.304 M
201.789 123.846 L
208.85 117.173 L
S
GR
GS
[0.78257 0 0 0.78197 0 0.22835] CT
1 LJ
0.639 LW
N
51.531 108.042 M
47.959 117.173 L
S
GR
GS
[0.78257 0 0 0.78197 0 0.22835] CT
1 LJ
0.639 LW
N
208.85 117.173 M
215.105 113.688 L
228.421 108.62 L
230.562 108.042 L
S
GR
GS
[0.78257 0 0 0.78197 0 0.22835] CT
1 LJ
0.639 LW
N
65.684 98.911 M
55.316 104.304 L
51.531 108.042 L
S
GR
GS
[0.78257 0 0 0.78197 0 0.22835] CT
1 LJ
0.639 LW
N
230.562 108.042 M
241.737 105.363 L
255.053 102.637 L
268.368 99.71 L
271.852 98.911 L
S
GR
GS
[0.78257 0 0 0.78197 0 0.22835] CT
1 LJ
0.639 LW
N
104.506 89.78 M
95.263 92.032 L
81.947 94.886 L
68.632 98.123 L
65.684 98.911 L
S
GR
GS
[0.78257 0 0 0.78197 0 0.22835] CT
1 LJ
0.639 LW
N
271.852 98.911 M
281.684 94.763 L
287.224 89.78 L
S
GR
GS
[0.78257 0 0 0.78197 0 0.22835] CT
1 LJ
0.639 LW
N
128.415 80.65 M
121.895 84.01 L
108.579 88.731 L
104.506 89.78 L
S
GR
GS
[0.78257 0 0 0.78197 0 0.22835] CT
1 LJ
0.639 LW
N
287.224 89.78 M
290.428 80.65 L
S
GR
GS
[0.78257 0 0 0.78197 0 0.22835] CT
1 LJ
0.639 LW
N
138.504 71.519 M
135.211 75.224 L
128.415 80.65 L
S
GR
GS
[0.78257 0 0 0.78197 0 0.22835] CT
1 LJ
0.639 LW
N
290.428 80.65 M
291.565 71.519 L
S
GR
GS
[0.78257 0 0 0.78197 0 0.22835] CT
1 LJ
0.639 LW
N
142.71 62.388 M
138.504 71.519 L
S
GR
GS
[0.78257 0 0 0.78197 0 0.22835] CT
1 LJ
0.639 LW
N
291.565 71.519 M
292.041 62.388 L
S
GR
GS
[0.78257 0 0 0.78197 0 0.22835] CT
1 LJ
0.639 LW
N
143.935 53.257 M
142.71 62.388 L
S
GR
GS
[0.78257 0 0 0.78197 0 0.22835] CT
1 LJ
0.639 LW
N
292.041 62.388 M
292.176 53.257 L
S
GR
GS
[0.78257 0 0 0.78197 0 0.22835] CT
1 LJ
0.639 LW
N
153.77 217.612 M
154.461 226.743 L
S
GR
GS
[0.78257 0 0 0.78197 0 0.22835] CT
1 LJ
0.639 LW
N
282.344 226.743 M
281.737 217.612 L
S
GR
GS
[0.78257 0 0 0.78197 0 0.22835] CT
1 LJ
0.639 LW
N
151.338 208.481 M
153.77 217.612 L
S
GR
GS
[0.78257 0 0 0.78197 0 0.22835] CT
1 LJ
0.639 LW
N
281.737 217.612 M
281.684 217.349 L
279.615 208.481 L
S
GR
GS
[0.78257 0 0 0.78197 0 0.22835] CT
1 LJ
0.639 LW
N
145.55 199.35 M
148.526 203.413 L
151.338 208.481 L
S
GR
GS
[0.78257 0 0 0.78197 0 0.22835] CT
1 LJ
0.639 LW
N
279.615 208.481 M
274.804 199.35 L
S
GR
GS
[0.78257 0 0 0.78197 0 0.22835] CT
1 LJ
0.639 LW
N
131.42 190.22 M
135.211 192.015 L
145.55 199.35 L
S
GR
GS
[0.78257 0 0 0.78197 0 0.22835] CT
1 LJ
0.639 LW
N
274.804 199.35 M
268.368 193.445 L
263.09 190.22 L
S
GR
GS
[0.78257 0 0 0.78197 0 0.22835] CT
1 LJ
0.639 LW
N
100.118 181.089 M
108.579 183.251 L
121.895 186.889 L
131.42 190.22 L
S
GR
GS
[0.78257 0 0 0.78197 0 0.22835] CT
1 LJ
0.639 LW
N
263.09 190.22 M
255.053 186.908 L
241.737 182.968 L
234.275 181.089 L
S
GR
GS
[0.78257 0 0 0.78197 0 0.22835] CT
1 LJ
0.639 LW
N
74.013 171.958 M
81.947 175.518 L
95.263 179.777 L
100.118 181.089 L
S
GR
GS
[0.78257 0 0 0.78197 0 0.22835] CT
1 LJ
0.639 LW
N
234.275 181.089 M
228.421 179.614 L
215.105 175.957 L
204.139 171.958 L
S
GR
GS
[0.78257 0 0 0.78197 0 0.22835] CT
1 LJ
0.639 LW
N
63.395 162.827 M
68.632 168.147 L
74.013 171.958 L
S
GR
GS
[0.78257 0 0 0.78197 0 0.22835] CT
1 LJ
0.639 LW
N
204.139 171.958 M
201.789 170.723 L
191.546 162.827 L
S
GR
GS
[0.78257 0 0 0.78197 0 0.22835] CT
1 LJ
0.639 LW
N
59.04 153.696 M
63.395 162.827 L
S
GR
GS
[0.78257 0 0 0.78197 0 0.22835] CT
1 LJ
0.639 LW
N
191.546 162.827 M
188.474 157.838 L
186.467 153.696 L
S
GR
GS
[0.78257 0 0 0.78197 0 0.22835] CT
1 LJ
0.639 LW
N
57.343 144.565 M
59.04 153.696 L
S
GR
GS
[0.78257 0 0 0.78197 0 0.22835] CT
1 LJ
0.639 LW
N
186.467 153.696 M
184.576 144.565 L
S
GR
GS
[0.78257 0 0 0.78197 0 0.22835] CT
1 LJ
0.639 LW
N
57.343 135.435 M
57.343 144.565 L
S
GR
GS
[0.78257 0 0 0.78197 0 0.22835] CT
1 LJ
0.639 LW
N
184.576 144.565 M
184.576 135.435 L
S
GR
GS
[0.78257 0 0 0.78197 0 0.22835] CT
1 LJ
0.639 LW
N
59.04 126.304 M
57.343 135.435 L
S
GR
GS
[0.78257 0 0 0.78197 0 0.22835] CT
1 LJ
0.639 LW
N
184.576 135.435 M
186.467 126.304 L
S
GR
GS
[0.78257 0 0 0.78197 0 0.22835] CT
1 LJ
0.639 LW
N
63.395 117.173 M
59.04 126.304 L
S
GR
GS
[0.78257 0 0 0.78197 0 0.22835] CT
1 LJ
0.639 LW
N
186.467 126.304 M
188.474 122.162 L
191.546 117.173 L
S
GR
GS
[0.78257 0 0 0.78197 0 0.22835] CT
1 LJ
0.639 LW
N
74.013 108.042 M
68.632 111.853 L
63.395 117.173 L
S
GR
GS
[0.78257 0 0 0.78197 0 0.22835] CT
1 LJ
0.639 LW
N
191.546 117.173 M
201.789 109.277 L
204.139 108.042 L
S
GR
GS
[0.78257 0 0 0.78197 0 0.22835] CT
1 LJ
0.639 LW
N
100.118 98.911 M
95.263 100.223 L
81.947 104.482 L
74.013 108.042 L
S
GR
GS
[0.78257 0 0 0.78197 0 0.22835] CT
1 LJ
0.639 LW
N
204.139 108.042 M
215.105 104.043 L
228.421 100.386 L
234.275 98.911 L
S
GR
GS
[0.78257 0 0 0.78197 0 0.22835] CT
1 LJ
0.639 LW
N
131.42 89.78 M
121.895 93.111 L
108.579 96.749 L
100.118 98.911 L
S
GR
GS
[0.78257 0 0 0.78197 0 0.22835] CT
1 LJ
0.639 LW
N
234.275 98.911 M
241.737 97.032 L
255.053 93.092 L
263.09 89.78 L
S
GR
GS
[0.78257 0 0 0.78197 0 0.22835] CT
1 LJ
0.639 LW
N
145.55 80.65 M
135.211 87.985 L
131.42 89.78 L
S
GR
GS
[0.78257 0 0 0.78197 0 0.22835] CT
1 LJ
0.639 LW
N
263.09 89.78 M
268.368 86.555 L
274.804 80.65 L
S
GR
GS
[0.78257 0 0 0.78197 0 0.22835] CT
1 LJ
0.639 LW
N
151.338 71.519 M
148.526 76.587 L
145.55 80.65 L
S
GR
GS
[0.78257 0 0 0.78197 0 0.22835] CT
1 LJ
0.639 LW
N
274.804 80.65 M
279.615 71.519 L
S
GR
GS
[0.78257 0 0 0.78197 0 0.22835] CT
1 LJ
0.639 LW
N
153.77 62.388 M
151.338 71.519 L
S
GR
GS
[0.78257 0 0 0.78197 0 0.22835] CT
1 LJ
0.639 LW
N
279.615 71.519 M
281.684 62.651 L
281.737 62.388 L
S
GR
GS
[0.78257 0 0 0.78197 0 0.22835] CT
1 LJ
0.639 LW
N
154.461 53.257 M
153.77 62.388 L
S
GR
GS
[0.78257 0 0 0.78197 0 0.22835] CT
1 LJ
0.639 LW
N
281.737 62.388 M
282.344 53.257 L
S
GR
GS
[0.78257 0 0 0.78197 0 0.22835] CT
1 LJ
0.639 LW
N
164.67 217.612 M
164.865 226.743 L
S
GR
GS
[0.78257 0 0 0.78197 0 0.22835] CT
1 LJ
0.639 LW
N
272.373 226.743 M
271.326 217.612 L
S
GR
GS
[0.78257 0 0 0.78197 0 0.22835] CT
1 LJ
0.639 LW
N
163.969 208.481 M
164.67 217.612 L
S
GR
GS
[0.78257 0 0 0.78197 0 0.22835] CT
1 LJ
0.639 LW
N
271.326 217.612 M
268.368 209.956 L
267.645 208.481 L
S
GR
GS
[0.78257 0 0 0.78197 0 0.22835] CT
1 LJ
0.639 LW
N
162.179 199.35 M
163.969 208.481 L
S
GR
GS
[0.78257 0 0 0.78197 0 0.22835] CT
1 LJ
0.639 LW
N
267.645 208.481 M
258.948 199.35 L
S
GR
GS
[0.78257 0 0 0.78197 0 0.22835] CT
1 LJ
0.639 LW
N
157.413 190.22 M
161.842 198.409 L
162.179 199.35 L
S
GR
GS
[0.78257 0 0 0.78197 0 0.22835] CT
1 LJ
0.639 LW
N
258.948 199.35 M
255.053 196.893 L
241.737 191.204 L
238.402 190.22 L
S
GR
GS
[0.78257 0 0 0.78197 0 0.22835] CT
1 LJ
0.639 LW
N
135.08 181.089 M
135.211 181.124 L
148.526 184.998 L
157.413 190.22 L
S
GR
GS
[0.78257 0 0 0.78197 0 0.22835] CT
1 LJ
0.639 LW
N
238.402 190.22 M
228.421 187.587 L
215.105 184.73 L
201.789 181.915 L
197.826 181.089 L
S
GR
GS
[0.78257 0 0 0.78197 0 0.22835] CT
1 LJ
0.639 LW
N
97.215 171.958 M
108.579 175.157 L
121.895 178.177 L
135.08 181.089 L
S
GR
GS
[0.78257 0 0 0.78197 0 0.22835] CT
1 LJ
0.639 LW
N
197.826 181.089 M
188.474 177.988 L
178.995 171.958 L
S
GR
GS
[0.78257 0 0 0.78197 0 0.22835] CT
1 LJ
0.639 LW
N
79.083 162.827 M
81.947 164.839 L
95.263 171.304 L
97.215 171.958 L
S
GR
GS
[0.78257 0 0 0.78197 0 0.22835] CT
1 LJ
0.639 LW
N
178.995 171.958 M
175.158 163.785 L
174.843 162.827 L
S
GR
GS
[0.78257 0 0 0.78197 0 0.22835] CT
1 LJ
0.639 LW
N
71.53 153.696 M
79.083 162.827 L
S
GR
GS
[0.78257 0 0 0.78197 0 0.22835] CT
1 LJ
0.639 LW
N
174.843 162.827 M
173.266 153.696 L
S
GR
GS
[0.78257 0 0 0.78197 0 0.22835] CT
1 LJ
0.639 LW
N
68.459 144.565 M
68.632 145.178 L
71.53 153.696 L
S
GR
GS
[0.78257 0 0 0.78197 0 0.22835] CT
1 LJ
0.639 LW
N
173.266 153.696 M
172.712 144.565 L
S
GR
GS
[0.78257 0 0 0.78197 0 0.22835] CT
1 LJ
0.639 LW
N
68.459 135.435 M
68.459 144.565 L
S
GR
GS
[0.78257 0 0 0.78197 0 0.22835] CT
1 LJ
0.639 LW
N
172.712 144.565 M
172.712 135.435 L
S
GR
GS
[0.78257 0 0 0.78197 0 0.22835] CT
1 LJ
0.639 LW
N
71.53 126.304 M
68.632 134.822 L
68.459 135.435 L
S
GR
GS
[0.78257 0 0 0.78197 0 0.22835] CT
1 LJ
0.639 LW
N
172.712 135.435 M
173.266 126.304 L
S
GR
GS
[0.78257 0 0 0.78197 0 0.22835] CT
1 LJ
0.639 LW
N
79.083 117.173 M
71.53 126.304 L
S
GR
GS
[0.78257 0 0 0.78197 0 0.22835] CT
1 LJ
0.639 LW
N
173.266 126.304 M
174.843 117.173 L
S
GR
GS
[0.78257 0 0 0.78197 0 0.22835] CT
1 LJ
0.639 LW
N
97.215 108.042 M
95.263 108.696 L
81.947 115.161 L
79.083 117.173 L
S
GR
GS
[0.78257 0 0 0.78197 0 0.22835] CT
1 LJ
0.639 LW
N
174.843 117.173 M
175.158 116.215 L
178.995 108.042 L
S
GR
GS
[0.78257 0 0 0.78197 0 0.22835] CT
1 LJ
0.639 LW
N
135.08 98.911 M
121.895 101.823 L
108.579 104.843 L
97.215 108.042 L
S
GR
GS
[0.78257 0 0 0.78197 0 0.22835] CT
1 LJ
0.639 LW
N
178.995 108.042 M
188.474 102.012 L
197.826 98.911 L
S
GR
GS
[0.78257 0 0 0.78197 0 0.22835] CT
1 LJ
0.639 LW
N
157.413 89.78 M
148.526 95.002 L
135.211 98.876 L
135.08 98.911 L
S
GR
GS
[0.78257 0 0 0.78197 0 0.22835] CT
1 LJ
0.639 LW
N
197.826 98.911 M
201.789 98.085 L
215.105 95.27 L
228.421 92.413 L
238.402 89.78 L
S
GR
GS
[0.78257 0 0 0.78197 0 0.22835] CT
1 LJ
0.639 LW
N
162.179 80.65 M
161.842 81.591 L
157.413 89.78 L
S
GR
GS
[0.78257 0 0 0.78197 0 0.22835] CT
1 LJ
0.639 LW
N
238.402 89.78 M
241.737 88.796 L
255.053 83.107 L
258.948 80.65 L
S
GR
GS
[0.78257 0 0 0.78197 0 0.22835] CT
1 LJ
0.639 LW
N
163.969 71.519 M
162.179 80.65 L
S
GR
GS
[0.78257 0 0 0.78197 0 0.22835] CT
1 LJ
0.639 LW
N
258.948 80.65 M
267.645 71.519 L
S
GR
GS
[0.78257 0 0 0.78197 0 0.22835] CT
1 LJ
0.639 LW
N
164.67 62.388 M
163.969 71.519 L
S
GR
GS
[0.78257 0 0 0.78197 0 0.22835] CT
1 LJ
0.639 LW
N
267.645 71.519 M
268.368 70.044 L
271.326 62.388 L
S
GR
GS
[0.78257 0 0 0.78197 0 0.22835] CT
1 LJ
0.639 LW
N
164.865 53.257 M
164.67 62.388 L
S
GR
GS
[0.78257 0 0 0.78197 0 0.22835] CT
1 LJ
0.639 LW
N
271.326 62.388 M
272.373 53.257 L
S
GR
GS
[0.78257 0 0 0.78197 0 0.22835] CT
1 LJ
0.639 LW
N
176.193 217.612 M
175.732 226.743 L
S
GR
GS
[0.78257 0 0 0.78197 0 0.22835] CT
1 LJ
0.639 LW
N
261.572 226.743 M
259.937 217.612 L
S
GR
GS
[0.78257 0 0 0.78197 0 0.22835] CT
1 LJ
0.639 LW
N
177.907 208.481 M
176.193 217.612 L
S
GR
GS
[0.78257 0 0 0.78197 0 0.22835] CT
1 LJ
0.639 LW
N
259.937 217.612 M
255.053 209.412 L
254.261 208.481 L
S
GR
GS
[0.78257 0 0 0.78197 0 0.22835] CT
1 LJ
0.639 LW
N
182.685 199.35 M
177.907 208.481 L
S
GR
GS
[0.78257 0 0 0.78197 0 0.22835] CT
1 LJ
0.639 LW
N
254.261 208.481 M
241.737 200.257 L
239.419 199.35 L
S
GR
GS
[0.78257 0 0 0.78197 0 0.22835] CT
1 LJ
0.639 LW
N
239.419 199.35 M
228.421 195.988 L
215.105 193.64 L
201.789 192.877 L
188.474 195.078 L
182.685 199.35 L
S
GR
GS
[0.78257 0 0 0.78197 0 0.22835] CT
1 LJ
0.639 LW
N
98.739 162.827 M
108.579 166.218 L
121.895 168.882 L
135.211 169.781 L
148.526 167.411 L
154.238 162.827 L
S
GR
GS
[0.78257 0 0 0.78197 0 0.22835] CT
1 LJ
0.639 LW
N
85.751 153.696 M
95.263 161.148 L
98.739 162.827 L
S
GR
GS
[0.78257 0 0 0.78197 0 0.22835] CT
1 LJ
0.639 LW
N
154.238 162.827 M
158.497 153.696 L
S
GR
GS
[0.78257 0 0 0.78197 0 0.22835] CT
1 LJ
0.639 LW
N
80.834 144.565 M
81.947 147.17 L
85.751 153.696 L
S
GR
GS
[0.78257 0 0 0.78197 0 0.22835] CT
1 LJ
0.639 LW
N
158.497 153.696 M
159.88 144.565 L
S
GR
GS
[0.78257 0 0 0.78197 0 0.22835] CT
1 LJ
0.639 LW
N
80.834 135.435 M
80.834 144.565 L
S
GR
GS
[0.78257 0 0 0.78197 0 0.22835] CT
1 LJ
0.639 LW
N
159.88 144.565 M
159.88 135.435 L
S
GR
GS
[0.78257 0 0 0.78197 0 0.22835] CT
1 LJ
0.639 LW
N
85.751 126.304 M
81.947 132.83 L
80.834 135.435 L
S
GR
GS
[0.78257 0 0 0.78197 0 0.22835] CT
1 LJ
0.639 LW
N
159.88 135.435 M
158.497 126.304 L
S
GR
GS
[0.78257 0 0 0.78197 0 0.22835] CT
1 LJ
0.639 LW
N
98.739 117.173 M
95.263 118.852 L
85.751 126.304 L
S
GR
GS
[0.78257 0 0 0.78197 0 0.22835] CT
1 LJ
0.639 LW
N
158.497 126.304 M
154.238 117.173 L
S
GR
GS
[0.78257 0 0 0.78197 0 0.22835] CT
1 LJ
0.639 LW
N
154.238 117.173 M
148.526 112.589 L
135.211 110.219 L
121.895 111.118 L
108.579 113.782 L
98.739 117.173 L
S
GR
GS
[0.78257 0 0 0.78197 0 0.22835] CT
1 LJ
0.639 LW
N
182.685 80.65 M
188.474 84.922 L
201.789 87.123 L
215.105 86.36 L
228.421 84.012 L
239.419 80.65 L
S
GR
GS
[0.78257 0 0 0.78197 0 0.22835] CT
1 LJ
0.639 LW
N
177.907 71.519 M
182.685 80.65 L
S
GR
GS
[0.78257 0 0 0.78197 0 0.22835] CT
1 LJ
0.639 LW
N
239.419 80.65 M
241.737 79.743 L
254.261 71.519 L
S
GR
GS
[0.78257 0 0 0.78197 0 0.22835] CT
1 LJ
0.639 LW
N
176.193 62.388 M
177.907 71.519 L
S
GR
GS
[0.78257 0 0 0.78197 0 0.22835] CT
1 LJ
0.639 LW
N
254.261 71.519 M
255.053 70.588 L
259.937 62.388 L
S
GR
GS
[0.78257 0 0 0.78197 0 0.22835] CT
1 LJ
0.639 LW
N
175.732 53.257 M
176.193 62.388 L
S
GR
GS
[0.78257 0 0 0.78197 0 0.22835] CT
1 LJ
0.639 LW
N
259.937 62.388 M
261.572 53.257 L
S
GR
GS
[0.78257 0 0 0.78197 0 0.22835] CT
1 LJ
0.639 LW
N
190.335 217.612 M
188.556 226.743 L
S
GR
GS
[0.78257 0 0 0.78197 0 0.22835] CT
1 LJ
0.639 LW
N
248.682 226.743 M
246.037 217.612 L
S
GR
GS
[0.78257 0 0 0.78197 0 0.22835] CT
1 LJ
0.639 LW
N
197.318 208.481 M
190.335 217.612 L
S
GR
GS
[0.78257 0 0 0.78197 0 0.22835] CT
1 LJ
0.639 LW
N
246.037 217.612 M
241.737 212.845 L
234.859 208.481 L
S
GR
GS
[0.78257 0 0 0.78197 0 0.22835] CT
1 LJ
0.639 LW
N
234.859 208.481 M
228.421 205.911 L
215.105 203.937 L
201.789 205.848 L
197.318 208.481 L
S
GR
GS
[0.78257 0 0 0.78197 0 0.22835] CT
1 LJ
0.639 LW
N
106.775 153.696 M
108.579 154.577 L
121.895 157.073 L
135.211 154.869 L
137.014 153.696 L
S
GR
GS
[0.78257 0 0 0.78197 0 0.22835] CT
1 LJ
0.639 LW
N
97.124 144.565 M
106.775 153.696 L
S
GR
GS
[0.78257 0 0 0.78197 0 0.22835] CT
1 LJ
0.639 LW
N
137.014 153.696 M
142.919 144.565 L
S
GR
GS
[0.78257 0 0 0.78197 0 0.22835] CT
1 LJ
0.639 LW
N
97.124 135.435 M
97.124 144.565 L
S
GR
GS
[0.78257 0 0 0.78197 0 0.22835] CT
1 LJ
0.639 LW
N
142.919 144.565 M
142.919 135.435 L
S
GR
GS
[0.78257 0 0 0.78197 0 0.22835] CT
1 LJ
0.639 LW
N
106.775 126.304 M
97.124 135.435 L
S
GR
GS
[0.78257 0 0 0.78197 0 0.22835] CT
1 LJ
0.639 LW
N
142.919 135.435 M
137.014 126.304 L
S
GR
GS
[0.78257 0 0 0.78197 0 0.22835] CT
1 LJ
0.639 LW
N
137.014 126.304 M
135.211 125.131 L
121.895 122.927 L
108.579 125.423 L
106.775 126.304 L
S
GR
GS
[0.78257 0 0 0.78197 0 0.22835] CT
1 LJ
0.639 LW
N
197.318 71.519 M
201.789 74.152 L
215.105 76.063 L
228.421 74.089 L
234.859 71.519 L
S
GR
GS
[0.78257 0 0 0.78197 0 0.22835] CT
1 LJ
0.639 LW
N
190.335 62.388 M
197.318 71.519 L
S
GR
GS
[0.78257 0 0 0.78197 0 0.22835] CT
1 LJ
0.639 LW
N
234.859 71.519 M
241.737 67.155 L
246.037 62.388 L
S
GR
GS
[0.78257 0 0 0.78197 0 0.22835] CT
1 LJ
0.639 LW
N
188.556 53.257 M
190.335 62.388 L
S
GR
GS
[0.78257 0 0 0.78197 0 0.22835] CT
1 LJ
0.639 LW
N
246.037 62.388 M
248.682 53.257 L
S
GR
GS
[0.78257 0 0 0.78197 0 0.22835] CT
1 LJ
0.639 LW
N
225.292 226.743 M
215.105 223.168 L
212.438 226.743 L
S
GR
GS
[0.78257 0 0 0.78197 0 0.22835] CT
1 LJ
0.639 LW
N
212.438 53.257 M
215.105 56.832 L
225.292 53.257 L
S
GR
GS
[0.78257 0 0 0.78197 0 0.22835] CT
1 0 0 RC
1 LJ
0.639 LW
N
60.941 187.995 M
65.643 183.673 L
63.528 189.699 L
S
GR
GS
[0.78257 0 0 0.78197 0 0.22835] CT
1 0 0 RC
1 LJ
0.639 LW
N
63.93 171.974 M
69.63 169.247 L
65.883 174.336 L
S
GR
GS
[0.78257 0 0 0.78197 0 0.22835] CT
1 0 0 RC
1 LJ
0.639 LW
N
67.182 159.317 M
73.398 159.815 L
67.679 162.301 L
S
GR
GS
[0.78257 0 0 0.78197 0 0.22835] CT
1 0 0 RC
1 LJ
0.639 LW
N
69.327 147.661 M
75.355 151.653 L
68.158 150.967 L
S
GR
GS
[0.78257 0 0 0.78197 0 0.22835] CT
1 0 0 RC
1 LJ
0.639 LW
N
69.46 134.219 M
74.678 140.502 L
67.117 137.414 L
S
GR
GS
[0.78257 0 0 0.78197 0 0.22835] CT
1 0 0 RC
1 LJ
0.639 LW
N
67.525 116.96 M
71.652 123.364 L
64.997 119.655 L
S
GR
GS
[0.78257 0 0 0.78197 0 0.22835] CT
1 0 0 RC
1 LJ
0.639 LW
N
64.338 95.46 M
67.552 99.764 L
62.691 97.479 L
S
GR
GS
[0.78257 0 0 0.78197 0 0.22835] CT
1 0 0 RC
1 LJ
0.639 LW
N
80.381 191.918 M
80.99 188.14 L
82.231 191.76 L
S
GR
GS
[0.78257 0 0 0.78197 0 0.22835] CT
1 0 0 RC
1 LJ
0.639 LW
N
87.656 175.948 M
91.271 174.565 L
88.733 177.487 L
S
GR
GS
[0.78257 0 0 0.78197 0 0.22835] CT
1 0 0 RC
1 LJ
0.639 LW
N
94.777 161.869 M
100.984 163.741 L
94.627 165.01 L
S
GR
GS
[0.78257 0 0 0.78197 0 0.22835] CT
1 0 0 RC
1 LJ
0.639 LW
N
98.741 147.916 M
106.032 152.531 L
97.427 151.89 L
S
GR
GS
[0.78257 0 0 0.78197 0 0.22835] CT
1 0 0 RC
1 LJ
0.639 LW
N
97.876 132.272 M
104.286 137.963 L
95.953 135.958 L
S
GR
GS
[0.78257 0 0 0.78197 0 0.22835] CT
1 0 0 RC
1 LJ
0.639 LW
N
92.547 113.834 M
96.483 118.477 L
90.826 116.233 L
S
GR
GS
[0.78257 0 0 0.78197 0 0.22835] CT
1 0 0 RC
1 LJ
0.639 LW
N
85.002 92.676 M
85.913 94.591 L
84.208 93.331 L
S
GR
GS
[0.78257 0 0 0.78197 0 0.22835] CT
1 0 0 RC
1 LJ
0.639 LW
N
100.304 197.54 M
96.741 195.19 L
100.991 195.586 L
S
GR
GS
[0.78257 0 0 0.78197 0 0.22835] CT
1 0 0 RC
1 LJ
0.639 LW
N
109.002 182.308 M
108.98 182.957 L
108.694 182.374 L
S
GR
GS
[0.78257 0 0 0.78197 0 0.22835] CT
1 0 0 RC
1 LJ
0.639 LW
N
117.181 166.603 M
120.543 169.936 L
116.008 168.577 L
S
GR
GS
[0.78257 0 0 0.78197 0 0.22835] CT
1 0 0 RC
1 LJ
0.639 LW
N
121.392 149.348 M
126.552 153.917 L
119.849 152.314 L
S
GR
GS
[0.78257 0 0 0.78197 0 0.22835] CT
1 0 0 RC
1 LJ
0.639 LW
N
119.86 130.118 M
124.474 133.954 L
118.597 132.741 L
S
GR
GS
[0.78257 0 0 0.78197 0 0.22835] CT
1 0 0 RC
1 LJ
0.639 LW
N
113.229 109.321 M
115.185 110.765 L
112.78 110.411 L
S
GR
GS
[0.78257 0 0 0.78197 0 0.22835] CT
1 0 0 RC
1 LJ
0.639 LW
N
104.298 88.027 M
102.602 86.427 L
104.851 87.041 L
S
GR
GS
[0.78257 0 0 0.78197 0 0.22835] CT
1 0 0 RC
1 LJ
0.639 LW
N
123.54 202.488 M
117.484 201.85 L
123.128 199.563 L
S
GR
GS
[0.78257 0 0 0.78197 0 0.22835] CT
1 0 0 RC
1 LJ
0.639 LW
N
130.196 188.37 M
126.52 190.886 L
128.58 186.936 L
S
GR
GS
[0.78257 0 0 0.78197 0 0.22835] CT
1 0 0 RC
1 LJ
0.639 LW
N
136.176 171.525 M
135.056 175.79 L
134.037 171.499 L
S
GR
GS
[0.78257 0 0 0.78197 0 0.22835] CT
1 0 0 RC
1 LJ
0.639 LW
N
138.959 151.355 M
139.492 155.227 L
137.2 152.062 L
S
GR
GS
[0.78257 0 0 0.78197 0 0.22835] CT
1 0 0 RC
1 LJ
0.639 LW
N
137.37 128.666 M
137.958 130.168 L
136.732 129.119 L
S
GR
GS
[0.78257 0 0 0.78197 0 0.22835] CT
1 0 0 RC
1 LJ
0.639 LW
N
132.08 105.324 M
131.1 103.479 L
132.833 104.646 L
S
GR
GS
[0.78257 0 0 0.78197 0 0.22835] CT
1 0 0 RC
1 LJ
0.639 LW
N
125.32 83.472 M
121.811 78.715 L
127.146 81.261 L
S
GR
GS
[0.78257 0 0 0.78197 0 0.22835] CT
1 0 0 RC
1 LJ
0.639 LW
N
151.521 204.676 M
145.703 205.312 L
150.537 202.013 L
S
GR
GS
[0.78257 0 0 0.78197 0 0.22835] CT
1 0 0 RC
1 LJ
0.639 LW
N
153.532 191.578 M
147.725 195.006 L
151.235 189.249 L
S
GR
GS
[0.78257 0 0 0.78197 0 0.22835] CT
1 0 0 RC
1 LJ
0.639 LW
N
154.983 174.557 M
149.634 178.832 L
152.342 172.543 L
S
GR
GS
[0.78257 0 0 0.78197 0 0.22835] CT
1 0 0 RC
1 LJ
0.639 LW
N
155.263 153.09 M
150.627 155.907 L
153.392 151.239 L
S
GR
GS
[0.78257 0 0 0.78197 0 0.22835] CT
1 0 0 RC
1 LJ
0.639 LW
N
154.254 128.528 M
150.283 128.2 L
153.941 126.621 L
S
GR
GS
[0.78257 0 0 0.78197 0 0.22835] CT
1 0 0 RC
1 LJ
0.639 LW
N
152.381 103.528 M
148.749 99.693 L
153.759 101.368 L
S
GR
GS
[0.78257 0 0 0.78197 0 0.22835] CT
1 0 0 RC
1 LJ
0.639 LW
N
150.434 80.933 M
146.671 74.707 L
152.921 78.43 L
S
GR
GS
[0.78257 0 0 0.78197 0 0.22835] CT
1 0 0 RC
1 LJ
0.639 LW
N
183.677 203.182 M
180.728 204.115 L
182.891 201.904 L
S
GR
GS
[0.78257 0 0 0.78197 0 0.22835] CT
1 0 0 RC
1 LJ
0.639 LW
N
180.398 190.58 M
174.883 193.581 L
178.337 188.338 L
S
GR
GS
[0.78257 0 0 0.78197 0 0.22835] CT
1 0 0 RC
1 LJ
0.639 LW
N
176.902 174.422 M
169.361 177.78 L
174.435 171.268 L
S
GR
GS
[0.78257 0 0 0.78197 0 0.22835] CT
1 0 0 RC
1 LJ
0.639 LW
N
174.662 153.82 M
166.491 155.672 L
172.829 150.193 L
S
GR
GS
[0.78257 0 0 0.78197 0 0.22835] CT
1 0 0 RC
1 LJ
0.639 LW
N
174.623 129.762 M
167.484 128.881 L
174.198 126.299 L
S
GR
GS
[0.78257 0 0 0.78197 0 0.22835] CT
1 0 0 RC
1 LJ
0.639 LW
N
176.802 104.691 M
171.92 101.002 L
177.963 101.96 L
S
GR
GS
[0.78257 0 0 0.78197 0 0.22835] CT
1 0 0 RC
1 LJ
0.639 LW
N
180.28 81.48 M
177.929 76.093 L
182.538 79.74 L
S
GR
GS
[0.78257 0 0 0.78197 0 0.22835] CT
1 0 0 RC
1 LJ
0.639 LW
N
217.679 198.635 M
219.019 198.764 L
217.776 199.28 L
S
GR
GS
[0.78257 0 0 0.78197 0 0.22835] CT
1 0 0 RC
1 LJ
0.639 LW
N
210.698 185.796 M
207.773 187.212 L
209.687 184.586 L
S
GR
GS
[0.78257 0 0 0.78197 0 0.22835] CT
1 0 0 RC
1 LJ
0.639 LW
N
203.919 171.176 M
197.148 173.077 L
202.228 168.213 L
S
GR
GS
[0.78257 0 0 0.78197 0 0.22835] CT
1 0 0 RC
1 LJ
0.639 LW
N
200.204 153.239 M
191.626 154.62 L
198.545 149.365 L
S
GR
GS
[0.78257 0 0 0.78197 0 0.22835] CT
1 0 0 RC
1 LJ
0.639 LW
N
201.117 131.848 M
193.536 131.923 L
200.19 128.289 L
S
GR
GS
[0.78257 0 0 0.78197 0 0.22835] CT
1 0 0 RC
1 LJ
0.639 LW
N
206.275 108.322 M
202.071 106.856 L
206.47 106.172 L
S
GR
GS
[0.78257 0 0 0.78197 0 0.22835] CT
1 0 0 RC
1 LJ
0.639 LW
N
213.501 84.883 M
213.634 82.289 L
214.737 84.64 L
S
GR
GS
[0.78257 0 0 0.78197 0 0.22835] CT
1 0 0 RC
1 LJ
0.639 LW
N
250.419 192.953 M
255.66 191.516 L
251.712 195.25 L
S
GR
GS
[0.78257 0 0 0.78197 0 0.22835] CT
1 0 0 RC
1 LJ
0.639 LW
N
242.882 179.244 M
243.755 178.584 L
243.295 179.577 L
S
GR
GS
[0.78257 0 0 0.78197 0 0.22835] CT
1 0 0 RC
1 LJ
0.639 LW
N
235.874 166.188 M
232.508 166.708 L
235.233 164.666 L
S
GR
GS
[0.78257 0 0 0.78197 0 0.22835] CT
1 0 0 RC
1 LJ
0.639 LW
N
232.349 151.591 M
226.663 153.195 L
230.925 149.104 L
S
GR
GS
[0.78257 0 0 0.78197 0 0.22835] CT
1 0 0 RC
1 LJ
0.639 LW
N
233.795 133.906 M
228.684 136.043 L
232.188 131.752 L
S
GR
GS
[0.78257 0 0 0.78197 0 0.22835] CT
1 0 0 RC
1 LJ
0.639 LW
N
239.602 112.891 M
237.72 114.784 L
238.489 112.228 L
S
GR
GS
[0.78257 0 0 0.78197 0 0.22835] CT
1 0 0 RC
1 LJ
0.639 LW
N
247.32 89.706 M
249.959 90.682 L
247.171 91.063 L
S
GR
GS
[0.78257 0 0 0.78197 0 0.22835] CT
1 0 0 RC
1 LJ
0.639 LW
N
279.32 188.532 M
286.429 185.428 L
281.618 191.512 L
S
GR
GS
[0.78257 0 0 0.78197 0 0.22835] CT
1 0 0 RC
1 LJ
0.639 LW
N
274.61 173.687 M
278.886 171.336 L
276.22 175.422 L
S
GR
GS
[0.78257 0 0 0.78197 0 0.22835] CT
1 0 0 RC
1 LJ
0.639 LW
N
270.519 161.562 M
271.76 161.357 L
270.762 162.122 L
S
GR
GS
[0.78257 0 0 0.78197 0 0.22835] CT
1 0 0 RC
1 LJ
0.639 LW
N
268.772 149.571 M
268.056 151.998 L
267.546 149.52 L
S
GR
GS
[0.78257 0 0 0.78197 0 0.22835] CT
1 0 0 RC
1 LJ
0.639 LW
N
270.106 135.068 M
269.337 139.505 L
267.928 135.228 L
S
GR
GS
[0.78257 0 0 0.78197 0 0.22835] CT
1 0 0 RC
1 LJ
0.639 LW
N
273.959 116.469 M
275.062 121.444 L
271.747 117.574 L
S
GR
GS
[0.78257 0 0 0.78197 0 0.22835] CT
1 0 0 RC
1 LJ
0.639 LW
N
278.705 93.916 M
282.817 97.732 L
277.393 96.3 L
S
GR
GS
[0.78257 0 0 0.78197 0 0.22835] CT
1 0 0 RC
1 LJ
0.639 LW
N
55.316 199.35 M
65.643 183.673 L
S
GR
GS
[0.78257 0 0 0.78197 0 0.22835] CT
1 0 0 RC
1 LJ
0.639 LW
N
55.316 181.089 M
69.63 169.247 L
S
GR
GS
[0.78257 0 0 0.78197 0 0.22835] CT
1 0 0 RC
1 LJ
0.639 LW
N
55.316 162.827 M
73.398 159.815 L
S
GR
GS
[0.78257 0 0 0.78197 0 0.22835] CT
1 0 0 RC
1 LJ
0.639 LW
N
55.316 144.565 M
75.355 151.653 L
S
GR
GS
[0.78257 0 0 0.78197 0 0.22835] CT
1 0 0 RC
1 LJ
0.639 LW
N
55.316 126.304 M
74.678 140.502 L
S
GR
GS
[0.78257 0 0 0.78197 0 0.22835] CT
1 0 0 RC
1 LJ
0.639 LW
N
55.316 108.042 M
71.652 123.364 L
S
GR
GS
[0.78257 0 0 0.78197 0 0.22835] CT
1 0 0 RC
1 LJ
0.639 LW
N
55.316 89.78 M
67.552 99.764 L
S
GR
GS
[0.78257 0 0 0.78197 0 0.22835] CT
1 0 0 RC
1 LJ
0.639 LW
N
81.947 199.35 M
80.99 188.14 L
S
GR
GS
[0.78257 0 0 0.78197 0 0.22835] CT
1 0 0 RC
1 LJ
0.639 LW
N
81.947 181.089 M
91.271 174.565 L
S
GR
GS
[0.78257 0 0 0.78197 0 0.22835] CT
1 0 0 RC
1 LJ
0.639 LW
N
81.947 162.827 M
100.984 163.741 L
S
GR
GS
[0.78257 0 0 0.78197 0 0.22835] CT
1 0 0 RC
1 LJ
0.639 LW
N
81.947 144.565 M
106.032 152.531 L
S
GR
GS
[0.78257 0 0 0.78197 0 0.22835] CT
1 0 0 RC
1 LJ
0.639 LW
N
81.947 126.304 M
104.286 137.963 L
S
GR
GS
[0.78257 0 0 0.78197 0 0.22835] CT
1 0 0 RC
1 LJ
0.639 LW
N
81.947 108.042 M
96.483 118.477 L
S
GR
GS
[0.78257 0 0 0.78197 0 0.22835] CT
1 0 0 RC
1 LJ
0.639 LW
N
81.947 89.78 M
85.913 94.591 L
S
GR
GS
[0.78257 0 0 0.78197 0 0.22835] CT
1 0 0 RC
1 LJ
0.639 LW
N
108.579 199.35 M
96.741 195.19 L
S
GR
GS
[0.78257 0 0 0.78197 0 0.22835] CT
1 0 0 RC
1 LJ
0.639 LW
N
108.579 181.089 M
108.98 182.957 L
S
GR
GS
[0.78257 0 0 0.78197 0 0.22835] CT
1 0 0 RC
1 LJ
0.639 LW
N
108.579 162.827 M
120.543 169.936 L
S
GR
GS
[0.78257 0 0 0.78197 0 0.22835] CT
1 0 0 RC
1 LJ
0.639 LW
N
108.579 144.565 M
126.552 153.917 L
S
GR
GS
[0.78257 0 0 0.78197 0 0.22835] CT
1 0 0 RC
1 LJ
0.639 LW
N
108.579 126.304 M
124.474 133.954 L
S
GR
GS
[0.78257 0 0 0.78197 0 0.22835] CT
1 0 0 RC
1 LJ
0.639 LW
N
108.579 108.042 M
115.185 110.765 L
S
GR
GS
[0.78257 0 0 0.78197 0 0.22835] CT
1 0 0 RC
1 LJ
0.639 LW
N
108.579 89.78 M
102.602 86.427 L
S
GR
GS
[0.78257 0 0 0.78197 0 0.22835] CT
1 0 0 RC
1 LJ
0.639 LW
N
135.211 199.35 M
117.484 201.85 L
S
GR
GS
[0.78257 0 0 0.78197 0 0.22835] CT
1 0 0 RC
1 LJ
0.639 LW
N
135.211 181.089 M
126.52 190.886 L
S
GR
GS
[0.78257 0 0 0.78197 0 0.22835] CT
1 0 0 RC
1 LJ
0.639 LW
N
135.211 162.827 M
135.056 175.79 L
S
GR
GS
[0.78257 0 0 0.78197 0 0.22835] CT
1 0 0 RC
1 LJ
0.639 LW
N
135.211 144.565 M
139.492 155.227 L
S
GR
GS
[0.78257 0 0 0.78197 0 0.22835] CT
1 0 0 RC
1 LJ
0.639 LW
N
135.211 126.304 M
137.958 130.168 L
S
GR
GS
[0.78257 0 0 0.78197 0 0.22835] CT
1 0 0 RC
1 LJ
0.639 LW
N
135.211 108.042 M
131.1 103.479 L
S
GR
GS
[0.78257 0 0 0.78197 0 0.22835] CT
1 0 0 RC
1 LJ
0.639 LW
N
135.211 89.78 M
121.811 78.715 L
S
GR
GS
[0.78257 0 0 0.78197 0 0.22835] CT
1 0 0 RC
1 LJ
0.639 LW
N
161.842 199.35 M
145.703 205.312 L
S
GR
GS
[0.78257 0 0 0.78197 0 0.22835] CT
1 0 0 RC
1 LJ
0.639 LW
N
161.842 181.089 M
147.725 195.006 L
S
GR
GS
[0.78257 0 0 0.78197 0 0.22835] CT
1 0 0 RC
1 LJ
0.639 LW
N
161.842 162.827 M
149.634 178.832 L
S
GR
GS
[0.78257 0 0 0.78197 0 0.22835] CT
1 0 0 RC
1 LJ
0.639 LW
N
161.842 144.565 M
150.627 155.907 L
S
GR
GS
[0.78257 0 0 0.78197 0 0.22835] CT
1 0 0 RC
1 LJ
0.639 LW
N
161.842 126.304 M
150.283 128.2 L
S
GR
GS
[0.78257 0 0 0.78197 0 0.22835] CT
1 0 0 RC
1 LJ
0.639 LW
N
161.842 108.042 M
148.749 99.693 L
S
GR
GS
[0.78257 0 0 0.78197 0 0.22835] CT
1 0 0 RC
1 LJ
0.639 LW
N
161.842 89.78 M
146.671 74.707 L
S
GR
GS
[0.78257 0 0 0.78197 0 0.22835] CT
1 0 0 RC
1 LJ
0.639 LW
N
188.474 199.35 M
180.728 204.115 L
S
GR
GS
[0.78257 0 0 0.78197 0 0.22835] CT
1 0 0 RC
1 LJ
0.639 LW
N
188.474 181.089 M
174.883 193.581 L
S
GR
GS
[0.78257 0 0 0.78197 0 0.22835] CT
1 0 0 RC
1 LJ
0.639 LW
N
188.474 162.827 M
169.361 177.78 L
S
GR
GS
[0.78257 0 0 0.78197 0 0.22835] CT
1 0 0 RC
1 LJ
0.639 LW
N
188.474 144.565 M
166.491 155.672 L
S
GR
GS
[0.78257 0 0 0.78197 0 0.22835] CT
1 0 0 RC
1 LJ
0.639 LW
N
188.474 126.304 M
167.484 128.881 L
S
GR
GS
[0.78257 0 0 0.78197 0 0.22835] CT
1 0 0 RC
1 LJ
0.639 LW
N
188.474 108.042 M
171.92 101.002 L
S
GR
GS
[0.78257 0 0 0.78197 0 0.22835] CT
1 0 0 RC
1 LJ
0.639 LW
N
188.474 89.78 M
177.929 76.093 L
S
GR
GS
[0.78257 0 0 0.78197 0 0.22835] CT
1 0 0 RC
1 LJ
0.639 LW
N
215.105 199.35 M
219.019 198.764 L
S
GR
GS
[0.78257 0 0 0.78197 0 0.22835] CT
1 0 0 RC
1 LJ
0.639 LW
N
215.105 181.089 M
207.773 187.212 L
S
GR
GS
[0.78257 0 0 0.78197 0 0.22835] CT
1 0 0 RC
1 LJ
0.639 LW
N
215.105 162.827 M
197.148 173.077 L
S
GR
GS
[0.78257 0 0 0.78197 0 0.22835] CT
1 0 0 RC
1 LJ
0.639 LW
N
215.105 144.565 M
191.626 154.62 L
S
GR
GS
[0.78257 0 0 0.78197 0 0.22835] CT
1 0 0 RC
1 LJ
0.639 LW
N
215.105 126.304 M
193.536 131.923 L
S
GR
GS
[0.78257 0 0 0.78197 0 0.22835] CT
1 0 0 RC
1 LJ
0.639 LW
N
215.105 108.042 M
202.071 106.856 L
S
GR
GS
[0.78257 0 0 0.78197 0 0.22835] CT
1 0 0 RC
1 LJ
0.639 LW
N
215.105 89.78 M
213.634 82.289 L
S
GR
GS
[0.78257 0 0 0.78197 0 0.22835] CT
1 0 0 RC
1 LJ
0.639 LW
N
241.737 199.35 M
255.66 191.516 L
S
GR
GS
[0.78257 0 0 0.78197 0 0.22835] CT
1 0 0 RC
1 LJ
0.639 LW
N
241.737 181.089 M
243.755 178.584 L
S
GR
GS
[0.78257 0 0 0.78197 0 0.22835] CT
1 0 0 RC
1 LJ
0.639 LW
N
241.737 162.827 M
232.508 166.708 L
S
GR
GS
[0.78257 0 0 0.78197 0 0.22835] CT
1 0 0 RC
1 LJ
0.639 LW
N
241.737 144.565 M
226.663 153.195 L
S
GR
GS
[0.78257 0 0 0.78197 0 0.22835] CT
1 0 0 RC
1 LJ
0.639 LW
N
241.737 126.304 M
228.684 136.043 L
S
GR
GS
[0.78257 0 0 0.78197 0 0.22835] CT
1 0 0 RC
1 LJ
0.639 LW
N
241.737 108.042 M
237.72 114.784 L
S
GR
GS
[0.78257 0 0 0.78197 0 0.22835] CT
1 0 0 RC
1 LJ
0.639 LW
N
241.737 89.78 M
249.959 90.682 L
S
GR
GS
[0.78257 0 0 0.78197 0 0.22835] CT
1 0 0 RC
1 LJ
0.639 LW
N
268.368 199.35 M
286.429 185.428 L
S
GR
GS
[0.78257 0 0 0.78197 0 0.22835] CT
1 0 0 RC
1 LJ
0.639 LW
N
268.368 181.089 M
278.886 171.336 L
S
GR
GS
[0.78257 0 0 0.78197 0 0.22835] CT
1 0 0 RC
1 LJ
0.639 LW
N
268.368 162.827 M
271.76 161.357 L
S
GR
GS
[0.78257 0 0 0.78197 0 0.22835] CT
1 0 0 RC
1 LJ
0.639 LW
N
268.368 144.565 M
268.056 151.998 L
S
GR
GS
[0.78257 0 0 0.78197 0 0.22835] CT
1 0 0 RC
1 LJ
0.639 LW
N
268.368 126.304 M
269.337 139.505 L
S
GR
GS
[0.78257 0 0 0.78197 0 0.22835] CT
1 0 0 RC
1 LJ
0.639 LW
N
268.368 108.042 M
275.062 121.444 L
S
GR
GS
[0.78257 0 0 0.78197 0 0.22835] CT
1 0 0 RC
1 LJ
0.639 LW
N
268.368 89.78 M
282.817 97.732 L
S
GR
GS
[0.78257 0 0 0.78197 0 0.22835] CT
0.149 GC
2 setlinecap
1 LJ
0.639 LW
N
42 226.743 M
295 226.743 L
S
GR
GS
[0.78257 0 0 0.78197 0 0.22835] CT
0.149 GC
2 setlinecap
1 LJ
0.639 LW
N
42 53.257 M
295 53.257 L
S
GR
GS
[0.78257 0 0 0.78197 0 0.22835] CT
0.149 GC
2 setlinecap
1 LJ
0.639 LW
N
42 226.743 M
42 224.213 L
S
GR
GS
[0.78257 0 0 0.78197 0 0.22835] CT
0.149 GC
2 setlinecap
1 LJ
0.639 LW
N
88.019 226.743 M
88.019 224.213 L
S
GR
GS
[0.78257 0 0 0.78197 0 0.22835] CT
0.149 GC
2 setlinecap
1 LJ
0.639 LW
N
134.037 226.743 M
134.037 224.213 L
S
GR
GS
[0.78257 0 0 0.78197 0 0.22835] CT
0.149 GC
2 setlinecap
1 LJ
0.639 LW
N
180.056 226.743 M
180.056 224.213 L
S
GR
GS
[0.78257 0 0 0.78197 0 0.22835] CT
0.149 GC
2 setlinecap
1 LJ
0.639 LW
N
226.074 226.743 M
226.074 224.213 L
S
GR
GS
[0.78257 0 0 0.78197 0 0.22835] CT
0.149 GC
2 setlinecap
1 LJ
0.639 LW
N
272.093 226.743 M
272.093 224.213 L
S
GR
GS
[0.78257 0 0 0.78197 0 0.22835] CT
0.149 GC
2 setlinecap
1 LJ
0.639 LW
N
42 53.257 M
42 55.787 L
S
GR
GS
[0.78257 0 0 0.78197 0 0.22835] CT
0.149 GC
2 setlinecap
1 LJ
0.639 LW
N
88.019 53.257 M
88.019 55.787 L
S
GR
GS
[0.78257 0 0 0.78197 0 0.22835] CT
0.149 GC
2 setlinecap
1 LJ
0.639 LW
N
134.037 53.257 M
134.037 55.787 L
S
GR
GS
[0.78257 0 0 0.78197 0 0.22835] CT
0.149 GC
2 setlinecap
1 LJ
0.639 LW
N
180.056 53.257 M
180.056 55.787 L
S
GR
GS
[0.78257 0 0 0.78197 0 0.22835] CT
0.149 GC
2 setlinecap
1 LJ
0.639 LW
N
226.074 53.257 M
226.074 55.787 L
S
GR
GS
[0.78257 0 0 0.78197 0 0.22835] CT
0.149 GC
2 setlinecap
1 LJ
0.639 LW
N
272.093 53.257 M
272.093 55.787 L
S
GR
GS
[0.78257 0 0 0.78197 32.86798 180.93196] CT
0.149 GC
/Helvetica 12.139 F
GS
[1 0 0 1 0 0] CT
-4 12 moveto 
1 -1 scale
(0) t 
GR
GR
GS
[0.78257 0 0 0.78197 68.88073 180.93196] CT
0.149 GC
/Helvetica 12.139 F
GS
[1 0 0 1 0 0] CT
-4 12 moveto 
1 -1 scale
(1) t 
GR
GR
GS
[0.78257 0 0 0.78197 104.89348 180.93196] CT
0.149 GC
/Helvetica 12.139 F
GS
[1 0 0 1 0 0] CT
-4 12 moveto 
1 -1 scale
(2) t 
GR
GR
GS
[0.78257 0 0 0.78197 140.90622 180.93196] CT
0.149 GC
/Helvetica 12.139 F
GS
[1 0 0 1 0 0] CT
-4 12 moveto 
1 -1 scale
(3) t 
GR
GR
GS
[0.78257 0 0 0.78197 176.91898 180.93196] CT
0.149 GC
/Helvetica 12.139 F
GS
[1 0 0 1 0 0] CT
-4 12 moveto 
1 -1 scale
(4) t 
GR
GR
GS
[0.78257 0 0 0.78197 212.93171 180.93196] CT
0.149 GC
/Helvetica 12.139 F
GS
[1 0 0 1 0 0] CT
-4 12 moveto 
1 -1 scale
(5) t 
GR
GR
GS
[0.78257 0 0 0.78197 0 0.22835] CT
0.149 GC
2 setlinecap
1 LJ
0.639 LW
N
42 226.743 M
42 53.257 L
S
GR
GS
[0.78257 0 0 0.78197 0 0.22835] CT
0.149 GC
2 setlinecap
1 LJ
0.639 LW
N
295 226.743 M
295 53.257 L
S
GR
GS
[0.78257 0 0 0.78197 0 0.22835] CT
0.149 GC
2 setlinecap
1 LJ
0.639 LW
N
42 226.743 M
44.53 226.743 L
S
GR
GS
[0.78257 0 0 0.78197 0 0.22835] CT
0.149 GC
2 setlinecap
1 LJ
0.639 LW
N
42 180.724 M
44.53 180.724 L
S
GR
GS
[0.78257 0 0 0.78197 0 0.22835] CT
0.149 GC
2 setlinecap
1 LJ
0.639 LW
N
42 134.706 M
44.53 134.706 L
S
GR
GS
[0.78257 0 0 0.78197 0 0.22835] CT
0.149 GC
2 setlinecap
1 LJ
0.639 LW
N
42 88.687 M
44.53 88.687 L
S
GR
GS
[0.78257 0 0 0.78197 0 0.22835] CT
0.149 GC
2 setlinecap
1 LJ
0.639 LW
N
295 226.743 M
292.47 226.743 L
S
GR
GS
[0.78257 0 0 0.78197 0 0.22835] CT
0.149 GC
2 setlinecap
1 LJ
0.639 LW
N
295 180.724 M
292.47 180.724 L
S
GR
GS
[0.78257 0 0 0.78197 0 0.22835] CT
0.149 GC
2 setlinecap
1 LJ
0.639 LW
N
295 134.706 M
292.47 134.706 L
S
GR
GS
[0.78257 0 0 0.78197 0 0.22835] CT
0.149 GC
2 setlinecap
1 LJ
0.639 LW
N
295 88.687 M
292.47 88.687 L
S
GR
GS
[0.78257 0 0 0.78197 29.46814 177.53474] CT
0.149 GC
/Helvetica 12.139 F
GS
[1 0 0 1 0 0] CT
-8 4.5 moveto 
1 -1 scale
(0) t 
GR
GR
GS
[0.78257 0 0 0.78197 29.46814 141.54958] CT
0.149 GC
/Helvetica 12.139 F
GS
[1 0 0 1 0 0] CT
-8 4.5 moveto 
1 -1 scale
(1) t 
GR
GR
GS
[0.78257 0 0 0.78197 29.46814 105.56443] CT
0.149 GC
/Helvetica 12.139 F
GS
[1 0 0 1 0 0] CT
-8 4.5 moveto 
1 -1 scale
(2) t 
GR
GR
GS
[0.78257 0 0 0.78197 29.46814 69.57927] CT
0.149 GC
/Helvetica 12.139 F
GS
[1 0 0 1 0 0] CT
-8 4.5 moveto 
1 -1 scale
(3) t 
GR
GR
%%Trailer
%%Pages: 1
%%EOF
