%!PS-Adobe-3.0 EPSF-3.0
%%Creator: (MATLAB, The Mathworks, Inc. Version 9.10.0.1684407 \(R2021a\) Update 3. Operating System: Linux)
%%Title: /home/adoan/Code/PRoSA_PI-ESN_Git/pi-esn/Results/MFE_results/Figures/FIG1_2.eps
%%CreationDate: 2021-07-21T18:44:59
%%Pages: (atend)
%%BoundingBox:     0     0   255   227
%%LanguageLevel: 3
%%EndComments
%%BeginProlog
%%BeginResource: procset (Apache XML Graphics Std ProcSet) 1.2 0
%%Version: 1.2 0
%%Copyright: (Copyright 2001-2003,2010 The Apache Software Foundation. License terms: http://www.apache.org/licenses/LICENSE-2.0)
/bd{bind def}bind def
/ld{load def}bd
/GR/grestore ld
/GS/gsave ld
/RM/rmoveto ld
/C/curveto ld
/t/show ld
/L/lineto ld
/ML/setmiterlimit ld
/CT/concat ld
/f/fill ld
/N/newpath ld
/S/stroke ld
/CC/setcmykcolor ld
/A/ashow ld
/cp/closepath ld
/RC/setrgbcolor ld
/LJ/setlinejoin ld
/GC/setgray ld
/LW/setlinewidth ld
/M/moveto ld
/re {4 2 roll M
1 index 0 rlineto
0 exch rlineto
neg 0 rlineto
cp } bd
/_ctm matrix def
/_tm matrix def
/BT { _ctm currentmatrix pop matrix _tm copy pop 0 0 moveto } bd
/ET { _ctm setmatrix } bd
/iTm { _ctm setmatrix _tm concat } bd
/Tm { _tm astore pop iTm 0 0 moveto } bd
/ux 0.0 def
/uy 0.0 def
/F {
  /Tp exch def
  /Tf exch def
  Tf findfont Tp scalefont setfont
  /cf Tf def  /cs Tp def
} bd
/ULS {currentpoint /uy exch def /ux exch def} bd
/ULE {
  /Tcx currentpoint pop def
  gsave
  newpath
  cf findfont cs scalefont dup
  /FontMatrix get 0 get /Ts exch def /FontInfo get dup
  /UnderlinePosition get Ts mul /To exch def
  /UnderlineThickness get Ts mul /Tt exch def
  ux uy To add moveto  Tcx uy To add lineto
  Tt setlinewidth stroke
  grestore
} bd
/OLE {
  /Tcx currentpoint pop def
  gsave
  newpath
  cf findfont cs scalefont dup
  /FontMatrix get 0 get /Ts exch def /FontInfo get dup
  /UnderlinePosition get Ts mul /To exch def
  /UnderlineThickness get Ts mul /Tt exch def
  ux uy To add cs add moveto Tcx uy To add cs add lineto
  Tt setlinewidth stroke
  grestore
} bd
/SOE {
  /Tcx currentpoint pop def
  gsave
  newpath
  cf findfont cs scalefont dup
  /FontMatrix get 0 get /Ts exch def /FontInfo get dup
  /UnderlinePosition get Ts mul /To exch def
  /UnderlineThickness get Ts mul /Tt exch def
  ux uy To add cs 10 mul 26 idiv add moveto Tcx uy To add cs 10 mul 26 idiv add lineto
  Tt setlinewidth stroke
  grestore
} bd
/QT {
/Y22 exch store
/X22 exch store
/Y21 exch store
/X21 exch store
currentpoint
/Y21 load 2 mul add 3 div exch
/X21 load 2 mul add 3 div exch
/X21 load 2 mul /X22 load add 3 div
/Y21 load 2 mul /Y22 load add 3 div
/X22 load /Y22 load curveto
} bd
/SSPD {
dup length /d exch dict def
{
/v exch def
/k exch def
currentpagedevice k known {
/cpdv currentpagedevice k get def
v cpdv ne {
/upd false def
/nullv v type /nulltype eq def
/nullcpdv cpdv type /nulltype eq def
nullv nullcpdv or
{
/upd true def
} {
/sametype v type cpdv type eq def
sametype {
v type /arraytype eq {
/vlen v length def
/cpdvlen cpdv length def
vlen cpdvlen eq {
0 1 vlen 1 sub {
/i exch def
/obj v i get def
/cpdobj cpdv i get def
obj cpdobj ne {
/upd true def
exit
} if
} for
} {
/upd true def
} ifelse
} {
v type /dicttype eq {
v {
/dv exch def
/dk exch def
/cpddv cpdv dk get def
dv cpddv ne {
/upd true def
exit
} if
} forall
} {
/upd true def
} ifelse
} ifelse
} if
} ifelse
upd true eq {
d k v put
} if
} if
} if
} forall
d length 0 gt {
d setpagedevice
} if
} bd
/RE { % /NewFontName [NewEncodingArray] /FontName RE -
  findfont dup length dict begin
  {
    1 index /FID ne
    {def} {pop pop} ifelse
  } forall
  /Encoding exch def
  /FontName 1 index def
  currentdict definefont pop
  end
} bind def
%%EndResource
%%BeginResource: procset (Apache XML Graphics EPS ProcSet) 1.0 0
%%Version: 1.0 0
%%Copyright: (Copyright 2002-2003 The Apache Software Foundation. License terms: http://www.apache.org/licenses/LICENSE-2.0)
/BeginEPSF { %def
/b4_Inc_state save def         % Save state for cleanup
/dict_count countdictstack def % Count objects on dict stack
/op_count count 1 sub def      % Count objects on operand stack
userdict begin                 % Push userdict on dict stack
/showpage { } def              % Redefine showpage, { } = null proc
0 setgray 0 setlinecap         % Prepare graphics state
1 setlinewidth 0 setlinejoin
10 setmiterlimit [ ] 0 setdash newpath
/languagelevel where           % If level not equal to 1 then
{pop languagelevel             % set strokeadjust and
1 ne                           % overprint to their defaults.
{false setstrokeadjust false setoverprint
} if
} if
} bd
/EndEPSF { %def
count op_count sub {pop} repeat            % Clean up stacks
countdictstack dict_count sub {end} repeat
b4_Inc_state restore
} bd
%%EndResource
%FOPBeginFontDict
%%IncludeResource: font Courier-Oblique
%%IncludeResource: font Courier-BoldOblique
%%IncludeResource: font Courier-Bold
%%IncludeResource: font ZapfDingbats
%%IncludeResource: font Symbol
%%IncludeResource: font Helvetica
%%IncludeResource: font Helvetica-Oblique
%%IncludeResource: font Helvetica-Bold
%%IncludeResource: font Helvetica-BoldOblique
%%IncludeResource: font Times-Roman
%%IncludeResource: font Times-Italic
%%IncludeResource: font Times-Bold
%%IncludeResource: font Times-BoldItalic
%%IncludeResource: font Courier
%FOPEndFontDict
%%BeginResource: encoding WinAnsiEncoding
/WinAnsiEncoding [
/.notdef /.notdef /.notdef /.notdef /.notdef
/.notdef /.notdef /.notdef /.notdef /.notdef
/.notdef /.notdef /.notdef /.notdef /.notdef
/.notdef /.notdef /.notdef /.notdef /.notdef
/.notdef /.notdef /.notdef /.notdef /.notdef
/.notdef /.notdef /.notdef /.notdef /.notdef
/.notdef /.notdef /space /exclam /quotedbl
/numbersign /dollar /percent /ampersand /quotesingle
/parenleft /parenright /asterisk /plus /comma
/hyphen /period /slash /zero /one
/two /three /four /five /six
/seven /eight /nine /colon /semicolon
/less /equal /greater /question /at
/A /B /C /D /E
/F /G /H /I /J
/K /L /M /N /O
/P /Q /R /S /T
/U /V /W /X /Y
/Z /bracketleft /backslash /bracketright /asciicircum
/underscore /quoteleft /a /b /c
/d /e /f /g /h
/i /j /k /l /m
/n /o /p /q /r
/s /t /u /v /w
/x /y /z /braceleft /bar
/braceright /asciitilde /bullet /Euro /bullet
/quotesinglbase /florin /quotedblbase /ellipsis /dagger
/daggerdbl /circumflex /perthousand /Scaron /guilsinglleft
/OE /bullet /Zcaron /bullet /bullet
/quoteleft /quoteright /quotedblleft /quotedblright /bullet
/endash /emdash /asciitilde /trademark /scaron
/guilsinglright /oe /bullet /zcaron /Ydieresis
/space /exclamdown /cent /sterling /currency
/yen /brokenbar /section /dieresis /copyright
/ordfeminine /guillemotleft /logicalnot /sfthyphen /registered
/macron /degree /plusminus /twosuperior /threesuperior
/acute /mu /paragraph /middot /cedilla
/onesuperior /ordmasculine /guillemotright /onequarter /onehalf
/threequarters /questiondown /Agrave /Aacute /Acircumflex
/Atilde /Adieresis /Aring /AE /Ccedilla
/Egrave /Eacute /Ecircumflex /Edieresis /Igrave
/Iacute /Icircumflex /Idieresis /Eth /Ntilde
/Ograve /Oacute /Ocircumflex /Otilde /Odieresis
/multiply /Oslash /Ugrave /Uacute /Ucircumflex
/Udieresis /Yacute /Thorn /germandbls /agrave
/aacute /acircumflex /atilde /adieresis /aring
/ae /ccedilla /egrave /eacute /ecircumflex
/edieresis /igrave /iacute /icircumflex /idieresis
/eth /ntilde /ograve /oacute /ocircumflex
/otilde /odieresis /divide /oslash /ugrave
/uacute /ucircumflex /udieresis /yacute /thorn
/ydieresis
] def
%%EndResource
%FOPBeginFontReencode
/Courier-Oblique findfont
dup length dict begin
  {1 index /FID ne {def} {pop pop} ifelse} forall
  /Encoding WinAnsiEncoding def
  currentdict
end
/Courier-Oblique exch definefont pop
/Courier-BoldOblique findfont
dup length dict begin
  {1 index /FID ne {def} {pop pop} ifelse} forall
  /Encoding WinAnsiEncoding def
  currentdict
end
/Courier-BoldOblique exch definefont pop
/Courier-Bold findfont
dup length dict begin
  {1 index /FID ne {def} {pop pop} ifelse} forall
  /Encoding WinAnsiEncoding def
  currentdict
end
/Courier-Bold exch definefont pop
/Helvetica findfont
dup length dict begin
  {1 index /FID ne {def} {pop pop} ifelse} forall
  /Encoding WinAnsiEncoding def
  currentdict
end
/Helvetica exch definefont pop
/Helvetica-Oblique findfont
dup length dict begin
  {1 index /FID ne {def} {pop pop} ifelse} forall
  /Encoding WinAnsiEncoding def
  currentdict
end
/Helvetica-Oblique exch definefont pop
/Helvetica-Bold findfont
dup length dict begin
  {1 index /FID ne {def} {pop pop} ifelse} forall
  /Encoding WinAnsiEncoding def
  currentdict
end
/Helvetica-Bold exch definefont pop
/Helvetica-BoldOblique findfont
dup length dict begin
  {1 index /FID ne {def} {pop pop} ifelse} forall
  /Encoding WinAnsiEncoding def
  currentdict
end
/Helvetica-BoldOblique exch definefont pop
/Times-Roman findfont
dup length dict begin
  {1 index /FID ne {def} {pop pop} ifelse} forall
  /Encoding WinAnsiEncoding def
  currentdict
end
/Times-Roman exch definefont pop
/Times-Italic findfont
dup length dict begin
  {1 index /FID ne {def} {pop pop} ifelse} forall
  /Encoding WinAnsiEncoding def
  currentdict
end
/Times-Italic exch definefont pop
/Times-Bold findfont
dup length dict begin
  {1 index /FID ne {def} {pop pop} ifelse} forall
  /Encoding WinAnsiEncoding def
  currentdict
end
/Times-Bold exch definefont pop
/Times-BoldItalic findfont
dup length dict begin
  {1 index /FID ne {def} {pop pop} ifelse} forall
  /Encoding WinAnsiEncoding def
  currentdict
end
/Times-BoldItalic exch definefont pop
/Courier findfont
dup length dict begin
  {1 index /FID ne {def} {pop pop} ifelse} forall
  /Encoding WinAnsiEncoding def
  currentdict
end
/Courier exch definefont pop
%FOPEndFontReencode
%%EndProlog
%%Page: 1 1
%%PageBoundingBox: 0 0 255 227
%%BeginPageSetup
[1 0 0 -1 0 227] CT
%%EndPageSetup
GS
[0.78257 0 0 0.78197 0 0.22835] CT
1 GC
N
0 0 326 290 re
f
GR
GS
[0.78257 0 0 0.78197 0 0.22835] CT
1 GC
N
0 0 326 290 re
f
GR
GS
[0.78257 0 0 0.78197 0 0.22835] CT
1 GC
N
42 226.743 M
295 226.743 L
295 53.257 L
42 53.257 L
cp
f
GR
GS
[0.78257 0 0 0.78197 0 0.22835] CT
0.008 0.729 0.761 RC
N
42 217.612 M
42 226.743 L
55.316 226.743 L
62.563 226.743 L
62.84 217.612 L
63.679 208.481 L
65.106 199.35 L
67.148 190.22 L
68.632 184.882 L
69.366 181.089 L
71.204 171.958 L
72.944 162.827 L
74.322 153.696 L
75.089 144.565 L
75.089 135.435 L
74.322 126.304 L
72.944 117.173 L
71.204 108.042 L
69.366 98.911 L
68.632 95.118 L
67.148 89.78 L
65.106 80.65 L
63.679 71.519 L
62.84 62.388 L
62.563 53.257 L
55.316 53.257 L
42 53.257 L
42 62.388 L
42 71.519 L
42 80.65 L
42 89.78 L
42 98.911 L
42 108.042 L
42 117.173 L
42 126.304 L
42 135.435 L
42 144.565 L
42 153.696 L
42 162.827 L
42 171.958 L
42 181.089 L
42 190.22 L
42 199.35 L
42 208.481 L
cp
280.407 217.612 M
280.215 226.743 L
281.684 226.743 L
295 226.743 L
295 217.612 L
295 208.481 L
295 199.35 L
295 190.22 L
295 181.089 L
295 171.958 L
295 162.827 L
295 153.696 L
295 144.565 L
295 135.435 L
295 126.304 L
295 117.173 L
295 108.042 L
295 98.911 L
295 89.78 L
295 80.65 L
295 71.519 L
295 62.388 L
295 53.257 L
281.684 53.257 L
280.215 53.257 L
280.407 62.388 L
280.938 71.519 L
281.684 80.523 L
281.7 80.65 L
282.999 89.78 L
284.152 98.911 L
285.08 108.042 L
285.762 117.173 L
286.205 126.304 L
286.423 135.435 L
286.423 144.565 L
286.205 153.696 L
285.762 162.827 L
285.08 171.958 L
284.152 181.089 L
282.999 190.22 L
281.7 199.35 L
281.684 199.477 L
280.938 208.481 L
cp
f
GR
GS
[0.78257 0 0 0.78197 0 0.22835] CT
0.016 0.733 0.753 RC
N
62.84 217.612 M
62.563 226.743 L
68.632 226.743 L
74.994 226.743 L
75.292 217.612 L
76.175 208.481 L
77.615 199.35 L
79.543 190.22 L
81.835 181.089 L
81.947 180.65 L
83.742 171.958 L
85.437 162.827 L
86.723 153.696 L
87.419 144.565 L
87.419 135.435 L
86.723 126.304 L
85.437 117.173 L
83.742 108.042 L
81.947 99.35 L
81.835 98.911 L
79.543 89.78 L
77.615 80.65 L
76.175 71.519 L
75.292 62.388 L
74.994 53.257 L
68.632 53.257 L
62.563 53.257 L
62.84 62.388 L
63.679 71.519 L
65.106 80.65 L
67.148 89.78 L
68.632 95.118 L
69.366 98.911 L
71.204 108.042 L
72.944 117.173 L
74.322 126.304 L
75.089 135.435 L
75.089 144.565 L
74.322 153.696 L
72.944 162.827 L
71.204 171.958 L
69.366 181.089 L
68.632 184.882 L
67.148 190.22 L
65.106 199.35 L
63.679 208.481 L
cp
266.782 217.612 M
266.52 226.743 L
268.368 226.743 L
280.215 226.743 L
280.407 217.612 L
280.938 208.481 L
281.684 199.477 L
281.7 199.35 L
282.999 190.22 L
284.152 181.089 L
285.08 171.958 L
285.762 162.827 L
286.205 153.696 L
286.423 144.565 L
286.423 135.435 L
286.205 126.304 L
285.762 117.173 L
285.08 108.042 L
284.152 98.911 L
282.999 89.78 L
281.7 80.65 L
281.684 80.523 L
280.938 71.519 L
280.407 62.388 L
280.215 53.257 L
268.368 53.257 L
266.52 53.257 L
266.782 62.388 L
267.52 71.519 L
268.368 78.611 L
268.672 80.65 L
270.255 89.78 L
271.784 98.911 L
273.111 108.042 L
274.148 117.173 L
274.853 126.304 L
275.207 135.435 L
275.207 144.565 L
274.853 153.696 L
274.148 162.827 L
273.111 171.958 L
271.784 181.089 L
270.255 190.22 L
268.672 199.35 L
268.368 201.389 L
267.52 208.481 L
cp
f
GR
GS
[0.78257 0 0 0.78197 0 0.22835] CT
0.024 0.737 0.749 RC
N
75.292 217.612 M
74.994 226.743 L
81.947 226.743 L
85.18 226.743 L
85.483 217.612 L
86.373 208.481 L
87.785 199.35 L
89.606 190.22 L
91.674 181.089 L
93.776 171.958 L
95.263 164.754 L
95.614 162.827 L
96.839 153.696 L
97.489 144.565 L
97.489 135.435 L
96.839 126.304 L
95.614 117.173 L
95.263 115.246 L
93.776 108.042 L
91.674 98.911 L
89.606 89.78 L
87.785 80.65 L
86.373 71.519 L
85.483 62.388 L
85.18 53.257 L
81.947 53.257 L
74.994 53.257 L
75.292 62.388 L
76.175 71.519 L
77.615 80.65 L
79.543 89.78 L
81.835 98.911 L
81.947 99.35 L
83.742 108.042 L
85.437 117.173 L
86.723 126.304 L
87.419 135.435 L
87.419 144.565 L
86.723 153.696 L
85.437 162.827 L
83.742 171.958 L
81.947 180.65 L
81.835 181.089 L
79.543 190.22 L
77.615 199.35 L
76.175 208.481 L
cp
256.127 217.612 M
255.792 226.743 L
266.52 226.743 L
266.782 217.612 L
267.52 208.481 L
268.368 201.389 L
268.672 199.35 L
270.255 190.22 L
271.784 181.089 L
273.111 171.958 L
274.148 162.827 L
274.853 153.696 L
275.207 144.565 L
275.207 135.435 L
274.853 126.304 L
274.148 117.173 L
273.111 108.042 L
271.784 98.911 L
270.255 89.78 L
268.672 80.65 L
268.368 78.611 L
267.52 71.519 L
266.782 62.388 L
266.52 53.257 L
255.792 53.257 L
256.127 62.388 L
257.07 71.519 L
258.458 80.65 L
260.078 89.78 L
261.717 98.911 L
263.201 108.042 L
264.403 117.173 L
265.241 126.304 L
265.671 135.435 L
265.671 144.565 L
265.241 153.696 L
264.403 162.827 L
263.201 171.958 L
261.717 181.089 L
260.078 190.22 L
258.458 199.35 L
257.07 208.481 L
cp
f
GR
GS
[0.78257 0 0 0.78197 0 0.22835] CT
0.035 0.737 0.741 RC
N
85.483 217.612 M
85.18 226.743 L
94.317 226.743 L
94.652 217.612 L
95.263 211.916 L
95.612 208.481 L
97.053 199.35 L
98.859 190.22 L
100.839 181.089 L
102.781 171.958 L
104.471 162.827 L
105.718 153.696 L
106.38 144.565 L
106.38 135.435 L
105.718 126.304 L
104.471 117.173 L
102.781 108.042 L
100.839 98.911 L
98.859 89.78 L
97.053 80.65 L
95.612 71.519 L
95.263 68.084 L
94.652 62.388 L
94.317 53.257 L
85.18 53.257 L
85.483 62.388 L
86.373 71.519 L
87.785 80.65 L
89.606 89.78 L
91.674 98.911 L
93.776 108.042 L
95.263 115.246 L
95.614 117.173 L
96.839 126.304 L
97.489 135.435 L
97.489 144.565 L
96.839 153.696 L
95.614 162.827 L
95.263 164.754 L
93.776 171.958 L
91.674 181.089 L
89.606 190.22 L
87.785 199.35 L
86.373 208.481 L
cp
246.734 217.612 M
246.409 226.743 L
255.053 226.743 L
255.792 226.743 L
256.127 217.612 L
257.07 208.481 L
258.458 199.35 L
260.078 190.22 L
261.717 181.089 L
263.201 171.958 L
264.403 162.827 L
265.241 153.696 L
265.671 144.565 L
265.671 135.435 L
265.241 126.304 L
264.403 117.173 L
263.201 108.042 L
261.717 98.911 L
260.078 89.78 L
258.458 80.65 L
257.07 71.519 L
256.127 62.388 L
255.792 53.257 L
255.053 53.257 L
246.409 53.257 L
246.734 62.388 L
247.662 71.519 L
249.061 80.65 L
250.743 89.78 L
252.503 98.911 L
254.15 108.042 L
255.053 114.011 L
255.55 117.173 L
256.571 126.304 L
257.095 135.435 L
257.095 144.565 L
256.571 153.696 L
255.55 162.827 L
255.053 165.989 L
254.15 171.958 L
252.503 181.089 L
250.743 190.22 L
249.061 199.35 L
247.662 208.481 L
cp
f
GR
GS
[0.78257 0 0 0.78197 0 0.22835] CT
0.047 0.741 0.733 RC
N
94.652 217.612 M
94.317 226.743 L
95.263 226.743 L
103.037 226.743 L
103.363 217.612 L
104.307 208.481 L
105.774 199.35 L
107.613 190.22 L
108.579 185.835 L
109.621 181.089 L
111.536 171.958 L
113.153 162.827 L
114.32 153.696 L
114.929 144.565 L
114.929 135.435 L
114.32 126.304 L
113.153 117.173 L
111.536 108.042 L
109.621 98.911 L
108.579 94.165 L
107.613 89.78 L
105.774 80.65 L
104.307 71.519 L
103.363 62.388 L
103.037 53.257 L
95.263 53.257 L
94.317 53.257 L
94.652 62.388 L
95.263 68.084 L
95.612 71.519 L
97.053 80.65 L
98.859 89.78 L
100.839 98.911 L
102.781 108.042 L
104.471 117.173 L
105.718 126.304 L
106.38 135.435 L
106.38 144.565 L
105.718 153.696 L
104.471 162.827 L
102.781 171.958 L
100.839 181.089 L
98.859 190.22 L
97.053 199.35 L
95.612 208.481 L
95.263 211.916 L
cp
237.632 217.612 M
237.299 226.743 L
241.737 226.743 L
246.409 226.743 L
246.734 217.612 L
247.662 208.481 L
249.061 199.35 L
250.743 190.22 L
252.503 181.089 L
254.15 171.958 L
255.053 165.989 L
255.55 162.827 L
256.571 153.696 L
257.095 144.565 L
257.095 135.435 L
256.571 126.304 L
255.55 117.173 L
255.053 114.011 L
254.15 108.042 L
252.503 98.911 L
250.743 89.78 L
249.061 80.65 L
247.662 71.519 L
246.734 62.388 L
246.409 53.257 L
241.737 53.257 L
237.299 53.257 L
237.632 62.388 L
238.591 71.519 L
240.067 80.65 L
241.737 89.001 L
241.892 89.78 L
243.829 98.911 L
245.64 108.042 L
247.15 117.173 L
248.227 126.304 L
248.786 135.435 L
248.786 144.565 L
248.227 153.696 L
247.15 162.827 L
245.64 171.958 L
243.829 181.089 L
241.892 190.22 L
241.737 190.999 L
240.067 199.35 L
238.591 208.481 L
cp
f
GR
GS
[0.78257 0 0 0.78197 0 0.22835] CT
0.075 0.745 0.722 RC
N
103.363 217.612 M
103.037 226.743 L
108.579 226.743 L
111.859 226.743 L
112.196 217.612 L
113.163 208.481 L
114.636 199.35 L
116.432 190.22 L
118.341 181.089 L
120.153 171.958 L
121.685 162.827 L
121.895 161.1 L
122.836 153.696 L
123.436 144.565 L
123.436 135.435 L
122.836 126.304 L
121.895 118.9 L
121.685 117.173 L
120.153 108.042 L
118.341 98.911 L
116.432 89.78 L
114.636 80.65 L
113.163 71.519 L
112.196 62.388 L
111.859 53.257 L
108.579 53.257 L
103.037 53.257 L
103.363 62.388 L
104.307 71.519 L
105.774 80.65 L
107.613 89.78 L
108.579 94.165 L
109.621 98.911 L
111.536 108.042 L
113.153 117.173 L
114.32 126.304 L
114.929 135.435 L
114.929 144.565 L
114.32 153.696 L
113.153 162.827 L
111.536 171.958 L
109.621 181.089 L
108.579 185.835 L
107.613 190.22 L
105.774 199.35 L
104.307 208.481 L
cp
228.421 225.224 M
228.361 226.743 L
228.421 226.743 L
237.299 226.743 L
237.632 217.612 L
238.591 208.481 L
240.067 199.35 L
241.737 190.999 L
241.892 190.22 L
243.829 181.089 L
245.64 171.958 L
247.15 162.827 L
248.227 153.696 L
248.786 144.565 L
248.786 135.435 L
248.227 126.304 L
247.15 117.173 L
245.64 108.042 L
243.829 98.911 L
241.892 89.78 L
241.737 89.001 L
240.067 80.65 L
238.591 71.519 L
237.632 62.388 L
237.299 53.257 L
228.421 53.257 L
228.361 53.257 L
228.421 54.776 L
228.704 62.388 L
229.681 71.519 L
231.185 80.65 L
233.043 89.78 L
235.05 98.911 L
236.985 108.042 L
238.645 117.173 L
239.855 126.304 L
240.492 135.435 L
240.492 144.565 L
239.855 153.696 L
238.645 162.827 L
236.985 171.958 L
235.05 181.089 L
233.043 190.22 L
231.185 199.35 L
229.681 208.481 L
228.704 217.612 L
cp
f
GR
GS
[0.78257 0 0 0.78197 0 0.22835] CT
0.086 0.745 0.714 RC
N
112.196 217.612 M
111.859 226.743 L
120.945 226.743 L
121.263 217.612 L
121.895 211.305 L
122.219 208.481 L
123.794 199.35 L
125.654 190.22 L
127.562 181.089 L
129.312 171.958 L
130.746 162.827 L
131.756 153.696 L
132.275 144.565 L
132.275 135.435 L
131.756 126.304 L
130.746 117.173 L
129.312 108.042 L
127.562 98.911 L
125.654 89.78 L
123.794 80.65 L
122.219 71.519 L
121.895 68.695 L
121.263 62.388 L
120.945 53.257 L
111.859 53.257 L
112.196 62.388 L
113.163 71.519 L
114.636 80.65 L
116.432 89.78 L
118.341 98.911 L
120.153 108.042 L
121.685 117.173 L
121.895 118.9 L
122.836 126.304 L
123.436 135.435 L
123.436 144.565 L
122.836 153.696 L
121.895 161.1 L
121.685 162.827 L
120.153 171.958 L
118.341 181.089 L
116.432 190.22 L
114.636 199.35 L
113.163 208.481 L
cp
219.211 217.612 M
218.871 226.743 L
228.361 226.743 L
228.421 225.224 L
228.704 217.612 L
229.681 208.481 L
231.185 199.35 L
233.043 190.22 L
235.05 181.089 L
236.985 171.958 L
238.645 162.827 L
239.855 153.696 L
240.492 144.565 L
240.492 135.435 L
239.855 126.304 L
238.645 117.173 L
236.985 108.042 L
235.05 98.911 L
233.043 89.78 L
231.185 80.65 L
229.681 71.519 L
228.704 62.388 L
228.421 54.776 L
228.361 53.257 L
218.871 53.257 L
219.211 62.388 L
220.203 71.519 L
221.761 80.65 L
223.745 89.78 L
225.962 98.911 L
228.178 108.042 L
228.421 109.185 L
229.898 117.173 L
231.131 126.304 L
231.78 135.435 L
231.78 144.565 L
231.131 153.696 L
229.898 162.827 L
228.421 170.815 L
228.178 171.958 L
225.962 181.089 L
223.745 190.22 L
221.761 199.35 L
220.203 208.481 L
cp
f
GR
GS
[0.78257 0 0 0.78197 0 0.22835] CT
0.102 0.749 0.706 RC
N
121.263 217.612 M
120.945 226.743 L
121.895 226.743 L
131.395 226.743 L
131.712 217.612 L
132.608 208.481 L
133.94 199.35 L
135.211 192.019 L
135.595 190.22 L
137.587 181.089 L
139.331 171.958 L
140.704 162.827 L
141.642 153.696 L
142.117 144.565 L
142.117 135.435 L
141.642 126.304 L
140.704 117.173 L
139.331 108.042 L
137.587 98.911 L
135.595 89.78 L
135.211 87.981 L
133.94 80.65 L
132.608 71.519 L
131.712 62.388 L
131.395 53.257 L
121.895 53.257 L
120.945 53.257 L
121.263 62.388 L
121.895 68.695 L
122.219 71.519 L
123.794 80.65 L
125.654 89.78 L
127.562 98.911 L
129.312 108.042 L
130.746 117.173 L
131.756 126.304 L
132.275 135.435 L
132.275 144.565 L
131.756 153.696 L
130.746 162.827 L
129.312 171.958 L
127.562 181.089 L
125.654 190.22 L
123.794 199.35 L
122.219 208.481 L
121.895 211.305 L
cp
208.653 217.612 M
208.297 226.743 L
215.105 226.743 L
218.871 226.743 L
219.211 217.612 L
220.203 208.481 L
221.761 199.35 L
223.745 190.22 L
225.962 181.089 L
228.178 171.958 L
228.421 170.815 L
229.898 162.827 L
231.131 153.696 L
231.78 144.565 L
231.78 135.435 L
231.131 126.304 L
229.898 117.173 L
228.421 109.185 L
228.178 108.042 L
225.962 98.911 L
223.745 89.78 L
221.761 80.65 L
220.203 71.519 L
219.211 62.388 L
218.871 53.257 L
215.105 53.257 L
208.297 53.257 L
208.653 62.388 L
209.707 71.519 L
211.41 80.65 L
213.663 89.78 L
215.105 94.857 L
216.036 98.911 L
218.116 108.042 L
219.959 117.173 L
221.339 126.304 L
222.079 135.435 L
222.079 144.565 L
221.339 153.696 L
219.959 162.827 L
218.116 171.958 L
216.036 181.089 L
215.105 185.143 L
213.663 190.22 L
211.41 199.35 L
209.707 208.481 L
cp
f
GR
GS
[0.78257 0 0 0.78197 0 0.22835] CT
0.114 0.753 0.698 RC
N
131.712 217.612 M
131.395 226.743 L
135.211 226.743 L
144.429 226.743 L
144.731 217.612 L
145.568 208.481 L
146.769 199.35 L
148.124 190.22 L
148.526 187.545 L
149.913 181.089 L
151.539 171.958 L
152.734 162.827 L
153.511 153.696 L
153.893 144.565 L
153.893 135.435 L
153.511 126.304 L
152.734 117.173 L
151.539 108.042 L
149.913 98.911 L
148.526 92.455 L
148.124 89.78 L
146.769 80.65 L
145.568 71.519 L
144.731 62.388 L
144.429 53.257 L
135.211 53.257 L
131.395 53.257 L
131.712 62.388 L
132.608 71.519 L
133.94 80.65 L
135.211 87.981 L
135.595 89.78 L
137.587 98.911 L
139.331 108.042 L
140.704 117.173 L
141.642 126.304 L
142.117 135.435 L
142.117 144.565 L
141.642 153.696 L
140.704 162.827 L
139.331 171.958 L
137.587 181.089 L
135.595 190.22 L
135.211 192.019 L
133.94 199.35 L
132.608 208.481 L
cp
195.459 217.612 M
195.09 226.743 L
201.789 226.743 L
208.297 226.743 L
208.653 217.612 L
209.707 208.481 L
211.41 199.35 L
213.663 190.22 L
215.105 185.143 L
216.036 181.089 L
218.116 171.958 L
219.959 162.827 L
221.339 153.696 L
222.079 144.565 L
222.079 135.435 L
221.339 126.304 L
219.959 117.173 L
218.116 108.042 L
216.036 98.911 L
215.105 94.857 L
213.663 89.78 L
211.41 80.65 L
209.707 71.519 L
208.653 62.388 L
208.297 53.257 L
201.789 53.257 L
195.09 53.257 L
195.459 62.388 L
196.577 71.519 L
198.472 80.65 L
201.163 89.78 L
201.789 91.561 L
203.534 98.911 L
205.797 108.042 L
207.903 117.173 L
209.548 126.304 L
210.454 135.435 L
210.454 144.565 L
209.548 153.696 L
207.903 162.827 L
205.797 171.958 L
203.534 181.089 L
201.789 188.439 L
201.163 190.22 L
198.472 199.35 L
196.577 208.481 L
cp
f
GR
GS
[0.78257 0 0 0.78197 0 0.22835] CT
0.122 0.753 0.694 RC
N
144.731 217.612 M
144.429 226.743 L
148.526 226.743 L
161.842 226.743 L
175.158 226.743 L
188.474 226.743 L
195.09 226.743 L
195.459 217.612 L
196.577 208.481 L
198.472 199.35 L
201.163 190.22 L
201.789 188.439 L
203.534 181.089 L
205.797 171.958 L
207.903 162.827 L
209.548 153.696 L
210.454 144.565 L
210.454 135.435 L
209.548 126.304 L
207.903 117.173 L
205.797 108.042 L
203.534 98.911 L
201.789 91.561 L
201.163 89.78 L
198.472 80.65 L
196.577 71.519 L
195.459 62.388 L
195.09 53.257 L
188.474 53.257 L
175.158 53.257 L
161.842 53.257 L
148.526 53.257 L
144.429 53.257 L
144.731 62.388 L
145.568 71.519 L
146.769 80.65 L
148.124 89.78 L
148.526 92.455 L
149.913 98.911 L
151.539 108.042 L
152.734 117.173 L
153.511 126.304 L
153.893 135.435 L
153.893 144.565 L
153.511 153.696 L
152.734 162.827 L
151.539 171.958 L
149.913 181.089 L
148.526 187.545 L
148.124 190.22 L
146.769 199.35 L
145.568 208.481 L
cp
175.158 171.97 M
175.156 171.958 L
174.176 162.827 L
173.623 153.696 L
173.372 144.565 L
173.372 135.435 L
173.623 126.304 L
174.176 117.173 L
175.156 108.042 L
175.158 108.03 L
175.164 108.042 L
183.244 117.173 L
188.474 119.96 L
189.73 126.304 L
190.776 135.435 L
190.776 144.565 L
189.73 153.696 L
188.474 160.04 L
183.244 162.827 L
175.164 171.958 L
cp
f
GR
GS
[0.78257 0 0 0.78197 0 0.22835] CT
0.133 0.757 0.686 RC
N
175.156 171.958 M
175.158 171.97 L
175.164 171.958 L
183.244 162.827 L
188.474 160.04 L
189.73 153.696 L
190.776 144.565 L
190.776 135.435 L
189.73 126.304 L
188.474 119.96 L
183.244 117.173 L
175.164 108.042 L
175.158 108.03 L
175.156 108.042 L
174.176 117.173 L
173.623 126.304 L
173.372 135.435 L
173.372 144.565 L
173.623 153.696 L
174.176 162.827 L
cp
f
GR
GS
[0.78257 0 0 0.78197 0 0.22835] CT
1 LJ
0.639 LW
N
62.84 217.612 M
62.563 226.743 L
S
GR
GS
[0.78257 0 0 0.78197 0 0.22835] CT
1 LJ
0.639 LW
N
280.215 226.743 M
280.407 217.612 L
S
GR
GS
[0.78257 0 0 0.78197 0 0.22835] CT
1 LJ
0.639 LW
N
63.679 208.481 M
62.84 217.612 L
S
GR
GS
[0.78257 0 0 0.78197 0 0.22835] CT
1 LJ
0.639 LW
N
280.407 217.612 M
280.938 208.481 L
S
GR
GS
[0.78257 0 0 0.78197 0 0.22835] CT
1 LJ
0.639 LW
N
65.106 199.35 M
63.679 208.481 L
S
GR
GS
[0.78257 0 0 0.78197 0 0.22835] CT
1 LJ
0.639 LW
N
280.938 208.481 M
281.684 199.477 L
281.7 199.35 L
S
GR
GS
[0.78257 0 0 0.78197 0 0.22835] CT
1 LJ
0.639 LW
N
67.148 190.22 M
65.106 199.35 L
S
GR
GS
[0.78257 0 0 0.78197 0 0.22835] CT
1 LJ
0.639 LW
N
281.7 199.35 M
282.999 190.22 L
S
GR
GS
[0.78257 0 0 0.78197 0 0.22835] CT
1 LJ
0.639 LW
N
69.366 181.089 M
68.632 184.882 L
67.148 190.22 L
S
GR
GS
[0.78257 0 0 0.78197 0 0.22835] CT
1 LJ
0.639 LW
N
282.999 190.22 M
284.152 181.089 L
S
GR
GS
[0.78257 0 0 0.78197 0 0.22835] CT
1 LJ
0.639 LW
N
71.204 171.958 M
69.366 181.089 L
S
GR
GS
[0.78257 0 0 0.78197 0 0.22835] CT
1 LJ
0.639 LW
N
284.152 181.089 M
285.08 171.958 L
S
GR
GS
[0.78257 0 0 0.78197 0 0.22835] CT
1 LJ
0.639 LW
N
72.944 162.827 M
71.204 171.958 L
S
GR
GS
[0.78257 0 0 0.78197 0 0.22835] CT
1 LJ
0.639 LW
N
285.08 171.958 M
285.762 162.827 L
S
GR
GS
[0.78257 0 0 0.78197 0 0.22835] CT
1 LJ
0.639 LW
N
74.322 153.696 M
72.944 162.827 L
S
GR
GS
[0.78257 0 0 0.78197 0 0.22835] CT
1 LJ
0.639 LW
N
285.762 162.827 M
286.205 153.696 L
S
GR
GS
[0.78257 0 0 0.78197 0 0.22835] CT
1 LJ
0.639 LW
N
75.089 144.565 M
74.322 153.696 L
S
GR
GS
[0.78257 0 0 0.78197 0 0.22835] CT
1 LJ
0.639 LW
N
286.205 153.696 M
286.423 144.565 L
S
GR
GS
[0.78257 0 0 0.78197 0 0.22835] CT
1 LJ
0.639 LW
N
75.089 135.435 M
75.089 144.565 L
S
GR
GS
[0.78257 0 0 0.78197 0 0.22835] CT
1 LJ
0.639 LW
N
286.423 144.565 M
286.423 135.435 L
S
GR
GS
[0.78257 0 0 0.78197 0 0.22835] CT
1 LJ
0.639 LW
N
74.322 126.304 M
75.089 135.435 L
S
GR
GS
[0.78257 0 0 0.78197 0 0.22835] CT
1 LJ
0.639 LW
N
286.423 135.435 M
286.205 126.304 L
S
GR
GS
[0.78257 0 0 0.78197 0 0.22835] CT
1 LJ
0.639 LW
N
72.944 117.173 M
74.322 126.304 L
S
GR
GS
[0.78257 0 0 0.78197 0 0.22835] CT
1 LJ
0.639 LW
N
286.205 126.304 M
285.762 117.173 L
S
GR
GS
[0.78257 0 0 0.78197 0 0.22835] CT
1 LJ
0.639 LW
N
71.204 108.042 M
72.944 117.173 L
S
GR
GS
[0.78257 0 0 0.78197 0 0.22835] CT
1 LJ
0.639 LW
N
285.762 117.173 M
285.08 108.042 L
S
GR
GS
[0.78257 0 0 0.78197 0 0.22835] CT
1 LJ
0.639 LW
N
69.366 98.911 M
71.204 108.042 L
S
GR
GS
[0.78257 0 0 0.78197 0 0.22835] CT
1 LJ
0.639 LW
N
285.08 108.042 M
284.152 98.911 L
S
GR
GS
[0.78257 0 0 0.78197 0 0.22835] CT
1 LJ
0.639 LW
N
67.148 89.78 M
68.632 95.118 L
69.366 98.911 L
S
GR
GS
[0.78257 0 0 0.78197 0 0.22835] CT
1 LJ
0.639 LW
N
284.152 98.911 M
282.999 89.78 L
S
GR
GS
[0.78257 0 0 0.78197 0 0.22835] CT
1 LJ
0.639 LW
N
65.106 80.65 M
67.148 89.78 L
S
GR
GS
[0.78257 0 0 0.78197 0 0.22835] CT
1 LJ
0.639 LW
N
282.999 89.78 M
281.7 80.65 L
S
GR
GS
[0.78257 0 0 0.78197 0 0.22835] CT
1 LJ
0.639 LW
N
63.679 71.519 M
65.106 80.65 L
S
GR
GS
[0.78257 0 0 0.78197 0 0.22835] CT
1 LJ
0.639 LW
N
281.7 80.65 M
281.684 80.523 L
280.938 71.519 L
S
GR
GS
[0.78257 0 0 0.78197 0 0.22835] CT
1 LJ
0.639 LW
N
62.84 62.388 M
63.679 71.519 L
S
GR
GS
[0.78257 0 0 0.78197 0 0.22835] CT
1 LJ
0.639 LW
N
280.938 71.519 M
280.407 62.388 L
S
GR
GS
[0.78257 0 0 0.78197 0 0.22835] CT
1 LJ
0.639 LW
N
62.563 53.257 M
62.84 62.388 L
S
GR
GS
[0.78257 0 0 0.78197 0 0.22835] CT
1 LJ
0.639 LW
N
280.407 62.388 M
280.215 53.257 L
S
GR
GS
[0.78257 0 0 0.78197 0 0.22835] CT
1 LJ
0.639 LW
N
75.292 217.612 M
74.994 226.743 L
S
GR
GS
[0.78257 0 0 0.78197 0 0.22835] CT
1 LJ
0.639 LW
N
266.52 226.743 M
266.782 217.612 L
S
GR
GS
[0.78257 0 0 0.78197 0 0.22835] CT
1 LJ
0.639 LW
N
76.175 208.481 M
75.292 217.612 L
S
GR
GS
[0.78257 0 0 0.78197 0 0.22835] CT
1 LJ
0.639 LW
N
266.782 217.612 M
267.52 208.481 L
S
GR
GS
[0.78257 0 0 0.78197 0 0.22835] CT
1 LJ
0.639 LW
N
77.615 199.35 M
76.175 208.481 L
S
GR
GS
[0.78257 0 0 0.78197 0 0.22835] CT
1 LJ
0.639 LW
N
267.52 208.481 M
268.368 201.389 L
268.672 199.35 L
S
GR
GS
[0.78257 0 0 0.78197 0 0.22835] CT
1 LJ
0.639 LW
N
79.543 190.22 M
77.615 199.35 L
S
GR
GS
[0.78257 0 0 0.78197 0 0.22835] CT
1 LJ
0.639 LW
N
268.672 199.35 M
270.255 190.22 L
S
GR
GS
[0.78257 0 0 0.78197 0 0.22835] CT
1 LJ
0.639 LW
N
81.835 181.089 M
79.543 190.22 L
S
GR
GS
[0.78257 0 0 0.78197 0 0.22835] CT
1 LJ
0.639 LW
N
270.255 190.22 M
271.784 181.089 L
S
GR
GS
[0.78257 0 0 0.78197 0 0.22835] CT
1 LJ
0.639 LW
N
83.742 171.958 M
81.947 180.65 L
81.835 181.089 L
S
GR
GS
[0.78257 0 0 0.78197 0 0.22835] CT
1 LJ
0.639 LW
N
271.784 181.089 M
273.111 171.958 L
S
GR
GS
[0.78257 0 0 0.78197 0 0.22835] CT
1 LJ
0.639 LW
N
85.437 162.827 M
83.742 171.958 L
S
GR
GS
[0.78257 0 0 0.78197 0 0.22835] CT
1 LJ
0.639 LW
N
273.111 171.958 M
274.148 162.827 L
S
GR
GS
[0.78257 0 0 0.78197 0 0.22835] CT
1 LJ
0.639 LW
N
86.723 153.696 M
85.437 162.827 L
S
GR
GS
[0.78257 0 0 0.78197 0 0.22835] CT
1 LJ
0.639 LW
N
274.148 162.827 M
274.853 153.696 L
S
GR
GS
[0.78257 0 0 0.78197 0 0.22835] CT
1 LJ
0.639 LW
N
87.419 144.565 M
86.723 153.696 L
S
GR
GS
[0.78257 0 0 0.78197 0 0.22835] CT
1 LJ
0.639 LW
N
274.853 153.696 M
275.207 144.565 L
S
GR
GS
[0.78257 0 0 0.78197 0 0.22835] CT
1 LJ
0.639 LW
N
87.419 135.435 M
87.419 144.565 L
S
GR
GS
[0.78257 0 0 0.78197 0 0.22835] CT
1 LJ
0.639 LW
N
275.207 144.565 M
275.207 135.435 L
S
GR
GS
[0.78257 0 0 0.78197 0 0.22835] CT
1 LJ
0.639 LW
N
86.723 126.304 M
87.419 135.435 L
S
GR
GS
[0.78257 0 0 0.78197 0 0.22835] CT
1 LJ
0.639 LW
N
275.207 135.435 M
274.853 126.304 L
S
GR
GS
[0.78257 0 0 0.78197 0 0.22835] CT
1 LJ
0.639 LW
N
85.437 117.173 M
86.723 126.304 L
S
GR
GS
[0.78257 0 0 0.78197 0 0.22835] CT
1 LJ
0.639 LW
N
274.853 126.304 M
274.148 117.173 L
S
GR
GS
[0.78257 0 0 0.78197 0 0.22835] CT
1 LJ
0.639 LW
N
83.742 108.042 M
85.437 117.173 L
S
GR
GS
[0.78257 0 0 0.78197 0 0.22835] CT
1 LJ
0.639 LW
N
274.148 117.173 M
273.111 108.042 L
S
GR
GS
[0.78257 0 0 0.78197 0 0.22835] CT
1 LJ
0.639 LW
N
81.835 98.911 M
81.947 99.35 L
83.742 108.042 L
S
GR
GS
[0.78257 0 0 0.78197 0 0.22835] CT
1 LJ
0.639 LW
N
273.111 108.042 M
271.784 98.911 L
S
GR
GS
[0.78257 0 0 0.78197 0 0.22835] CT
1 LJ
0.639 LW
N
79.543 89.78 M
81.835 98.911 L
S
GR
GS
[0.78257 0 0 0.78197 0 0.22835] CT
1 LJ
0.639 LW
N
271.784 98.911 M
270.255 89.78 L
S
GR
GS
[0.78257 0 0 0.78197 0 0.22835] CT
1 LJ
0.639 LW
N
77.615 80.65 M
79.543 89.78 L
S
GR
GS
[0.78257 0 0 0.78197 0 0.22835] CT
1 LJ
0.639 LW
N
270.255 89.78 M
268.672 80.65 L
S
GR
GS
[0.78257 0 0 0.78197 0 0.22835] CT
1 LJ
0.639 LW
N
76.175 71.519 M
77.615 80.65 L
S
GR
GS
[0.78257 0 0 0.78197 0 0.22835] CT
1 LJ
0.639 LW
N
268.672 80.65 M
268.368 78.611 L
267.52 71.519 L
S
GR
GS
[0.78257 0 0 0.78197 0 0.22835] CT
1 LJ
0.639 LW
N
75.292 62.388 M
76.175 71.519 L
S
GR
GS
[0.78257 0 0 0.78197 0 0.22835] CT
1 LJ
0.639 LW
N
267.52 71.519 M
266.782 62.388 L
S
GR
GS
[0.78257 0 0 0.78197 0 0.22835] CT
1 LJ
0.639 LW
N
74.994 53.257 M
75.292 62.388 L
S
GR
GS
[0.78257 0 0 0.78197 0 0.22835] CT
1 LJ
0.639 LW
N
266.782 62.388 M
266.52 53.257 L
S
GR
GS
[0.78257 0 0 0.78197 0 0.22835] CT
1 LJ
0.639 LW
N
85.483 217.612 M
85.18 226.743 L
S
GR
GS
[0.78257 0 0 0.78197 0 0.22835] CT
1 LJ
0.639 LW
N
255.792 226.743 M
256.127 217.612 L
S
GR
GS
[0.78257 0 0 0.78197 0 0.22835] CT
1 LJ
0.639 LW
N
86.373 208.481 M
85.483 217.612 L
S
GR
GS
[0.78257 0 0 0.78197 0 0.22835] CT
1 LJ
0.639 LW
N
256.127 217.612 M
257.07 208.481 L
S
GR
GS
[0.78257 0 0 0.78197 0 0.22835] CT
1 LJ
0.639 LW
N
87.785 199.35 M
86.373 208.481 L
S
GR
GS
[0.78257 0 0 0.78197 0 0.22835] CT
1 LJ
0.639 LW
N
257.07 208.481 M
258.458 199.35 L
S
GR
GS
[0.78257 0 0 0.78197 0 0.22835] CT
1 LJ
0.639 LW
N
89.606 190.22 M
87.785 199.35 L
S
GR
GS
[0.78257 0 0 0.78197 0 0.22835] CT
1 LJ
0.639 LW
N
258.458 199.35 M
260.078 190.22 L
S
GR
GS
[0.78257 0 0 0.78197 0 0.22835] CT
1 LJ
0.639 LW
N
91.674 181.089 M
89.606 190.22 L
S
GR
GS
[0.78257 0 0 0.78197 0 0.22835] CT
1 LJ
0.639 LW
N
260.078 190.22 M
261.717 181.089 L
S
GR
GS
[0.78257 0 0 0.78197 0 0.22835] CT
1 LJ
0.639 LW
N
93.776 171.958 M
91.674 181.089 L
S
GR
GS
[0.78257 0 0 0.78197 0 0.22835] CT
1 LJ
0.639 LW
N
261.717 181.089 M
263.201 171.958 L
S
GR
GS
[0.78257 0 0 0.78197 0 0.22835] CT
1 LJ
0.639 LW
N
95.614 162.827 M
95.263 164.754 L
93.776 171.958 L
S
GR
GS
[0.78257 0 0 0.78197 0 0.22835] CT
1 LJ
0.639 LW
N
263.201 171.958 M
264.403 162.827 L
S
GR
GS
[0.78257 0 0 0.78197 0 0.22835] CT
1 LJ
0.639 LW
N
96.839 153.696 M
95.614 162.827 L
S
GR
GS
[0.78257 0 0 0.78197 0 0.22835] CT
1 LJ
0.639 LW
N
264.403 162.827 M
265.241 153.696 L
S
GR
GS
[0.78257 0 0 0.78197 0 0.22835] CT
1 LJ
0.639 LW
N
97.489 144.565 M
96.839 153.696 L
S
GR
GS
[0.78257 0 0 0.78197 0 0.22835] CT
1 LJ
0.639 LW
N
265.241 153.696 M
265.671 144.565 L
S
GR
GS
[0.78257 0 0 0.78197 0 0.22835] CT
1 LJ
0.639 LW
N
97.489 135.435 M
97.489 144.565 L
S
GR
GS
[0.78257 0 0 0.78197 0 0.22835] CT
1 LJ
0.639 LW
N
265.671 144.565 M
265.671 135.435 L
S
GR
GS
[0.78257 0 0 0.78197 0 0.22835] CT
1 LJ
0.639 LW
N
96.839 126.304 M
97.489 135.435 L
S
GR
GS
[0.78257 0 0 0.78197 0 0.22835] CT
1 LJ
0.639 LW
N
265.671 135.435 M
265.241 126.304 L
S
GR
GS
[0.78257 0 0 0.78197 0 0.22835] CT
1 LJ
0.639 LW
N
95.614 117.173 M
96.839 126.304 L
S
GR
GS
[0.78257 0 0 0.78197 0 0.22835] CT
1 LJ
0.639 LW
N
265.241 126.304 M
264.403 117.173 L
S
GR
GS
[0.78257 0 0 0.78197 0 0.22835] CT
1 LJ
0.639 LW
N
93.776 108.042 M
95.263 115.246 L
95.614 117.173 L
S
GR
GS
[0.78257 0 0 0.78197 0 0.22835] CT
1 LJ
0.639 LW
N
264.403 117.173 M
263.201 108.042 L
S
GR
GS
[0.78257 0 0 0.78197 0 0.22835] CT
1 LJ
0.639 LW
N
91.674 98.911 M
93.776 108.042 L
S
GR
GS
[0.78257 0 0 0.78197 0 0.22835] CT
1 LJ
0.639 LW
N
263.201 108.042 M
261.717 98.911 L
S
GR
GS
[0.78257 0 0 0.78197 0 0.22835] CT
1 LJ
0.639 LW
N
89.606 89.78 M
91.674 98.911 L
S
GR
GS
[0.78257 0 0 0.78197 0 0.22835] CT
1 LJ
0.639 LW
N
261.717 98.911 M
260.078 89.78 L
S
GR
GS
[0.78257 0 0 0.78197 0 0.22835] CT
1 LJ
0.639 LW
N
87.785 80.65 M
89.606 89.78 L
S
GR
GS
[0.78257 0 0 0.78197 0 0.22835] CT
1 LJ
0.639 LW
N
260.078 89.78 M
258.458 80.65 L
S
GR
GS
[0.78257 0 0 0.78197 0 0.22835] CT
1 LJ
0.639 LW
N
86.373 71.519 M
87.785 80.65 L
S
GR
GS
[0.78257 0 0 0.78197 0 0.22835] CT
1 LJ
0.639 LW
N
258.458 80.65 M
257.07 71.519 L
S
GR
GS
[0.78257 0 0 0.78197 0 0.22835] CT
1 LJ
0.639 LW
N
85.483 62.388 M
86.373 71.519 L
S
GR
GS
[0.78257 0 0 0.78197 0 0.22835] CT
1 LJ
0.639 LW
N
257.07 71.519 M
256.127 62.388 L
S
GR
GS
[0.78257 0 0 0.78197 0 0.22835] CT
1 LJ
0.639 LW
N
85.18 53.257 M
85.483 62.388 L
S
GR
GS
[0.78257 0 0 0.78197 0 0.22835] CT
1 LJ
0.639 LW
N
256.127 62.388 M
255.792 53.257 L
S
GR
GS
[0.78257 0 0 0.78197 0 0.22835] CT
1 LJ
0.639 LW
N
94.652 217.612 M
94.317 226.743 L
S
GR
GS
[0.78257 0 0 0.78197 0 0.22835] CT
1 LJ
0.639 LW
N
246.409 226.743 M
246.734 217.612 L
S
GR
GS
[0.78257 0 0 0.78197 0 0.22835] CT
1 LJ
0.639 LW
N
95.612 208.481 M
95.263 211.916 L
94.652 217.612 L
S
GR
GS
[0.78257 0 0 0.78197 0 0.22835] CT
1 LJ
0.639 LW
N
246.734 217.612 M
247.662 208.481 L
S
GR
GS
[0.78257 0 0 0.78197 0 0.22835] CT
1 LJ
0.639 LW
N
97.053 199.35 M
95.612 208.481 L
S
GR
GS
[0.78257 0 0 0.78197 0 0.22835] CT
1 LJ
0.639 LW
N
247.662 208.481 M
249.061 199.35 L
S
GR
GS
[0.78257 0 0 0.78197 0 0.22835] CT
1 LJ
0.639 LW
N
98.859 190.22 M
97.053 199.35 L
S
GR
GS
[0.78257 0 0 0.78197 0 0.22835] CT
1 LJ
0.639 LW
N
249.061 199.35 M
250.743 190.22 L
S
GR
GS
[0.78257 0 0 0.78197 0 0.22835] CT
1 LJ
0.639 LW
N
100.839 181.089 M
98.859 190.22 L
S
GR
GS
[0.78257 0 0 0.78197 0 0.22835] CT
1 LJ
0.639 LW
N
250.743 190.22 M
252.503 181.089 L
S
GR
GS
[0.78257 0 0 0.78197 0 0.22835] CT
1 LJ
0.639 LW
N
102.781 171.958 M
100.839 181.089 L
S
GR
GS
[0.78257 0 0 0.78197 0 0.22835] CT
1 LJ
0.639 LW
N
252.503 181.089 M
254.15 171.958 L
S
GR
GS
[0.78257 0 0 0.78197 0 0.22835] CT
1 LJ
0.639 LW
N
104.471 162.827 M
102.781 171.958 L
S
GR
GS
[0.78257 0 0 0.78197 0 0.22835] CT
1 LJ
0.639 LW
N
254.15 171.958 M
255.053 165.989 L
255.55 162.827 L
S
GR
GS
[0.78257 0 0 0.78197 0 0.22835] CT
1 LJ
0.639 LW
N
105.718 153.696 M
104.471 162.827 L
S
GR
GS
[0.78257 0 0 0.78197 0 0.22835] CT
1 LJ
0.639 LW
N
255.55 162.827 M
256.571 153.696 L
S
GR
GS
[0.78257 0 0 0.78197 0 0.22835] CT
1 LJ
0.639 LW
N
106.38 144.565 M
105.718 153.696 L
S
GR
GS
[0.78257 0 0 0.78197 0 0.22835] CT
1 LJ
0.639 LW
N
256.571 153.696 M
257.095 144.565 L
S
GR
GS
[0.78257 0 0 0.78197 0 0.22835] CT
1 LJ
0.639 LW
N
106.38 135.435 M
106.38 144.565 L
S
GR
GS
[0.78257 0 0 0.78197 0 0.22835] CT
1 LJ
0.639 LW
N
257.095 144.565 M
257.095 135.435 L
S
GR
GS
[0.78257 0 0 0.78197 0 0.22835] CT
1 LJ
0.639 LW
N
105.718 126.304 M
106.38 135.435 L
S
GR
GS
[0.78257 0 0 0.78197 0 0.22835] CT
1 LJ
0.639 LW
N
257.095 135.435 M
256.571 126.304 L
S
GR
GS
[0.78257 0 0 0.78197 0 0.22835] CT
1 LJ
0.639 LW
N
104.471 117.173 M
105.718 126.304 L
S
GR
GS
[0.78257 0 0 0.78197 0 0.22835] CT
1 LJ
0.639 LW
N
256.571 126.304 M
255.55 117.173 L
S
GR
GS
[0.78257 0 0 0.78197 0 0.22835] CT
1 LJ
0.639 LW
N
102.781 108.042 M
104.471 117.173 L
S
GR
GS
[0.78257 0 0 0.78197 0 0.22835] CT
1 LJ
0.639 LW
N
255.55 117.173 M
255.053 114.011 L
254.15 108.042 L
S
GR
GS
[0.78257 0 0 0.78197 0 0.22835] CT
1 LJ
0.639 LW
N
100.839 98.911 M
102.781 108.042 L
S
GR
GS
[0.78257 0 0 0.78197 0 0.22835] CT
1 LJ
0.639 LW
N
254.15 108.042 M
252.503 98.911 L
S
GR
GS
[0.78257 0 0 0.78197 0 0.22835] CT
1 LJ
0.639 LW
N
98.859 89.78 M
100.839 98.911 L
S
GR
GS
[0.78257 0 0 0.78197 0 0.22835] CT
1 LJ
0.639 LW
N
252.503 98.911 M
250.743 89.78 L
S
GR
GS
[0.78257 0 0 0.78197 0 0.22835] CT
1 LJ
0.639 LW
N
97.053 80.65 M
98.859 89.78 L
S
GR
GS
[0.78257 0 0 0.78197 0 0.22835] CT
1 LJ
0.639 LW
N
250.743 89.78 M
249.061 80.65 L
S
GR
GS
[0.78257 0 0 0.78197 0 0.22835] CT
1 LJ
0.639 LW
N
95.612 71.519 M
97.053 80.65 L
S
GR
GS
[0.78257 0 0 0.78197 0 0.22835] CT
1 LJ
0.639 LW
N
249.061 80.65 M
247.662 71.519 L
S
GR
GS
[0.78257 0 0 0.78197 0 0.22835] CT
1 LJ
0.639 LW
N
94.652 62.388 M
95.263 68.084 L
95.612 71.519 L
S
GR
GS
[0.78257 0 0 0.78197 0 0.22835] CT
1 LJ
0.639 LW
N
247.662 71.519 M
246.734 62.388 L
S
GR
GS
[0.78257 0 0 0.78197 0 0.22835] CT
1 LJ
0.639 LW
N
94.317 53.257 M
94.652 62.388 L
S
GR
GS
[0.78257 0 0 0.78197 0 0.22835] CT
1 LJ
0.639 LW
N
246.734 62.388 M
246.409 53.257 L
S
GR
GS
[0.78257 0 0 0.78197 0 0.22835] CT
1 LJ
0.639 LW
N
103.363 217.612 M
103.037 226.743 L
S
GR
GS
[0.78257 0 0 0.78197 0 0.22835] CT
1 LJ
0.639 LW
N
237.299 226.743 M
237.632 217.612 L
S
GR
GS
[0.78257 0 0 0.78197 0 0.22835] CT
1 LJ
0.639 LW
N
104.307 208.481 M
103.363 217.612 L
S
GR
GS
[0.78257 0 0 0.78197 0 0.22835] CT
1 LJ
0.639 LW
N
237.632 217.612 M
238.591 208.481 L
S
GR
GS
[0.78257 0 0 0.78197 0 0.22835] CT
1 LJ
0.639 LW
N
105.774 199.35 M
104.307 208.481 L
S
GR
GS
[0.78257 0 0 0.78197 0 0.22835] CT
1 LJ
0.639 LW
N
238.591 208.481 M
240.067 199.35 L
S
GR
GS
[0.78257 0 0 0.78197 0 0.22835] CT
1 LJ
0.639 LW
N
107.613 190.22 M
105.774 199.35 L
S
GR
GS
[0.78257 0 0 0.78197 0 0.22835] CT
1 LJ
0.639 LW
N
240.067 199.35 M
241.737 190.999 L
241.892 190.22 L
S
GR
GS
[0.78257 0 0 0.78197 0 0.22835] CT
1 LJ
0.639 LW
N
109.621 181.089 M
108.579 185.835 L
107.613 190.22 L
S
GR
GS
[0.78257 0 0 0.78197 0 0.22835] CT
1 LJ
0.639 LW
N
241.892 190.22 M
243.829 181.089 L
S
GR
GS
[0.78257 0 0 0.78197 0 0.22835] CT
1 LJ
0.639 LW
N
111.536 171.958 M
109.621 181.089 L
S
GR
GS
[0.78257 0 0 0.78197 0 0.22835] CT
1 LJ
0.639 LW
N
243.829 181.089 M
245.64 171.958 L
S
GR
GS
[0.78257 0 0 0.78197 0 0.22835] CT
1 LJ
0.639 LW
N
113.153 162.827 M
111.536 171.958 L
S
GR
GS
[0.78257 0 0 0.78197 0 0.22835] CT
1 LJ
0.639 LW
N
245.64 171.958 M
247.15 162.827 L
S
GR
GS
[0.78257 0 0 0.78197 0 0.22835] CT
1 LJ
0.639 LW
N
114.32 153.696 M
113.153 162.827 L
S
GR
GS
[0.78257 0 0 0.78197 0 0.22835] CT
1 LJ
0.639 LW
N
247.15 162.827 M
248.227 153.696 L
S
GR
GS
[0.78257 0 0 0.78197 0 0.22835] CT
1 LJ
0.639 LW
N
114.929 144.565 M
114.32 153.696 L
S
GR
GS
[0.78257 0 0 0.78197 0 0.22835] CT
1 LJ
0.639 LW
N
248.227 153.696 M
248.786 144.565 L
S
GR
GS
[0.78257 0 0 0.78197 0 0.22835] CT
1 LJ
0.639 LW
N
114.929 135.435 M
114.929 144.565 L
S
GR
GS
[0.78257 0 0 0.78197 0 0.22835] CT
1 LJ
0.639 LW
N
248.786 144.565 M
248.786 135.435 L
S
GR
GS
[0.78257 0 0 0.78197 0 0.22835] CT
1 LJ
0.639 LW
N
114.32 126.304 M
114.929 135.435 L
S
GR
GS
[0.78257 0 0 0.78197 0 0.22835] CT
1 LJ
0.639 LW
N
248.786 135.435 M
248.227 126.304 L
S
GR
GS
[0.78257 0 0 0.78197 0 0.22835] CT
1 LJ
0.639 LW
N
113.153 117.173 M
114.32 126.304 L
S
GR
GS
[0.78257 0 0 0.78197 0 0.22835] CT
1 LJ
0.639 LW
N
248.227 126.304 M
247.15 117.173 L
S
GR
GS
[0.78257 0 0 0.78197 0 0.22835] CT
1 LJ
0.639 LW
N
111.536 108.042 M
113.153 117.173 L
S
GR
GS
[0.78257 0 0 0.78197 0 0.22835] CT
1 LJ
0.639 LW
N
247.15 117.173 M
245.64 108.042 L
S
GR
GS
[0.78257 0 0 0.78197 0 0.22835] CT
1 LJ
0.639 LW
N
109.621 98.911 M
111.536 108.042 L
S
GR
GS
[0.78257 0 0 0.78197 0 0.22835] CT
1 LJ
0.639 LW
N
245.64 108.042 M
243.829 98.911 L
S
GR
GS
[0.78257 0 0 0.78197 0 0.22835] CT
1 LJ
0.639 LW
N
107.613 89.78 M
108.579 94.165 L
109.621 98.911 L
S
GR
GS
[0.78257 0 0 0.78197 0 0.22835] CT
1 LJ
0.639 LW
N
243.829 98.911 M
241.892 89.78 L
S
GR
GS
[0.78257 0 0 0.78197 0 0.22835] CT
1 LJ
0.639 LW
N
105.774 80.65 M
107.613 89.78 L
S
GR
GS
[0.78257 0 0 0.78197 0 0.22835] CT
1 LJ
0.639 LW
N
241.892 89.78 M
241.737 89.001 L
240.067 80.65 L
S
GR
GS
[0.78257 0 0 0.78197 0 0.22835] CT
1 LJ
0.639 LW
N
104.307 71.519 M
105.774 80.65 L
S
GR
GS
[0.78257 0 0 0.78197 0 0.22835] CT
1 LJ
0.639 LW
N
240.067 80.65 M
238.591 71.519 L
S
GR
GS
[0.78257 0 0 0.78197 0 0.22835] CT
1 LJ
0.639 LW
N
103.363 62.388 M
104.307 71.519 L
S
GR
GS
[0.78257 0 0 0.78197 0 0.22835] CT
1 LJ
0.639 LW
N
238.591 71.519 M
237.632 62.388 L
S
GR
GS
[0.78257 0 0 0.78197 0 0.22835] CT
1 LJ
0.639 LW
N
103.037 53.257 M
103.363 62.388 L
S
GR
GS
[0.78257 0 0 0.78197 0 0.22835] CT
1 LJ
0.639 LW
N
237.632 62.388 M
237.299 53.257 L
S
GR
GS
[0.78257 0 0 0.78197 0 0.22835] CT
1 LJ
0.639 LW
N
112.196 217.612 M
111.859 226.743 L
S
GR
GS
[0.78257 0 0 0.78197 0 0.22835] CT
1 LJ
0.639 LW
N
228.361 226.743 M
228.421 225.224 L
228.704 217.612 L
S
GR
GS
[0.78257 0 0 0.78197 0 0.22835] CT
1 LJ
0.639 LW
N
113.163 208.481 M
112.196 217.612 L
S
GR
GS
[0.78257 0 0 0.78197 0 0.22835] CT
1 LJ
0.639 LW
N
228.704 217.612 M
229.681 208.481 L
S
GR
GS
[0.78257 0 0 0.78197 0 0.22835] CT
1 LJ
0.639 LW
N
114.636 199.35 M
113.163 208.481 L
S
GR
GS
[0.78257 0 0 0.78197 0 0.22835] CT
1 LJ
0.639 LW
N
229.681 208.481 M
231.185 199.35 L
S
GR
GS
[0.78257 0 0 0.78197 0 0.22835] CT
1 LJ
0.639 LW
N
116.432 190.22 M
114.636 199.35 L
S
GR
GS
[0.78257 0 0 0.78197 0 0.22835] CT
1 LJ
0.639 LW
N
231.185 199.35 M
233.043 190.22 L
S
GR
GS
[0.78257 0 0 0.78197 0 0.22835] CT
1 LJ
0.639 LW
N
118.341 181.089 M
116.432 190.22 L
S
GR
GS
[0.78257 0 0 0.78197 0 0.22835] CT
1 LJ
0.639 LW
N
233.043 190.22 M
235.05 181.089 L
S
GR
GS
[0.78257 0 0 0.78197 0 0.22835] CT
1 LJ
0.639 LW
N
120.153 171.958 M
118.341 181.089 L
S
GR
GS
[0.78257 0 0 0.78197 0 0.22835] CT
1 LJ
0.639 LW
N
235.05 181.089 M
236.985 171.958 L
S
GR
GS
[0.78257 0 0 0.78197 0 0.22835] CT
1 LJ
0.639 LW
N
121.685 162.827 M
120.153 171.958 L
S
GR
GS
[0.78257 0 0 0.78197 0 0.22835] CT
1 LJ
0.639 LW
N
236.985 171.958 M
238.645 162.827 L
S
GR
GS
[0.78257 0 0 0.78197 0 0.22835] CT
1 LJ
0.639 LW
N
122.836 153.696 M
121.895 161.1 L
121.685 162.827 L
S
GR
GS
[0.78257 0 0 0.78197 0 0.22835] CT
1 LJ
0.639 LW
N
238.645 162.827 M
239.855 153.696 L
S
GR
GS
[0.78257 0 0 0.78197 0 0.22835] CT
1 LJ
0.639 LW
N
123.436 144.565 M
122.836 153.696 L
S
GR
GS
[0.78257 0 0 0.78197 0 0.22835] CT
1 LJ
0.639 LW
N
239.855 153.696 M
240.492 144.565 L
S
GR
GS
[0.78257 0 0 0.78197 0 0.22835] CT
1 LJ
0.639 LW
N
123.436 135.435 M
123.436 144.565 L
S
GR
GS
[0.78257 0 0 0.78197 0 0.22835] CT
1 LJ
0.639 LW
N
240.492 144.565 M
240.492 135.435 L
S
GR
GS
[0.78257 0 0 0.78197 0 0.22835] CT
1 LJ
0.639 LW
N
122.836 126.304 M
123.436 135.435 L
S
GR
GS
[0.78257 0 0 0.78197 0 0.22835] CT
1 LJ
0.639 LW
N
240.492 135.435 M
239.855 126.304 L
S
GR
GS
[0.78257 0 0 0.78197 0 0.22835] CT
1 LJ
0.639 LW
N
121.685 117.173 M
121.895 118.9 L
122.836 126.304 L
S
GR
GS
[0.78257 0 0 0.78197 0 0.22835] CT
1 LJ
0.639 LW
N
239.855 126.304 M
238.645 117.173 L
S
GR
GS
[0.78257 0 0 0.78197 0 0.22835] CT
1 LJ
0.639 LW
N
120.153 108.042 M
121.685 117.173 L
S
GR
GS
[0.78257 0 0 0.78197 0 0.22835] CT
1 LJ
0.639 LW
N
238.645 117.173 M
236.985 108.042 L
S
GR
GS
[0.78257 0 0 0.78197 0 0.22835] CT
1 LJ
0.639 LW
N
118.341 98.911 M
120.153 108.042 L
S
GR
GS
[0.78257 0 0 0.78197 0 0.22835] CT
1 LJ
0.639 LW
N
236.985 108.042 M
235.05 98.911 L
S
GR
GS
[0.78257 0 0 0.78197 0 0.22835] CT
1 LJ
0.639 LW
N
116.432 89.78 M
118.341 98.911 L
S
GR
GS
[0.78257 0 0 0.78197 0 0.22835] CT
1 LJ
0.639 LW
N
235.05 98.911 M
233.043 89.78 L
S
GR
GS
[0.78257 0 0 0.78197 0 0.22835] CT
1 LJ
0.639 LW
N
114.636 80.65 M
116.432 89.78 L
S
GR
GS
[0.78257 0 0 0.78197 0 0.22835] CT
1 LJ
0.639 LW
N
233.043 89.78 M
231.185 80.65 L
S
GR
GS
[0.78257 0 0 0.78197 0 0.22835] CT
1 LJ
0.639 LW
N
113.163 71.519 M
114.636 80.65 L
S
GR
GS
[0.78257 0 0 0.78197 0 0.22835] CT
1 LJ
0.639 LW
N
231.185 80.65 M
229.681 71.519 L
S
GR
GS
[0.78257 0 0 0.78197 0 0.22835] CT
1 LJ
0.639 LW
N
112.196 62.388 M
113.163 71.519 L
S
GR
GS
[0.78257 0 0 0.78197 0 0.22835] CT
1 LJ
0.639 LW
N
229.681 71.519 M
228.704 62.388 L
S
GR
GS
[0.78257 0 0 0.78197 0 0.22835] CT
1 LJ
0.639 LW
N
111.859 53.257 M
112.196 62.388 L
S
GR
GS
[0.78257 0 0 0.78197 0 0.22835] CT
1 LJ
0.639 LW
N
228.704 62.388 M
228.421 54.776 L
228.361 53.257 L
S
GR
GS
[0.78257 0 0 0.78197 0 0.22835] CT
1 LJ
0.639 LW
N
121.263 217.612 M
120.945 226.743 L
S
GR
GS
[0.78257 0 0 0.78197 0 0.22835] CT
1 LJ
0.639 LW
N
218.871 226.743 M
219.211 217.612 L
S
GR
GS
[0.78257 0 0 0.78197 0 0.22835] CT
1 LJ
0.639 LW
N
122.219 208.481 M
121.895 211.305 L
121.263 217.612 L
S
GR
GS
[0.78257 0 0 0.78197 0 0.22835] CT
1 LJ
0.639 LW
N
219.211 217.612 M
220.203 208.481 L
S
GR
GS
[0.78257 0 0 0.78197 0 0.22835] CT
1 LJ
0.639 LW
N
123.794 199.35 M
122.219 208.481 L
S
GR
GS
[0.78257 0 0 0.78197 0 0.22835] CT
1 LJ
0.639 LW
N
220.203 208.481 M
221.761 199.35 L
S
GR
GS
[0.78257 0 0 0.78197 0 0.22835] CT
1 LJ
0.639 LW
N
125.654 190.22 M
123.794 199.35 L
S
GR
GS
[0.78257 0 0 0.78197 0 0.22835] CT
1 LJ
0.639 LW
N
221.761 199.35 M
223.745 190.22 L
S
GR
GS
[0.78257 0 0 0.78197 0 0.22835] CT
1 LJ
0.639 LW
N
127.562 181.089 M
125.654 190.22 L
S
GR
GS
[0.78257 0 0 0.78197 0 0.22835] CT
1 LJ
0.639 LW
N
223.745 190.22 M
225.962 181.089 L
S
GR
GS
[0.78257 0 0 0.78197 0 0.22835] CT
1 LJ
0.639 LW
N
129.312 171.958 M
127.562 181.089 L
S
GR
GS
[0.78257 0 0 0.78197 0 0.22835] CT
1 LJ
0.639 LW
N
225.962 181.089 M
228.178 171.958 L
S
GR
GS
[0.78257 0 0 0.78197 0 0.22835] CT
1 LJ
0.639 LW
N
130.746 162.827 M
129.312 171.958 L
S
GR
GS
[0.78257 0 0 0.78197 0 0.22835] CT
1 LJ
0.639 LW
N
228.178 171.958 M
228.421 170.815 L
229.898 162.827 L
S
GR
GS
[0.78257 0 0 0.78197 0 0.22835] CT
1 LJ
0.639 LW
N
131.756 153.696 M
130.746 162.827 L
S
GR
GS
[0.78257 0 0 0.78197 0 0.22835] CT
1 LJ
0.639 LW
N
229.898 162.827 M
231.131 153.696 L
S
GR
GS
[0.78257 0 0 0.78197 0 0.22835] CT
1 LJ
0.639 LW
N
132.275 144.565 M
131.756 153.696 L
S
GR
GS
[0.78257 0 0 0.78197 0 0.22835] CT
1 LJ
0.639 LW
N
231.131 153.696 M
231.78 144.565 L
S
GR
GS
[0.78257 0 0 0.78197 0 0.22835] CT
1 LJ
0.639 LW
N
132.275 135.435 M
132.275 144.565 L
S
GR
GS
[0.78257 0 0 0.78197 0 0.22835] CT
1 LJ
0.639 LW
N
231.78 144.565 M
231.78 135.435 L
S
GR
GS
[0.78257 0 0 0.78197 0 0.22835] CT
1 LJ
0.639 LW
N
131.756 126.304 M
132.275 135.435 L
S
GR
GS
[0.78257 0 0 0.78197 0 0.22835] CT
1 LJ
0.639 LW
N
231.78 135.435 M
231.131 126.304 L
S
GR
GS
[0.78257 0 0 0.78197 0 0.22835] CT
1 LJ
0.639 LW
N
130.746 117.173 M
131.756 126.304 L
S
GR
GS
[0.78257 0 0 0.78197 0 0.22835] CT
1 LJ
0.639 LW
N
231.131 126.304 M
229.898 117.173 L
S
GR
GS
[0.78257 0 0 0.78197 0 0.22835] CT
1 LJ
0.639 LW
N
129.312 108.042 M
130.746 117.173 L
S
GR
GS
[0.78257 0 0 0.78197 0 0.22835] CT
1 LJ
0.639 LW
N
229.898 117.173 M
228.421 109.185 L
228.178 108.042 L
S
GR
GS
[0.78257 0 0 0.78197 0 0.22835] CT
1 LJ
0.639 LW
N
127.562 98.911 M
129.312 108.042 L
S
GR
GS
[0.78257 0 0 0.78197 0 0.22835] CT
1 LJ
0.639 LW
N
228.178 108.042 M
225.962 98.911 L
S
GR
GS
[0.78257 0 0 0.78197 0 0.22835] CT
1 LJ
0.639 LW
N
125.654 89.78 M
127.562 98.911 L
S
GR
GS
[0.78257 0 0 0.78197 0 0.22835] CT
1 LJ
0.639 LW
N
225.962 98.911 M
223.745 89.78 L
S
GR
GS
[0.78257 0 0 0.78197 0 0.22835] CT
1 LJ
0.639 LW
N
123.794 80.65 M
125.654 89.78 L
S
GR
GS
[0.78257 0 0 0.78197 0 0.22835] CT
1 LJ
0.639 LW
N
223.745 89.78 M
221.761 80.65 L
S
GR
GS
[0.78257 0 0 0.78197 0 0.22835] CT
1 LJ
0.639 LW
N
122.219 71.519 M
123.794 80.65 L
S
GR
GS
[0.78257 0 0 0.78197 0 0.22835] CT
1 LJ
0.639 LW
N
221.761 80.65 M
220.203 71.519 L
S
GR
GS
[0.78257 0 0 0.78197 0 0.22835] CT
1 LJ
0.639 LW
N
121.263 62.388 M
121.895 68.695 L
122.219 71.519 L
S
GR
GS
[0.78257 0 0 0.78197 0 0.22835] CT
1 LJ
0.639 LW
N
220.203 71.519 M
219.211 62.388 L
S
GR
GS
[0.78257 0 0 0.78197 0 0.22835] CT
1 LJ
0.639 LW
N
120.945 53.257 M
121.263 62.388 L
S
GR
GS
[0.78257 0 0 0.78197 0 0.22835] CT
1 LJ
0.639 LW
N
219.211 62.388 M
218.871 53.257 L
S
GR
GS
[0.78257 0 0 0.78197 0 0.22835] CT
1 LJ
0.639 LW
N
131.712 217.612 M
131.395 226.743 L
S
GR
GS
[0.78257 0 0 0.78197 0 0.22835] CT
1 LJ
0.639 LW
N
208.297 226.743 M
208.653 217.612 L
S
GR
GS
[0.78257 0 0 0.78197 0 0.22835] CT
1 LJ
0.639 LW
N
132.608 208.481 M
131.712 217.612 L
S
GR
GS
[0.78257 0 0 0.78197 0 0.22835] CT
1 LJ
0.639 LW
N
208.653 217.612 M
209.707 208.481 L
S
GR
GS
[0.78257 0 0 0.78197 0 0.22835] CT
1 LJ
0.639 LW
N
133.94 199.35 M
132.608 208.481 L
S
GR
GS
[0.78257 0 0 0.78197 0 0.22835] CT
1 LJ
0.639 LW
N
209.707 208.481 M
211.41 199.35 L
S
GR
GS
[0.78257 0 0 0.78197 0 0.22835] CT
1 LJ
0.639 LW
N
135.595 190.22 M
135.211 192.019 L
133.94 199.35 L
S
GR
GS
[0.78257 0 0 0.78197 0 0.22835] CT
1 LJ
0.639 LW
N
211.41 199.35 M
213.663 190.22 L
S
GR
GS
[0.78257 0 0 0.78197 0 0.22835] CT
1 LJ
0.639 LW
N
137.587 181.089 M
135.595 190.22 L
S
GR
GS
[0.78257 0 0 0.78197 0 0.22835] CT
1 LJ
0.639 LW
N
213.663 190.22 M
215.105 185.143 L
216.036 181.089 L
S
GR
GS
[0.78257 0 0 0.78197 0 0.22835] CT
1 LJ
0.639 LW
N
139.331 171.958 M
137.587 181.089 L
S
GR
GS
[0.78257 0 0 0.78197 0 0.22835] CT
1 LJ
0.639 LW
N
216.036 181.089 M
218.116 171.958 L
S
GR
GS
[0.78257 0 0 0.78197 0 0.22835] CT
1 LJ
0.639 LW
N
140.704 162.827 M
139.331 171.958 L
S
GR
GS
[0.78257 0 0 0.78197 0 0.22835] CT
1 LJ
0.639 LW
N
218.116 171.958 M
219.959 162.827 L
S
GR
GS
[0.78257 0 0 0.78197 0 0.22835] CT
1 LJ
0.639 LW
N
141.642 153.696 M
140.704 162.827 L
S
GR
GS
[0.78257 0 0 0.78197 0 0.22835] CT
1 LJ
0.639 LW
N
219.959 162.827 M
221.339 153.696 L
S
GR
GS
[0.78257 0 0 0.78197 0 0.22835] CT
1 LJ
0.639 LW
N
142.117 144.565 M
141.642 153.696 L
S
GR
GS
[0.78257 0 0 0.78197 0 0.22835] CT
1 LJ
0.639 LW
N
221.339 153.696 M
222.079 144.565 L
S
GR
GS
[0.78257 0 0 0.78197 0 0.22835] CT
1 LJ
0.639 LW
N
142.117 135.435 M
142.117 144.565 L
S
GR
GS
[0.78257 0 0 0.78197 0 0.22835] CT
1 LJ
0.639 LW
N
222.079 144.565 M
222.079 135.435 L
S
GR
GS
[0.78257 0 0 0.78197 0 0.22835] CT
1 LJ
0.639 LW
N
141.642 126.304 M
142.117 135.435 L
S
GR
GS
[0.78257 0 0 0.78197 0 0.22835] CT
1 LJ
0.639 LW
N
222.079 135.435 M
221.339 126.304 L
S
GR
GS
[0.78257 0 0 0.78197 0 0.22835] CT
1 LJ
0.639 LW
N
140.704 117.173 M
141.642 126.304 L
S
GR
GS
[0.78257 0 0 0.78197 0 0.22835] CT
1 LJ
0.639 LW
N
221.339 126.304 M
219.959 117.173 L
S
GR
GS
[0.78257 0 0 0.78197 0 0.22835] CT
1 LJ
0.639 LW
N
139.331 108.042 M
140.704 117.173 L
S
GR
GS
[0.78257 0 0 0.78197 0 0.22835] CT
1 LJ
0.639 LW
N
219.959 117.173 M
218.116 108.042 L
S
GR
GS
[0.78257 0 0 0.78197 0 0.22835] CT
1 LJ
0.639 LW
N
137.587 98.911 M
139.331 108.042 L
S
GR
GS
[0.78257 0 0 0.78197 0 0.22835] CT
1 LJ
0.639 LW
N
218.116 108.042 M
216.036 98.911 L
S
GR
GS
[0.78257 0 0 0.78197 0 0.22835] CT
1 LJ
0.639 LW
N
135.595 89.78 M
137.587 98.911 L
S
GR
GS
[0.78257 0 0 0.78197 0 0.22835] CT
1 LJ
0.639 LW
N
216.036 98.911 M
215.105 94.857 L
213.663 89.78 L
S
GR
GS
[0.78257 0 0 0.78197 0 0.22835] CT
1 LJ
0.639 LW
N
133.94 80.65 M
135.211 87.981 L
135.595 89.78 L
S
GR
GS
[0.78257 0 0 0.78197 0 0.22835] CT
1 LJ
0.639 LW
N
213.663 89.78 M
211.41 80.65 L
S
GR
GS
[0.78257 0 0 0.78197 0 0.22835] CT
1 LJ
0.639 LW
N
132.608 71.519 M
133.94 80.65 L
S
GR
GS
[0.78257 0 0 0.78197 0 0.22835] CT
1 LJ
0.639 LW
N
211.41 80.65 M
209.707 71.519 L
S
GR
GS
[0.78257 0 0 0.78197 0 0.22835] CT
1 LJ
0.639 LW
N
131.712 62.388 M
132.608 71.519 L
S
GR
GS
[0.78257 0 0 0.78197 0 0.22835] CT
1 LJ
0.639 LW
N
209.707 71.519 M
208.653 62.388 L
S
GR
GS
[0.78257 0 0 0.78197 0 0.22835] CT
1 LJ
0.639 LW
N
131.395 53.257 M
131.712 62.388 L
S
GR
GS
[0.78257 0 0 0.78197 0 0.22835] CT
1 LJ
0.639 LW
N
208.653 62.388 M
208.297 53.257 L
S
GR
GS
[0.78257 0 0 0.78197 0 0.22835] CT
1 LJ
0.639 LW
N
144.731 217.612 M
144.429 226.743 L
S
GR
GS
[0.78257 0 0 0.78197 0 0.22835] CT
1 LJ
0.639 LW
N
195.09 226.743 M
195.459 217.612 L
S
GR
GS
[0.78257 0 0 0.78197 0 0.22835] CT
1 LJ
0.639 LW
N
145.568 208.481 M
144.731 217.612 L
S
GR
GS
[0.78257 0 0 0.78197 0 0.22835] CT
1 LJ
0.639 LW
N
195.459 217.612 M
196.577 208.481 L
S
GR
GS
[0.78257 0 0 0.78197 0 0.22835] CT
1 LJ
0.639 LW
N
146.769 199.35 M
145.568 208.481 L
S
GR
GS
[0.78257 0 0 0.78197 0 0.22835] CT
1 LJ
0.639 LW
N
196.577 208.481 M
198.472 199.35 L
S
GR
GS
[0.78257 0 0 0.78197 0 0.22835] CT
1 LJ
0.639 LW
N
148.124 190.22 M
146.769 199.35 L
S
GR
GS
[0.78257 0 0 0.78197 0 0.22835] CT
1 LJ
0.639 LW
N
198.472 199.35 M
201.163 190.22 L
S
GR
GS
[0.78257 0 0 0.78197 0 0.22835] CT
1 LJ
0.639 LW
N
149.913 181.089 M
148.526 187.545 L
148.124 190.22 L
S
GR
GS
[0.78257 0 0 0.78197 0 0.22835] CT
1 LJ
0.639 LW
N
201.163 190.22 M
201.789 188.439 L
203.534 181.089 L
S
GR
GS
[0.78257 0 0 0.78197 0 0.22835] CT
1 LJ
0.639 LW
N
151.539 171.958 M
149.913 181.089 L
S
GR
GS
[0.78257 0 0 0.78197 0 0.22835] CT
1 LJ
0.639 LW
N
203.534 181.089 M
205.797 171.958 L
S
GR
GS
[0.78257 0 0 0.78197 0 0.22835] CT
1 LJ
0.639 LW
N
152.734 162.827 M
151.539 171.958 L
S
GR
GS
[0.78257 0 0 0.78197 0 0.22835] CT
1 LJ
0.639 LW
N
205.797 171.958 M
207.903 162.827 L
S
GR
GS
[0.78257 0 0 0.78197 0 0.22835] CT
1 LJ
0.639 LW
N
153.511 153.696 M
152.734 162.827 L
S
GR
GS
[0.78257 0 0 0.78197 0 0.22835] CT
1 LJ
0.639 LW
N
207.903 162.827 M
209.548 153.696 L
S
GR
GS
[0.78257 0 0 0.78197 0 0.22835] CT
1 LJ
0.639 LW
N
153.893 144.565 M
153.511 153.696 L
S
GR
GS
[0.78257 0 0 0.78197 0 0.22835] CT
1 LJ
0.639 LW
N
209.548 153.696 M
210.454 144.565 L
S
GR
GS
[0.78257 0 0 0.78197 0 0.22835] CT
1 LJ
0.639 LW
N
153.893 135.435 M
153.893 144.565 L
S
GR
GS
[0.78257 0 0 0.78197 0 0.22835] CT
1 LJ
0.639 LW
N
210.454 144.565 M
210.454 135.435 L
S
GR
GS
[0.78257 0 0 0.78197 0 0.22835] CT
1 LJ
0.639 LW
N
153.511 126.304 M
153.893 135.435 L
S
GR
GS
[0.78257 0 0 0.78197 0 0.22835] CT
1 LJ
0.639 LW
N
210.454 135.435 M
209.548 126.304 L
S
GR
GS
[0.78257 0 0 0.78197 0 0.22835] CT
1 LJ
0.639 LW
N
152.734 117.173 M
153.511 126.304 L
S
GR
GS
[0.78257 0 0 0.78197 0 0.22835] CT
1 LJ
0.639 LW
N
209.548 126.304 M
207.903 117.173 L
S
GR
GS
[0.78257 0 0 0.78197 0 0.22835] CT
1 LJ
0.639 LW
N
151.539 108.042 M
152.734 117.173 L
S
GR
GS
[0.78257 0 0 0.78197 0 0.22835] CT
1 LJ
0.639 LW
N
207.903 117.173 M
205.797 108.042 L
S
GR
GS
[0.78257 0 0 0.78197 0 0.22835] CT
1 LJ
0.639 LW
N
149.913 98.911 M
151.539 108.042 L
S
GR
GS
[0.78257 0 0 0.78197 0 0.22835] CT
1 LJ
0.639 LW
N
205.797 108.042 M
203.534 98.911 L
S
GR
GS
[0.78257 0 0 0.78197 0 0.22835] CT
1 LJ
0.639 LW
N
148.124 89.78 M
148.526 92.455 L
149.913 98.911 L
S
GR
GS
[0.78257 0 0 0.78197 0 0.22835] CT
1 LJ
0.639 LW
N
203.534 98.911 M
201.789 91.561 L
201.163 89.78 L
S
GR
GS
[0.78257 0 0 0.78197 0 0.22835] CT
1 LJ
0.639 LW
N
146.769 80.65 M
148.124 89.78 L
S
GR
GS
[0.78257 0 0 0.78197 0 0.22835] CT
1 LJ
0.639 LW
N
201.163 89.78 M
198.472 80.65 L
S
GR
GS
[0.78257 0 0 0.78197 0 0.22835] CT
1 LJ
0.639 LW
N
145.568 71.519 M
146.769 80.65 L
S
GR
GS
[0.78257 0 0 0.78197 0 0.22835] CT
1 LJ
0.639 LW
N
198.472 80.65 M
196.577 71.519 L
S
GR
GS
[0.78257 0 0 0.78197 0 0.22835] CT
1 LJ
0.639 LW
N
144.731 62.388 M
145.568 71.519 L
S
GR
GS
[0.78257 0 0 0.78197 0 0.22835] CT
1 LJ
0.639 LW
N
196.577 71.519 M
195.459 62.388 L
S
GR
GS
[0.78257 0 0 0.78197 0 0.22835] CT
1 LJ
0.639 LW
N
144.429 53.257 M
144.731 62.388 L
S
GR
GS
[0.78257 0 0 0.78197 0 0.22835] CT
1 LJ
0.639 LW
N
195.459 62.388 M
195.09 53.257 L
S
GR
GS
[0.78257 0 0 0.78197 0 0.22835] CT
1 LJ
0.639 LW
N
175.156 171.958 M
175.158 171.97 L
175.164 171.958 L
S
GR
GS
[0.78257 0 0 0.78197 0 0.22835] CT
1 LJ
0.639 LW
N
174.176 162.827 M
175.156 171.958 L
S
GR
GS
[0.78257 0 0 0.78197 0 0.22835] CT
1 LJ
0.639 LW
N
175.164 171.958 M
183.244 162.827 L
S
GR
GS
[0.78257 0 0 0.78197 0 0.22835] CT
1 LJ
0.639 LW
N
173.623 153.696 M
174.176 162.827 L
S
GR
GS
[0.78257 0 0 0.78197 0 0.22835] CT
1 LJ
0.639 LW
N
183.244 162.827 M
188.474 160.04 L
189.73 153.696 L
S
GR
GS
[0.78257 0 0 0.78197 0 0.22835] CT
1 LJ
0.639 LW
N
173.372 144.565 M
173.623 153.696 L
S
GR
GS
[0.78257 0 0 0.78197 0 0.22835] CT
1 LJ
0.639 LW
N
189.73 153.696 M
190.776 144.565 L
S
GR
GS
[0.78257 0 0 0.78197 0 0.22835] CT
1 LJ
0.639 LW
N
173.372 135.435 M
173.372 144.565 L
S
GR
GS
[0.78257 0 0 0.78197 0 0.22835] CT
1 LJ
0.639 LW
N
190.776 144.565 M
190.776 135.435 L
S
GR
GS
[0.78257 0 0 0.78197 0 0.22835] CT
1 LJ
0.639 LW
N
173.623 126.304 M
173.372 135.435 L
S
GR
GS
[0.78257 0 0 0.78197 0 0.22835] CT
1 LJ
0.639 LW
N
190.776 135.435 M
189.73 126.304 L
S
GR
GS
[0.78257 0 0 0.78197 0 0.22835] CT
1 LJ
0.639 LW
N
174.176 117.173 M
173.623 126.304 L
S
GR
GS
[0.78257 0 0 0.78197 0 0.22835] CT
1 LJ
0.639 LW
N
189.73 126.304 M
188.474 119.96 L
183.244 117.173 L
S
GR
GS
[0.78257 0 0 0.78197 0 0.22835] CT
1 LJ
0.639 LW
N
175.156 108.042 M
174.176 117.173 L
S
GR
GS
[0.78257 0 0 0.78197 0 0.22835] CT
1 LJ
0.639 LW
N
183.244 117.173 M
175.164 108.042 L
S
GR
GS
[0.78257 0 0 0.78197 0 0.22835] CT
1 LJ
0.639 LW
N
175.164 108.042 M
175.158 108.03 L
175.156 108.042 L
S
GR
GS
[0.78257 0 0 0.78197 0 0.22835] CT
1 0 0 RC
1 LJ
0.639 LW
N
50.645 195.243 M
49.191 192.466 L
51.78 194.233 L
S
GR
GS
[0.78257 0 0 0.78197 0 0.22835] CT
1 0 0 RC
1 LJ
0.639 LW
N
53.102 170.443 M
53.989 165.035 L
55.751 170.224 L
S
GR
GS
[0.78257 0 0 0.78197 0 0.22835] CT
1 0 0 RC
1 LJ
0.639 LW
N
55.941 150.2 M
58.52 144.375 L
58.985 150.728 L
S
GR
GS
[0.78257 0 0 0.78197 0 0.22835] CT
1 0 0 RC
1 LJ
0.639 LW
N
57.963 135.35 M
60.876 131.496 L
60.119 136.267 L
S
GR
GS
[0.78257 0 0 0.78197 0 0.22835] CT
1 0 0 RC
1 LJ
0.639 LW
N
58.316 124.455 M
60.061 124.128 L
58.675 125.238 L
S
GR
GS
[0.78257 0 0 0.78197 0 0.22835] CT
1 0 0 RC
1 LJ
0.639 LW
N
56.851 114.407 M
56.42 117.679 L
55.261 114.59 L
S
GR
GS
[0.78257 0 0 0.78197 0 0.22835] CT
1 0 0 RC
1 LJ
0.639 LW
N
54.186 101.744 M
51.489 107.165 L
51.317 101.112 L
S
GR
GS
[0.78257 0 0 0.78197 0 0.22835] CT
1 0 0 RC
1 LJ
0.639 LW
N
73.865 199.318 M
70.07 197.84 L
74.114 197.358 L
S
GR
GS
[0.78257 0 0 0.78197 0 0.22835] CT
1 0 0 RC
1 LJ
0.639 LW
N
81.48 174.579 M
82.438 171.432 L
83.073 174.66 L
S
GR
GS
[0.78257 0 0 0.78197 0 0.22835] CT
1 0 0 RC
1 LJ
0.639 LW
N
88.972 152.624 M
94.123 149.097 L
91.237 154.633 L
S
GR
GS
[0.78257 0 0 0.78197 0 0.22835] CT
1 0 0 RC
1 LJ
0.639 LW
N
93.182 135.011 M
100.195 132.552 L
95.164 138.022 L
S
GR
GS
[0.78257 0 0 0.78197 0 0.22835] CT
1 0 0 RC
1 LJ
0.639 LW
N
92.335 121.467 M
98.095 121.073 L
93.198 124.132 L
S
GR
GS
[0.78257 0 0 0.78197 0 0.22835] CT
1 0 0 RC
1 LJ
0.639 LW
N
86.787 110.002 M
88.708 111.8 L
86.167 111.118 L
S
GR
GS
[0.78257 0 0 0.78197 0 0.22835] CT
1 0 0 RC
1 LJ
0.639 LW
N
78.879 97.75 M
75.993 100.942 L
77.037 96.768 L
S
GR
GS
[0.78257 0 0 0.78197 0 0.22835] CT
1 0 0 RC
1 LJ
0.639 LW
N
100.698 205.062 M
95.958 206.321 L
99.548 202.979 L
S
GR
GS
[0.78257 0 0 0.78197 0 0.22835] CT
1 0 0 RC
1 LJ
0.639 LW
N
110.024 181.21 M
110.681 181.529 L
109.951 181.557 L
S
GR
GS
[0.78257 0 0 0.78197 0 0.22835] CT
1 0 0 RC
1 LJ
0.639 LW
N
118.789 157.301 M
124.59 156.551 L
119.824 159.943 L
S
GR
GS
[0.78257 0 0 0.78197 0 0.22835] CT
1 0 0 RC
1 LJ
0.639 LW
N
123.296 135.716 M
131.819 134.22 L
125.003 139.551 L
S
GR
GS
[0.78257 0 0 0.78197 0 0.22835] CT
1 0 0 RC
1 LJ
0.639 LW
N
121.646 117.858 M
129.319 116.252 L
123.304 121.28 L
S
GR
GS
[0.78257 0 0 0.78197 0 0.22835] CT
1 0 0 RC
1 LJ
0.639 LW
N
114.533 103.555 M
118.145 102.523 L
115.443 105.133 L
S
GR
GS
[0.78257 0 0 0.78197 0 0.22835] CT
1 0 0 RC
1 LJ
0.639 LW
N
104.957 91.139 M
103.008 91.121 L
104.736 90.219 L
S
GR
GS
[0.78257 0 0 0.78197 0 0.22835] CT
1 0 0 RC
1 LJ
0.639 LW
N
131.058 210.052 M
127.168 214.333 L
128.586 208.725 L
S
GR
GS
[0.78257 0 0 0.78197 0 0.22835] CT
1 0 0 RC
1 LJ
0.639 LW
N
137.928 187.54 M
138.037 191.066 L
136.281 188.007 L
S
GR
GS
[0.78257 0 0 0.78197 0 0.22835] CT
1 0 0 RC
1 LJ
0.639 LW
N
144.047 162.259 M
148.306 163.592 L
143.921 164.42 L
S
GR
GS
[0.78257 0 0 0.78197 0 0.22835] CT
1 0 0 RC
1 LJ
0.639 LW
N
146.836 137.169 M
153.642 135.795 L
148.283 140.21 L
S
GR
GS
[0.78257 0 0 0.78197 0 0.22835] CT
1 0 0 RC
1 LJ
0.639 LW
N
145.118 115.149 M
151.797 111.697 L
147.528 117.885 L
S
GR
GS
[0.78257 0 0 0.78197 0 0.22835] CT
1 0 0 RC
1 LJ
0.639 LW
N
139.618 97.784 M
143.547 93.758 L
141.975 99.16 L
S
GR
GS
[0.78257 0 0 0.78197 0 0.22835] CT
1 0 0 RC
1 LJ
0.639 LW
N
132.655 84.697 M
132.373 81.844 L
133.964 84.229 L
S
GR
GS
[0.78257 0 0 0.78197 0 0.22835] CT
1 0 0 RC
1 LJ
0.639 LW
N
163.373 212.185 M
161.77 218.497 L
160.214 212.173 L
S
GR
GS
[0.78257 0 0 0.78197 0 0.22835] CT
1 0 0 RC
1 LJ
0.639 LW
N
164.655 190.9 M
164.201 196.023 L
162.191 191.29 L
S
GR
GS
[0.78257 0 0 0.78197 0 0.22835] CT
1 0 0 RC
1 LJ
0.639 LW
N
165.327 165.407 M
166.499 167.251 L
164.597 166.176 L
S
GR
GS
[0.78257 0 0 0.78197 0 0.22835] CT
1 0 0 RC
1 LJ
0.639 LW
N
165.106 138.755 M
167.693 136.614 L
166.418 139.72 L
S
GR
GS
[0.78257 0 0 0.78197 0 0.22835] CT
1 0 0 RC
1 LJ
0.639 LW
N
164.085 114.482 M
167.28 109.329 L
166.886 115.38 L
S
GR
GS
[0.78257 0 0 0.78197 0 0.22835] CT
1 0 0 RC
1 LJ
0.639 LW
N
162.695 95.124 M
165.434 89.203 L
165.803 95.717 L
S
GR
GS
[0.78257 0 0 0.78197 0 0.22835] CT
1 0 0 RC
1 LJ
0.639 LW
N
161.521 81.142 M
162.934 77.022 L
163.626 81.323 L
S
GR
GS
[0.78257 0 0 0.78197 0 0.22835] CT
1 0 0 RC
1 LJ
0.639 LW
N
195.247 210.56 M
196.402 217.057 L
192.325 211.868 L
S
GR
GS
[0.78257 0 0 0.78197 0 0.22835] CT
1 0 0 RC
1 LJ
0.639 LW
N
190.165 189.872 M
189.371 194.309 L
187.984 190.02 L
S
GR
GS
[0.78257 0 0 0.78197 0 0.22835] CT
1 0 0 RC
1 LJ
0.639 LW
N
184.885 165.417 M
182.728 165.986 L
184.363 164.469 L
S
GR
GS
[0.78257 0 0 0.78197 0 0.22835] CT
1 0 0 RC
1 LJ
0.639 LW
N
181.632 139.807 M
179.275 136.331 L
182.99 138.289 L
S
GR
GS
[0.78257 0 0 0.78197 0 0.22835] CT
1 0 0 RC
1 LJ
0.639 LW
N
181.778 116.14 M
180.469 110.148 L
184.444 114.819 L
S
GR
GS
[0.78257 0 0 0.78197 0 0.22835] CT
1 0 0 RC
1 LJ
0.639 LW
N
185.262 96.696 M
185.806 90.779 L
188.111 96.256 L
S
GR
GS
[0.78257 0 0 0.78197 0 0.22835] CT
1 0 0 RC
1 LJ
0.639 LW
N
190.615 81.973 M
193.035 78.69 L
192.445 82.726 L
S
GR
GS
[0.78257 0 0 0.78197 0 0.22835] CT
1 0 0 RC
1 LJ
0.639 LW
N
224.468 205.863 M
227.691 210.62 L
222.608 207.939 L
S
GR
GS
[0.78257 0 0 0.78197 0 0.22835] CT
1 0 0 RC
1 LJ
0.639 LW
N
214.931 184.89 M
214.161 186.647 L
214.014 184.735 L
S
GR
GS
[0.78257 0 0 0.78197 0 0.22835] CT
1 0 0 RC
1 LJ
0.639 LW
N
205.703 162.286 M
201.38 160.329 L
206.116 160.021 L
S
GR
GS
[0.78257 0 0 0.78197 0 0.22835] CT
1 0 0 RC
1 LJ
0.639 LW
N
200.675 139.88 M
194.737 135.065 L
202.243 136.52 L
S
GR
GS
[0.78257 0 0 0.78197 0 0.22835] CT
1 0 0 RC
1 LJ
0.639 LW
N
201.967 119.422 M
197.035 113.807 L
204.029 116.44 L
S
GR
GS
[0.78257 0 0 0.78197 0 0.22835] CT
1 0 0 RC
1 LJ
0.639 LW
N
209.034 101.837 M
207.303 97.82 L
210.721 100.55 L
S
GR
GS
[0.78257 0 0 0.78197 0 0.22835] CT
1 0 0 RC
1 LJ
0.639 LW
N
218.897 86.84 M
221.212 86.143 L
219.497 87.847 L
S
GR
GS
[0.78257 0 0 0.78197 0 0.22835] CT
1 0 0 RC
1 LJ
0.639 LW
N
249.944 200.075 M
253.672 201.901 L
249.523 202.044 L
S
GR
GS
[0.78257 0 0 0.78197 0 0.22835] CT
1 0 0 RC
1 LJ
0.639 LW
N
239.74 178.055 M
239.35 176.267 L
240.536 177.661 L
S
GR
GS
[0.78257 0 0 0.78197 0 0.22835] CT
1 0 0 RC
1 LJ
0.639 LW
N
230.235 157.333 M
225.821 152.667 L
231.911 154.706 L
S
GR
GS
[0.78257 0 0 0.78197 0 0.22835] CT
1 0 0 RC
1 LJ
0.639 LW
N
225.437 138.945 M
218.789 133.351 L
227.287 135.158 L
S
GR
GS
[0.78257 0 0 0.78197 0 0.22835] CT
1 0 0 RC
1 LJ
0.639 LW
N
227.369 122.945 M
221.221 118.764 L
228.613 119.56 L
S
GR
GS
[0.78257 0 0 0.78197 0 0.22835] CT
1 0 0 RC
1 LJ
0.639 LW
N
235.217 108.379 M
232.09 107.358 L
235.33 106.788 L
S
GR
GS
[0.78257 0 0 0.78197 0 0.22835] CT
1 0 0 RC
1 LJ
0.639 LW
N
245.671 93.689 M
246.814 96.239 L
244.606 94.527 L
S
GR
GS
[0.78257 0 0 0.78197 0 0.22835] CT
1 0 0 RC
1 LJ
0.639 LW
N
272.163 195.636 M
274.62 194.577 L
272.951 196.668 L
S
GR
GS
[0.78257 0 0 0.78197 0 0.22835] CT
1 0 0 RC
1 LJ
0.639 LW
N
265.36 172.249 M
265.546 167.548 L
267.594 171.784 L
S
GR
GS
[0.78257 0 0 0.78197 0 0.22835] CT
1 0 0 RC
1 LJ
0.639 LW
N
259.364 152.647 M
256.973 146.23 L
262.103 150.767 L
S
GR
GS
[0.78257 0 0 0.78197 0 0.22835] CT
1 0 0 RC
1 LJ
0.639 LW
N
256.705 137.394 M
252.518 131.911 L
258.793 134.779 L
S
GR
GS
[0.78257 0 0 0.78197 0 0.22835] CT
1 0 0 RC
1 LJ
0.639 LW
N
258.502 125.223 M
254.059 122.928 L
259.059 122.862 L
S
GR
GS
[0.78257 0 0 0.78197 0 0.22835] CT
1 0 0 RC
1 LJ
0.639 LW
N
264 113.564 M
260.946 115.37 L
262.791 112.339 L
S
GR
GS
[0.78257 0 0 0.78197 0 0.22835] CT
1 0 0 RC
1 LJ
0.639 LW
N
270.878 99.633 M
270.275 104.721 L
268.413 99.948 L
S
GR
GS
[0.78257 0 0 0.78197 0 0.22835] CT
1 0 0 RC
1 LJ
0.639 LW
N
55.316 199.35 M
49.191 192.466 L
S
GR
GS
[0.78257 0 0 0.78197 0 0.22835] CT
1 0 0 RC
1 LJ
0.639 LW
N
55.316 181.089 M
53.989 165.035 L
S
GR
GS
[0.78257 0 0 0.78197 0 0.22835] CT
1 0 0 RC
1 LJ
0.639 LW
N
55.316 162.827 M
58.52 144.375 L
S
GR
GS
[0.78257 0 0 0.78197 0 0.22835] CT
1 0 0 RC
1 LJ
0.639 LW
N
55.316 144.565 M
60.876 131.496 L
S
GR
GS
[0.78257 0 0 0.78197 0 0.22835] CT
1 0 0 RC
1 LJ
0.639 LW
N
55.316 126.304 M
60.061 124.128 L
S
GR
GS
[0.78257 0 0 0.78197 0 0.22835] CT
1 0 0 RC
1 LJ
0.639 LW
N
55.316 108.042 M
56.42 117.679 L
S
GR
GS
[0.78257 0 0 0.78197 0 0.22835] CT
1 0 0 RC
1 LJ
0.639 LW
N
55.316 89.78 M
51.489 107.165 L
S
GR
GS
[0.78257 0 0 0.78197 0 0.22835] CT
1 0 0 RC
1 LJ
0.639 LW
N
81.947 199.35 M
70.07 197.84 L
S
GR
GS
[0.78257 0 0 0.78197 0 0.22835] CT
1 0 0 RC
1 LJ
0.639 LW
N
81.947 181.089 M
82.438 171.432 L
S
GR
GS
[0.78257 0 0 0.78197 0 0.22835] CT
1 0 0 RC
1 LJ
0.639 LW
N
81.947 162.827 M
94.123 149.097 L
S
GR
GS
[0.78257 0 0 0.78197 0 0.22835] CT
1 0 0 RC
1 LJ
0.639 LW
N
81.947 144.565 M
100.195 132.552 L
S
GR
GS
[0.78257 0 0 0.78197 0 0.22835] CT
1 0 0 RC
1 LJ
0.639 LW
N
81.947 126.304 M
98.095 121.073 L
S
GR
GS
[0.78257 0 0 0.78197 0 0.22835] CT
1 0 0 RC
1 LJ
0.639 LW
N
81.947 108.042 M
88.708 111.8 L
S
GR
GS
[0.78257 0 0 0.78197 0 0.22835] CT
1 0 0 RC
1 LJ
0.639 LW
N
81.947 89.78 M
75.993 100.942 L
S
GR
GS
[0.78257 0 0 0.78197 0 0.22835] CT
1 0 0 RC
1 LJ
0.639 LW
N
108.579 199.35 M
95.958 206.321 L
S
GR
GS
[0.78257 0 0 0.78197 0 0.22835] CT
1 0 0 RC
1 LJ
0.639 LW
N
108.579 181.089 M
110.681 181.529 L
S
GR
GS
[0.78257 0 0 0.78197 0 0.22835] CT
1 0 0 RC
1 LJ
0.639 LW
N
108.579 162.827 M
124.59 156.551 L
S
GR
GS
[0.78257 0 0 0.78197 0 0.22835] CT
1 0 0 RC
1 LJ
0.639 LW
N
108.579 144.565 M
131.819 134.22 L
S
GR
GS
[0.78257 0 0 0.78197 0 0.22835] CT
1 0 0 RC
1 LJ
0.639 LW
N
108.579 126.304 M
129.319 116.252 L
S
GR
GS
[0.78257 0 0 0.78197 0 0.22835] CT
1 0 0 RC
1 LJ
0.639 LW
N
108.579 108.042 M
118.145 102.523 L
S
GR
GS
[0.78257 0 0 0.78197 0 0.22835] CT
1 0 0 RC
1 LJ
0.639 LW
N
108.579 89.78 M
103.008 91.121 L
S
GR
GS
[0.78257 0 0 0.78197 0 0.22835] CT
1 0 0 RC
1 LJ
0.639 LW
N
135.211 199.35 M
127.168 214.333 L
S
GR
GS
[0.78257 0 0 0.78197 0 0.22835] CT
1 0 0 RC
1 LJ
0.639 LW
N
135.211 181.089 M
138.037 191.066 L
S
GR
GS
[0.78257 0 0 0.78197 0 0.22835] CT
1 0 0 RC
1 LJ
0.639 LW
N
135.211 162.827 M
148.306 163.592 L
S
GR
GS
[0.78257 0 0 0.78197 0 0.22835] CT
1 0 0 RC
1 LJ
0.639 LW
N
135.211 144.565 M
153.642 135.795 L
S
GR
GS
[0.78257 0 0 0.78197 0 0.22835] CT
1 0 0 RC
1 LJ
0.639 LW
N
135.211 126.304 M
151.797 111.697 L
S
GR
GS
[0.78257 0 0 0.78197 0 0.22835] CT
1 0 0 RC
1 LJ
0.639 LW
N
135.211 108.042 M
143.547 93.758 L
S
GR
GS
[0.78257 0 0 0.78197 0 0.22835] CT
1 0 0 RC
1 LJ
0.639 LW
N
135.211 89.78 M
132.373 81.844 L
S
GR
GS
[0.78257 0 0 0.78197 0 0.22835] CT
1 0 0 RC
1 LJ
0.639 LW
N
161.842 199.35 M
161.77 218.497 L
S
GR
GS
[0.78257 0 0 0.78197 0 0.22835] CT
1 0 0 RC
1 LJ
0.639 LW
N
161.842 181.089 M
164.201 196.023 L
S
GR
GS
[0.78257 0 0 0.78197 0 0.22835] CT
1 0 0 RC
1 LJ
0.639 LW
N
161.842 162.827 M
166.499 167.251 L
S
GR
GS
[0.78257 0 0 0.78197 0 0.22835] CT
1 0 0 RC
1 LJ
0.639 LW
N
161.842 144.565 M
167.693 136.614 L
S
GR
GS
[0.78257 0 0 0.78197 0 0.22835] CT
1 0 0 RC
1 LJ
0.639 LW
N
161.842 126.304 M
167.28 109.329 L
S
GR
GS
[0.78257 0 0 0.78197 0 0.22835] CT
1 0 0 RC
1 LJ
0.639 LW
N
161.842 108.042 M
165.434 89.203 L
S
GR
GS
[0.78257 0 0 0.78197 0 0.22835] CT
1 0 0 RC
1 LJ
0.639 LW
N
161.842 89.78 M
162.934 77.022 L
S
GR
GS
[0.78257 0 0 0.78197 0 0.22835] CT
1 0 0 RC
1 LJ
0.639 LW
N
188.474 199.35 M
196.402 217.057 L
S
GR
GS
[0.78257 0 0 0.78197 0 0.22835] CT
1 0 0 RC
1 LJ
0.639 LW
N
188.474 181.089 M
189.371 194.309 L
S
GR
GS
[0.78257 0 0 0.78197 0 0.22835] CT
1 0 0 RC
1 LJ
0.639 LW
N
188.474 162.827 M
182.728 165.986 L
S
GR
GS
[0.78257 0 0 0.78197 0 0.22835] CT
1 0 0 RC
1 LJ
0.639 LW
N
188.474 144.565 M
179.275 136.331 L
S
GR
GS
[0.78257 0 0 0.78197 0 0.22835] CT
1 0 0 RC
1 LJ
0.639 LW
N
188.474 126.304 M
180.469 110.148 L
S
GR
GS
[0.78257 0 0 0.78197 0 0.22835] CT
1 0 0 RC
1 LJ
0.639 LW
N
188.474 108.042 M
185.806 90.779 L
S
GR
GS
[0.78257 0 0 0.78197 0 0.22835] CT
1 0 0 RC
1 LJ
0.639 LW
N
188.474 89.78 M
193.035 78.69 L
S
GR
GS
[0.78257 0 0 0.78197 0 0.22835] CT
1 0 0 RC
1 LJ
0.639 LW
N
215.105 199.35 M
227.691 210.62 L
S
GR
GS
[0.78257 0 0 0.78197 0 0.22835] CT
1 0 0 RC
1 LJ
0.639 LW
N
215.105 181.089 M
214.161 186.647 L
S
GR
GS
[0.78257 0 0 0.78197 0 0.22835] CT
1 0 0 RC
1 LJ
0.639 LW
N
215.105 162.827 M
201.38 160.329 L
S
GR
GS
[0.78257 0 0 0.78197 0 0.22835] CT
1 0 0 RC
1 LJ
0.639 LW
N
215.105 144.565 M
194.737 135.065 L
S
GR
GS
[0.78257 0 0 0.78197 0 0.22835] CT
1 0 0 RC
1 LJ
0.639 LW
N
215.105 126.304 M
197.035 113.807 L
S
GR
GS
[0.78257 0 0 0.78197 0 0.22835] CT
1 0 0 RC
1 LJ
0.639 LW
N
215.105 108.042 M
207.303 97.82 L
S
GR
GS
[0.78257 0 0 0.78197 0 0.22835] CT
1 0 0 RC
1 LJ
0.639 LW
N
215.105 89.78 M
221.212 86.143 L
S
GR
GS
[0.78257 0 0 0.78197 0 0.22835] CT
1 0 0 RC
1 LJ
0.639 LW
N
241.737 199.35 M
253.672 201.901 L
S
GR
GS
[0.78257 0 0 0.78197 0 0.22835] CT
1 0 0 RC
1 LJ
0.639 LW
N
241.737 181.089 M
239.35 176.267 L
S
GR
GS
[0.78257 0 0 0.78197 0 0.22835] CT
1 0 0 RC
1 LJ
0.639 LW
N
241.737 162.827 M
225.821 152.667 L
S
GR
GS
[0.78257 0 0 0.78197 0 0.22835] CT
1 0 0 RC
1 LJ
0.639 LW
N
241.737 144.565 M
218.789 133.351 L
S
GR
GS
[0.78257 0 0 0.78197 0 0.22835] CT
1 0 0 RC
1 LJ
0.639 LW
N
241.737 126.304 M
221.221 118.764 L
S
GR
GS
[0.78257 0 0 0.78197 0 0.22835] CT
1 0 0 RC
1 LJ
0.639 LW
N
241.737 108.042 M
232.09 107.358 L
S
GR
GS
[0.78257 0 0 0.78197 0 0.22835] CT
1 0 0 RC
1 LJ
0.639 LW
N
241.737 89.78 M
246.814 96.239 L
S
GR
GS
[0.78257 0 0 0.78197 0 0.22835] CT
1 0 0 RC
1 LJ
0.639 LW
N
268.368 199.35 M
274.62 194.577 L
S
GR
GS
[0.78257 0 0 0.78197 0 0.22835] CT
1 0 0 RC
1 LJ
0.639 LW
N
268.368 181.089 M
265.546 167.548 L
S
GR
GS
[0.78257 0 0 0.78197 0 0.22835] CT
1 0 0 RC
1 LJ
0.639 LW
N
268.368 162.827 M
256.973 146.23 L
S
GR
GS
[0.78257 0 0 0.78197 0 0.22835] CT
1 0 0 RC
1 LJ
0.639 LW
N
268.368 144.565 M
252.518 131.911 L
S
GR
GS
[0.78257 0 0 0.78197 0 0.22835] CT
1 0 0 RC
1 LJ
0.639 LW
N
268.368 126.304 M
254.059 122.928 L
S
GR
GS
[0.78257 0 0 0.78197 0 0.22835] CT
1 0 0 RC
1 LJ
0.639 LW
N
268.368 108.042 M
260.946 115.37 L
S
GR
GS
[0.78257 0 0 0.78197 0 0.22835] CT
1 0 0 RC
1 LJ
0.639 LW
N
268.368 89.78 M
270.275 104.721 L
S
GR
GS
[0.78257 0 0 0.78197 0 0.22835] CT
0.149 GC
2 setlinecap
1 LJ
0.639 LW
N
42 226.743 M
295 226.743 L
S
GR
GS
[0.78257 0 0 0.78197 0 0.22835] CT
0.149 GC
2 setlinecap
1 LJ
0.639 LW
N
42 53.257 M
295 53.257 L
S
GR
GS
[0.78257 0 0 0.78197 0 0.22835] CT
0.149 GC
2 setlinecap
1 LJ
0.639 LW
N
42 226.743 M
42 224.213 L
S
GR
GS
[0.78257 0 0 0.78197 0 0.22835] CT
0.149 GC
2 setlinecap
1 LJ
0.639 LW
N
88.019 226.743 M
88.019 224.213 L
S
GR
GS
[0.78257 0 0 0.78197 0 0.22835] CT
0.149 GC
2 setlinecap
1 LJ
0.639 LW
N
134.037 226.743 M
134.037 224.213 L
S
GR
GS
[0.78257 0 0 0.78197 0 0.22835] CT
0.149 GC
2 setlinecap
1 LJ
0.639 LW
N
180.056 226.743 M
180.056 224.213 L
S
GR
GS
[0.78257 0 0 0.78197 0 0.22835] CT
0.149 GC
2 setlinecap
1 LJ
0.639 LW
N
226.074 226.743 M
226.074 224.213 L
S
GR
GS
[0.78257 0 0 0.78197 0 0.22835] CT
0.149 GC
2 setlinecap
1 LJ
0.639 LW
N
272.093 226.743 M
272.093 224.213 L
S
GR
GS
[0.78257 0 0 0.78197 0 0.22835] CT
0.149 GC
2 setlinecap
1 LJ
0.639 LW
N
42 53.257 M
42 55.787 L
S
GR
GS
[0.78257 0 0 0.78197 0 0.22835] CT
0.149 GC
2 setlinecap
1 LJ
0.639 LW
N
88.019 53.257 M
88.019 55.787 L
S
GR
GS
[0.78257 0 0 0.78197 0 0.22835] CT
0.149 GC
2 setlinecap
1 LJ
0.639 LW
N
134.037 53.257 M
134.037 55.787 L
S
GR
GS
[0.78257 0 0 0.78197 0 0.22835] CT
0.149 GC
2 setlinecap
1 LJ
0.639 LW
N
180.056 53.257 M
180.056 55.787 L
S
GR
GS
[0.78257 0 0 0.78197 0 0.22835] CT
0.149 GC
2 setlinecap
1 LJ
0.639 LW
N
226.074 53.257 M
226.074 55.787 L
S
GR
GS
[0.78257 0 0 0.78197 0 0.22835] CT
0.149 GC
2 setlinecap
1 LJ
0.639 LW
N
272.093 53.257 M
272.093 55.787 L
S
GR
GS
[0.78257 0 0 0.78197 32.86798 180.93196] CT
0.149 GC
/Helvetica 12.139 F
GS
[1 0 0 1 0 0] CT
-4 12 moveto 
1 -1 scale
(0) t 
GR
GR
GS
[0.78257 0 0 0.78197 68.88073 180.93196] CT
0.149 GC
/Helvetica 12.139 F
GS
[1 0 0 1 0 0] CT
-4 12 moveto 
1 -1 scale
(1) t 
GR
GR
GS
[0.78257 0 0 0.78197 104.89348 180.93196] CT
0.149 GC
/Helvetica 12.139 F
GS
[1 0 0 1 0 0] CT
-4 12 moveto 
1 -1 scale
(2) t 
GR
GR
GS
[0.78257 0 0 0.78197 140.90622 180.93196] CT
0.149 GC
/Helvetica 12.139 F
GS
[1 0 0 1 0 0] CT
-4 12 moveto 
1 -1 scale
(3) t 
GR
GR
GS
[0.78257 0 0 0.78197 176.91898 180.93196] CT
0.149 GC
/Helvetica 12.139 F
GS
[1 0 0 1 0 0] CT
-4 12 moveto 
1 -1 scale
(4) t 
GR
GR
GS
[0.78257 0 0 0.78197 212.93171 180.93196] CT
0.149 GC
/Helvetica 12.139 F
GS
[1 0 0 1 0 0] CT
-4 12 moveto 
1 -1 scale
(5) t 
GR
GR
GS
[0.78257 0 0 0.78197 0 0.22835] CT
0.149 GC
2 setlinecap
1 LJ
0.639 LW
N
42 226.743 M
42 53.257 L
S
GR
GS
[0.78257 0 0 0.78197 0 0.22835] CT
0.149 GC
2 setlinecap
1 LJ
0.639 LW
N
295 226.743 M
295 53.257 L
S
GR
GS
[0.78257 0 0 0.78197 0 0.22835] CT
0.149 GC
2 setlinecap
1 LJ
0.639 LW
N
42 226.743 M
44.53 226.743 L
S
GR
GS
[0.78257 0 0 0.78197 0 0.22835] CT
0.149 GC
2 setlinecap
1 LJ
0.639 LW
N
42 180.724 M
44.53 180.724 L
S
GR
GS
[0.78257 0 0 0.78197 0 0.22835] CT
0.149 GC
2 setlinecap
1 LJ
0.639 LW
N
42 134.706 M
44.53 134.706 L
S
GR
GS
[0.78257 0 0 0.78197 0 0.22835] CT
0.149 GC
2 setlinecap
1 LJ
0.639 LW
N
42 88.687 M
44.53 88.687 L
S
GR
GS
[0.78257 0 0 0.78197 0 0.22835] CT
0.149 GC
2 setlinecap
1 LJ
0.639 LW
N
295 226.743 M
292.47 226.743 L
S
GR
GS
[0.78257 0 0 0.78197 0 0.22835] CT
0.149 GC
2 setlinecap
1 LJ
0.639 LW
N
295 180.724 M
292.47 180.724 L
S
GR
GS
[0.78257 0 0 0.78197 0 0.22835] CT
0.149 GC
2 setlinecap
1 LJ
0.639 LW
N
295 134.706 M
292.47 134.706 L
S
GR
GS
[0.78257 0 0 0.78197 0 0.22835] CT
0.149 GC
2 setlinecap
1 LJ
0.639 LW
N
295 88.687 M
292.47 88.687 L
S
GR
GS
[0.78257 0 0 0.78197 29.46814 177.53474] CT
0.149 GC
/Helvetica 12.139 F
GS
[1 0 0 1 0 0] CT
-8 4.5 moveto 
1 -1 scale
(0) t 
GR
GR
GS
[0.78257 0 0 0.78197 29.46814 141.54958] CT
0.149 GC
/Helvetica 12.139 F
GS
[1 0 0 1 0 0] CT
-8 4.5 moveto 
1 -1 scale
(1) t 
GR
GR
GS
[0.78257 0 0 0.78197 29.46814 105.56443] CT
0.149 GC
/Helvetica 12.139 F
GS
[1 0 0 1 0 0] CT
-8 4.5 moveto 
1 -1 scale
(2) t 
GR
GR
GS
[0.78257 0 0 0.78197 29.46814 69.57927] CT
0.149 GC
/Helvetica 12.139 F
GS
[1 0 0 1 0 0] CT
-8 4.5 moveto 
1 -1 scale
(3) t 
GR
GR
%%Trailer
%%Pages: 1
%%EOF
