%!PS-Adobe-3.0 EPSF-3.0
%%Creator: (MATLAB, The Mathworks, Inc. Version 9.10.0.1684407 \(R2021a\) Update 3. Operating System: Linux)
%%Title: /home/adoan/Code/PRoSA_PI-ESN_Git/pi-esn/Results/MFE_results/Figures/FIG1_1.eps
%%CreationDate: 2021-07-21T18:44:51
%%Pages: (atend)
%%BoundingBox:     0     0   255   227
%%LanguageLevel: 3
%%EndComments
%%BeginProlog
%%BeginResource: procset (Apache XML Graphics Std ProcSet) 1.2 0
%%Version: 1.2 0
%%Copyright: (Copyright 2001-2003,2010 The Apache Software Foundation. License terms: http://www.apache.org/licenses/LICENSE-2.0)
/bd{bind def}bind def
/ld{load def}bd
/GR/grestore ld
/GS/gsave ld
/RM/rmoveto ld
/C/curveto ld
/t/show ld
/L/lineto ld
/ML/setmiterlimit ld
/CT/concat ld
/f/fill ld
/N/newpath ld
/S/stroke ld
/CC/setcmykcolor ld
/A/ashow ld
/cp/closepath ld
/RC/setrgbcolor ld
/LJ/setlinejoin ld
/GC/setgray ld
/LW/setlinewidth ld
/M/moveto ld
/re {4 2 roll M
1 index 0 rlineto
0 exch rlineto
neg 0 rlineto
cp } bd
/_ctm matrix def
/_tm matrix def
/BT { _ctm currentmatrix pop matrix _tm copy pop 0 0 moveto } bd
/ET { _ctm setmatrix } bd
/iTm { _ctm setmatrix _tm concat } bd
/Tm { _tm astore pop iTm 0 0 moveto } bd
/ux 0.0 def
/uy 0.0 def
/F {
  /Tp exch def
  /Tf exch def
  Tf findfont Tp scalefont setfont
  /cf Tf def  /cs Tp def
} bd
/ULS {currentpoint /uy exch def /ux exch def} bd
/ULE {
  /Tcx currentpoint pop def
  gsave
  newpath
  cf findfont cs scalefont dup
  /FontMatrix get 0 get /Ts exch def /FontInfo get dup
  /UnderlinePosition get Ts mul /To exch def
  /UnderlineThickness get Ts mul /Tt exch def
  ux uy To add moveto  Tcx uy To add lineto
  Tt setlinewidth stroke
  grestore
} bd
/OLE {
  /Tcx currentpoint pop def
  gsave
  newpath
  cf findfont cs scalefont dup
  /FontMatrix get 0 get /Ts exch def /FontInfo get dup
  /UnderlinePosition get Ts mul /To exch def
  /UnderlineThickness get Ts mul /Tt exch def
  ux uy To add cs add moveto Tcx uy To add cs add lineto
  Tt setlinewidth stroke
  grestore
} bd
/SOE {
  /Tcx currentpoint pop def
  gsave
  newpath
  cf findfont cs scalefont dup
  /FontMatrix get 0 get /Ts exch def /FontInfo get dup
  /UnderlinePosition get Ts mul /To exch def
  /UnderlineThickness get Ts mul /Tt exch def
  ux uy To add cs 10 mul 26 idiv add moveto Tcx uy To add cs 10 mul 26 idiv add lineto
  Tt setlinewidth stroke
  grestore
} bd
/QT {
/Y22 exch store
/X22 exch store
/Y21 exch store
/X21 exch store
currentpoint
/Y21 load 2 mul add 3 div exch
/X21 load 2 mul add 3 div exch
/X21 load 2 mul /X22 load add 3 div
/Y21 load 2 mul /Y22 load add 3 div
/X22 load /Y22 load curveto
} bd
/SSPD {
dup length /d exch dict def
{
/v exch def
/k exch def
currentpagedevice k known {
/cpdv currentpagedevice k get def
v cpdv ne {
/upd false def
/nullv v type /nulltype eq def
/nullcpdv cpdv type /nulltype eq def
nullv nullcpdv or
{
/upd true def
} {
/sametype v type cpdv type eq def
sametype {
v type /arraytype eq {
/vlen v length def
/cpdvlen cpdv length def
vlen cpdvlen eq {
0 1 vlen 1 sub {
/i exch def
/obj v i get def
/cpdobj cpdv i get def
obj cpdobj ne {
/upd true def
exit
} if
} for
} {
/upd true def
} ifelse
} {
v type /dicttype eq {
v {
/dv exch def
/dk exch def
/cpddv cpdv dk get def
dv cpddv ne {
/upd true def
exit
} if
} forall
} {
/upd true def
} ifelse
} ifelse
} if
} ifelse
upd true eq {
d k v put
} if
} if
} if
} forall
d length 0 gt {
d setpagedevice
} if
} bd
/RE { % /NewFontName [NewEncodingArray] /FontName RE -
  findfont dup length dict begin
  {
    1 index /FID ne
    {def} {pop pop} ifelse
  } forall
  /Encoding exch def
  /FontName 1 index def
  currentdict definefont pop
  end
} bind def
%%EndResource
%%BeginResource: procset (Apache XML Graphics EPS ProcSet) 1.0 0
%%Version: 1.0 0
%%Copyright: (Copyright 2002-2003 The Apache Software Foundation. License terms: http://www.apache.org/licenses/LICENSE-2.0)
/BeginEPSF { %def
/b4_Inc_state save def         % Save state for cleanup
/dict_count countdictstack def % Count objects on dict stack
/op_count count 1 sub def      % Count objects on operand stack
userdict begin                 % Push userdict on dict stack
/showpage { } def              % Redefine showpage, { } = null proc
0 setgray 0 setlinecap         % Prepare graphics state
1 setlinewidth 0 setlinejoin
10 setmiterlimit [ ] 0 setdash newpath
/languagelevel where           % If level not equal to 1 then
{pop languagelevel             % set strokeadjust and
1 ne                           % overprint to their defaults.
{false setstrokeadjust false setoverprint
} if
} if
} bd
/EndEPSF { %def
count op_count sub {pop} repeat            % Clean up stacks
countdictstack dict_count sub {end} repeat
b4_Inc_state restore
} bd
%%EndResource
%FOPBeginFontDict
%%IncludeResource: font Courier-Oblique
%%IncludeResource: font Courier-BoldOblique
%%IncludeResource: font Courier-Bold
%%IncludeResource: font ZapfDingbats
%%IncludeResource: font Symbol
%%IncludeResource: font Helvetica
%%IncludeResource: font Helvetica-Oblique
%%IncludeResource: font Helvetica-Bold
%%IncludeResource: font Helvetica-BoldOblique
%%IncludeResource: font Times-Roman
%%IncludeResource: font Times-Italic
%%IncludeResource: font Times-Bold
%%IncludeResource: font Times-BoldItalic
%%IncludeResource: font Courier
%FOPEndFontDict
%%BeginResource: encoding WinAnsiEncoding
/WinAnsiEncoding [
/.notdef /.notdef /.notdef /.notdef /.notdef
/.notdef /.notdef /.notdef /.notdef /.notdef
/.notdef /.notdef /.notdef /.notdef /.notdef
/.notdef /.notdef /.notdef /.notdef /.notdef
/.notdef /.notdef /.notdef /.notdef /.notdef
/.notdef /.notdef /.notdef /.notdef /.notdef
/.notdef /.notdef /space /exclam /quotedbl
/numbersign /dollar /percent /ampersand /quotesingle
/parenleft /parenright /asterisk /plus /comma
/hyphen /period /slash /zero /one
/two /three /four /five /six
/seven /eight /nine /colon /semicolon
/less /equal /greater /question /at
/A /B /C /D /E
/F /G /H /I /J
/K /L /M /N /O
/P /Q /R /S /T
/U /V /W /X /Y
/Z /bracketleft /backslash /bracketright /asciicircum
/underscore /quoteleft /a /b /c
/d /e /f /g /h
/i /j /k /l /m
/n /o /p /q /r
/s /t /u /v /w
/x /y /z /braceleft /bar
/braceright /asciitilde /bullet /Euro /bullet
/quotesinglbase /florin /quotedblbase /ellipsis /dagger
/daggerdbl /circumflex /perthousand /Scaron /guilsinglleft
/OE /bullet /Zcaron /bullet /bullet
/quoteleft /quoteright /quotedblleft /quotedblright /bullet
/endash /emdash /asciitilde /trademark /scaron
/guilsinglright /oe /bullet /zcaron /Ydieresis
/space /exclamdown /cent /sterling /currency
/yen /brokenbar /section /dieresis /copyright
/ordfeminine /guillemotleft /logicalnot /sfthyphen /registered
/macron /degree /plusminus /twosuperior /threesuperior
/acute /mu /paragraph /middot /cedilla
/onesuperior /ordmasculine /guillemotright /onequarter /onehalf
/threequarters /questiondown /Agrave /Aacute /Acircumflex
/Atilde /Adieresis /Aring /AE /Ccedilla
/Egrave /Eacute /Ecircumflex /Edieresis /Igrave
/Iacute /Icircumflex /Idieresis /Eth /Ntilde
/Ograve /Oacute /Ocircumflex /Otilde /Odieresis
/multiply /Oslash /Ugrave /Uacute /Ucircumflex
/Udieresis /Yacute /Thorn /germandbls /agrave
/aacute /acircumflex /atilde /adieresis /aring
/ae /ccedilla /egrave /eacute /ecircumflex
/edieresis /igrave /iacute /icircumflex /idieresis
/eth /ntilde /ograve /oacute /ocircumflex
/otilde /odieresis /divide /oslash /ugrave
/uacute /ucircumflex /udieresis /yacute /thorn
/ydieresis
] def
%%EndResource
%FOPBeginFontReencode
/Courier-Oblique findfont
dup length dict begin
  {1 index /FID ne {def} {pop pop} ifelse} forall
  /Encoding WinAnsiEncoding def
  currentdict
end
/Courier-Oblique exch definefont pop
/Courier-BoldOblique findfont
dup length dict begin
  {1 index /FID ne {def} {pop pop} ifelse} forall
  /Encoding WinAnsiEncoding def
  currentdict
end
/Courier-BoldOblique exch definefont pop
/Courier-Bold findfont
dup length dict begin
  {1 index /FID ne {def} {pop pop} ifelse} forall
  /Encoding WinAnsiEncoding def
  currentdict
end
/Courier-Bold exch definefont pop
/Helvetica findfont
dup length dict begin
  {1 index /FID ne {def} {pop pop} ifelse} forall
  /Encoding WinAnsiEncoding def
  currentdict
end
/Helvetica exch definefont pop
/Helvetica-Oblique findfont
dup length dict begin
  {1 index /FID ne {def} {pop pop} ifelse} forall
  /Encoding WinAnsiEncoding def
  currentdict
end
/Helvetica-Oblique exch definefont pop
/Helvetica-Bold findfont
dup length dict begin
  {1 index /FID ne {def} {pop pop} ifelse} forall
  /Encoding WinAnsiEncoding def
  currentdict
end
/Helvetica-Bold exch definefont pop
/Helvetica-BoldOblique findfont
dup length dict begin
  {1 index /FID ne {def} {pop pop} ifelse} forall
  /Encoding WinAnsiEncoding def
  currentdict
end
/Helvetica-BoldOblique exch definefont pop
/Times-Roman findfont
dup length dict begin
  {1 index /FID ne {def} {pop pop} ifelse} forall
  /Encoding WinAnsiEncoding def
  currentdict
end
/Times-Roman exch definefont pop
/Times-Italic findfont
dup length dict begin
  {1 index /FID ne {def} {pop pop} ifelse} forall
  /Encoding WinAnsiEncoding def
  currentdict
end
/Times-Italic exch definefont pop
/Times-Bold findfont
dup length dict begin
  {1 index /FID ne {def} {pop pop} ifelse} forall
  /Encoding WinAnsiEncoding def
  currentdict
end
/Times-Bold exch definefont pop
/Times-BoldItalic findfont
dup length dict begin
  {1 index /FID ne {def} {pop pop} ifelse} forall
  /Encoding WinAnsiEncoding def
  currentdict
end
/Times-BoldItalic exch definefont pop
/Courier findfont
dup length dict begin
  {1 index /FID ne {def} {pop pop} ifelse} forall
  /Encoding WinAnsiEncoding def
  currentdict
end
/Courier exch definefont pop
%FOPEndFontReencode
%%EndProlog
%%Page: 1 1
%%PageBoundingBox: 0 0 255 227
%%BeginPageSetup
[1 0 0 -1 0 227] CT
%%EndPageSetup
GS
[0.78257 0 0 0.78197 0 0.22835] CT
1 GC
N
0 0 326 290 re
f
GR
GS
[0.78257 0 0 0.78197 0 0.22835] CT
1 GC
N
0 0 326 290 re
f
GR
GS
[0.78257 0 0 0.78197 0 0.22835] CT
1 GC
N
42 226.743 M
295 226.743 L
295 53.257 L
42 53.257 L
cp
f
GR
GS
[0.78257 0 0 0.78197 0 0.22835] CT
0.125 0.639 0.89 RC
N
81.947 223.952 M
80.514 226.743 L
81.947 226.743 L
95.263 226.743 L
98.713 226.743 L
95.263 222.015 L
cp
81.947 53.257 M
80.514 53.257 L
81.947 56.048 L
95.263 57.985 L
98.713 53.257 L
95.263 53.257 L
cp
f
GR
GS
[0.78257 0 0 0.78197 0 0.22835] CT
0.122 0.643 0.886 RC
N
55.316 218.489 M
54.619 226.743 L
55.316 226.743 L
68.632 226.743 L
80.514 226.743 L
81.947 223.952 L
95.263 222.015 L
98.713 226.743 L
108.579 226.743 L
121.895 226.743 L
124.938 226.743 L
122.767 217.612 L
121.895 216.4 L
113.46 208.481 L
108.579 205.757 L
95.263 201.376 L
81.947 199.598 L
68.632 201.392 L
59.48 208.481 L
55.421 217.612 L
cp
227.785 153.696 M
228.421 154.104 L
241.737 159.13 L
255.053 160.895 L
268.368 158.048 L
273.427 153.696 L
277.27 144.565 L
277.27 135.435 L
273.427 126.304 L
268.368 121.952 L
255.053 119.105 L
241.737 120.87 L
228.421 125.896 L
227.785 126.304 L
220.614 135.435 L
220.614 144.565 L
cp
59.48 71.519 M
68.632 78.608 L
81.947 80.402 L
95.263 78.624 L
108.579 74.243 L
113.46 71.519 L
121.895 63.6 L
122.767 62.388 L
124.938 53.257 L
121.895 53.257 L
108.579 53.257 L
98.713 53.257 L
95.263 57.985 L
81.947 56.048 L
80.514 53.257 L
68.632 53.257 L
55.316 53.257 L
54.619 53.257 L
55.316 61.511 L
55.421 62.388 L
cp
f
GR
GS
[0.78257 0 0 0.78197 0 0.22835] CT
0.082 0.686 0.851 RC
N
42 217.612 M
42 226.743 L
54.619 226.743 L
55.316 218.489 L
55.421 217.612 L
59.48 208.481 L
68.632 201.392 L
81.947 199.598 L
95.263 201.376 L
108.579 205.757 L
113.46 208.481 L
121.895 216.4 L
122.767 217.612 L
124.938 226.743 L
135.211 226.743 L
139.998 226.743 L
138.644 217.612 L
135.211 210.621 L
133.84 208.481 L
122.727 199.35 L
121.895 198.898 L
108.579 193.559 L
96.917 190.22 L
95.263 189.772 L
81.947 186.828 L
68.632 183.808 L
59.153 181.089 L
55.316 178.948 L
48.332 171.958 L
45.978 162.827 L
45.126 153.696 L
44.808 144.565 L
44.808 135.435 L
45.126 126.304 L
45.978 117.173 L
48.332 108.042 L
55.316 101.052 L
59.153 98.911 L
68.632 96.192 L
81.947 93.172 L
95.263 90.228 L
96.917 89.78 L
108.579 86.441 L
121.895 81.102 L
122.727 80.65 L
133.84 71.519 L
135.211 69.379 L
138.644 62.388 L
139.998 53.257 L
135.211 53.257 L
124.938 53.257 L
122.767 62.388 L
121.895 63.6 L
113.46 71.519 L
108.579 74.243 L
95.263 78.624 L
81.947 80.402 L
68.632 78.608 L
59.48 71.519 L
55.421 62.388 L
55.316 61.511 L
54.619 53.257 L
42 53.257 L
42 62.388 L
42 71.519 L
42 80.65 L
42 89.78 L
42 98.911 L
42 108.042 L
42 117.173 L
42 126.304 L
42 135.435 L
42 144.565 L
42 153.696 L
42 162.827 L
42 171.958 L
42 181.089 L
42 190.22 L
42 199.35 L
42 208.481 L
cp
293.43 217.612 M
293.501 226.743 L
295 226.743 L
295 217.612 L
295 208.481 L
295 199.35 L
295 190.22 L
295 181.089 L
295 171.958 L
295 162.827 L
295 153.696 L
295 144.565 L
295 135.435 L
295 126.304 L
295 117.173 L
295 108.042 L
295 98.911 L
295 89.78 L
295 80.65 L
295 71.519 L
295 62.388 L
295 53.257 L
293.501 53.257 L
293.43 62.388 L
293.183 71.519 L
292.597 80.65 L
290.985 89.78 L
281.684 98.522 L
280.876 98.911 L
268.368 102.189 L
255.053 104.851 L
241.737 107.647 L
240.259 108.042 L
228.421 111.608 L
215.465 117.173 L
215.105 117.402 L
205.496 126.304 L
201.789 134.389 L
201.407 135.435 L
201.407 144.565 L
201.789 145.611 L
205.496 153.696 L
215.105 162.598 L
215.465 162.827 L
228.421 168.392 L
240.259 171.958 L
241.737 172.353 L
255.053 175.149 L
268.368 177.811 L
280.876 181.089 L
281.684 181.478 L
290.985 190.22 L
292.597 199.35 L
293.183 208.481 L
cp
228.421 154.104 M
227.785 153.696 L
220.614 144.565 L
220.614 135.435 L
227.785 126.304 L
228.421 125.896 L
241.737 120.87 L
255.053 119.105 L
268.368 121.952 L
273.427 126.304 L
277.27 135.435 L
277.27 144.565 L
273.427 153.696 L
268.368 158.048 L
255.053 160.895 L
241.737 159.13 L
cp
f
GR
GS
[0.78257 0 0 0.78197 0 0.22835] CT
0.004 0.718 0.792 RC
N
138.644 217.612 M
139.998 226.743 L
148.526 226.743 L
153.207 226.743 L
152.468 217.612 L
149.877 208.481 L
148.526 205.997 L
143.844 199.35 L
135.211 192.981 L
129.783 190.22 L
121.895 187.256 L
108.579 183.237 L
100.957 181.089 L
95.263 179.392 L
81.947 174.688 L
76.16 171.958 L
68.632 166.354 L
65.237 162.827 L
60.619 153.696 L
58.809 144.565 L
58.809 135.435 L
60.619 126.304 L
65.237 117.173 L
68.632 113.646 L
76.16 108.042 L
81.947 105.312 L
95.263 100.608 L
100.957 98.911 L
108.579 96.763 L
121.895 92.744 L
129.783 89.78 L
135.211 87.019 L
143.844 80.65 L
148.526 74.003 L
149.877 71.519 L
152.468 62.388 L
153.207 53.257 L
148.526 53.257 L
139.998 53.257 L
138.644 62.388 L
135.211 69.379 L
133.84 71.519 L
122.727 80.65 L
121.895 81.102 L
108.579 86.441 L
96.917 89.78 L
95.263 90.228 L
81.947 93.172 L
68.632 96.192 L
59.153 98.911 L
55.316 101.052 L
48.332 108.042 L
45.978 117.173 L
45.126 126.304 L
44.808 135.435 L
44.808 144.565 L
45.126 153.696 L
45.978 162.827 L
48.332 171.958 L
55.316 178.948 L
59.153 181.089 L
68.632 183.808 L
81.947 186.828 L
95.263 189.772 L
96.917 190.22 L
108.579 193.559 L
121.895 198.898 L
122.727 199.35 L
133.84 208.481 L
135.211 210.621 L
cp
280.593 217.612 M
281.24 226.743 L
281.684 226.743 L
293.501 226.743 L
293.43 217.612 L
293.183 208.481 L
292.597 199.35 L
290.985 190.22 L
281.684 181.478 L
280.876 181.089 L
268.368 177.811 L
255.053 175.149 L
241.737 172.353 L
240.259 171.958 L
228.421 168.392 L
215.465 162.827 L
215.105 162.598 L
205.496 153.696 L
201.789 145.611 L
201.407 144.565 L
201.407 135.435 L
201.789 134.389 L
205.496 126.304 L
215.105 117.402 L
215.465 117.173 L
228.421 111.608 L
240.259 108.042 L
241.737 107.647 L
255.053 104.851 L
268.368 102.189 L
280.876 98.911 L
281.684 98.522 L
290.985 89.78 L
292.597 80.65 L
293.183 71.519 L
293.43 62.388 L
293.501 53.257 L
281.684 53.257 L
281.24 53.257 L
280.593 62.388 L
278.372 71.519 L
273.397 80.65 L
268.368 85.439 L
261.728 89.78 L
255.053 92.723 L
241.737 97.075 L
235.152 98.911 L
228.421 100.788 L
215.105 104.828 L
206.758 108.042 L
201.789 110.8 L
193.714 117.173 L
188.474 125.887 L
188.273 126.304 L
186.206 135.435 L
186.206 144.565 L
188.273 153.696 L
188.474 154.113 L
193.714 162.827 L
201.789 169.2 L
206.758 171.958 L
215.105 175.172 L
228.421 179.212 L
235.152 181.089 L
241.737 182.925 L
255.053 187.277 L
261.728 190.22 L
268.368 194.561 L
273.397 199.35 L
278.372 208.481 L
cp
f
GR
GS
[0.78257 0 0 0.78197 0 0.22835] CT
0.075 0.745 0.722 RC
N
152.468 217.612 M
153.207 226.743 L
161.842 226.743 L
166.248 226.743 L
166.129 217.612 L
165.698 208.481 L
164.603 199.35 L
161.842 191.56 L
161.148 190.22 L
148.526 182.47 L
144.336 181.089 L
135.211 179.088 L
121.895 176.184 L
108.579 172.964 L
105.317 171.958 L
95.263 168.266 L
85.098 162.827 L
81.947 160.166 L
76.445 153.696 L
73.069 144.565 L
73.069 135.435 L
76.445 126.304 L
81.947 119.834 L
85.098 117.173 L
95.263 111.734 L
105.317 108.042 L
108.579 107.036 L
121.895 103.816 L
135.211 100.912 L
144.336 98.911 L
148.526 97.53 L
161.148 89.78 L
161.842 88.44 L
164.603 80.65 L
165.698 71.519 L
166.129 62.388 L
166.248 53.257 L
161.842 53.257 L
153.207 53.257 L
152.468 62.388 L
149.877 71.519 L
148.526 74.003 L
143.844 80.65 L
135.211 87.019 L
129.783 89.78 L
121.895 92.744 L
108.579 96.763 L
100.957 98.911 L
95.263 100.608 L
81.947 105.312 L
76.16 108.042 L
68.632 113.646 L
65.237 117.173 L
60.619 126.304 L
58.809 135.435 L
58.809 144.565 L
60.619 153.696 L
65.237 162.827 L
68.632 166.354 L
76.16 171.958 L
81.947 174.688 L
95.263 179.392 L
100.957 181.089 L
108.579 183.237 L
121.895 187.256 L
129.783 190.22 L
135.211 192.981 L
143.844 199.35 L
148.526 205.997 L
149.877 208.481 L
cp
267.656 217.612 M
268.368 222.495 L
268.899 226.743 L
281.24 226.743 L
280.593 217.612 L
278.372 208.481 L
273.397 199.35 L
268.368 194.561 L
261.728 190.22 L
255.053 187.277 L
241.737 182.925 L
235.152 181.089 L
228.421 179.212 L
215.105 175.172 L
206.758 171.958 L
201.789 169.2 L
193.714 162.827 L
188.474 154.113 L
188.273 153.696 L
186.206 144.565 L
186.206 135.435 L
188.273 126.304 L
188.474 125.887 L
193.714 117.173 L
201.789 110.8 L
206.758 108.042 L
215.105 104.828 L
228.421 100.788 L
235.152 98.911 L
241.737 97.075 L
255.053 92.723 L
261.728 89.78 L
268.368 85.439 L
273.397 80.65 L
278.372 71.519 L
280.593 62.388 L
281.24 53.257 L
268.899 53.257 L
268.368 57.505 L
267.656 62.388 L
263.269 71.519 L
255.053 79.793 L
253.82 80.65 L
241.737 86.474 L
231.542 89.78 L
228.421 90.685 L
215.105 93.728 L
201.789 96.494 L
191.002 98.911 L
188.474 99.812 L
175.687 108.042 L
175.158 109.183 L
172.5 117.173 L
171.497 126.304 L
171.146 135.435 L
171.146 144.565 L
171.497 153.696 L
172.5 162.827 L
175.158 170.817 L
175.687 171.958 L
188.474 180.188 L
191.002 181.089 L
201.789 183.506 L
215.105 186.272 L
228.421 189.315 L
231.542 190.22 L
241.737 193.526 L
253.82 199.35 L
255.053 200.207 L
263.269 208.481 L
cp
f
GR
GS
[0.78257 0 0 0.78197 0 0.22835] CT
0.173 0.765 0.651 RC
N
166.129 217.612 M
166.248 226.743 L
175.158 226.743 L
180.756 226.743 L
181.525 217.612 L
184.391 208.481 L
188.474 202.94 L
195.6 199.35 L
201.789 197.73 L
215.105 197.827 L
223.49 199.35 L
228.421 200.375 L
241.737 206.098 L
245.174 208.481 L
252.731 217.612 L
255.053 226.671 L
255.066 226.743 L
268.368 226.743 L
268.899 226.743 L
268.368 222.495 L
267.656 217.612 L
263.269 208.481 L
255.053 200.207 L
253.82 199.35 L
241.737 193.526 L
231.542 190.22 L
228.421 189.315 L
215.105 186.272 L
201.789 183.506 L
191.002 181.089 L
188.474 180.188 L
175.687 171.958 L
175.158 170.817 L
172.5 162.827 L
171.497 153.696 L
171.146 144.565 L
171.146 135.435 L
171.497 126.304 L
172.5 117.173 L
175.158 109.183 L
175.687 108.042 L
188.474 99.812 L
191.002 98.911 L
201.789 96.494 L
215.105 93.728 L
228.421 90.685 L
231.542 89.78 L
241.737 86.474 L
253.82 80.65 L
255.053 79.793 L
263.269 71.519 L
267.656 62.388 L
268.368 57.505 L
268.899 53.257 L
268.368 53.257 L
255.066 53.257 L
255.053 53.329 L
252.731 62.388 L
245.174 71.519 L
241.737 73.902 L
228.421 79.625 L
223.49 80.65 L
215.105 82.173 L
201.789 82.27 L
195.6 80.65 L
188.474 77.06 L
184.391 71.519 L
181.525 62.388 L
180.756 53.257 L
175.158 53.257 L
166.248 53.257 L
166.129 62.388 L
165.698 71.519 L
164.603 80.65 L
161.842 88.44 L
161.148 89.78 L
148.526 97.53 L
144.336 98.911 L
135.211 100.912 L
121.895 103.816 L
108.579 107.036 L
105.317 108.042 L
95.263 111.734 L
85.098 117.173 L
81.947 119.834 L
76.445 126.304 L
73.069 135.435 L
73.069 144.565 L
76.445 153.696 L
81.947 160.166 L
85.098 162.827 L
95.263 168.266 L
105.317 171.958 L
108.579 172.964 L
121.895 176.184 L
135.211 179.088 L
144.336 181.089 L
148.526 182.47 L
161.148 190.22 L
161.842 191.56 L
164.603 199.35 L
165.698 208.481 L
cp
121.895 163.83 M
117.159 162.827 L
108.579 160.551 L
95.671 153.696 L
95.263 153.275 L
89.984 144.565 L
89.984 135.435 L
95.263 126.724 L
95.671 126.304 L
108.579 119.449 L
117.159 117.173 L
121.895 116.17 L
135.211 115.994 L
139.6 117.173 L
148.526 122.224 L
151.247 126.304 L
153.655 135.435 L
153.655 144.565 L
151.247 153.696 L
148.526 157.776 L
139.6 162.827 L
135.211 164.006 L
cp
f
GR
GS
[0.78257 0 0 0.78197 0 0.22835] CT
0.231 0.788 0.569 RC
N
181.525 217.612 M
180.756 226.743 L
188.474 226.743 L
200.949 226.743 L
201.789 223.817 L
206.385 217.612 L
215.105 214.34 L
228.421 216.997 L
229.312 217.612 L
233.833 226.743 L
241.737 226.743 L
255.053 226.743 L
255.066 226.743 L
255.053 226.671 L
252.731 217.612 L
245.174 208.481 L
241.737 206.098 L
228.421 200.375 L
223.49 199.35 L
215.105 197.827 L
201.789 197.73 L
195.6 199.35 L
188.474 202.94 L
184.391 208.481 L
cp
117.159 162.827 M
121.895 163.83 L
135.211 164.006 L
139.6 162.827 L
148.526 157.776 L
151.247 153.696 L
153.655 144.565 L
153.655 135.435 L
151.247 126.304 L
148.526 122.224 L
139.6 117.173 L
135.211 115.994 L
121.895 116.17 L
117.159 117.173 L
108.579 119.449 L
95.671 126.304 L
95.263 126.724 L
89.984 135.435 L
89.984 144.565 L
95.263 153.275 L
95.671 153.696 L
108.579 160.551 L
cp
195.6 80.65 M
201.789 82.27 L
215.105 82.173 L
223.49 80.65 L
228.421 79.625 L
241.737 73.902 L
245.174 71.519 L
252.731 62.388 L
255.053 53.329 L
255.066 53.257 L
255.053 53.257 L
241.737 53.257 L
233.833 53.257 L
229.312 62.388 L
228.421 63.003 L
215.105 65.66 L
206.385 62.388 L
201.789 56.183 L
200.949 53.257 L
188.474 53.257 L
180.756 53.257 L
181.525 62.388 L
184.391 71.519 L
188.474 77.06 L
cp
f
GR
GS
[0.78257 0 0 0.78197 0 0.22835] CT
0.341 0.8 0.475 RC
N
201.789 223.817 M
200.949 226.743 L
201.789 226.743 L
215.105 226.743 L
228.421 226.743 L
233.833 226.743 L
229.312 217.612 L
228.421 216.997 L
215.105 214.34 L
206.385 217.612 L
cp
206.385 62.388 M
215.105 65.66 L
228.421 63.003 L
229.312 62.388 L
233.833 53.257 L
228.421 53.257 L
215.105 53.257 L
201.789 53.257 L
200.949 53.257 L
201.789 56.183 L
cp
f
GR
GS
[0.78257 0 0 0.78197 0 0.22835] CT
1 LJ
0.639 LW
N
80.514 226.743 M
81.947 223.952 L
95.263 222.015 L
98.713 226.743 L
S
GR
GS
[0.78257 0 0 0.78197 0 0.22835] CT
1 LJ
0.639 LW
N
98.713 53.257 M
95.263 57.985 L
81.947 56.048 L
80.514 53.257 L
S
GR
GS
[0.78257 0 0 0.78197 0 0.22835] CT
1 LJ
0.639 LW
N
54.619 226.743 M
55.316 218.489 L
55.421 217.612 L
S
GR
GS
[0.78257 0 0 0.78197 0 0.22835] CT
1 LJ
0.639 LW
N
122.767 217.612 M
124.938 226.743 L
S
GR
GS
[0.78257 0 0 0.78197 0 0.22835] CT
1 LJ
0.639 LW
N
55.421 217.612 M
59.48 208.481 L
S
GR
GS
[0.78257 0 0 0.78197 0 0.22835] CT
1 LJ
0.639 LW
N
113.46 208.481 M
121.895 216.4 L
122.767 217.612 L
S
GR
GS
[0.78257 0 0 0.78197 0 0.22835] CT
1 LJ
0.639 LW
N
59.48 208.481 M
68.632 201.392 L
81.947 199.598 L
95.263 201.376 L
108.579 205.757 L
113.46 208.481 L
S
GR
GS
[0.78257 0 0 0.78197 0 0.22835] CT
1 LJ
0.639 LW
N
273.427 153.696 M
268.368 158.048 L
255.053 160.895 L
241.737 159.13 L
228.421 154.104 L
227.785 153.696 L
S
GR
GS
[0.78257 0 0 0.78197 0 0.22835] CT
1 LJ
0.639 LW
N
227.785 153.696 M
220.614 144.565 L
S
GR
GS
[0.78257 0 0 0.78197 0 0.22835] CT
1 LJ
0.639 LW
N
277.27 144.565 M
273.427 153.696 L
S
GR
GS
[0.78257 0 0 0.78197 0 0.22835] CT
1 LJ
0.639 LW
N
220.614 144.565 M
220.614 135.435 L
S
GR
GS
[0.78257 0 0 0.78197 0 0.22835] CT
1 LJ
0.639 LW
N
277.27 135.435 M
277.27 144.565 L
S
GR
GS
[0.78257 0 0 0.78197 0 0.22835] CT
1 LJ
0.639 LW
N
220.614 135.435 M
227.785 126.304 L
S
GR
GS
[0.78257 0 0 0.78197 0 0.22835] CT
1 LJ
0.639 LW
N
273.427 126.304 M
277.27 135.435 L
S
GR
GS
[0.78257 0 0 0.78197 0 0.22835] CT
1 LJ
0.639 LW
N
227.785 126.304 M
228.421 125.896 L
241.737 120.87 L
255.053 119.105 L
268.368 121.952 L
273.427 126.304 L
S
GR
GS
[0.78257 0 0 0.78197 0 0.22835] CT
1 LJ
0.639 LW
N
113.46 71.519 M
108.579 74.243 L
95.263 78.624 L
81.947 80.402 L
68.632 78.608 L
59.48 71.519 L
S
GR
GS
[0.78257 0 0 0.78197 0 0.22835] CT
1 LJ
0.639 LW
N
59.48 71.519 M
55.421 62.388 L
S
GR
GS
[0.78257 0 0 0.78197 0 0.22835] CT
1 LJ
0.639 LW
N
122.767 62.388 M
121.895 63.6 L
113.46 71.519 L
S
GR
GS
[0.78257 0 0 0.78197 0 0.22835] CT
1 LJ
0.639 LW
N
55.421 62.388 M
55.316 61.511 L
54.619 53.257 L
S
GR
GS
[0.78257 0 0 0.78197 0 0.22835] CT
1 LJ
0.639 LW
N
124.938 53.257 M
122.767 62.388 L
S
GR
GS
[0.78257 0 0 0.78197 0 0.22835] CT
1 LJ
0.639 LW
N
138.644 217.612 M
139.998 226.743 L
S
GR
GS
[0.78257 0 0 0.78197 0 0.22835] CT
1 LJ
0.639 LW
N
293.501 226.743 M
293.43 217.612 L
S
GR
GS
[0.78257 0 0 0.78197 0 0.22835] CT
1 LJ
0.639 LW
N
133.84 208.481 M
135.211 210.621 L
138.644 217.612 L
S
GR
GS
[0.78257 0 0 0.78197 0 0.22835] CT
1 LJ
0.639 LW
N
293.43 217.612 M
293.183 208.481 L
S
GR
GS
[0.78257 0 0 0.78197 0 0.22835] CT
1 LJ
0.639 LW
N
122.727 199.35 M
133.84 208.481 L
S
GR
GS
[0.78257 0 0 0.78197 0 0.22835] CT
1 LJ
0.639 LW
N
293.183 208.481 M
292.597 199.35 L
S
GR
GS
[0.78257 0 0 0.78197 0 0.22835] CT
1 LJ
0.639 LW
N
96.917 190.22 M
108.579 193.559 L
121.895 198.898 L
122.727 199.35 L
S
GR
GS
[0.78257 0 0 0.78197 0 0.22835] CT
1 LJ
0.639 LW
N
292.597 199.35 M
290.985 190.22 L
S
GR
GS
[0.78257 0 0 0.78197 0 0.22835] CT
1 LJ
0.639 LW
N
59.153 181.089 M
68.632 183.808 L
81.947 186.828 L
95.263 189.772 L
96.917 190.22 L
S
GR
GS
[0.78257 0 0 0.78197 0 0.22835] CT
1 LJ
0.639 LW
N
290.985 190.22 M
281.684 181.478 L
280.876 181.089 L
S
GR
GS
[0.78257 0 0 0.78197 0 0.22835] CT
1 LJ
0.639 LW
N
48.332 171.958 M
55.316 178.948 L
59.153 181.089 L
S
GR
GS
[0.78257 0 0 0.78197 0 0.22835] CT
1 LJ
0.639 LW
N
280.876 181.089 M
268.368 177.811 L
255.053 175.149 L
241.737 172.353 L
240.259 171.958 L
S
GR
GS
[0.78257 0 0 0.78197 0 0.22835] CT
1 LJ
0.639 LW
N
45.978 162.827 M
48.332 171.958 L
S
GR
GS
[0.78257 0 0 0.78197 0 0.22835] CT
1 LJ
0.639 LW
N
240.259 171.958 M
228.421 168.392 L
215.465 162.827 L
S
GR
GS
[0.78257 0 0 0.78197 0 0.22835] CT
1 LJ
0.639 LW
N
45.126 153.696 M
45.978 162.827 L
S
GR
GS
[0.78257 0 0 0.78197 0 0.22835] CT
1 LJ
0.639 LW
N
215.465 162.827 M
215.105 162.598 L
205.496 153.696 L
S
GR
GS
[0.78257 0 0 0.78197 0 0.22835] CT
1 LJ
0.639 LW
N
44.808 144.565 M
45.126 153.696 L
S
GR
GS
[0.78257 0 0 0.78197 0 0.22835] CT
1 LJ
0.639 LW
N
205.496 153.696 M
201.789 145.611 L
201.407 144.565 L
S
GR
GS
[0.78257 0 0 0.78197 0 0.22835] CT
1 LJ
0.639 LW
N
44.808 135.435 M
44.808 144.565 L
S
GR
GS
[0.78257 0 0 0.78197 0 0.22835] CT
1 LJ
0.639 LW
N
201.407 144.565 M
201.407 135.435 L
S
GR
GS
[0.78257 0 0 0.78197 0 0.22835] CT
1 LJ
0.639 LW
N
45.126 126.304 M
44.808 135.435 L
S
GR
GS
[0.78257 0 0 0.78197 0 0.22835] CT
1 LJ
0.639 LW
N
201.407 135.435 M
201.789 134.389 L
205.496 126.304 L
S
GR
GS
[0.78257 0 0 0.78197 0 0.22835] CT
1 LJ
0.639 LW
N
45.978 117.173 M
45.126 126.304 L
S
GR
GS
[0.78257 0 0 0.78197 0 0.22835] CT
1 LJ
0.639 LW
N
205.496 126.304 M
215.105 117.402 L
215.465 117.173 L
S
GR
GS
[0.78257 0 0 0.78197 0 0.22835] CT
1 LJ
0.639 LW
N
48.332 108.042 M
45.978 117.173 L
S
GR
GS
[0.78257 0 0 0.78197 0 0.22835] CT
1 LJ
0.639 LW
N
215.465 117.173 M
228.421 111.608 L
240.259 108.042 L
S
GR
GS
[0.78257 0 0 0.78197 0 0.22835] CT
1 LJ
0.639 LW
N
59.153 98.911 M
55.316 101.052 L
48.332 108.042 L
S
GR
GS
[0.78257 0 0 0.78197 0 0.22835] CT
1 LJ
0.639 LW
N
240.259 108.042 M
241.737 107.647 L
255.053 104.851 L
268.368 102.189 L
280.876 98.911 L
S
GR
GS
[0.78257 0 0 0.78197 0 0.22835] CT
1 LJ
0.639 LW
N
96.917 89.78 M
95.263 90.228 L
81.947 93.172 L
68.632 96.192 L
59.153 98.911 L
S
GR
GS
[0.78257 0 0 0.78197 0 0.22835] CT
1 LJ
0.639 LW
N
280.876 98.911 M
281.684 98.522 L
290.985 89.78 L
S
GR
GS
[0.78257 0 0 0.78197 0 0.22835] CT
1 LJ
0.639 LW
N
122.727 80.65 M
121.895 81.102 L
108.579 86.441 L
96.917 89.78 L
S
GR
GS
[0.78257 0 0 0.78197 0 0.22835] CT
1 LJ
0.639 LW
N
290.985 89.78 M
292.597 80.65 L
S
GR
GS
[0.78257 0 0 0.78197 0 0.22835] CT
1 LJ
0.639 LW
N
133.84 71.519 M
122.727 80.65 L
S
GR
GS
[0.78257 0 0 0.78197 0 0.22835] CT
1 LJ
0.639 LW
N
292.597 80.65 M
293.183 71.519 L
S
GR
GS
[0.78257 0 0 0.78197 0 0.22835] CT
1 LJ
0.639 LW
N
138.644 62.388 M
135.211 69.379 L
133.84 71.519 L
S
GR
GS
[0.78257 0 0 0.78197 0 0.22835] CT
1 LJ
0.639 LW
N
293.183 71.519 M
293.43 62.388 L
S
GR
GS
[0.78257 0 0 0.78197 0 0.22835] CT
1 LJ
0.639 LW
N
139.998 53.257 M
138.644 62.388 L
S
GR
GS
[0.78257 0 0 0.78197 0 0.22835] CT
1 LJ
0.639 LW
N
293.43 62.388 M
293.501 53.257 L
S
GR
GS
[0.78257 0 0 0.78197 0 0.22835] CT
1 LJ
0.639 LW
N
152.468 217.612 M
153.207 226.743 L
S
GR
GS
[0.78257 0 0 0.78197 0 0.22835] CT
1 LJ
0.639 LW
N
281.24 226.743 M
280.593 217.612 L
S
GR
GS
[0.78257 0 0 0.78197 0 0.22835] CT
1 LJ
0.639 LW
N
149.877 208.481 M
152.468 217.612 L
S
GR
GS
[0.78257 0 0 0.78197 0 0.22835] CT
1 LJ
0.639 LW
N
280.593 217.612 M
278.372 208.481 L
S
GR
GS
[0.78257 0 0 0.78197 0 0.22835] CT
1 LJ
0.639 LW
N
143.844 199.35 M
148.526 205.997 L
149.877 208.481 L
S
GR
GS
[0.78257 0 0 0.78197 0 0.22835] CT
1 LJ
0.639 LW
N
278.372 208.481 M
273.397 199.35 L
S
GR
GS
[0.78257 0 0 0.78197 0 0.22835] CT
1 LJ
0.639 LW
N
129.783 190.22 M
135.211 192.981 L
143.844 199.35 L
S
GR
GS
[0.78257 0 0 0.78197 0 0.22835] CT
1 LJ
0.639 LW
N
273.397 199.35 M
268.368 194.561 L
261.728 190.22 L
S
GR
GS
[0.78257 0 0 0.78197 0 0.22835] CT
1 LJ
0.639 LW
N
100.957 181.089 M
108.579 183.237 L
121.895 187.256 L
129.783 190.22 L
S
GR
GS
[0.78257 0 0 0.78197 0 0.22835] CT
1 LJ
0.639 LW
N
261.728 190.22 M
255.053 187.277 L
241.737 182.925 L
235.152 181.089 L
S
GR
GS
[0.78257 0 0 0.78197 0 0.22835] CT
1 LJ
0.639 LW
N
76.16 171.958 M
81.947 174.688 L
95.263 179.392 L
100.957 181.089 L
S
GR
GS
[0.78257 0 0 0.78197 0 0.22835] CT
1 LJ
0.639 LW
N
235.152 181.089 M
228.421 179.212 L
215.105 175.172 L
206.758 171.958 L
S
GR
GS
[0.78257 0 0 0.78197 0 0.22835] CT
1 LJ
0.639 LW
N
65.237 162.827 M
68.632 166.354 L
76.16 171.958 L
S
GR
GS
[0.78257 0 0 0.78197 0 0.22835] CT
1 LJ
0.639 LW
N
206.758 171.958 M
201.789 169.2 L
193.714 162.827 L
S
GR
GS
[0.78257 0 0 0.78197 0 0.22835] CT
1 LJ
0.639 LW
N
60.619 153.696 M
65.237 162.827 L
S
GR
GS
[0.78257 0 0 0.78197 0 0.22835] CT
1 LJ
0.639 LW
N
193.714 162.827 M
188.474 154.113 L
188.273 153.696 L
S
GR
GS
[0.78257 0 0 0.78197 0 0.22835] CT
1 LJ
0.639 LW
N
58.809 144.565 M
60.619 153.696 L
S
GR
GS
[0.78257 0 0 0.78197 0 0.22835] CT
1 LJ
0.639 LW
N
188.273 153.696 M
186.206 144.565 L
S
GR
GS
[0.78257 0 0 0.78197 0 0.22835] CT
1 LJ
0.639 LW
N
58.809 135.435 M
58.809 144.565 L
S
GR
GS
[0.78257 0 0 0.78197 0 0.22835] CT
1 LJ
0.639 LW
N
186.206 144.565 M
186.206 135.435 L
S
GR
GS
[0.78257 0 0 0.78197 0 0.22835] CT
1 LJ
0.639 LW
N
60.619 126.304 M
58.809 135.435 L
S
GR
GS
[0.78257 0 0 0.78197 0 0.22835] CT
1 LJ
0.639 LW
N
186.206 135.435 M
188.273 126.304 L
S
GR
GS
[0.78257 0 0 0.78197 0 0.22835] CT
1 LJ
0.639 LW
N
65.237 117.173 M
60.619 126.304 L
S
GR
GS
[0.78257 0 0 0.78197 0 0.22835] CT
1 LJ
0.639 LW
N
188.273 126.304 M
188.474 125.887 L
193.714 117.173 L
S
GR
GS
[0.78257 0 0 0.78197 0 0.22835] CT
1 LJ
0.639 LW
N
76.16 108.042 M
68.632 113.646 L
65.237 117.173 L
S
GR
GS
[0.78257 0 0 0.78197 0 0.22835] CT
1 LJ
0.639 LW
N
193.714 117.173 M
201.789 110.8 L
206.758 108.042 L
S
GR
GS
[0.78257 0 0 0.78197 0 0.22835] CT
1 LJ
0.639 LW
N
100.957 98.911 M
95.263 100.608 L
81.947 105.312 L
76.16 108.042 L
S
GR
GS
[0.78257 0 0 0.78197 0 0.22835] CT
1 LJ
0.639 LW
N
206.758 108.042 M
215.105 104.828 L
228.421 100.788 L
235.152 98.911 L
S
GR
GS
[0.78257 0 0 0.78197 0 0.22835] CT
1 LJ
0.639 LW
N
129.783 89.78 M
121.895 92.744 L
108.579 96.763 L
100.957 98.911 L
S
GR
GS
[0.78257 0 0 0.78197 0 0.22835] CT
1 LJ
0.639 LW
N
235.152 98.911 M
241.737 97.075 L
255.053 92.723 L
261.728 89.78 L
S
GR
GS
[0.78257 0 0 0.78197 0 0.22835] CT
1 LJ
0.639 LW
N
143.844 80.65 M
135.211 87.019 L
129.783 89.78 L
S
GR
GS
[0.78257 0 0 0.78197 0 0.22835] CT
1 LJ
0.639 LW
N
261.728 89.78 M
268.368 85.439 L
273.397 80.65 L
S
GR
GS
[0.78257 0 0 0.78197 0 0.22835] CT
1 LJ
0.639 LW
N
149.877 71.519 M
148.526 74.003 L
143.844 80.65 L
S
GR
GS
[0.78257 0 0 0.78197 0 0.22835] CT
1 LJ
0.639 LW
N
273.397 80.65 M
278.372 71.519 L
S
GR
GS
[0.78257 0 0 0.78197 0 0.22835] CT
1 LJ
0.639 LW
N
152.468 62.388 M
149.877 71.519 L
S
GR
GS
[0.78257 0 0 0.78197 0 0.22835] CT
1 LJ
0.639 LW
N
278.372 71.519 M
280.593 62.388 L
S
GR
GS
[0.78257 0 0 0.78197 0 0.22835] CT
1 LJ
0.639 LW
N
153.207 53.257 M
152.468 62.388 L
S
GR
GS
[0.78257 0 0 0.78197 0 0.22835] CT
1 LJ
0.639 LW
N
280.593 62.388 M
281.24 53.257 L
S
GR
GS
[0.78257 0 0 0.78197 0 0.22835] CT
1 LJ
0.639 LW
N
166.129 217.612 M
166.248 226.743 L
S
GR
GS
[0.78257 0 0 0.78197 0 0.22835] CT
1 LJ
0.639 LW
N
268.899 226.743 M
268.368 222.495 L
267.656 217.612 L
S
GR
GS
[0.78257 0 0 0.78197 0 0.22835] CT
1 LJ
0.639 LW
N
165.698 208.481 M
166.129 217.612 L
S
GR
GS
[0.78257 0 0 0.78197 0 0.22835] CT
1 LJ
0.639 LW
N
267.656 217.612 M
263.269 208.481 L
S
GR
GS
[0.78257 0 0 0.78197 0 0.22835] CT
1 LJ
0.639 LW
N
164.603 199.35 M
165.698 208.481 L
S
GR
GS
[0.78257 0 0 0.78197 0 0.22835] CT
1 LJ
0.639 LW
N
263.269 208.481 M
255.053 200.207 L
253.82 199.35 L
S
GR
GS
[0.78257 0 0 0.78197 0 0.22835] CT
1 LJ
0.639 LW
N
161.148 190.22 M
161.842 191.56 L
164.603 199.35 L
S
GR
GS
[0.78257 0 0 0.78197 0 0.22835] CT
1 LJ
0.639 LW
N
253.82 199.35 M
241.737 193.526 L
231.542 190.22 L
S
GR
GS
[0.78257 0 0 0.78197 0 0.22835] CT
1 LJ
0.639 LW
N
144.336 181.089 M
148.526 182.47 L
161.148 190.22 L
S
GR
GS
[0.78257 0 0 0.78197 0 0.22835] CT
1 LJ
0.639 LW
N
231.542 190.22 M
228.421 189.315 L
215.105 186.272 L
201.789 183.506 L
191.002 181.089 L
S
GR
GS
[0.78257 0 0 0.78197 0 0.22835] CT
1 LJ
0.639 LW
N
105.317 171.958 M
108.579 172.964 L
121.895 176.184 L
135.211 179.088 L
144.336 181.089 L
S
GR
GS
[0.78257 0 0 0.78197 0 0.22835] CT
1 LJ
0.639 LW
N
191.002 181.089 M
188.474 180.188 L
175.687 171.958 L
S
GR
GS
[0.78257 0 0 0.78197 0 0.22835] CT
1 LJ
0.639 LW
N
85.098 162.827 M
95.263 168.266 L
105.317 171.958 L
S
GR
GS
[0.78257 0 0 0.78197 0 0.22835] CT
1 LJ
0.639 LW
N
175.687 171.958 M
175.158 170.817 L
172.5 162.827 L
S
GR
GS
[0.78257 0 0 0.78197 0 0.22835] CT
1 LJ
0.639 LW
N
76.445 153.696 M
81.947 160.166 L
85.098 162.827 L
S
GR
GS
[0.78257 0 0 0.78197 0 0.22835] CT
1 LJ
0.639 LW
N
172.5 162.827 M
171.497 153.696 L
S
GR
GS
[0.78257 0 0 0.78197 0 0.22835] CT
1 LJ
0.639 LW
N
73.069 144.565 M
76.445 153.696 L
S
GR
GS
[0.78257 0 0 0.78197 0 0.22835] CT
1 LJ
0.639 LW
N
171.497 153.696 M
171.146 144.565 L
S
GR
GS
[0.78257 0 0 0.78197 0 0.22835] CT
1 LJ
0.639 LW
N
73.069 135.435 M
73.069 144.565 L
S
GR
GS
[0.78257 0 0 0.78197 0 0.22835] CT
1 LJ
0.639 LW
N
171.146 144.565 M
171.146 135.435 L
S
GR
GS
[0.78257 0 0 0.78197 0 0.22835] CT
1 LJ
0.639 LW
N
76.445 126.304 M
73.069 135.435 L
S
GR
GS
[0.78257 0 0 0.78197 0 0.22835] CT
1 LJ
0.639 LW
N
171.146 135.435 M
171.497 126.304 L
S
GR
GS
[0.78257 0 0 0.78197 0 0.22835] CT
1 LJ
0.639 LW
N
85.098 117.173 M
81.947 119.834 L
76.445 126.304 L
S
GR
GS
[0.78257 0 0 0.78197 0 0.22835] CT
1 LJ
0.639 LW
N
171.497 126.304 M
172.5 117.173 L
S
GR
GS
[0.78257 0 0 0.78197 0 0.22835] CT
1 LJ
0.639 LW
N
105.317 108.042 M
95.263 111.734 L
85.098 117.173 L
S
GR
GS
[0.78257 0 0 0.78197 0 0.22835] CT
1 LJ
0.639 LW
N
172.5 117.173 M
175.158 109.183 L
175.687 108.042 L
S
GR
GS
[0.78257 0 0 0.78197 0 0.22835] CT
1 LJ
0.639 LW
N
144.336 98.911 M
135.211 100.912 L
121.895 103.816 L
108.579 107.036 L
105.317 108.042 L
S
GR
GS
[0.78257 0 0 0.78197 0 0.22835] CT
1 LJ
0.639 LW
N
175.687 108.042 M
188.474 99.812 L
191.002 98.911 L
S
GR
GS
[0.78257 0 0 0.78197 0 0.22835] CT
1 LJ
0.639 LW
N
161.148 89.78 M
148.526 97.53 L
144.336 98.911 L
S
GR
GS
[0.78257 0 0 0.78197 0 0.22835] CT
1 LJ
0.639 LW
N
191.002 98.911 M
201.789 96.494 L
215.105 93.728 L
228.421 90.685 L
231.542 89.78 L
S
GR
GS
[0.78257 0 0 0.78197 0 0.22835] CT
1 LJ
0.639 LW
N
164.603 80.65 M
161.842 88.44 L
161.148 89.78 L
S
GR
GS
[0.78257 0 0 0.78197 0 0.22835] CT
1 LJ
0.639 LW
N
231.542 89.78 M
241.737 86.474 L
253.82 80.65 L
S
GR
GS
[0.78257 0 0 0.78197 0 0.22835] CT
1 LJ
0.639 LW
N
165.698 71.519 M
164.603 80.65 L
S
GR
GS
[0.78257 0 0 0.78197 0 0.22835] CT
1 LJ
0.639 LW
N
253.82 80.65 M
255.053 79.793 L
263.269 71.519 L
S
GR
GS
[0.78257 0 0 0.78197 0 0.22835] CT
1 LJ
0.639 LW
N
166.129 62.388 M
165.698 71.519 L
S
GR
GS
[0.78257 0 0 0.78197 0 0.22835] CT
1 LJ
0.639 LW
N
263.269 71.519 M
267.656 62.388 L
S
GR
GS
[0.78257 0 0 0.78197 0 0.22835] CT
1 LJ
0.639 LW
N
166.248 53.257 M
166.129 62.388 L
S
GR
GS
[0.78257 0 0 0.78197 0 0.22835] CT
1 LJ
0.639 LW
N
267.656 62.388 M
268.368 57.505 L
268.899 53.257 L
S
GR
GS
[0.78257 0 0 0.78197 0 0.22835] CT
1 LJ
0.639 LW
N
181.525 217.612 M
180.756 226.743 L
S
GR
GS
[0.78257 0 0 0.78197 0 0.22835] CT
1 LJ
0.639 LW
N
255.066 226.743 M
255.053 226.671 L
252.731 217.612 L
S
GR
GS
[0.78257 0 0 0.78197 0 0.22835] CT
1 LJ
0.639 LW
N
184.391 208.481 M
181.525 217.612 L
S
GR
GS
[0.78257 0 0 0.78197 0 0.22835] CT
1 LJ
0.639 LW
N
252.731 217.612 M
245.174 208.481 L
S
GR
GS
[0.78257 0 0 0.78197 0 0.22835] CT
1 LJ
0.639 LW
N
195.6 199.35 M
188.474 202.94 L
184.391 208.481 L
S
GR
GS
[0.78257 0 0 0.78197 0 0.22835] CT
1 LJ
0.639 LW
N
245.174 208.481 M
241.737 206.098 L
228.421 200.375 L
223.49 199.35 L
S
GR
GS
[0.78257 0 0 0.78197 0 0.22835] CT
1 LJ
0.639 LW
N
223.49 199.35 M
215.105 197.827 L
201.789 197.73 L
195.6 199.35 L
S
GR
GS
[0.78257 0 0 0.78197 0 0.22835] CT
1 LJ
0.639 LW
N
117.159 162.827 M
121.895 163.83 L
135.211 164.006 L
139.6 162.827 L
S
GR
GS
[0.78257 0 0 0.78197 0 0.22835] CT
1 LJ
0.639 LW
N
95.671 153.696 M
108.579 160.551 L
117.159 162.827 L
S
GR
GS
[0.78257 0 0 0.78197 0 0.22835] CT
1 LJ
0.639 LW
N
139.6 162.827 M
148.526 157.776 L
151.247 153.696 L
S
GR
GS
[0.78257 0 0 0.78197 0 0.22835] CT
1 LJ
0.639 LW
N
89.984 144.565 M
95.263 153.275 L
95.671 153.696 L
S
GR
GS
[0.78257 0 0 0.78197 0 0.22835] CT
1 LJ
0.639 LW
N
151.247 153.696 M
153.655 144.565 L
S
GR
GS
[0.78257 0 0 0.78197 0 0.22835] CT
1 LJ
0.639 LW
N
89.984 135.435 M
89.984 144.565 L
S
GR
GS
[0.78257 0 0 0.78197 0 0.22835] CT
1 LJ
0.639 LW
N
153.655 144.565 M
153.655 135.435 L
S
GR
GS
[0.78257 0 0 0.78197 0 0.22835] CT
1 LJ
0.639 LW
N
95.671 126.304 M
95.263 126.724 L
89.984 135.435 L
S
GR
GS
[0.78257 0 0 0.78197 0 0.22835] CT
1 LJ
0.639 LW
N
153.655 135.435 M
151.247 126.304 L
S
GR
GS
[0.78257 0 0 0.78197 0 0.22835] CT
1 LJ
0.639 LW
N
117.159 117.173 M
108.579 119.449 L
95.671 126.304 L
S
GR
GS
[0.78257 0 0 0.78197 0 0.22835] CT
1 LJ
0.639 LW
N
151.247 126.304 M
148.526 122.224 L
139.6 117.173 L
S
GR
GS
[0.78257 0 0 0.78197 0 0.22835] CT
1 LJ
0.639 LW
N
139.6 117.173 M
135.211 115.994 L
121.895 116.17 L
117.159 117.173 L
S
GR
GS
[0.78257 0 0 0.78197 0 0.22835] CT
1 LJ
0.639 LW
N
195.6 80.65 M
201.789 82.27 L
215.105 82.173 L
223.49 80.65 L
S
GR
GS
[0.78257 0 0 0.78197 0 0.22835] CT
1 LJ
0.639 LW
N
184.391 71.519 M
188.474 77.06 L
195.6 80.65 L
S
GR
GS
[0.78257 0 0 0.78197 0 0.22835] CT
1 LJ
0.639 LW
N
223.49 80.65 M
228.421 79.625 L
241.737 73.902 L
245.174 71.519 L
S
GR
GS
[0.78257 0 0 0.78197 0 0.22835] CT
1 LJ
0.639 LW
N
181.525 62.388 M
184.391 71.519 L
S
GR
GS
[0.78257 0 0 0.78197 0 0.22835] CT
1 LJ
0.639 LW
N
245.174 71.519 M
252.731 62.388 L
S
GR
GS
[0.78257 0 0 0.78197 0 0.22835] CT
1 LJ
0.639 LW
N
180.756 53.257 M
181.525 62.388 L
S
GR
GS
[0.78257 0 0 0.78197 0 0.22835] CT
1 LJ
0.639 LW
N
252.731 62.388 M
255.053 53.329 L
255.066 53.257 L
S
GR
GS
[0.78257 0 0 0.78197 0 0.22835] CT
1 LJ
0.639 LW
N
206.385 217.612 M
201.789 223.817 L
200.949 226.743 L
S
GR
GS
[0.78257 0 0 0.78197 0 0.22835] CT
1 LJ
0.639 LW
N
233.833 226.743 M
229.312 217.612 L
S
GR
GS
[0.78257 0 0 0.78197 0 0.22835] CT
1 LJ
0.639 LW
N
229.312 217.612 M
228.421 216.997 L
215.105 214.34 L
206.385 217.612 L
S
GR
GS
[0.78257 0 0 0.78197 0 0.22835] CT
1 LJ
0.639 LW
N
206.385 62.388 M
215.105 65.66 L
228.421 63.003 L
229.312 62.388 L
S
GR
GS
[0.78257 0 0 0.78197 0 0.22835] CT
1 LJ
0.639 LW
N
200.949 53.257 M
201.789 56.183 L
206.385 62.388 L
S
GR
GS
[0.78257 0 0 0.78197 0 0.22835] CT
1 LJ
0.639 LW
N
229.312 62.388 M
233.833 53.257 L
S
GR
GS
[0.78257 0 0 0.78197 0 0.22835] CT
1 0 0 RC
1 LJ
0.639 LW
N
55.456 209.425 M
53.698 214.188 L
53.008 209.158 L
S
GR
GS
[0.78257 0 0 0.78197 0 0.22835] CT
1 0 0 RC
1 LJ
0.639 LW
N
52.111 192.435 M
48.55 197.191 L
49.454 191.319 L
S
GR
GS
[0.78257 0 0 0.78197 0 0.22835] CT
1 0 0 RC
1 LJ
0.639 LW
N
48.397 170.872 M
43.687 173.403 L
46.652 168.954 L
S
GR
GS
[0.78257 0 0 0.78197 0 0.22835] CT
1 0 0 RC
1 LJ
0.639 LW
N
45.88 146.128 M
41.989 145.326 L
S
GR
GS
[0.78257 0 0 0.78197 0 0.22835] CT
1 0 0 RC
1 LJ
0.639 LW
N
41.989 144.911 M
45.783 143.793 L
S
GR
GS
[0.78257 0 0 0.78197 0 0.22835] CT
1 0 0 RC
1 LJ
0.639 LW
N
45.621 120.937 M
42.034 116.659 L
47.213 118.746 L
S
GR
GS
[0.78257 0 0 0.78197 0 0.22835] CT
1 0 0 RC
1 LJ
0.639 LW
N
47.73 98.221 M
45.941 92.23 L
50.339 96.674 L
S
GR
GS
[0.78257 0 0 0.78197 0 0.22835] CT
1 0 0 RC
1 LJ
0.639 LW
N
51.317 79.859 M
51.233 74.469 L
53.843 79.185 L
S
GR
GS
[0.78257 0 0 0.78197 0 0.22835] CT
1 0 0 RC
1 LJ
0.639 LW
N
88.062 204.767 M
89.957 208.421 L
86.565 206.089 L
S
GR
GS
[0.78257 0 0 0.78197 0 0.22835] CT
1 0 0 RC
1 LJ
0.639 LW
N
79.183 187.712 M
76.684 190.326 L
77.659 186.844 L
S
GR
GS
[0.78257 0 0 0.78197 0 0.22835] CT
1 0 0 RC
1 LJ
0.639 LW
N
70.475 167.986 M
64.146 168.335 L
69.566 165.049 L
S
GR
GS
[0.78257 0 0 0.78197 0 0.22835] CT
1 0 0 RC
1 LJ
0.639 LW
N
65.61 146.207 M
57.629 144.021 L
65.699 142.195 L
S
GR
GS
[0.78257 0 0 0.78197 0 0.22835] CT
1 0 0 RC
1 LJ
0.639 LW
N
66.639 123.858 M
59.883 119.937 L
67.69 120.218 L
S
GR
GS
[0.78257 0 0 0.78197 0 0.22835] CT
1 0 0 RC
1 LJ
0.639 LW
N
73.129 102.663 M
69.956 98.538 L
74.697 100.685 L
S
GR
GS
[0.78257 0 0 0.78197 0 0.22835] CT
1 0 0 RC
1 LJ
0.639 LW
N
82.343 83.859 M
83.601 81.146 L
83.768 84.132 L
S
GR
GS
[0.78257 0 0 0.78197 0 0.22835] CT
1 0 0 RC
1 LJ
0.639 LW
N
118.13 198.154 M
122.838 199.32 L
118.135 200.507 L
S
GR
GS
[0.78257 0 0 0.78197 0 0.22835] CT
1 0 0 RC
1 LJ
0.639 LW
N
107.415 180.146 M
107.038 179.492 L
107.678 179.892 L
S
GR
GS
[0.78257 0 0 0.78197 0 0.22835] CT
1 0 0 RC
1 LJ
0.639 LW
N
97.341 162.517 M
92.112 160.337 L
97.752 159.8 L
S
GR
GS
[0.78257 0 0 0.78197 0 0.22835] CT
1 0 0 RC
1 LJ
0.639 LW
N
92.156 145.001 M
84.355 142.232 L
92.541 141.004 L
S
GR
GS
[0.78257 0 0 0.78197 0 0.22835] CT
1 0 0 RC
1 LJ
0.639 LW
N
94.048 127.282 M
87.037 125.111 L
94.244 123.728 L
S
GR
GS
[0.78257 0 0 0.78197 0 0.22835] CT
1 0 0 RC
1 LJ
0.639 LW
N
102.218 109.132 M
99.029 108.493 L
102.143 107.557 L
S
GR
GS
[0.78257 0 0 0.78197 0 0.22835] CT
1 0 0 RC
1 LJ
0.639 LW
N
113.22 90.504 M
115.272 91.685 L
112.906 91.609 L
S
GR
GS
[0.78257 0 0 0.78197 0 0.22835] CT
1 0 0 RC
1 LJ
0.639 LW
N
144.211 192.374 M
149.706 190.722 L
145.634 194.766 L
S
GR
GS
[0.78257 0 0 0.78197 0 0.22835] CT
1 0 0 RC
1 LJ
0.639 LW
N
136.131 172.928 M
138.042 169.257 L
138.083 173.395 L
S
GR
GS
[0.78257 0 0 0.78197 0 0.22835] CT
1 0 0 RC
1 LJ
0.639 LW
N
128.896 156.772 M
127.022 152.781 L
130.553 155.421 L
S
GR
GS
[0.78257 0 0 0.78197 0 0.22835] CT
1 0 0 RC
1 LJ
0.639 LW
N
125.556 143.018 M
121.296 140.542 L
126.22 140.722 L
S
GR
GS
[0.78257 0 0 0.78197 0 0.22835] CT
1 0 0 RC
1 LJ
0.639 LW
N
127.519 129.764 M
123.276 129.999 L
126.91 127.795 L
S
GR
GS
[0.78257 0 0 0.78197 0 0.22835] CT
1 0 0 RC
1 LJ
0.639 LW
N
133.959 114.9 M
132.129 117.898 L
132.333 114.392 L
S
GR
GS
[0.78257 0 0 0.78197 0 0.22835] CT
1 0 0 RC
1 LJ
0.639 LW
N
142.159 96.992 M
144.12 101.641 L
140.202 98.462 L
S
GR
GS
[0.78257 0 0 0.78197 0 0.22835] CT
1 0 0 RC
1 LJ
0.639 LW
N
166.536 189.865 M
170.461 186.254 L
168.697 191.287 L
S
GR
GS
[0.78257 0 0 0.78197 0 0.22835] CT
1 0 0 RC
1 LJ
0.639 LW
N
164.453 169.102 M
167.851 163.937 L
167.283 170.093 L
S
GR
GS
[0.78257 0 0 0.78197 0 0.22835] CT
1 0 0 RC
1 LJ
0.639 LW
N
163.064 153.173 M
165.386 148.854 L
165.369 153.757 L
S
GR
GS
[0.78257 0 0 0.78197 0 0.22835] CT
1 0 0 RC
1 LJ
0.639 LW
N
162.954 141.094 M
164.105 139.663 L
163.763 141.468 L
S
GR
GS
[0.78257 0 0 0.78197 0 0.22835] CT
1 0 0 RC
1 LJ
0.639 LW
N
164.169 130.259 M
164.548 132.54 L
163.141 130.705 L
S
GR
GS
[0.78257 0 0 0.78197 0 0.22835] CT
1 0 0 RC
1 LJ
0.639 LW
N
166.198 117.534 M
166.528 122.787 L
163.765 118.307 L
S
GR
GS
[0.78257 0 0 0.78197 0 0.22835] CT
1 0 0 RC
1 LJ
0.639 LW
N
168.185 100.586 M
169.211 106.815 L
165.374 101.802 L
S
GR
GS
[0.78257 0 0 0.78197 0 0.22835] CT
1 0 0 RC
1 LJ
0.639 LW
N
186.923 191.685 M
187.581 187.799 L
188.828 191.537 L
S
GR
GS
[0.78257 0 0 0.78197 0 0.22835] CT
1 0 0 RC
1 LJ
0.639 LW
N
191.668 170.281 M
195.127 165.777 L
194.194 171.379 L
S
GR
GS
[0.78257 0 0 0.78197 0 0.22835] CT
1 0 0 RC
1 LJ
0.639 LW
N
196.666 153.238 M
202.255 150.212 L
198.748 155.512 L
S
GR
GS
[0.78257 0 0 0.78197 0 0.22835] CT
1 0 0 RC
1 LJ
0.639 LW
N
199.81 140.042 M
205.96 139.967 L
200.569 142.927 L
S
GR
GS
[0.78257 0 0 0.78197 0 0.22835] CT
1 0 0 RC
1 LJ
0.639 LW
N
199.773 128.556 M
204.679 131.661 L
198.889 131.23 L
S
GR
GS
[0.78257 0 0 0.78197 0 0.22835] CT
1 0 0 RC
1 LJ
0.639 LW
N
196.571 115.924 M
198.952 121.096 L
194.417 117.653 L
S
GR
GS
[0.78257 0 0 0.78197 0 0.22835] CT
1 0 0 RC
1 LJ
0.639 LW
N
191.554 99.77 M
191.194 105.026 L
189.039 100.219 L
S
GR
GS
[0.78257 0 0 0.78197 0 0.22835] CT
1 0 0 RC
1 LJ
0.639 LW
N
208.004 197.066 M
205.077 194.707 L
208.77 195.412 L
S
GR
GS
[0.78257 0 0 0.78197 0 0.22835] CT
1 0 0 RC
1 LJ
0.639 LW
N
217.529 175.969 M
219.596 174 L
218.699 176.71 L
S
GR
GS
[0.78257 0 0 0.78197 0 0.22835] CT
1 0 0 RC
1 LJ
0.639 LW
N
226.764 156.94 M
233.312 156.282 L
227.844 159.944 L
S
GR
GS
[0.78257 0 0 0.78197 0 0.22835] CT
1 0 0 RC
1 LJ
0.639 LW
N
231.813 140.304 M
240.44 141.325 L
232.347 144.485 L
S
GR
GS
[0.78257 0 0 0.78197 0 0.22835] CT
1 0 0 RC
1 LJ
0.639 LW
N
230.546 125.375 M
237.975 127.734 L
230.31 129.149 L
S
GR
GS
[0.78257 0 0 0.78197 0 0.22835] CT
1 0 0 RC
1 LJ
0.639 LW
N
223.499 110.748 M
226.956 113.54 L
222.592 112.704 L
S
GR
GS
[0.78257 0 0 0.78197 0 0.22835] CT
1 0 0 RC
1 LJ
0.639 LW
N
213.643 94.89 M
212.03 97.027 L
212.447 94.382 L
S
GR
GS
[0.78257 0 0 0.78197 0 0.22835] CT
1 0 0 RC
1 LJ
0.639 LW
N
232.12 203.74 M
226.803 204.063 L
231.342 201.276 L
S
GR
GS
[0.78257 0 0 0.78197 0 0.22835] CT
1 0 0 RC
1 LJ
0.639 LW
N
242.363 183.766 M
242.172 185.138 L
241.694 183.838 L
S
GR
GS
[0.78257 0 0 0.78197 0 0.22835] CT
1 0 0 RC
1 LJ
0.639 LW
N
251.895 162.718 M
256.691 164.505 L
251.618 165.185 L
S
GR
GS
[0.78257 0 0 0.78197 0 0.22835] CT
1 0 0 RC
1 LJ
0.639 LW
N
256.696 141.771 M
264.237 143.165 L
256.927 145.483 L
S
GR
GS
[0.78257 0 0 0.78197 0 0.22835] CT
1 0 0 RC
1 LJ
0.639 LW
N
254.743 122.057 M
261.627 122.415 L
255.384 125.339 L
S
GR
GS
[0.78257 0 0 0.78197 0 0.22835] CT
1 0 0 RC
1 LJ
0.639 LW
N
246.858 104.19 M
249.963 103.305 L
247.639 105.547 L
S
GR
GS
[0.78257 0 0 0.78197 0 0.22835] CT
1 0 0 RC
1 LJ
0.639 LW
N
236.366 88.002 M
234.163 86.193 L
236.958 86.752 L
S
GR
GS
[0.78257 0 0 0.78197 0 0.22835] CT
1 0 0 RC
1 LJ
0.639 LW
N
260.333 208.891 M
254.826 211.923 L
258.258 206.657 L
S
GR
GS
[0.78257 0 0 0.78197 0 0.22835] CT
1 0 0 RC
1 LJ
0.639 LW
N
266.926 190.384 M
264.564 194.494 L
264.714 189.757 L
S
GR
GS
[0.78257 0 0 0.78197 0 0.22835] CT
1 0 0 RC
1 LJ
0.639 LW
N
272.691 168.134 M
273.764 171.412 L
271.275 169.024 L
S
GR
GS
[0.78257 0 0 0.78197 0 0.22835] CT
1 0 0 RC
1 LJ
0.639 LW
N
275.198 143.823 M
278.545 144.71 L
275.175 145.502 L
S
GR
GS
[0.78257 0 0 0.78197 0 0.22835] CT
1 0 0 RC
1 LJ
0.639 LW
N
273.389 120.001 M
276.891 117.946 L
274.768 121.407 L
S
GR
GS
[0.78257 0 0 0.78197 0 0.22835] CT
1 0 0 RC
1 LJ
0.639 LW
N
268.027 99.014 M
269.501 94.707 L
270.227 99.201 L
S
GR
GS
[0.78257 0 0 0.78197 0 0.22835] CT
1 0 0 RC
1 LJ
0.639 LW
N
261.373 82.012 M
259.49 77.092 L
263.466 80.547 L
S
GR
GS
[0.78257 0 0 0.78197 0 0.22835] CT
1 0 0 RC
1 LJ
0.639 LW
N
55.316 199.35 M
53.698 214.188 L
S
GR
GS
[0.78257 0 0 0.78197 0 0.22835] CT
1 0 0 RC
1 LJ
0.639 LW
N
55.316 181.089 M
48.55 197.191 L
S
GR
GS
[0.78257 0 0 0.78197 0 0.22835] CT
1 0 0 RC
1 LJ
0.639 LW
N
55.316 162.827 M
43.687 173.403 L
S
GR
GS
[0.78257 0 0 0.78197 0 0.22835] CT
1 0 0 RC
1 LJ
0.639 LW
N
55.316 144.565 M
41.989 145.121 L
S
GR
GS
[0.78257 0 0 0.78197 0 0.22835] CT
1 0 0 RC
1 LJ
0.639 LW
N
55.316 126.304 M
42.034 116.659 L
S
GR
GS
[0.78257 0 0 0.78197 0 0.22835] CT
1 0 0 RC
1 LJ
0.639 LW
N
55.316 108.042 M
45.941 92.23 L
S
GR
GS
[0.78257 0 0 0.78197 0 0.22835] CT
1 0 0 RC
1 LJ
0.639 LW
N
55.316 89.78 M
51.233 74.469 L
S
GR
GS
[0.78257 0 0 0.78197 0 0.22835] CT
1 0 0 RC
1 LJ
0.639 LW
N
81.947 199.35 M
89.957 208.421 L
S
GR
GS
[0.78257 0 0 0.78197 0 0.22835] CT
1 0 0 RC
1 LJ
0.639 LW
N
81.947 181.089 M
76.684 190.326 L
S
GR
GS
[0.78257 0 0 0.78197 0 0.22835] CT
1 0 0 RC
1 LJ
0.639 LW
N
81.947 162.827 M
64.146 168.335 L
S
GR
GS
[0.78257 0 0 0.78197 0 0.22835] CT
1 0 0 RC
1 LJ
0.639 LW
N
81.947 144.565 M
57.629 144.021 L
S
GR
GS
[0.78257 0 0 0.78197 0 0.22835] CT
1 0 0 RC
1 LJ
0.639 LW
N
81.947 126.304 M
59.883 119.937 L
S
GR
GS
[0.78257 0 0 0.78197 0 0.22835] CT
1 0 0 RC
1 LJ
0.639 LW
N
81.947 108.042 M
69.956 98.538 L
S
GR
GS
[0.78257 0 0 0.78197 0 0.22835] CT
1 0 0 RC
1 LJ
0.639 LW
N
81.947 89.78 M
83.601 81.146 L
S
GR
GS
[0.78257 0 0 0.78197 0 0.22835] CT
1 0 0 RC
1 LJ
0.639 LW
N
108.579 199.35 M
122.838 199.32 L
S
GR
GS
[0.78257 0 0 0.78197 0 0.22835] CT
1 0 0 RC
1 LJ
0.639 LW
N
108.579 181.089 M
107.038 179.492 L
S
GR
GS
[0.78257 0 0 0.78197 0 0.22835] CT
1 0 0 RC
1 LJ
0.639 LW
N
108.579 162.827 M
92.112 160.337 L
S
GR
GS
[0.78257 0 0 0.78197 0 0.22835] CT
1 0 0 RC
1 LJ
0.639 LW
N
108.579 144.565 M
84.355 142.232 L
S
GR
GS
[0.78257 0 0 0.78197 0 0.22835] CT
1 0 0 RC
1 LJ
0.639 LW
N
108.579 126.304 M
87.037 125.111 L
S
GR
GS
[0.78257 0 0 0.78197 0 0.22835] CT
1 0 0 RC
1 LJ
0.639 LW
N
108.579 108.042 M
99.029 108.493 L
S
GR
GS
[0.78257 0 0 0.78197 0 0.22835] CT
1 0 0 RC
1 LJ
0.639 LW
N
108.579 89.78 M
115.272 91.685 L
S
GR
GS
[0.78257 0 0 0.78197 0 0.22835] CT
1 0 0 RC
1 LJ
0.639 LW
N
135.211 199.35 M
149.706 190.722 L
S
GR
GS
[0.78257 0 0 0.78197 0 0.22835] CT
1 0 0 RC
1 LJ
0.639 LW
N
135.211 181.089 M
138.042 169.257 L
S
GR
GS
[0.78257 0 0 0.78197 0 0.22835] CT
1 0 0 RC
1 LJ
0.639 LW
N
135.211 162.827 M
127.022 152.781 L
S
GR
GS
[0.78257 0 0 0.78197 0 0.22835] CT
1 0 0 RC
1 LJ
0.639 LW
N
135.211 144.565 M
121.296 140.542 L
S
GR
GS
[0.78257 0 0 0.78197 0 0.22835] CT
1 0 0 RC
1 LJ
0.639 LW
N
135.211 126.304 M
123.276 129.999 L
S
GR
GS
[0.78257 0 0 0.78197 0 0.22835] CT
1 0 0 RC
1 LJ
0.639 LW
N
135.211 108.042 M
132.129 117.898 L
S
GR
GS
[0.78257 0 0 0.78197 0 0.22835] CT
1 0 0 RC
1 LJ
0.639 LW
N
135.211 89.78 M
144.12 101.641 L
S
GR
GS
[0.78257 0 0 0.78197 0 0.22835] CT
1 0 0 RC
1 LJ
0.639 LW
N
161.842 199.35 M
170.461 186.254 L
S
GR
GS
[0.78257 0 0 0.78197 0 0.22835] CT
1 0 0 RC
1 LJ
0.639 LW
N
161.842 181.089 M
167.851 163.937 L
S
GR
GS
[0.78257 0 0 0.78197 0 0.22835] CT
1 0 0 RC
1 LJ
0.639 LW
N
161.842 162.827 M
165.386 148.854 L
S
GR
GS
[0.78257 0 0 0.78197 0 0.22835] CT
1 0 0 RC
1 LJ
0.639 LW
N
161.842 144.565 M
164.105 139.663 L
S
GR
GS
[0.78257 0 0 0.78197 0 0.22835] CT
1 0 0 RC
1 LJ
0.639 LW
N
161.842 126.304 M
164.548 132.54 L
S
GR
GS
[0.78257 0 0 0.78197 0 0.22835] CT
1 0 0 RC
1 LJ
0.639 LW
N
161.842 108.042 M
166.528 122.787 L
S
GR
GS
[0.78257 0 0 0.78197 0 0.22835] CT
1 0 0 RC
1 LJ
0.639 LW
N
161.842 89.78 M
169.211 106.815 L
S
GR
GS
[0.78257 0 0 0.78197 0 0.22835] CT
1 0 0 RC
1 LJ
0.639 LW
N
188.474 199.35 M
187.581 187.799 L
S
GR
GS
[0.78257 0 0 0.78197 0 0.22835] CT
1 0 0 RC
1 LJ
0.639 LW
N
188.474 181.089 M
195.127 165.777 L
S
GR
GS
[0.78257 0 0 0.78197 0 0.22835] CT
1 0 0 RC
1 LJ
0.639 LW
N
188.474 162.827 M
202.255 150.212 L
S
GR
GS
[0.78257 0 0 0.78197 0 0.22835] CT
1 0 0 RC
1 LJ
0.639 LW
N
188.474 144.565 M
205.96 139.967 L
S
GR
GS
[0.78257 0 0 0.78197 0 0.22835] CT
1 0 0 RC
1 LJ
0.639 LW
N
188.474 126.304 M
204.679 131.661 L
S
GR
GS
[0.78257 0 0 0.78197 0 0.22835] CT
1 0 0 RC
1 LJ
0.639 LW
N
188.474 108.042 M
198.952 121.096 L
S
GR
GS
[0.78257 0 0 0.78197 0 0.22835] CT
1 0 0 RC
1 LJ
0.639 LW
N
188.474 89.78 M
191.194 105.026 L
S
GR
GS
[0.78257 0 0 0.78197 0 0.22835] CT
1 0 0 RC
1 LJ
0.639 LW
N
215.105 199.35 M
205.077 194.707 L
S
GR
GS
[0.78257 0 0 0.78197 0 0.22835] CT
1 0 0 RC
1 LJ
0.639 LW
N
215.105 181.089 M
219.596 174 L
S
GR
GS
[0.78257 0 0 0.78197 0 0.22835] CT
1 0 0 RC
1 LJ
0.639 LW
N
215.105 162.827 M
233.312 156.282 L
S
GR
GS
[0.78257 0 0 0.78197 0 0.22835] CT
1 0 0 RC
1 LJ
0.639 LW
N
215.105 144.565 M
240.44 141.325 L
S
GR
GS
[0.78257 0 0 0.78197 0 0.22835] CT
1 0 0 RC
1 LJ
0.639 LW
N
215.105 126.304 M
237.975 127.734 L
S
GR
GS
[0.78257 0 0 0.78197 0 0.22835] CT
1 0 0 RC
1 LJ
0.639 LW
N
215.105 108.042 M
226.956 113.54 L
S
GR
GS
[0.78257 0 0 0.78197 0 0.22835] CT
1 0 0 RC
1 LJ
0.639 LW
N
215.105 89.78 M
212.03 97.027 L
S
GR
GS
[0.78257 0 0 0.78197 0 0.22835] CT
1 0 0 RC
1 LJ
0.639 LW
N
241.737 199.35 M
226.803 204.063 L
S
GR
GS
[0.78257 0 0 0.78197 0 0.22835] CT
1 0 0 RC
1 LJ
0.639 LW
N
241.737 181.089 M
242.172 185.138 L
S
GR
GS
[0.78257 0 0 0.78197 0 0.22835] CT
1 0 0 RC
1 LJ
0.639 LW
N
241.737 162.827 M
256.691 164.505 L
S
GR
GS
[0.78257 0 0 0.78197 0 0.22835] CT
1 0 0 RC
1 LJ
0.639 LW
N
241.737 144.565 M
264.237 143.165 L
S
GR
GS
[0.78257 0 0 0.78197 0 0.22835] CT
1 0 0 RC
1 LJ
0.639 LW
N
241.737 126.304 M
261.627 122.415 L
S
GR
GS
[0.78257 0 0 0.78197 0 0.22835] CT
1 0 0 RC
1 LJ
0.639 LW
N
241.737 108.042 M
249.963 103.305 L
S
GR
GS
[0.78257 0 0 0.78197 0 0.22835] CT
1 0 0 RC
1 LJ
0.639 LW
N
241.737 89.78 M
234.163 86.193 L
S
GR
GS
[0.78257 0 0 0.78197 0 0.22835] CT
1 0 0 RC
1 LJ
0.639 LW
N
268.368 199.35 M
254.826 211.923 L
S
GR
GS
[0.78257 0 0 0.78197 0 0.22835] CT
1 0 0 RC
1 LJ
0.639 LW
N
268.368 181.089 M
264.564 194.494 L
S
GR
GS
[0.78257 0 0 0.78197 0 0.22835] CT
1 0 0 RC
1 LJ
0.639 LW
N
268.368 162.827 M
273.764 171.412 L
S
GR
GS
[0.78257 0 0 0.78197 0 0.22835] CT
1 0 0 RC
1 LJ
0.639 LW
N
268.368 144.565 M
278.545 144.71 L
S
GR
GS
[0.78257 0 0 0.78197 0 0.22835] CT
1 0 0 RC
1 LJ
0.639 LW
N
268.368 126.304 M
276.891 117.946 L
S
GR
GS
[0.78257 0 0 0.78197 0 0.22835] CT
1 0 0 RC
1 LJ
0.639 LW
N
268.368 108.042 M
269.501 94.707 L
S
GR
GS
[0.78257 0 0 0.78197 0 0.22835] CT
1 0 0 RC
1 LJ
0.639 LW
N
268.368 89.78 M
259.49 77.092 L
S
GR
GS
[0.78257 0 0 0.78197 0 0.22835] CT
0.149 GC
2 setlinecap
1 LJ
0.639 LW
N
42 226.743 M
295 226.743 L
S
GR
GS
[0.78257 0 0 0.78197 0 0.22835] CT
0.149 GC
2 setlinecap
1 LJ
0.639 LW
N
42 53.257 M
295 53.257 L
S
GR
GS
[0.78257 0 0 0.78197 0 0.22835] CT
0.149 GC
2 setlinecap
1 LJ
0.639 LW
N
42 226.743 M
42 224.213 L
S
GR
GS
[0.78257 0 0 0.78197 0 0.22835] CT
0.149 GC
2 setlinecap
1 LJ
0.639 LW
N
88.019 226.743 M
88.019 224.213 L
S
GR
GS
[0.78257 0 0 0.78197 0 0.22835] CT
0.149 GC
2 setlinecap
1 LJ
0.639 LW
N
134.037 226.743 M
134.037 224.213 L
S
GR
GS
[0.78257 0 0 0.78197 0 0.22835] CT
0.149 GC
2 setlinecap
1 LJ
0.639 LW
N
180.056 226.743 M
180.056 224.213 L
S
GR
GS
[0.78257 0 0 0.78197 0 0.22835] CT
0.149 GC
2 setlinecap
1 LJ
0.639 LW
N
226.074 226.743 M
226.074 224.213 L
S
GR
GS
[0.78257 0 0 0.78197 0 0.22835] CT
0.149 GC
2 setlinecap
1 LJ
0.639 LW
N
272.093 226.743 M
272.093 224.213 L
S
GR
GS
[0.78257 0 0 0.78197 0 0.22835] CT
0.149 GC
2 setlinecap
1 LJ
0.639 LW
N
42 53.257 M
42 55.787 L
S
GR
GS
[0.78257 0 0 0.78197 0 0.22835] CT
0.149 GC
2 setlinecap
1 LJ
0.639 LW
N
88.019 53.257 M
88.019 55.787 L
S
GR
GS
[0.78257 0 0 0.78197 0 0.22835] CT
0.149 GC
2 setlinecap
1 LJ
0.639 LW
N
134.037 53.257 M
134.037 55.787 L
S
GR
GS
[0.78257 0 0 0.78197 0 0.22835] CT
0.149 GC
2 setlinecap
1 LJ
0.639 LW
N
180.056 53.257 M
180.056 55.787 L
S
GR
GS
[0.78257 0 0 0.78197 0 0.22835] CT
0.149 GC
2 setlinecap
1 LJ
0.639 LW
N
226.074 53.257 M
226.074 55.787 L
S
GR
GS
[0.78257 0 0 0.78197 0 0.22835] CT
0.149 GC
2 setlinecap
1 LJ
0.639 LW
N
272.093 53.257 M
272.093 55.787 L
S
GR
GS
[0.78257 0 0 0.78197 32.86798 180.93196] CT
0.149 GC
/Helvetica 12.139 F
GS
[1 0 0 1 0 0] CT
-4 12 moveto 
1 -1 scale
(0) t 
GR
GR
GS
[0.78257 0 0 0.78197 68.88073 180.93196] CT
0.149 GC
/Helvetica 12.139 F
GS
[1 0 0 1 0 0] CT
-4 12 moveto 
1 -1 scale
(1) t 
GR
GR
GS
[0.78257 0 0 0.78197 104.89348 180.93196] CT
0.149 GC
/Helvetica 12.139 F
GS
[1 0 0 1 0 0] CT
-4 12 moveto 
1 -1 scale
(2) t 
GR
GR
GS
[0.78257 0 0 0.78197 140.90622 180.93196] CT
0.149 GC
/Helvetica 12.139 F
GS
[1 0 0 1 0 0] CT
-4 12 moveto 
1 -1 scale
(3) t 
GR
GR
GS
[0.78257 0 0 0.78197 176.91898 180.93196] CT
0.149 GC
/Helvetica 12.139 F
GS
[1 0 0 1 0 0] CT
-4 12 moveto 
1 -1 scale
(4) t 
GR
GR
GS
[0.78257 0 0 0.78197 212.93171 180.93196] CT
0.149 GC
/Helvetica 12.139 F
GS
[1 0 0 1 0 0] CT
-4 12 moveto 
1 -1 scale
(5) t 
GR
GR
GS
[0.78257 0 0 0.78197 0 0.22835] CT
0.149 GC
2 setlinecap
1 LJ
0.639 LW
N
42 226.743 M
42 53.257 L
S
GR
GS
[0.78257 0 0 0.78197 0 0.22835] CT
0.149 GC
2 setlinecap
1 LJ
0.639 LW
N
295 226.743 M
295 53.257 L
S
GR
GS
[0.78257 0 0 0.78197 0 0.22835] CT
0.149 GC
2 setlinecap
1 LJ
0.639 LW
N
42 226.743 M
44.53 226.743 L
S
GR
GS
[0.78257 0 0 0.78197 0 0.22835] CT
0.149 GC
2 setlinecap
1 LJ
0.639 LW
N
42 180.724 M
44.53 180.724 L
S
GR
GS
[0.78257 0 0 0.78197 0 0.22835] CT
0.149 GC
2 setlinecap
1 LJ
0.639 LW
N
42 134.706 M
44.53 134.706 L
S
GR
GS
[0.78257 0 0 0.78197 0 0.22835] CT
0.149 GC
2 setlinecap
1 LJ
0.639 LW
N
42 88.687 M
44.53 88.687 L
S
GR
GS
[0.78257 0 0 0.78197 0 0.22835] CT
0.149 GC
2 setlinecap
1 LJ
0.639 LW
N
295 226.743 M
292.47 226.743 L
S
GR
GS
[0.78257 0 0 0.78197 0 0.22835] CT
0.149 GC
2 setlinecap
1 LJ
0.639 LW
N
295 180.724 M
292.47 180.724 L
S
GR
GS
[0.78257 0 0 0.78197 0 0.22835] CT
0.149 GC
2 setlinecap
1 LJ
0.639 LW
N
295 134.706 M
292.47 134.706 L
S
GR
GS
[0.78257 0 0 0.78197 0 0.22835] CT
0.149 GC
2 setlinecap
1 LJ
0.639 LW
N
295 88.687 M
292.47 88.687 L
S
GR
GS
[0.78257 0 0 0.78197 29.46814 177.53474] CT
0.149 GC
/Helvetica 12.139 F
GS
[1 0 0 1 0 0] CT
-8 4.5 moveto 
1 -1 scale
(0) t 
GR
GR
GS
[0.78257 0 0 0.78197 29.46814 141.54958] CT
0.149 GC
/Helvetica 12.139 F
GS
[1 0 0 1 0 0] CT
-8 4.5 moveto 
1 -1 scale
(1) t 
GR
GR
GS
[0.78257 0 0 0.78197 29.46814 105.56443] CT
0.149 GC
/Helvetica 12.139 F
GS
[1 0 0 1 0 0] CT
-8 4.5 moveto 
1 -1 scale
(2) t 
GR
GR
GS
[0.78257 0 0 0.78197 29.46814 69.57927] CT
0.149 GC
/Helvetica 12.139 F
GS
[1 0 0 1 0 0] CT
-8 4.5 moveto 
1 -1 scale
(3) t 
GR
GR
%%Trailer
%%Pages: 1
%%EOF
