%!PS-Adobe-3.0 EPSF-3.0
%%Creator: (MATLAB, The Mathworks, Inc. Version 9.10.0.1684407 \(R2021a\) Update 3. Operating System: Linux)
%%Title: /home/adoan/Code/PRoSA_PI-ESN_Git/pi-esn/Results/MFE_results/Figures/FIG1_6.eps
%%CreationDate: 2021-07-21T18:45:28
%%Pages: (atend)
%%BoundingBox:     0     0   255   227
%%LanguageLevel: 3
%%EndComments
%%BeginProlog
%%BeginResource: procset (Apache XML Graphics Std ProcSet) 1.2 0
%%Version: 1.2 0
%%Copyright: (Copyright 2001-2003,2010 The Apache Software Foundation. License terms: http://www.apache.org/licenses/LICENSE-2.0)
/bd{bind def}bind def
/ld{load def}bd
/GR/grestore ld
/GS/gsave ld
/RM/rmoveto ld
/C/curveto ld
/t/show ld
/L/lineto ld
/ML/setmiterlimit ld
/CT/concat ld
/f/fill ld
/N/newpath ld
/S/stroke ld
/CC/setcmykcolor ld
/A/ashow ld
/cp/closepath ld
/RC/setrgbcolor ld
/LJ/setlinejoin ld
/GC/setgray ld
/LW/setlinewidth ld
/M/moveto ld
/re {4 2 roll M
1 index 0 rlineto
0 exch rlineto
neg 0 rlineto
cp } bd
/_ctm matrix def
/_tm matrix def
/BT { _ctm currentmatrix pop matrix _tm copy pop 0 0 moveto } bd
/ET { _ctm setmatrix } bd
/iTm { _ctm setmatrix _tm concat } bd
/Tm { _tm astore pop iTm 0 0 moveto } bd
/ux 0.0 def
/uy 0.0 def
/F {
  /Tp exch def
  /Tf exch def
  Tf findfont Tp scalefont setfont
  /cf Tf def  /cs Tp def
} bd
/ULS {currentpoint /uy exch def /ux exch def} bd
/ULE {
  /Tcx currentpoint pop def
  gsave
  newpath
  cf findfont cs scalefont dup
  /FontMatrix get 0 get /Ts exch def /FontInfo get dup
  /UnderlinePosition get Ts mul /To exch def
  /UnderlineThickness get Ts mul /Tt exch def
  ux uy To add moveto  Tcx uy To add lineto
  Tt setlinewidth stroke
  grestore
} bd
/OLE {
  /Tcx currentpoint pop def
  gsave
  newpath
  cf findfont cs scalefont dup
  /FontMatrix get 0 get /Ts exch def /FontInfo get dup
  /UnderlinePosition get Ts mul /To exch def
  /UnderlineThickness get Ts mul /Tt exch def
  ux uy To add cs add moveto Tcx uy To add cs add lineto
  Tt setlinewidth stroke
  grestore
} bd
/SOE {
  /Tcx currentpoint pop def
  gsave
  newpath
  cf findfont cs scalefont dup
  /FontMatrix get 0 get /Ts exch def /FontInfo get dup
  /UnderlinePosition get Ts mul /To exch def
  /UnderlineThickness get Ts mul /Tt exch def
  ux uy To add cs 10 mul 26 idiv add moveto Tcx uy To add cs 10 mul 26 idiv add lineto
  Tt setlinewidth stroke
  grestore
} bd
/QT {
/Y22 exch store
/X22 exch store
/Y21 exch store
/X21 exch store
currentpoint
/Y21 load 2 mul add 3 div exch
/X21 load 2 mul add 3 div exch
/X21 load 2 mul /X22 load add 3 div
/Y21 load 2 mul /Y22 load add 3 div
/X22 load /Y22 load curveto
} bd
/SSPD {
dup length /d exch dict def
{
/v exch def
/k exch def
currentpagedevice k known {
/cpdv currentpagedevice k get def
v cpdv ne {
/upd false def
/nullv v type /nulltype eq def
/nullcpdv cpdv type /nulltype eq def
nullv nullcpdv or
{
/upd true def
} {
/sametype v type cpdv type eq def
sametype {
v type /arraytype eq {
/vlen v length def
/cpdvlen cpdv length def
vlen cpdvlen eq {
0 1 vlen 1 sub {
/i exch def
/obj v i get def
/cpdobj cpdv i get def
obj cpdobj ne {
/upd true def
exit
} if
} for
} {
/upd true def
} ifelse
} {
v type /dicttype eq {
v {
/dv exch def
/dk exch def
/cpddv cpdv dk get def
dv cpddv ne {
/upd true def
exit
} if
} forall
} {
/upd true def
} ifelse
} ifelse
} if
} ifelse
upd true eq {
d k v put
} if
} if
} if
} forall
d length 0 gt {
d setpagedevice
} if
} bd
/RE { % /NewFontName [NewEncodingArray] /FontName RE -
  findfont dup length dict begin
  {
    1 index /FID ne
    {def} {pop pop} ifelse
  } forall
  /Encoding exch def
  /FontName 1 index def
  currentdict definefont pop
  end
} bind def
%%EndResource
%%BeginResource: procset (Apache XML Graphics EPS ProcSet) 1.0 0
%%Version: 1.0 0
%%Copyright: (Copyright 2002-2003 The Apache Software Foundation. License terms: http://www.apache.org/licenses/LICENSE-2.0)
/BeginEPSF { %def
/b4_Inc_state save def         % Save state for cleanup
/dict_count countdictstack def % Count objects on dict stack
/op_count count 1 sub def      % Count objects on operand stack
userdict begin                 % Push userdict on dict stack
/showpage { } def              % Redefine showpage, { } = null proc
0 setgray 0 setlinecap         % Prepare graphics state
1 setlinewidth 0 setlinejoin
10 setmiterlimit [ ] 0 setdash newpath
/languagelevel where           % If level not equal to 1 then
{pop languagelevel             % set strokeadjust and
1 ne                           % overprint to their defaults.
{false setstrokeadjust false setoverprint
} if
} if
} bd
/EndEPSF { %def
count op_count sub {pop} repeat            % Clean up stacks
countdictstack dict_count sub {end} repeat
b4_Inc_state restore
} bd
%%EndResource
%FOPBeginFontDict
%%IncludeResource: font Courier-Oblique
%%IncludeResource: font Courier-BoldOblique
%%IncludeResource: font Courier-Bold
%%IncludeResource: font ZapfDingbats
%%IncludeResource: font Symbol
%%IncludeResource: font Helvetica
%%IncludeResource: font Helvetica-Oblique
%%IncludeResource: font Helvetica-Bold
%%IncludeResource: font Helvetica-BoldOblique
%%IncludeResource: font Times-Roman
%%IncludeResource: font Times-Italic
%%IncludeResource: font Times-Bold
%%IncludeResource: font Times-BoldItalic
%%IncludeResource: font Courier
%FOPEndFontDict
%%BeginResource: encoding WinAnsiEncoding
/WinAnsiEncoding [
/.notdef /.notdef /.notdef /.notdef /.notdef
/.notdef /.notdef /.notdef /.notdef /.notdef
/.notdef /.notdef /.notdef /.notdef /.notdef
/.notdef /.notdef /.notdef /.notdef /.notdef
/.notdef /.notdef /.notdef /.notdef /.notdef
/.notdef /.notdef /.notdef /.notdef /.notdef
/.notdef /.notdef /space /exclam /quotedbl
/numbersign /dollar /percent /ampersand /quotesingle
/parenleft /parenright /asterisk /plus /comma
/hyphen /period /slash /zero /one
/two /three /four /five /six
/seven /eight /nine /colon /semicolon
/less /equal /greater /question /at
/A /B /C /D /E
/F /G /H /I /J
/K /L /M /N /O
/P /Q /R /S /T
/U /V /W /X /Y
/Z /bracketleft /backslash /bracketright /asciicircum
/underscore /quoteleft /a /b /c
/d /e /f /g /h
/i /j /k /l /m
/n /o /p /q /r
/s /t /u /v /w
/x /y /z /braceleft /bar
/braceright /asciitilde /bullet /Euro /bullet
/quotesinglbase /florin /quotedblbase /ellipsis /dagger
/daggerdbl /circumflex /perthousand /Scaron /guilsinglleft
/OE /bullet /Zcaron /bullet /bullet
/quoteleft /quoteright /quotedblleft /quotedblright /bullet
/endash /emdash /asciitilde /trademark /scaron
/guilsinglright /oe /bullet /zcaron /Ydieresis
/space /exclamdown /cent /sterling /currency
/yen /brokenbar /section /dieresis /copyright
/ordfeminine /guillemotleft /logicalnot /sfthyphen /registered
/macron /degree /plusminus /twosuperior /threesuperior
/acute /mu /paragraph /middot /cedilla
/onesuperior /ordmasculine /guillemotright /onequarter /onehalf
/threequarters /questiondown /Agrave /Aacute /Acircumflex
/Atilde /Adieresis /Aring /AE /Ccedilla
/Egrave /Eacute /Ecircumflex /Edieresis /Igrave
/Iacute /Icircumflex /Idieresis /Eth /Ntilde
/Ograve /Oacute /Ocircumflex /Otilde /Odieresis
/multiply /Oslash /Ugrave /Uacute /Ucircumflex
/Udieresis /Yacute /Thorn /germandbls /agrave
/aacute /acircumflex /atilde /adieresis /aring
/ae /ccedilla /egrave /eacute /ecircumflex
/edieresis /igrave /iacute /icircumflex /idieresis
/eth /ntilde /ograve /oacute /ocircumflex
/otilde /odieresis /divide /oslash /ugrave
/uacute /ucircumflex /udieresis /yacute /thorn
/ydieresis
] def
%%EndResource
%FOPBeginFontReencode
/Courier-Oblique findfont
dup length dict begin
  {1 index /FID ne {def} {pop pop} ifelse} forall
  /Encoding WinAnsiEncoding def
  currentdict
end
/Courier-Oblique exch definefont pop
/Courier-BoldOblique findfont
dup length dict begin
  {1 index /FID ne {def} {pop pop} ifelse} forall
  /Encoding WinAnsiEncoding def
  currentdict
end
/Courier-BoldOblique exch definefont pop
/Courier-Bold findfont
dup length dict begin
  {1 index /FID ne {def} {pop pop} ifelse} forall
  /Encoding WinAnsiEncoding def
  currentdict
end
/Courier-Bold exch definefont pop
/Helvetica findfont
dup length dict begin
  {1 index /FID ne {def} {pop pop} ifelse} forall
  /Encoding WinAnsiEncoding def
  currentdict
end
/Helvetica exch definefont pop
/Helvetica-Oblique findfont
dup length dict begin
  {1 index /FID ne {def} {pop pop} ifelse} forall
  /Encoding WinAnsiEncoding def
  currentdict
end
/Helvetica-Oblique exch definefont pop
/Helvetica-Bold findfont
dup length dict begin
  {1 index /FID ne {def} {pop pop} ifelse} forall
  /Encoding WinAnsiEncoding def
  currentdict
end
/Helvetica-Bold exch definefont pop
/Helvetica-BoldOblique findfont
dup length dict begin
  {1 index /FID ne {def} {pop pop} ifelse} forall
  /Encoding WinAnsiEncoding def
  currentdict
end
/Helvetica-BoldOblique exch definefont pop
/Times-Roman findfont
dup length dict begin
  {1 index /FID ne {def} {pop pop} ifelse} forall
  /Encoding WinAnsiEncoding def
  currentdict
end
/Times-Roman exch definefont pop
/Times-Italic findfont
dup length dict begin
  {1 index /FID ne {def} {pop pop} ifelse} forall
  /Encoding WinAnsiEncoding def
  currentdict
end
/Times-Italic exch definefont pop
/Times-Bold findfont
dup length dict begin
  {1 index /FID ne {def} {pop pop} ifelse} forall
  /Encoding WinAnsiEncoding def
  currentdict
end
/Times-Bold exch definefont pop
/Times-BoldItalic findfont
dup length dict begin
  {1 index /FID ne {def} {pop pop} ifelse} forall
  /Encoding WinAnsiEncoding def
  currentdict
end
/Times-BoldItalic exch definefont pop
/Courier findfont
dup length dict begin
  {1 index /FID ne {def} {pop pop} ifelse} forall
  /Encoding WinAnsiEncoding def
  currentdict
end
/Courier exch definefont pop
%FOPEndFontReencode
%%EndProlog
%%Page: 1 1
%%PageBoundingBox: 0 0 255 227
%%BeginPageSetup
[1 0 0 -1 0 227] CT
%%EndPageSetup
GS
[0.78257 0 0 0.78197 0 0.22835] CT
1 GC
N
0 0 326 290 re
f
GR
GS
[0.78257 0 0 0.78197 0 0.22835] CT
1 GC
N
0 0 326 290 re
f
GR
GS
[0.78257 0 0 0.78197 0 0.22835] CT
1 GC
N
42 226.743 M
295 226.743 L
295 53.257 L
42 53.257 L
cp
f
GR
GS
[0.78257 0 0 0.78197 0 0.22835] CT
0.239 0.149 0.659 RC
N
95.946 226.743 M
108.579 226.743 L
121.895 226.743 L
123.285 226.743 L
135.211 226.743 L
138.358 226.743 L
136.141 217.612 L
135.211 216.398 L
123.028 208.481 L
121.895 208.099 L
108.579 207.086 L
100.039 208.481 L
95.263 209.721 L
84.166 217.612 L
81.947 222.895 L
80.924 226.743 L
81.947 226.743 L
95.263 226.743 L
cp
108.579 53.257 M
95.946 53.257 L
95.263 53.257 L
81.947 53.257 L
80.924 53.257 L
81.947 57.105 L
84.166 62.388 L
95.263 70.279 L
100.039 71.519 L
108.579 72.914 L
121.895 71.901 L
123.028 71.519 L
135.211 63.602 L
136.141 62.388 L
138.358 53.257 L
135.211 53.257 L
123.285 53.257 L
121.895 53.257 L
cp
202.162 153.696 M
215.105 160.086 L
228.421 161.338 L
241.737 158.767 L
251.235 153.696 L
255.053 149.232 L
257.458 144.565 L
257.458 135.435 L
255.053 130.768 L
251.235 126.304 L
241.737 121.233 L
228.421 118.662 L
215.105 119.914 L
202.162 126.304 L
201.789 126.737 L
197.643 135.435 L
197.643 144.565 L
201.789 153.263 L
cp
f
GR
GS
[0.78257 0 0 0.78197 0 0.22835] CT
0.278 0.259 0.902 RC
N
72.897 217.612 M
70.908 226.743 L
80.924 226.743 L
81.947 222.895 L
84.166 217.612 L
95.263 209.721 L
100.039 208.481 L
108.579 207.086 L
121.895 208.099 L
123.028 208.481 L
135.211 216.398 L
136.141 217.612 L
138.358 226.743 L
148.526 226.743 L
148.923 226.743 L
148.526 223.638 L
147.493 217.612 L
141.7 208.481 L
135.211 204.019 L
121.895 200.399 L
108.579 200.011 L
95.263 202.01 L
81.947 207.147 L
79.991 208.481 L
cp
198.92 162.827 M
201.789 164.382 L
215.105 167.583 L
228.421 167.953 L
241.737 166.241 L
252.303 162.827 L
255.053 161.425 L
263.372 153.696 L
267.296 144.565 L
267.296 135.435 L
263.372 126.304 L
255.053 118.575 L
252.303 117.173 L
241.737 113.759 L
228.421 112.047 L
215.105 112.417 L
201.789 115.618 L
198.92 117.173 L
190.32 126.304 L
188.474 131.601 L
187.533 135.435 L
187.533 144.565 L
188.474 148.399 L
190.32 153.696 L
cp
215.105 160.086 M
202.162 153.696 L
201.789 153.263 L
197.643 144.565 L
197.643 135.435 L
201.789 126.737 L
202.162 126.304 L
215.105 119.914 L
228.421 118.662 L
241.737 121.233 L
251.235 126.304 L
255.053 130.768 L
257.458 135.435 L
257.458 144.565 L
255.053 149.232 L
251.235 153.696 L
241.737 158.767 L
228.421 161.338 L
cp
79.991 71.519 M
81.947 72.853 L
95.263 77.99 L
108.579 79.989 L
121.895 79.601 L
135.211 75.981 L
141.7 71.519 L
147.493 62.388 L
148.526 56.362 L
148.923 53.257 L
148.526 53.257 L
138.358 53.257 L
136.141 62.388 L
135.211 63.602 L
123.028 71.519 L
121.895 71.901 L
108.579 72.914 L
100.039 71.519 L
95.263 70.279 L
84.166 62.388 L
81.947 57.105 L
80.924 53.257 L
70.908 53.257 L
72.897 62.388 L
cp
f
GR
GS
[0.78257 0 0 0.78197 0 0.22835] CT
0.263 0.4 0.992 RC
N
63.529 217.612 M
62.343 226.743 L
68.632 226.743 L
70.908 226.743 L
72.897 217.612 L
79.991 208.481 L
81.947 207.147 L
95.263 202.01 L
108.579 200.011 L
121.895 200.399 L
135.211 204.019 L
141.7 208.481 L
147.493 217.612 L
148.526 223.638 L
148.923 226.743 L
157.392 226.743 L
156.693 217.612 L
154.09 208.481 L
148.526 200.921 L
146.245 199.35 L
135.211 195.402 L
121.895 194.007 L
108.579 194.197 L
95.263 195.643 L
81.947 198.848 L
80.695 199.35 L
68.632 207.56 L
67.816 208.481 L
cp
198.966 171.958 M
201.789 172.689 L
215.105 174.023 L
228.421 173.869 L
241.737 172.541 L
244.677 171.958 L
255.053 169.2 L
266.691 162.827 L
268.368 161.121 L
273.144 153.696 L
275.468 144.565 L
275.468 135.435 L
273.144 126.304 L
268.368 118.879 L
266.691 117.173 L
255.053 110.8 L
244.677 108.042 L
241.737 107.459 L
228.421 106.131 L
215.105 105.977 L
201.789 107.311 L
198.966 108.042 L
188.474 112.907 L
184.514 117.173 L
180.678 126.304 L
179.296 135.435 L
179.296 144.565 L
180.678 153.696 L
184.514 162.827 L
188.474 167.093 L
cp
201.789 164.382 M
198.92 162.827 L
190.32 153.696 L
188.474 148.399 L
187.533 144.565 L
187.533 135.435 L
188.474 131.601 L
190.32 126.304 L
198.92 117.173 L
201.789 115.618 L
215.105 112.417 L
228.421 112.047 L
241.737 113.759 L
252.303 117.173 L
255.053 118.575 L
263.372 126.304 L
267.296 135.435 L
267.296 144.565 L
263.372 153.696 L
255.053 161.425 L
252.303 162.827 L
241.737 166.241 L
228.421 167.953 L
215.105 167.583 L
cp
80.695 80.65 M
81.947 81.152 L
95.263 84.357 L
108.579 85.803 L
121.895 85.993 L
135.211 84.598 L
146.245 80.65 L
148.526 79.079 L
154.09 71.519 L
156.693 62.388 L
157.392 53.257 L
148.923 53.257 L
148.526 56.362 L
147.493 62.388 L
141.7 71.519 L
135.211 75.981 L
121.895 79.601 L
108.579 79.989 L
95.263 77.99 L
81.947 72.853 L
79.991 71.519 L
72.897 62.388 L
70.908 53.257 L
68.632 53.257 L
62.343 53.257 L
63.529 62.388 L
67.816 71.519 L
68.632 72.44 L
cp
f
GR
GS
[0.78257 0 0 0.78197 0 0.22835] CT
0.173 0.549 0.949 RC
N
54.977 217.612 M
54.286 226.743 L
55.316 226.743 L
62.343 226.743 L
63.529 217.612 L
67.816 208.481 L
68.632 207.56 L
80.695 199.35 L
81.947 198.848 L
95.263 195.643 L
108.579 194.197 L
121.895 194.007 L
135.211 195.402 L
146.245 199.35 L
148.526 200.921 L
154.09 208.481 L
156.693 217.612 L
157.392 226.743 L
161.842 226.743 L
165.505 226.743 L
165.33 217.612 L
164.684 208.481 L
162.931 199.35 L
161.842 196.74 L
153.865 190.22 L
148.526 188.833 L
135.211 187.906 L
121.895 188.016 L
108.579 188.651 L
95.263 189.834 L
92.507 190.22 L
81.947 192.081 L
68.632 196.723 L
64.574 199.35 L
57.649 208.481 L
55.316 216.183 L
cp
175.507 171.958 M
188.474 179 L
201.789 179.963 L
215.105 179.866 L
228.421 179.238 L
241.737 178.061 L
255.053 175.969 L
267.778 171.958 L
268.368 171.664 L
278.149 162.827 L
281.684 154.591 L
281.966 153.696 L
283.303 144.565 L
283.303 135.435 L
281.966 126.304 L
281.684 125.409 L
278.149 117.173 L
268.368 108.336 L
267.778 108.042 L
255.053 104.031 L
241.737 101.939 L
228.421 100.762 L
215.105 100.134 L
201.789 100.037 L
188.474 101 L
175.507 108.042 L
175.158 108.677 L
172.709 117.173 L
171.763 126.304 L
171.416 135.435 L
171.416 144.565 L
171.763 153.696 L
172.709 162.827 L
175.158 171.323 L
cp
201.789 172.689 M
198.966 171.958 L
188.474 167.093 L
184.514 162.827 L
180.678 153.696 L
179.296 144.565 L
179.296 135.435 L
180.678 126.304 L
184.514 117.173 L
188.474 112.907 L
198.966 108.042 L
201.789 107.311 L
215.105 105.977 L
228.421 106.131 L
241.737 107.459 L
244.677 108.042 L
255.053 110.8 L
266.691 117.173 L
268.368 118.879 L
273.144 126.304 L
275.468 135.435 L
275.468 144.565 L
273.144 153.696 L
268.368 161.121 L
266.691 162.827 L
255.053 169.2 L
244.677 171.958 L
241.737 172.541 L
228.421 173.869 L
215.105 174.023 L
cp
92.507 89.78 M
95.263 90.166 L
108.579 91.349 L
121.895 91.984 L
135.211 92.094 L
148.526 91.167 L
153.865 89.78 L
161.842 83.26 L
162.931 80.65 L
164.684 71.519 L
165.33 62.388 L
165.505 53.257 L
161.842 53.257 L
157.392 53.257 L
156.693 62.388 L
154.09 71.519 L
148.526 79.079 L
146.245 80.65 L
135.211 84.598 L
121.895 85.993 L
108.579 85.803 L
95.263 84.357 L
81.947 81.152 L
80.695 80.65 L
68.632 72.44 L
67.816 71.519 L
63.529 62.388 L
62.343 53.257 L
55.316 53.257 L
54.286 53.257 L
54.977 62.388 L
55.316 63.817 L
57.649 71.519 L
64.574 80.65 L
68.632 83.277 L
81.947 87.919 L
cp
f
GR
GS
[0.78257 0 0 0.78197 0 0.22835] CT
0.106 0.667 0.871 RC
N
47.015 217.612 M
46.748 226.743 L
54.286 226.743 L
54.977 217.612 L
55.316 216.183 L
57.649 208.481 L
64.574 199.35 L
68.632 196.723 L
81.947 192.081 L
92.507 190.22 L
95.263 189.834 L
108.579 188.651 L
121.895 188.016 L
135.211 187.906 L
148.526 188.833 L
153.865 190.22 L
161.842 196.74 L
162.931 199.35 L
164.684 208.481 L
165.33 217.612 L
165.505 226.743 L
173.225 226.743 L
173.501 217.612 L
174.52 208.481 L
175.158 205.702 L
177.267 199.35 L
187.841 190.22 L
188.474 189.994 L
201.789 187.069 L
215.105 185.584 L
228.421 184.512 L
241.737 183.513 L
255.053 182.326 L
264.649 181.089 L
268.368 180.417 L
281.684 175.335 L
285.121 171.958 L
288.835 162.827 L
290.168 153.696 L
290.664 144.565 L
290.664 135.435 L
290.168 126.304 L
288.835 117.173 L
285.121 108.042 L
281.684 104.665 L
268.368 99.583 L
264.649 98.911 L
255.053 97.674 L
241.737 96.487 L
228.421 95.488 L
215.105 94.416 L
201.789 92.931 L
188.474 90.006 L
187.841 89.78 L
177.267 80.65 L
175.158 74.298 L
174.52 71.519 L
173.501 62.388 L
173.225 53.257 L
165.505 53.257 L
165.33 62.388 L
164.684 71.519 L
162.931 80.65 L
161.842 83.26 L
153.865 89.78 L
148.526 91.167 L
135.211 92.094 L
121.895 91.984 L
108.579 91.349 L
95.263 90.166 L
92.507 89.78 L
81.947 87.919 L
68.632 83.277 L
64.574 80.65 L
57.649 71.519 L
55.316 63.817 L
54.977 62.388 L
54.286 53.257 L
46.748 53.257 L
47.015 62.388 L
47.989 71.519 L
50.559 80.65 L
55.316 86.757 L
60.245 89.78 L
68.632 92.279 L
81.947 94.287 L
95.263 95.536 L
108.579 96.572 L
121.895 97.668 L
133.309 98.911 L
135.211 99.176 L
148.526 102.194 L
157.626 108.042 L
161.842 117.114 L
161.859 117.173 L
163.352 126.304 L
163.899 135.435 L
163.899 144.565 L
163.352 153.696 L
161.859 162.827 L
161.842 162.886 L
157.626 171.958 L
148.526 177.807 L
135.211 180.824 L
133.309 181.089 L
121.895 182.332 L
108.579 183.428 L
95.263 184.464 L
81.947 185.713 L
68.632 187.721 L
60.245 190.22 L
55.316 193.243 L
50.559 199.35 L
47.989 208.481 L
cp
188.474 179 M
175.507 171.958 L
175.158 171.323 L
172.709 162.827 L
171.763 153.696 L
171.416 144.565 L
171.416 135.435 L
171.763 126.304 L
172.709 117.173 L
175.158 108.677 L
175.507 108.042 L
188.474 101 L
201.789 100.037 L
215.105 100.134 L
228.421 100.762 L
241.737 101.939 L
255.053 104.031 L
267.778 108.042 L
268.368 108.336 L
278.149 117.173 L
281.684 125.409 L
281.966 126.304 L
283.303 135.435 L
283.303 144.565 L
281.966 153.696 L
281.684 154.591 L
278.149 162.827 L
268.368 171.664 L
267.778 171.958 L
255.053 175.969 L
241.737 178.061 L
228.421 179.238 L
215.105 179.866 L
201.789 179.963 L
cp
f
GR
GS
[0.78257 0 0 0.78197 0 0.22835] CT
0.075 0.745 0.722 RC
N
42 217.612 M
42 226.743 L
46.748 226.743 L
47.015 217.612 L
47.989 208.481 L
50.559 199.35 L
55.316 193.243 L
60.245 190.22 L
68.632 187.721 L
81.947 185.713 L
95.263 184.464 L
108.579 183.428 L
121.895 182.332 L
133.309 181.089 L
135.211 180.824 L
148.526 177.807 L
157.626 171.958 L
161.842 162.886 L
161.859 162.827 L
163.352 153.696 L
163.899 144.565 L
163.899 135.435 L
163.352 126.304 L
161.859 117.173 L
161.842 117.114 L
157.626 108.042 L
148.526 102.194 L
135.211 99.176 L
133.309 98.911 L
121.895 97.668 L
108.579 96.572 L
95.263 95.536 L
81.947 94.287 L
68.632 92.279 L
60.245 89.78 L
55.316 86.757 L
50.559 80.65 L
47.989 71.519 L
47.015 62.388 L
46.748 53.257 L
42 53.257 L
42 62.388 L
42 71.519 L
42 80.65 L
42 89.78 L
42 98.911 L
42 108.042 L
42 117.173 L
42 126.304 L
42 135.435 L
42 144.565 L
42 153.696 L
42 162.827 L
42 171.958 L
42 181.089 L
42 190.22 L
42 199.35 L
42 208.481 L
cp
173.501 217.612 M
173.225 226.743 L
175.158 226.743 L
181.063 226.743 L
181.793 217.612 L
184.456 208.481 L
188.474 202.494 L
191.824 199.35 L
201.789 194.49 L
215.105 191.361 L
223.967 190.22 L
228.421 189.735 L
241.737 188.883 L
255.053 188.544 L
268.368 188.91 L
277.092 190.22 L
281.684 191.639 L
288.585 199.35 L
290.703 208.481 L
291.46 217.612 L
291.663 226.743 L
295 226.743 L
295 217.612 L
295 208.481 L
295 199.35 L
295 190.22 L
295 181.089 L
295 171.958 L
295 162.827 L
295 153.696 L
295 144.565 L
295 135.435 L
295 126.304 L
295 117.173 L
295 108.042 L
295 98.911 L
295 89.78 L
295 80.65 L
295 71.519 L
295 62.388 L
295 53.257 L
291.663 53.257 L
291.46 62.388 L
290.703 71.519 L
288.585 80.65 L
281.684 88.361 L
277.092 89.78 L
268.368 91.09 L
255.053 91.456 L
241.737 91.117 L
228.421 90.265 L
223.967 89.78 L
215.105 88.639 L
201.789 85.51 L
191.824 80.65 L
188.474 77.506 L
184.456 71.519 L
181.793 62.388 L
181.063 53.257 L
175.158 53.257 L
173.225 53.257 L
173.501 62.388 L
174.52 71.519 L
175.158 74.298 L
177.267 80.65 L
187.841 89.78 L
188.474 90.006 L
201.789 92.931 L
215.105 94.416 L
228.421 95.488 L
241.737 96.487 L
255.053 97.674 L
264.649 98.911 L
268.368 99.583 L
281.684 104.665 L
285.121 108.042 L
288.835 117.173 L
290.168 126.304 L
290.664 135.435 L
290.664 144.565 L
290.168 153.696 L
288.835 162.827 L
285.121 171.958 L
281.684 175.335 L
268.368 180.417 L
264.649 181.089 L
255.053 182.326 L
241.737 183.513 L
228.421 184.512 L
215.105 185.584 L
201.789 187.069 L
188.474 189.994 L
187.841 190.22 L
177.267 199.35 L
175.158 205.702 L
174.52 208.481 L
cp
55.316 176.851 M
49.39 171.958 L
46.303 162.827 L
45.294 153.696 L
44.93 144.565 L
44.93 135.435 L
45.294 126.304 L
46.303 117.173 L
49.39 108.042 L
55.316 103.149 L
68.632 100.806 L
81.947 100.55 L
95.263 100.961 L
108.579 101.876 L
121.895 103.477 L
135.211 106.45 L
139.382 108.042 L
148.526 114.289 L
150.944 117.173 L
154.823 126.304 L
156.265 135.435 L
156.265 144.565 L
154.823 153.696 L
150.944 162.827 L
148.526 165.711 L
139.382 171.958 L
135.211 173.55 L
121.895 176.523 L
108.579 178.124 L
95.263 179.039 L
81.947 179.45 L
68.632 179.194 L
cp
f
GR
GS
[0.78257 0 0 0.78197 0 0.22835] CT
0.278 0.796 0.525 RC
N
181.793 217.612 M
181.063 226.743 L
188.474 226.743 L
189.01 226.743 L
190.352 217.612 L
195.199 208.481 L
201.789 202.885 L
209.225 199.35 L
215.105 197.546 L
228.421 195.377 L
241.737 194.609 L
255.053 195.163 L
268.368 198.017 L
271.108 199.35 L
279.985 208.481 L
281.684 213.097 L
282.843 217.612 L
283.541 226.743 L
291.663 226.743 L
291.46 217.612 L
290.703 208.481 L
288.585 199.35 L
281.684 191.639 L
277.092 190.22 L
268.368 188.91 L
255.053 188.544 L
241.737 188.883 L
228.421 189.735 L
223.967 190.22 L
215.105 191.361 L
201.789 194.49 L
191.824 199.35 L
188.474 202.494 L
184.456 208.481 L
cp
49.39 171.958 M
55.316 176.851 L
68.632 179.194 L
81.947 179.45 L
95.263 179.039 L
108.579 178.124 L
121.895 176.523 L
135.211 173.55 L
139.382 171.958 L
148.526 165.711 L
150.944 162.827 L
154.823 153.696 L
156.265 144.565 L
156.265 135.435 L
154.823 126.304 L
150.944 117.173 L
148.526 114.289 L
139.382 108.042 L
135.211 106.45 L
121.895 103.477 L
108.579 101.876 L
95.263 100.961 L
81.947 100.55 L
68.632 100.806 L
55.316 103.149 L
49.39 108.042 L
46.303 117.173 L
45.294 126.304 L
44.93 135.435 L
44.93 144.565 L
45.294 153.696 L
46.303 162.827 L
cp
81.947 173.058 M
75.238 171.958 L
68.632 170.249 L
58.431 162.827 L
55.316 156.983 L
54.192 153.696 L
52.847 144.565 L
52.847 135.435 L
54.192 126.304 L
55.316 123.017 L
58.431 117.173 L
68.632 109.751 L
75.238 108.042 L
81.947 106.942 L
95.263 106.482 L
108.579 107.246 L
113.959 108.042 L
121.895 109.522 L
135.211 114.621 L
138.941 117.173 L
145.946 126.304 L
148.526 135.165 L
148.588 135.435 L
148.588 144.565 L
148.526 144.835 L
145.946 153.696 L
138.941 162.827 L
135.211 165.379 L
121.895 170.478 L
113.959 171.958 L
108.579 172.754 L
95.263 173.518 L
cp
223.967 89.78 M
228.421 90.265 L
241.737 91.117 L
255.053 91.456 L
268.368 91.09 L
277.092 89.78 L
281.684 88.361 L
288.585 80.65 L
290.703 71.519 L
291.46 62.388 L
291.663 53.257 L
283.541 53.257 L
282.843 62.388 L
281.684 66.903 L
279.985 71.519 L
271.108 80.65 L
268.368 81.983 L
255.053 84.837 L
241.737 85.391 L
228.421 84.623 L
215.105 82.454 L
209.225 80.65 L
201.789 77.115 L
195.199 71.519 L
190.352 62.388 L
189.01 53.257 L
188.474 53.257 L
181.063 53.257 L
181.793 62.388 L
184.456 71.519 L
188.474 77.506 L
191.824 80.65 L
201.789 85.51 L
215.105 88.639 L
cp
f
GR
GS
[0.78257 0 0 0.78197 0 0.22835] CT
0.627 0.784 0.251 RC
N
190.352 217.612 M
189.01 226.743 L
198.051 226.743 L
199.881 217.612 L
201.789 214.645 L
207.989 208.481 L
215.105 204.804 L
228.421 201.479 L
241.737 200.722 L
255.053 202.56 L
267.32 208.481 L
268.368 209.547 L
272.953 217.612 L
274.367 226.743 L
281.684 226.743 L
283.541 226.743 L
282.843 217.612 L
281.684 213.097 L
279.985 208.481 L
271.108 199.35 L
268.368 198.017 L
255.053 195.163 L
241.737 194.609 L
228.421 195.377 L
215.105 197.546 L
209.225 199.35 L
201.789 202.885 L
195.199 208.481 L
cp
75.238 171.958 M
81.947 173.058 L
95.263 173.518 L
108.579 172.754 L
113.959 171.958 L
121.895 170.478 L
135.211 165.379 L
138.941 162.827 L
145.946 153.696 L
148.526 144.835 L
148.588 144.565 L
148.588 135.435 L
148.526 135.165 L
145.946 126.304 L
138.941 117.173 L
135.211 114.621 L
121.895 109.522 L
113.959 108.042 L
108.579 107.246 L
95.263 106.482 L
81.947 106.942 L
75.238 108.042 L
68.632 109.751 L
58.431 117.173 L
55.316 123.017 L
54.192 126.304 L
52.847 135.435 L
52.847 144.565 L
54.192 153.696 L
55.316 156.983 L
58.431 162.827 L
68.632 170.249 L
cp
81.947 165.83 M
73.886 162.827 L
68.632 159.192 L
64.452 153.696 L
61.684 144.565 L
61.684 135.435 L
64.452 126.304 L
68.632 120.808 L
73.886 117.173 L
81.947 114.17 L
95.263 112.628 L
108.579 113.338 L
121.895 116.289 L
123.997 117.173 L
135.211 125.174 L
136.172 126.304 L
139.784 135.435 L
139.784 144.565 L
136.172 153.696 L
135.211 154.826 L
123.997 162.827 L
121.895 163.711 L
108.579 166.662 L
95.263 167.372 L
cp
209.225 80.65 M
215.105 82.454 L
228.421 84.623 L
241.737 85.391 L
255.053 84.837 L
268.368 81.983 L
271.108 80.65 L
279.985 71.519 L
281.684 66.903 L
282.843 62.388 L
283.541 53.257 L
281.684 53.257 L
274.367 53.257 L
272.953 62.388 L
268.368 70.453 L
267.32 71.519 L
255.053 77.44 L
241.737 79.278 L
228.421 78.521 L
215.105 75.196 L
207.989 71.519 L
201.789 65.355 L
199.881 62.388 L
198.051 53.257 L
189.01 53.257 L
190.352 62.388 L
195.199 71.519 L
201.789 77.115 L
cp
f
GR
GS
[0.78257 0 0 0.78197 0 0.22835] CT
0.925 0.729 0.196 RC
N
199.881 217.612 M
198.051 226.743 L
201.789 226.743 L
208.912 226.743 L
211.985 217.612 L
215.105 214.699 L
228.421 208.595 L
230.209 208.481 L
241.737 207.995 L
244.182 208.481 L
255.053 212.348 L
260.721 217.612 L
263.543 226.743 L
268.368 226.743 L
274.367 226.743 L
272.953 217.612 L
268.368 209.547 L
267.32 208.481 L
255.053 202.56 L
241.737 200.722 L
228.421 201.479 L
215.105 204.804 L
207.989 208.481 L
201.789 214.645 L
cp
73.886 162.827 M
81.947 165.83 L
95.263 167.372 L
108.579 166.662 L
121.895 163.711 L
123.997 162.827 L
135.211 154.826 L
136.172 153.696 L
139.784 144.565 L
139.784 135.435 L
136.172 126.304 L
135.211 125.174 L
123.997 117.173 L
121.895 116.289 L
108.579 113.338 L
95.263 112.628 L
81.947 114.17 L
73.886 117.173 L
68.632 120.808 L
64.452 126.304 L
61.684 135.435 L
61.684 144.565 L
64.452 153.696 L
68.632 159.192 L
cp
81.947 156.831 M
77.406 153.696 L
71.829 144.565 L
71.829 135.435 L
77.406 126.304 L
81.947 123.169 L
95.263 119.69 L
108.579 120.421 L
121.895 125.191 L
123.467 126.304 L
129.517 135.435 L
129.517 144.565 L
123.467 153.696 L
121.895 154.809 L
108.579 159.579 L
95.263 160.31 L
cp
207.989 71.519 M
215.105 75.196 L
228.421 78.521 L
241.737 79.278 L
255.053 77.44 L
267.32 71.519 L
268.368 70.453 L
272.953 62.388 L
274.367 53.257 L
268.368 53.257 L
263.543 53.257 L
260.721 62.388 L
255.053 67.652 L
244.182 71.519 L
241.737 72.005 L
230.209 71.519 L
228.421 71.405 L
215.105 65.301 L
211.985 62.388 L
208.912 53.257 L
201.789 53.257 L
198.051 53.257 L
199.881 62.388 L
201.789 65.355 L
cp
f
GR
GS
[0.78257 0 0 0.78197 0 0.22835] CT
0.98 0.831 0.176 RC
N
211.985 217.612 M
208.912 226.743 L
215.105 226.743 L
225.922 226.743 L
228.421 223.162 L
241.737 221.549 L
245.884 226.743 L
255.053 226.743 L
263.543 226.743 L
260.721 217.612 L
255.053 212.348 L
244.182 208.481 L
241.737 207.995 L
230.209 208.481 L
228.421 208.595 L
215.105 214.699 L
cp
77.406 153.696 M
81.947 156.831 L
95.263 160.31 L
108.579 159.579 L
121.895 154.809 L
123.467 153.696 L
129.517 144.565 L
129.517 135.435 L
123.467 126.304 L
121.895 125.191 L
108.579 120.421 L
95.263 119.69 L
81.947 123.169 L
77.406 126.304 L
71.829 135.435 L
71.829 144.565 L
cp
95.263 149.726 M
87.306 144.565 L
87.306 135.435 L
95.263 130.274 L
108.579 131.206 L
114.246 135.435 L
114.246 144.565 L
108.579 148.794 L
cp
230.209 71.519 M
241.737 72.005 L
244.182 71.519 L
255.053 67.652 L
260.721 62.388 L
263.543 53.257 L
255.053 53.257 L
245.884 53.257 L
241.737 58.451 L
228.421 56.838 L
225.922 53.257 L
215.105 53.257 L
208.912 53.257 L
211.985 62.388 L
215.105 65.301 L
228.421 71.405 L
cp
f
GR
GS
[0.78257 0 0 0.78197 0 0.22835] CT
0.976 0.98 0.078 RC
N
228.421 223.162 M
225.922 226.743 L
228.421 226.743 L
241.737 226.743 L
245.884 226.743 L
241.737 221.549 L
cp
87.306 144.565 M
95.263 149.726 L
108.579 148.794 L
114.246 144.565 L
114.246 135.435 L
108.579 131.206 L
95.263 130.274 L
87.306 135.435 L
cp
228.421 53.257 M
225.922 53.257 L
228.421 56.838 L
241.737 58.451 L
245.884 53.257 L
241.737 53.257 L
cp
f
GR
GS
[0.78257 0 0 0.78197 0 0.22835] CT
1 LJ
0.639 LW
N
95.946 226.743 M
107.287 217.612 L
S
GR
GS
[0.78257 0 0 0.78197 0 0.22835] CT
1 LJ
0.639 LW
N
110.561 217.612 M
121.895 223.915 L
123.285 226.743 L
S
GR
GS
[0.78257 0 0 0.78197 0 0.22835] CT
1 LJ
0.639 LW
N
107.287 217.612 M
108.579 217.262 L
110.561 217.612 L
S
GR
GS
[0.78257 0 0 0.78197 0 0.22835] CT
1 LJ
0.639 LW
N
243.769 144.565 M
241.737 146.807 L
228.421 152.121 L
215.105 148.337 L
211.576 144.565 L
S
GR
GS
[0.78257 0 0 0.78197 0 0.22835] CT
1 LJ
0.639 LW
N
211.576 144.565 M
211.576 135.435 L
S
GR
GS
[0.78257 0 0 0.78197 0 0.22835] CT
1 LJ
0.639 LW
N
243.769 135.435 M
243.769 144.565 L
S
GR
GS
[0.78257 0 0 0.78197 0 0.22835] CT
1 LJ
0.639 LW
N
211.576 135.435 M
215.105 131.663 L
228.421 127.879 L
241.737 133.193 L
243.769 135.435 L
S
GR
GS
[0.78257 0 0 0.78197 0 0.22835] CT
1 LJ
0.639 LW
N
110.561 62.388 M
108.579 62.738 L
107.287 62.388 L
S
GR
GS
[0.78257 0 0 0.78197 0 0.22835] CT
1 LJ
0.639 LW
N
107.287 62.388 M
95.946 53.257 L
S
GR
GS
[0.78257 0 0 0.78197 0 0.22835] CT
1 LJ
0.639 LW
N
123.285 53.257 M
121.895 56.085 L
110.561 62.388 L
S
GR
GS
[0.78257 0 0 0.78197 0 0.22835] CT
1 LJ
0.639 LW
N
80.924 226.743 M
81.947 222.895 L
84.166 217.612 L
S
GR
GS
[0.78257 0 0 0.78197 0 0.22835] CT
1 LJ
0.639 LW
N
136.141 217.612 M
138.358 226.743 L
S
GR
GS
[0.78257 0 0 0.78197 0 0.22835] CT
1 LJ
0.639 LW
N
84.166 217.612 M
95.263 209.721 L
100.039 208.481 L
S
GR
GS
[0.78257 0 0 0.78197 0 0.22835] CT
1 LJ
0.639 LW
N
123.028 208.481 M
135.211 216.398 L
136.141 217.612 L
S
GR
GS
[0.78257 0 0 0.78197 0 0.22835] CT
1 LJ
0.639 LW
N
100.039 208.481 M
108.579 207.086 L
121.895 208.099 L
123.028 208.481 L
S
GR
GS
[0.78257 0 0 0.78197 0 0.22835] CT
1 LJ
0.639 LW
N
251.235 153.696 M
241.737 158.767 L
228.421 161.338 L
215.105 160.086 L
202.162 153.696 L
S
GR
GS
[0.78257 0 0 0.78197 0 0.22835] CT
1 LJ
0.639 LW
N
202.162 153.696 M
201.789 153.263 L
197.643 144.565 L
S
GR
GS
[0.78257 0 0 0.78197 0 0.22835] CT
1 LJ
0.639 LW
N
257.458 144.565 M
255.053 149.232 L
251.235 153.696 L
S
GR
GS
[0.78257 0 0 0.78197 0 0.22835] CT
1 LJ
0.639 LW
N
197.643 144.565 M
197.643 135.435 L
S
GR
GS
[0.78257 0 0 0.78197 0 0.22835] CT
1 LJ
0.639 LW
N
257.458 135.435 M
257.458 144.565 L
S
GR
GS
[0.78257 0 0 0.78197 0 0.22835] CT
1 LJ
0.639 LW
N
197.643 135.435 M
201.789 126.737 L
202.162 126.304 L
S
GR
GS
[0.78257 0 0 0.78197 0 0.22835] CT
1 LJ
0.639 LW
N
251.235 126.304 M
255.053 130.768 L
257.458 135.435 L
S
GR
GS
[0.78257 0 0 0.78197 0 0.22835] CT
1 LJ
0.639 LW
N
202.162 126.304 M
215.105 119.914 L
228.421 118.662 L
241.737 121.233 L
251.235 126.304 L
S
GR
GS
[0.78257 0 0 0.78197 0 0.22835] CT
1 LJ
0.639 LW
N
123.028 71.519 M
121.895 71.901 L
108.579 72.914 L
100.039 71.519 L
S
GR
GS
[0.78257 0 0 0.78197 0 0.22835] CT
1 LJ
0.639 LW
N
100.039 71.519 M
95.263 70.279 L
84.166 62.388 L
S
GR
GS
[0.78257 0 0 0.78197 0 0.22835] CT
1 LJ
0.639 LW
N
136.141 62.388 M
135.211 63.602 L
123.028 71.519 L
S
GR
GS
[0.78257 0 0 0.78197 0 0.22835] CT
1 LJ
0.639 LW
N
84.166 62.388 M
81.947 57.105 L
80.924 53.257 L
S
GR
GS
[0.78257 0 0 0.78197 0 0.22835] CT
1 LJ
0.639 LW
N
138.358 53.257 M
136.141 62.388 L
S
GR
GS
[0.78257 0 0 0.78197 0 0.22835] CT
1 LJ
0.639 LW
N
70.908 226.743 M
72.897 217.612 L
S
GR
GS
[0.78257 0 0 0.78197 0 0.22835] CT
1 LJ
0.639 LW
N
147.493 217.612 M
148.526 223.638 L
148.923 226.743 L
S
GR
GS
[0.78257 0 0 0.78197 0 0.22835] CT
1 LJ
0.639 LW
N
72.897 217.612 M
79.991 208.481 L
S
GR
GS
[0.78257 0 0 0.78197 0 0.22835] CT
1 LJ
0.639 LW
N
141.7 208.481 M
147.493 217.612 L
S
GR
GS
[0.78257 0 0 0.78197 0 0.22835] CT
1 LJ
0.639 LW
N
79.991 208.481 M
81.947 207.147 L
95.263 202.01 L
108.579 200.011 L
121.895 200.399 L
135.211 204.019 L
141.7 208.481 L
S
GR
GS
[0.78257 0 0 0.78197 0 0.22835] CT
1 LJ
0.639 LW
N
252.303 162.827 M
241.737 166.241 L
228.421 167.953 L
215.105 167.583 L
201.789 164.382 L
198.92 162.827 L
S
GR
GS
[0.78257 0 0 0.78197 0 0.22835] CT
1 LJ
0.639 LW
N
198.92 162.827 M
190.32 153.696 L
S
GR
GS
[0.78257 0 0 0.78197 0 0.22835] CT
1 LJ
0.639 LW
N
263.372 153.696 M
255.053 161.425 L
252.303 162.827 L
S
GR
GS
[0.78257 0 0 0.78197 0 0.22835] CT
1 LJ
0.639 LW
N
190.32 153.696 M
188.474 148.399 L
187.533 144.565 L
S
GR
GS
[0.78257 0 0 0.78197 0 0.22835] CT
1 LJ
0.639 LW
N
267.296 144.565 M
263.372 153.696 L
S
GR
GS
[0.78257 0 0 0.78197 0 0.22835] CT
1 LJ
0.639 LW
N
187.533 144.565 M
187.533 135.435 L
S
GR
GS
[0.78257 0 0 0.78197 0 0.22835] CT
1 LJ
0.639 LW
N
267.296 135.435 M
267.296 144.565 L
S
GR
GS
[0.78257 0 0 0.78197 0 0.22835] CT
1 LJ
0.639 LW
N
187.533 135.435 M
188.474 131.601 L
190.32 126.304 L
S
GR
GS
[0.78257 0 0 0.78197 0 0.22835] CT
1 LJ
0.639 LW
N
263.372 126.304 M
267.296 135.435 L
S
GR
GS
[0.78257 0 0 0.78197 0 0.22835] CT
1 LJ
0.639 LW
N
190.32 126.304 M
198.92 117.173 L
S
GR
GS
[0.78257 0 0 0.78197 0 0.22835] CT
1 LJ
0.639 LW
N
252.303 117.173 M
255.053 118.575 L
263.372 126.304 L
S
GR
GS
[0.78257 0 0 0.78197 0 0.22835] CT
1 LJ
0.639 LW
N
198.92 117.173 M
201.789 115.618 L
215.105 112.417 L
228.421 112.047 L
241.737 113.759 L
252.303 117.173 L
S
GR
GS
[0.78257 0 0 0.78197 0 0.22835] CT
1 LJ
0.639 LW
N
141.7 71.519 M
135.211 75.981 L
121.895 79.601 L
108.579 79.989 L
95.263 77.99 L
81.947 72.853 L
79.991 71.519 L
S
GR
GS
[0.78257 0 0 0.78197 0 0.22835] CT
1 LJ
0.639 LW
N
79.991 71.519 M
72.897 62.388 L
S
GR
GS
[0.78257 0 0 0.78197 0 0.22835] CT
1 LJ
0.639 LW
N
147.493 62.388 M
141.7 71.519 L
S
GR
GS
[0.78257 0 0 0.78197 0 0.22835] CT
1 LJ
0.639 LW
N
72.897 62.388 M
70.908 53.257 L
S
GR
GS
[0.78257 0 0 0.78197 0 0.22835] CT
1 LJ
0.639 LW
N
148.923 53.257 M
148.526 56.362 L
147.493 62.388 L
S
GR
GS
[0.78257 0 0 0.78197 0 0.22835] CT
1 LJ
0.639 LW
N
62.343 226.743 M
63.529 217.612 L
S
GR
GS
[0.78257 0 0 0.78197 0 0.22835] CT
1 LJ
0.639 LW
N
156.693 217.612 M
157.392 226.743 L
S
GR
GS
[0.78257 0 0 0.78197 0 0.22835] CT
1 LJ
0.639 LW
N
63.529 217.612 M
67.816 208.481 L
S
GR
GS
[0.78257 0 0 0.78197 0 0.22835] CT
1 LJ
0.639 LW
N
154.09 208.481 M
156.693 217.612 L
S
GR
GS
[0.78257 0 0 0.78197 0 0.22835] CT
1 LJ
0.639 LW
N
67.816 208.481 M
68.632 207.56 L
80.695 199.35 L
S
GR
GS
[0.78257 0 0 0.78197 0 0.22835] CT
1 LJ
0.639 LW
N
146.245 199.35 M
148.526 200.921 L
154.09 208.481 L
S
GR
GS
[0.78257 0 0 0.78197 0 0.22835] CT
1 LJ
0.639 LW
N
80.695 199.35 M
81.947 198.848 L
95.263 195.643 L
108.579 194.197 L
121.895 194.007 L
135.211 195.402 L
146.245 199.35 L
S
GR
GS
[0.78257 0 0 0.78197 0 0.22835] CT
1 LJ
0.639 LW
N
244.677 171.958 M
241.737 172.541 L
228.421 173.869 L
215.105 174.023 L
201.789 172.689 L
198.966 171.958 L
S
GR
GS
[0.78257 0 0 0.78197 0 0.22835] CT
1 LJ
0.639 LW
N
198.966 171.958 M
188.474 167.093 L
184.514 162.827 L
S
GR
GS
[0.78257 0 0 0.78197 0 0.22835] CT
1 LJ
0.639 LW
N
266.691 162.827 M
255.053 169.2 L
244.677 171.958 L
S
GR
GS
[0.78257 0 0 0.78197 0 0.22835] CT
1 LJ
0.639 LW
N
184.514 162.827 M
180.678 153.696 L
S
GR
GS
[0.78257 0 0 0.78197 0 0.22835] CT
1 LJ
0.639 LW
N
273.144 153.696 M
268.368 161.121 L
266.691 162.827 L
S
GR
GS
[0.78257 0 0 0.78197 0 0.22835] CT
1 LJ
0.639 LW
N
180.678 153.696 M
179.296 144.565 L
S
GR
GS
[0.78257 0 0 0.78197 0 0.22835] CT
1 LJ
0.639 LW
N
275.468 144.565 M
273.144 153.696 L
S
GR
GS
[0.78257 0 0 0.78197 0 0.22835] CT
1 LJ
0.639 LW
N
179.296 144.565 M
179.296 135.435 L
S
GR
GS
[0.78257 0 0 0.78197 0 0.22835] CT
1 LJ
0.639 LW
N
275.468 135.435 M
275.468 144.565 L
S
GR
GS
[0.78257 0 0 0.78197 0 0.22835] CT
1 LJ
0.639 LW
N
179.296 135.435 M
180.678 126.304 L
S
GR
GS
[0.78257 0 0 0.78197 0 0.22835] CT
1 LJ
0.639 LW
N
273.144 126.304 M
275.468 135.435 L
S
GR
GS
[0.78257 0 0 0.78197 0 0.22835] CT
1 LJ
0.639 LW
N
180.678 126.304 M
184.514 117.173 L
S
GR
GS
[0.78257 0 0 0.78197 0 0.22835] CT
1 LJ
0.639 LW
N
266.691 117.173 M
268.368 118.879 L
273.144 126.304 L
S
GR
GS
[0.78257 0 0 0.78197 0 0.22835] CT
1 LJ
0.639 LW
N
184.514 117.173 M
188.474 112.907 L
198.966 108.042 L
S
GR
GS
[0.78257 0 0 0.78197 0 0.22835] CT
1 LJ
0.639 LW
N
244.677 108.042 M
255.053 110.8 L
266.691 117.173 L
S
GR
GS
[0.78257 0 0 0.78197 0 0.22835] CT
1 LJ
0.639 LW
N
198.966 108.042 M
201.789 107.311 L
215.105 105.977 L
228.421 106.131 L
241.737 107.459 L
244.677 108.042 L
S
GR
GS
[0.78257 0 0 0.78197 0 0.22835] CT
1 LJ
0.639 LW
N
146.245 80.65 M
135.211 84.598 L
121.895 85.993 L
108.579 85.803 L
95.263 84.357 L
81.947 81.152 L
80.695 80.65 L
S
GR
GS
[0.78257 0 0 0.78197 0 0.22835] CT
1 LJ
0.639 LW
N
80.695 80.65 M
68.632 72.44 L
67.816 71.519 L
S
GR
GS
[0.78257 0 0 0.78197 0 0.22835] CT
1 LJ
0.639 LW
N
154.09 71.519 M
148.526 79.079 L
146.245 80.65 L
S
GR
GS
[0.78257 0 0 0.78197 0 0.22835] CT
1 LJ
0.639 LW
N
67.816 71.519 M
63.529 62.388 L
S
GR
GS
[0.78257 0 0 0.78197 0 0.22835] CT
1 LJ
0.639 LW
N
156.693 62.388 M
154.09 71.519 L
S
GR
GS
[0.78257 0 0 0.78197 0 0.22835] CT
1 LJ
0.639 LW
N
63.529 62.388 M
62.343 53.257 L
S
GR
GS
[0.78257 0 0 0.78197 0 0.22835] CT
1 LJ
0.639 LW
N
157.392 53.257 M
156.693 62.388 L
S
GR
GS
[0.78257 0 0 0.78197 0 0.22835] CT
1 LJ
0.639 LW
N
54.286 226.743 M
54.977 217.612 L
S
GR
GS
[0.78257 0 0 0.78197 0 0.22835] CT
1 LJ
0.639 LW
N
165.33 217.612 M
165.505 226.743 L
S
GR
GS
[0.78257 0 0 0.78197 0 0.22835] CT
1 LJ
0.639 LW
N
54.977 217.612 M
55.316 216.183 L
57.649 208.481 L
S
GR
GS
[0.78257 0 0 0.78197 0 0.22835] CT
1 LJ
0.639 LW
N
164.684 208.481 M
165.33 217.612 L
S
GR
GS
[0.78257 0 0 0.78197 0 0.22835] CT
1 LJ
0.639 LW
N
57.649 208.481 M
64.574 199.35 L
S
GR
GS
[0.78257 0 0 0.78197 0 0.22835] CT
1 LJ
0.639 LW
N
162.931 199.35 M
164.684 208.481 L
S
GR
GS
[0.78257 0 0 0.78197 0 0.22835] CT
1 LJ
0.639 LW
N
64.574 199.35 M
68.632 196.723 L
81.947 192.081 L
92.507 190.22 L
S
GR
GS
[0.78257 0 0 0.78197 0 0.22835] CT
1 LJ
0.639 LW
N
153.865 190.22 M
161.842 196.74 L
162.931 199.35 L
S
GR
GS
[0.78257 0 0 0.78197 0 0.22835] CT
1 LJ
0.639 LW
N
92.507 190.22 M
95.263 189.834 L
108.579 188.651 L
121.895 188.016 L
135.211 187.906 L
148.526 188.833 L
153.865 190.22 L
S
GR
GS
[0.78257 0 0 0.78197 0 0.22835] CT
1 LJ
0.639 LW
N
267.778 171.958 M
255.053 175.969 L
241.737 178.061 L
228.421 179.238 L
215.105 179.866 L
201.789 179.963 L
188.474 179 L
175.507 171.958 L
S
GR
GS
[0.78257 0 0 0.78197 0 0.22835] CT
1 LJ
0.639 LW
N
175.507 171.958 M
175.158 171.323 L
172.709 162.827 L
S
GR
GS
[0.78257 0 0 0.78197 0 0.22835] CT
1 LJ
0.639 LW
N
278.149 162.827 M
268.368 171.664 L
267.778 171.958 L
S
GR
GS
[0.78257 0 0 0.78197 0 0.22835] CT
1 LJ
0.639 LW
N
172.709 162.827 M
171.763 153.696 L
S
GR
GS
[0.78257 0 0 0.78197 0 0.22835] CT
1 LJ
0.639 LW
N
281.966 153.696 M
281.684 154.591 L
278.149 162.827 L
S
GR
GS
[0.78257 0 0 0.78197 0 0.22835] CT
1 LJ
0.639 LW
N
171.763 153.696 M
171.416 144.565 L
S
GR
GS
[0.78257 0 0 0.78197 0 0.22835] CT
1 LJ
0.639 LW
N
283.303 144.565 M
281.966 153.696 L
S
GR
GS
[0.78257 0 0 0.78197 0 0.22835] CT
1 LJ
0.639 LW
N
171.416 144.565 M
171.416 135.435 L
S
GR
GS
[0.78257 0 0 0.78197 0 0.22835] CT
1 LJ
0.639 LW
N
283.303 135.435 M
283.303 144.565 L
S
GR
GS
[0.78257 0 0 0.78197 0 0.22835] CT
1 LJ
0.639 LW
N
171.416 135.435 M
171.763 126.304 L
S
GR
GS
[0.78257 0 0 0.78197 0 0.22835] CT
1 LJ
0.639 LW
N
281.966 126.304 M
283.303 135.435 L
S
GR
GS
[0.78257 0 0 0.78197 0 0.22835] CT
1 LJ
0.639 LW
N
171.763 126.304 M
172.709 117.173 L
S
GR
GS
[0.78257 0 0 0.78197 0 0.22835] CT
1 LJ
0.639 LW
N
278.149 117.173 M
281.684 125.409 L
281.966 126.304 L
S
GR
GS
[0.78257 0 0 0.78197 0 0.22835] CT
1 LJ
0.639 LW
N
172.709 117.173 M
175.158 108.677 L
175.507 108.042 L
S
GR
GS
[0.78257 0 0 0.78197 0 0.22835] CT
1 LJ
0.639 LW
N
267.778 108.042 M
268.368 108.336 L
278.149 117.173 L
S
GR
GS
[0.78257 0 0 0.78197 0 0.22835] CT
1 LJ
0.639 LW
N
175.507 108.042 M
188.474 101 L
201.789 100.037 L
215.105 100.134 L
228.421 100.762 L
241.737 101.939 L
255.053 104.031 L
267.778 108.042 L
S
GR
GS
[0.78257 0 0 0.78197 0 0.22835] CT
1 LJ
0.639 LW
N
153.865 89.78 M
148.526 91.167 L
135.211 92.094 L
121.895 91.984 L
108.579 91.349 L
95.263 90.166 L
92.507 89.78 L
S
GR
GS
[0.78257 0 0 0.78197 0 0.22835] CT
1 LJ
0.639 LW
N
92.507 89.78 M
81.947 87.919 L
68.632 83.277 L
64.574 80.65 L
S
GR
GS
[0.78257 0 0 0.78197 0 0.22835] CT
1 LJ
0.639 LW
N
162.931 80.65 M
161.842 83.26 L
153.865 89.78 L
S
GR
GS
[0.78257 0 0 0.78197 0 0.22835] CT
1 LJ
0.639 LW
N
64.574 80.65 M
57.649 71.519 L
S
GR
GS
[0.78257 0 0 0.78197 0 0.22835] CT
1 LJ
0.639 LW
N
164.684 71.519 M
162.931 80.65 L
S
GR
GS
[0.78257 0 0 0.78197 0 0.22835] CT
1 LJ
0.639 LW
N
57.649 71.519 M
55.316 63.817 L
54.977 62.388 L
S
GR
GS
[0.78257 0 0 0.78197 0 0.22835] CT
1 LJ
0.639 LW
N
165.33 62.388 M
164.684 71.519 L
S
GR
GS
[0.78257 0 0 0.78197 0 0.22835] CT
1 LJ
0.639 LW
N
54.977 62.388 M
54.286 53.257 L
S
GR
GS
[0.78257 0 0 0.78197 0 0.22835] CT
1 LJ
0.639 LW
N
165.505 53.257 M
165.33 62.388 L
S
GR
GS
[0.78257 0 0 0.78197 0 0.22835] CT
1 LJ
0.639 LW
N
46.748 226.743 M
47.015 217.612 L
S
GR
GS
[0.78257 0 0 0.78197 0 0.22835] CT
1 LJ
0.639 LW
N
173.501 217.612 M
173.225 226.743 L
S
GR
GS
[0.78257 0 0 0.78197 0 0.22835] CT
1 LJ
0.639 LW
N
47.015 217.612 M
47.989 208.481 L
S
GR
GS
[0.78257 0 0 0.78197 0 0.22835] CT
1 LJ
0.639 LW
N
174.52 208.481 M
173.501 217.612 L
S
GR
GS
[0.78257 0 0 0.78197 0 0.22835] CT
1 LJ
0.639 LW
N
47.989 208.481 M
50.559 199.35 L
S
GR
GS
[0.78257 0 0 0.78197 0 0.22835] CT
1 LJ
0.639 LW
N
177.267 199.35 M
175.158 205.702 L
174.52 208.481 L
S
GR
GS
[0.78257 0 0 0.78197 0 0.22835] CT
1 LJ
0.639 LW
N
50.559 199.35 M
55.316 193.243 L
60.245 190.22 L
S
GR
GS
[0.78257 0 0 0.78197 0 0.22835] CT
1 LJ
0.639 LW
N
187.841 190.22 M
177.267 199.35 L
S
GR
GS
[0.78257 0 0 0.78197 0 0.22835] CT
1 LJ
0.639 LW
N
60.245 190.22 M
68.632 187.721 L
81.947 185.713 L
95.263 184.464 L
108.579 183.428 L
121.895 182.332 L
133.309 181.089 L
S
GR
GS
[0.78257 0 0 0.78197 0 0.22835] CT
1 LJ
0.639 LW
N
264.649 181.089 M
255.053 182.326 L
241.737 183.513 L
228.421 184.512 L
215.105 185.584 L
201.789 187.069 L
188.474 189.994 L
187.841 190.22 L
S
GR
GS
[0.78257 0 0 0.78197 0 0.22835] CT
1 LJ
0.639 LW
N
133.309 181.089 M
135.211 180.824 L
148.526 177.807 L
157.626 171.958 L
S
GR
GS
[0.78257 0 0 0.78197 0 0.22835] CT
1 LJ
0.639 LW
N
285.121 171.958 M
281.684 175.335 L
268.368 180.417 L
264.649 181.089 L
S
GR
GS
[0.78257 0 0 0.78197 0 0.22835] CT
1 LJ
0.639 LW
N
157.626 171.958 M
161.842 162.886 L
161.859 162.827 L
S
GR
GS
[0.78257 0 0 0.78197 0 0.22835] CT
1 LJ
0.639 LW
N
288.835 162.827 M
285.121 171.958 L
S
GR
GS
[0.78257 0 0 0.78197 0 0.22835] CT
1 LJ
0.639 LW
N
161.859 162.827 M
163.352 153.696 L
S
GR
GS
[0.78257 0 0 0.78197 0 0.22835] CT
1 LJ
0.639 LW
N
290.168 153.696 M
288.835 162.827 L
S
GR
GS
[0.78257 0 0 0.78197 0 0.22835] CT
1 LJ
0.639 LW
N
163.352 153.696 M
163.899 144.565 L
S
GR
GS
[0.78257 0 0 0.78197 0 0.22835] CT
1 LJ
0.639 LW
N
290.664 144.565 M
290.168 153.696 L
S
GR
GS
[0.78257 0 0 0.78197 0 0.22835] CT
1 LJ
0.639 LW
N
163.899 144.565 M
163.899 135.435 L
S
GR
GS
[0.78257 0 0 0.78197 0 0.22835] CT
1 LJ
0.639 LW
N
290.664 135.435 M
290.664 144.565 L
S
GR
GS
[0.78257 0 0 0.78197 0 0.22835] CT
1 LJ
0.639 LW
N
163.899 135.435 M
163.352 126.304 L
S
GR
GS
[0.78257 0 0 0.78197 0 0.22835] CT
1 LJ
0.639 LW
N
290.168 126.304 M
290.664 135.435 L
S
GR
GS
[0.78257 0 0 0.78197 0 0.22835] CT
1 LJ
0.639 LW
N
163.352 126.304 M
161.859 117.173 L
S
GR
GS
[0.78257 0 0 0.78197 0 0.22835] CT
1 LJ
0.639 LW
N
288.835 117.173 M
290.168 126.304 L
S
GR
GS
[0.78257 0 0 0.78197 0 0.22835] CT
1 LJ
0.639 LW
N
161.859 117.173 M
161.842 117.114 L
157.626 108.042 L
S
GR
GS
[0.78257 0 0 0.78197 0 0.22835] CT
1 LJ
0.639 LW
N
285.121 108.042 M
288.835 117.173 L
S
GR
GS
[0.78257 0 0 0.78197 0 0.22835] CT
1 LJ
0.639 LW
N
157.626 108.042 M
148.526 102.194 L
135.211 99.176 L
133.309 98.911 L
S
GR
GS
[0.78257 0 0 0.78197 0 0.22835] CT
1 LJ
0.639 LW
N
264.649 98.911 M
268.368 99.583 L
281.684 104.665 L
285.121 108.042 L
S
GR
GS
[0.78257 0 0 0.78197 0 0.22835] CT
1 LJ
0.639 LW
N
133.309 98.911 M
121.895 97.668 L
108.579 96.572 L
95.263 95.536 L
81.947 94.287 L
68.632 92.279 L
60.245 89.78 L
S
GR
GS
[0.78257 0 0 0.78197 0 0.22835] CT
1 LJ
0.639 LW
N
187.841 89.78 M
188.474 90.006 L
201.789 92.931 L
215.105 94.416 L
228.421 95.488 L
241.737 96.487 L
255.053 97.674 L
264.649 98.911 L
S
GR
GS
[0.78257 0 0 0.78197 0 0.22835] CT
1 LJ
0.639 LW
N
60.245 89.78 M
55.316 86.757 L
50.559 80.65 L
S
GR
GS
[0.78257 0 0 0.78197 0 0.22835] CT
1 LJ
0.639 LW
N
177.267 80.65 M
187.841 89.78 L
S
GR
GS
[0.78257 0 0 0.78197 0 0.22835] CT
1 LJ
0.639 LW
N
50.559 80.65 M
47.989 71.519 L
S
GR
GS
[0.78257 0 0 0.78197 0 0.22835] CT
1 LJ
0.639 LW
N
174.52 71.519 M
175.158 74.298 L
177.267 80.65 L
S
GR
GS
[0.78257 0 0 0.78197 0 0.22835] CT
1 LJ
0.639 LW
N
47.989 71.519 M
47.015 62.388 L
S
GR
GS
[0.78257 0 0 0.78197 0 0.22835] CT
1 LJ
0.639 LW
N
173.501 62.388 M
174.52 71.519 L
S
GR
GS
[0.78257 0 0 0.78197 0 0.22835] CT
1 LJ
0.639 LW
N
47.015 62.388 M
46.748 53.257 L
S
GR
GS
[0.78257 0 0 0.78197 0 0.22835] CT
1 LJ
0.639 LW
N
173.225 53.257 M
173.501 62.388 L
S
GR
GS
[0.78257 0 0 0.78197 0 0.22835] CT
1 LJ
0.639 LW
N
181.793 217.612 M
181.063 226.743 L
S
GR
GS
[0.78257 0 0 0.78197 0 0.22835] CT
1 LJ
0.639 LW
N
291.663 226.743 M
291.46 217.612 L
S
GR
GS
[0.78257 0 0 0.78197 0 0.22835] CT
1 LJ
0.639 LW
N
184.456 208.481 M
181.793 217.612 L
S
GR
GS
[0.78257 0 0 0.78197 0 0.22835] CT
1 LJ
0.639 LW
N
291.46 217.612 M
290.703 208.481 L
S
GR
GS
[0.78257 0 0 0.78197 0 0.22835] CT
1 LJ
0.639 LW
N
191.824 199.35 M
188.474 202.494 L
184.456 208.481 L
S
GR
GS
[0.78257 0 0 0.78197 0 0.22835] CT
1 LJ
0.639 LW
N
290.703 208.481 M
288.585 199.35 L
S
GR
GS
[0.78257 0 0 0.78197 0 0.22835] CT
1 LJ
0.639 LW
N
223.967 190.22 M
215.105 191.361 L
201.789 194.49 L
191.824 199.35 L
S
GR
GS
[0.78257 0 0 0.78197 0 0.22835] CT
1 LJ
0.639 LW
N
288.585 199.35 M
281.684 191.639 L
277.092 190.22 L
S
GR
GS
[0.78257 0 0 0.78197 0 0.22835] CT
1 LJ
0.639 LW
N
277.092 190.22 M
268.368 188.91 L
255.053 188.544 L
241.737 188.883 L
228.421 189.735 L
223.967 190.22 L
S
GR
GS
[0.78257 0 0 0.78197 0 0.22835] CT
1 LJ
0.639 LW
N
49.39 171.958 M
55.316 176.851 L
68.632 179.194 L
81.947 179.45 L
95.263 179.039 L
108.579 178.124 L
121.895 176.523 L
135.211 173.55 L
139.382 171.958 L
S
GR
GS
[0.78257 0 0 0.78197 0 0.22835] CT
1 LJ
0.639 LW
N
46.303 162.827 M
49.39 171.958 L
S
GR
GS
[0.78257 0 0 0.78197 0 0.22835] CT
1 LJ
0.639 LW
N
139.382 171.958 M
148.526 165.711 L
150.944 162.827 L
S
GR
GS
[0.78257 0 0 0.78197 0 0.22835] CT
1 LJ
0.639 LW
N
45.294 153.696 M
46.303 162.827 L
S
GR
GS
[0.78257 0 0 0.78197 0 0.22835] CT
1 LJ
0.639 LW
N
150.944 162.827 M
154.823 153.696 L
S
GR
GS
[0.78257 0 0 0.78197 0 0.22835] CT
1 LJ
0.639 LW
N
44.93 144.565 M
45.294 153.696 L
S
GR
GS
[0.78257 0 0 0.78197 0 0.22835] CT
1 LJ
0.639 LW
N
154.823 153.696 M
156.265 144.565 L
S
GR
GS
[0.78257 0 0 0.78197 0 0.22835] CT
1 LJ
0.639 LW
N
44.93 135.435 M
44.93 144.565 L
S
GR
GS
[0.78257 0 0 0.78197 0 0.22835] CT
1 LJ
0.639 LW
N
156.265 144.565 M
156.265 135.435 L
S
GR
GS
[0.78257 0 0 0.78197 0 0.22835] CT
1 LJ
0.639 LW
N
45.294 126.304 M
44.93 135.435 L
S
GR
GS
[0.78257 0 0 0.78197 0 0.22835] CT
1 LJ
0.639 LW
N
156.265 135.435 M
154.823 126.304 L
S
GR
GS
[0.78257 0 0 0.78197 0 0.22835] CT
1 LJ
0.639 LW
N
46.303 117.173 M
45.294 126.304 L
S
GR
GS
[0.78257 0 0 0.78197 0 0.22835] CT
1 LJ
0.639 LW
N
154.823 126.304 M
150.944 117.173 L
S
GR
GS
[0.78257 0 0 0.78197 0 0.22835] CT
1 LJ
0.639 LW
N
49.39 108.042 M
46.303 117.173 L
S
GR
GS
[0.78257 0 0 0.78197 0 0.22835] CT
1 LJ
0.639 LW
N
150.944 117.173 M
148.526 114.289 L
139.382 108.042 L
S
GR
GS
[0.78257 0 0 0.78197 0 0.22835] CT
1 LJ
0.639 LW
N
139.382 108.042 M
135.211 106.45 L
121.895 103.477 L
108.579 101.876 L
95.263 100.961 L
81.947 100.55 L
68.632 100.806 L
55.316 103.149 L
49.39 108.042 L
S
GR
GS
[0.78257 0 0 0.78197 0 0.22835] CT
1 LJ
0.639 LW
N
223.967 89.78 M
228.421 90.265 L
241.737 91.117 L
255.053 91.456 L
268.368 91.09 L
277.092 89.78 L
S
GR
GS
[0.78257 0 0 0.78197 0 0.22835] CT
1 LJ
0.639 LW
N
191.824 80.65 M
201.789 85.51 L
215.105 88.639 L
223.967 89.78 L
S
GR
GS
[0.78257 0 0 0.78197 0 0.22835] CT
1 LJ
0.639 LW
N
277.092 89.78 M
281.684 88.361 L
288.585 80.65 L
S
GR
GS
[0.78257 0 0 0.78197 0 0.22835] CT
1 LJ
0.639 LW
N
184.456 71.519 M
188.474 77.506 L
191.824 80.65 L
S
GR
GS
[0.78257 0 0 0.78197 0 0.22835] CT
1 LJ
0.639 LW
N
288.585 80.65 M
290.703 71.519 L
S
GR
GS
[0.78257 0 0 0.78197 0 0.22835] CT
1 LJ
0.639 LW
N
181.793 62.388 M
184.456 71.519 L
S
GR
GS
[0.78257 0 0 0.78197 0 0.22835] CT
1 LJ
0.639 LW
N
290.703 71.519 M
291.46 62.388 L
S
GR
GS
[0.78257 0 0 0.78197 0 0.22835] CT
1 LJ
0.639 LW
N
181.063 53.257 M
181.793 62.388 L
S
GR
GS
[0.78257 0 0 0.78197 0 0.22835] CT
1 LJ
0.639 LW
N
291.46 62.388 M
291.663 53.257 L
S
GR
GS
[0.78257 0 0 0.78197 0 0.22835] CT
1 LJ
0.639 LW
N
190.352 217.612 M
189.01 226.743 L
S
GR
GS
[0.78257 0 0 0.78197 0 0.22835] CT
1 LJ
0.639 LW
N
283.541 226.743 M
282.843 217.612 L
S
GR
GS
[0.78257 0 0 0.78197 0 0.22835] CT
1 LJ
0.639 LW
N
195.199 208.481 M
190.352 217.612 L
S
GR
GS
[0.78257 0 0 0.78197 0 0.22835] CT
1 LJ
0.639 LW
N
282.843 217.612 M
281.684 213.097 L
279.985 208.481 L
S
GR
GS
[0.78257 0 0 0.78197 0 0.22835] CT
1 LJ
0.639 LW
N
209.225 199.35 M
201.789 202.885 L
195.199 208.481 L
S
GR
GS
[0.78257 0 0 0.78197 0 0.22835] CT
1 LJ
0.639 LW
N
279.985 208.481 M
271.108 199.35 L
S
GR
GS
[0.78257 0 0 0.78197 0 0.22835] CT
1 LJ
0.639 LW
N
271.108 199.35 M
268.368 198.017 L
255.053 195.163 L
241.737 194.609 L
228.421 195.377 L
215.105 197.546 L
209.225 199.35 L
S
GR
GS
[0.78257 0 0 0.78197 0 0.22835] CT
1 LJ
0.639 LW
N
75.238 171.958 M
81.947 173.058 L
95.263 173.518 L
108.579 172.754 L
113.959 171.958 L
S
GR
GS
[0.78257 0 0 0.78197 0 0.22835] CT
1 LJ
0.639 LW
N
58.431 162.827 M
68.632 170.249 L
75.238 171.958 L
S
GR
GS
[0.78257 0 0 0.78197 0 0.22835] CT
1 LJ
0.639 LW
N
113.959 171.958 M
121.895 170.478 L
135.211 165.379 L
138.941 162.827 L
S
GR
GS
[0.78257 0 0 0.78197 0 0.22835] CT
1 LJ
0.639 LW
N
54.192 153.696 M
55.316 156.983 L
58.431 162.827 L
S
GR
GS
[0.78257 0 0 0.78197 0 0.22835] CT
1 LJ
0.639 LW
N
138.941 162.827 M
145.946 153.696 L
S
GR
GS
[0.78257 0 0 0.78197 0 0.22835] CT
1 LJ
0.639 LW
N
52.847 144.565 M
54.192 153.696 L
S
GR
GS
[0.78257 0 0 0.78197 0 0.22835] CT
1 LJ
0.639 LW
N
145.946 153.696 M
148.526 144.835 L
148.588 144.565 L
S
GR
GS
[0.78257 0 0 0.78197 0 0.22835] CT
1 LJ
0.639 LW
N
52.847 135.435 M
52.847 144.565 L
S
GR
GS
[0.78257 0 0 0.78197 0 0.22835] CT
1 LJ
0.639 LW
N
148.588 144.565 M
148.588 135.435 L
S
GR
GS
[0.78257 0 0 0.78197 0 0.22835] CT
1 LJ
0.639 LW
N
54.192 126.304 M
52.847 135.435 L
S
GR
GS
[0.78257 0 0 0.78197 0 0.22835] CT
1 LJ
0.639 LW
N
148.588 135.435 M
148.526 135.165 L
145.946 126.304 L
S
GR
GS
[0.78257 0 0 0.78197 0 0.22835] CT
1 LJ
0.639 LW
N
58.431 117.173 M
55.316 123.017 L
54.192 126.304 L
S
GR
GS
[0.78257 0 0 0.78197 0 0.22835] CT
1 LJ
0.639 LW
N
145.946 126.304 M
138.941 117.173 L
S
GR
GS
[0.78257 0 0 0.78197 0 0.22835] CT
1 LJ
0.639 LW
N
75.238 108.042 M
68.632 109.751 L
58.431 117.173 L
S
GR
GS
[0.78257 0 0 0.78197 0 0.22835] CT
1 LJ
0.639 LW
N
138.941 117.173 M
135.211 114.621 L
121.895 109.522 L
113.959 108.042 L
S
GR
GS
[0.78257 0 0 0.78197 0 0.22835] CT
1 LJ
0.639 LW
N
113.959 108.042 M
108.579 107.246 L
95.263 106.482 L
81.947 106.942 L
75.238 108.042 L
S
GR
GS
[0.78257 0 0 0.78197 0 0.22835] CT
1 LJ
0.639 LW
N
209.225 80.65 M
215.105 82.454 L
228.421 84.623 L
241.737 85.391 L
255.053 84.837 L
268.368 81.983 L
271.108 80.65 L
S
GR
GS
[0.78257 0 0 0.78197 0 0.22835] CT
1 LJ
0.639 LW
N
195.199 71.519 M
201.789 77.115 L
209.225 80.65 L
S
GR
GS
[0.78257 0 0 0.78197 0 0.22835] CT
1 LJ
0.639 LW
N
271.108 80.65 M
279.985 71.519 L
S
GR
GS
[0.78257 0 0 0.78197 0 0.22835] CT
1 LJ
0.639 LW
N
190.352 62.388 M
195.199 71.519 L
S
GR
GS
[0.78257 0 0 0.78197 0 0.22835] CT
1 LJ
0.639 LW
N
279.985 71.519 M
281.684 66.903 L
282.843 62.388 L
S
GR
GS
[0.78257 0 0 0.78197 0 0.22835] CT
1 LJ
0.639 LW
N
189.01 53.257 M
190.352 62.388 L
S
GR
GS
[0.78257 0 0 0.78197 0 0.22835] CT
1 LJ
0.639 LW
N
282.843 62.388 M
283.541 53.257 L
S
GR
GS
[0.78257 0 0 0.78197 0 0.22835] CT
1 LJ
0.639 LW
N
199.881 217.612 M
198.051 226.743 L
S
GR
GS
[0.78257 0 0 0.78197 0 0.22835] CT
1 LJ
0.639 LW
N
274.367 226.743 M
272.953 217.612 L
S
GR
GS
[0.78257 0 0 0.78197 0 0.22835] CT
1 LJ
0.639 LW
N
207.989 208.481 M
201.789 214.645 L
199.881 217.612 L
S
GR
GS
[0.78257 0 0 0.78197 0 0.22835] CT
1 LJ
0.639 LW
N
272.953 217.612 M
268.368 209.547 L
267.32 208.481 L
S
GR
GS
[0.78257 0 0 0.78197 0 0.22835] CT
1 LJ
0.639 LW
N
267.32 208.481 M
255.053 202.56 L
241.737 200.722 L
228.421 201.479 L
215.105 204.804 L
207.989 208.481 L
S
GR
GS
[0.78257 0 0 0.78197 0 0.22835] CT
1 LJ
0.639 LW
N
73.886 162.827 M
81.947 165.83 L
95.263 167.372 L
108.579 166.662 L
121.895 163.711 L
123.997 162.827 L
S
GR
GS
[0.78257 0 0 0.78197 0 0.22835] CT
1 LJ
0.639 LW
N
64.452 153.696 M
68.632 159.192 L
73.886 162.827 L
S
GR
GS
[0.78257 0 0 0.78197 0 0.22835] CT
1 LJ
0.639 LW
N
123.997 162.827 M
135.211 154.826 L
136.172 153.696 L
S
GR
GS
[0.78257 0 0 0.78197 0 0.22835] CT
1 LJ
0.639 LW
N
61.684 144.565 M
64.452 153.696 L
S
GR
GS
[0.78257 0 0 0.78197 0 0.22835] CT
1 LJ
0.639 LW
N
136.172 153.696 M
139.784 144.565 L
S
GR
GS
[0.78257 0 0 0.78197 0 0.22835] CT
1 LJ
0.639 LW
N
61.684 135.435 M
61.684 144.565 L
S
GR
GS
[0.78257 0 0 0.78197 0 0.22835] CT
1 LJ
0.639 LW
N
139.784 144.565 M
139.784 135.435 L
S
GR
GS
[0.78257 0 0 0.78197 0 0.22835] CT
1 LJ
0.639 LW
N
64.452 126.304 M
61.684 135.435 L
S
GR
GS
[0.78257 0 0 0.78197 0 0.22835] CT
1 LJ
0.639 LW
N
139.784 135.435 M
136.172 126.304 L
S
GR
GS
[0.78257 0 0 0.78197 0 0.22835] CT
1 LJ
0.639 LW
N
73.886 117.173 M
68.632 120.808 L
64.452 126.304 L
S
GR
GS
[0.78257 0 0 0.78197 0 0.22835] CT
1 LJ
0.639 LW
N
136.172 126.304 M
135.211 125.174 L
123.997 117.173 L
S
GR
GS
[0.78257 0 0 0.78197 0 0.22835] CT
1 LJ
0.639 LW
N
123.997 117.173 M
121.895 116.289 L
108.579 113.338 L
95.263 112.628 L
81.947 114.17 L
73.886 117.173 L
S
GR
GS
[0.78257 0 0 0.78197 0 0.22835] CT
1 LJ
0.639 LW
N
207.989 71.519 M
215.105 75.196 L
228.421 78.521 L
241.737 79.278 L
255.053 77.44 L
267.32 71.519 L
S
GR
GS
[0.78257 0 0 0.78197 0 0.22835] CT
1 LJ
0.639 LW
N
199.881 62.388 M
201.789 65.355 L
207.989 71.519 L
S
GR
GS
[0.78257 0 0 0.78197 0 0.22835] CT
1 LJ
0.639 LW
N
267.32 71.519 M
268.368 70.453 L
272.953 62.388 L
S
GR
GS
[0.78257 0 0 0.78197 0 0.22835] CT
1 LJ
0.639 LW
N
198.051 53.257 M
199.881 62.388 L
S
GR
GS
[0.78257 0 0 0.78197 0 0.22835] CT
1 LJ
0.639 LW
N
272.953 62.388 M
274.367 53.257 L
S
GR
GS
[0.78257 0 0 0.78197 0 0.22835] CT
1 LJ
0.639 LW
N
211.985 217.612 M
208.912 226.743 L
S
GR
GS
[0.78257 0 0 0.78197 0 0.22835] CT
1 LJ
0.639 LW
N
263.543 226.743 M
260.721 217.612 L
S
GR
GS
[0.78257 0 0 0.78197 0 0.22835] CT
1 LJ
0.639 LW
N
230.209 208.481 M
228.421 208.595 L
215.105 214.699 L
211.985 217.612 L
S
GR
GS
[0.78257 0 0 0.78197 0 0.22835] CT
1 LJ
0.639 LW
N
260.721 217.612 M
255.053 212.348 L
244.182 208.481 L
S
GR
GS
[0.78257 0 0 0.78197 0 0.22835] CT
1 LJ
0.639 LW
N
244.182 208.481 M
241.737 207.995 L
230.209 208.481 L
S
GR
GS
[0.78257 0 0 0.78197 0 0.22835] CT
1 LJ
0.639 LW
N
77.406 153.696 M
81.947 156.831 L
95.263 160.31 L
108.579 159.579 L
121.895 154.809 L
123.467 153.696 L
S
GR
GS
[0.78257 0 0 0.78197 0 0.22835] CT
1 LJ
0.639 LW
N
71.829 144.565 M
77.406 153.696 L
S
GR
GS
[0.78257 0 0 0.78197 0 0.22835] CT
1 LJ
0.639 LW
N
123.467 153.696 M
129.517 144.565 L
S
GR
GS
[0.78257 0 0 0.78197 0 0.22835] CT
1 LJ
0.639 LW
N
71.829 135.435 M
71.829 144.565 L
S
GR
GS
[0.78257 0 0 0.78197 0 0.22835] CT
1 LJ
0.639 LW
N
129.517 144.565 M
129.517 135.435 L
S
GR
GS
[0.78257 0 0 0.78197 0 0.22835] CT
1 LJ
0.639 LW
N
77.406 126.304 M
71.829 135.435 L
S
GR
GS
[0.78257 0 0 0.78197 0 0.22835] CT
1 LJ
0.639 LW
N
129.517 135.435 M
123.467 126.304 L
S
GR
GS
[0.78257 0 0 0.78197 0 0.22835] CT
1 LJ
0.639 LW
N
123.467 126.304 M
121.895 125.191 L
108.579 120.421 L
95.263 119.69 L
81.947 123.169 L
77.406 126.304 L
S
GR
GS
[0.78257 0 0 0.78197 0 0.22835] CT
1 LJ
0.639 LW
N
230.209 71.519 M
241.737 72.005 L
244.182 71.519 L
S
GR
GS
[0.78257 0 0 0.78197 0 0.22835] CT
1 LJ
0.639 LW
N
211.985 62.388 M
215.105 65.301 L
228.421 71.405 L
230.209 71.519 L
S
GR
GS
[0.78257 0 0 0.78197 0 0.22835] CT
1 LJ
0.639 LW
N
244.182 71.519 M
255.053 67.652 L
260.721 62.388 L
S
GR
GS
[0.78257 0 0 0.78197 0 0.22835] CT
1 LJ
0.639 LW
N
208.912 53.257 M
211.985 62.388 L
S
GR
GS
[0.78257 0 0 0.78197 0 0.22835] CT
1 LJ
0.639 LW
N
260.721 62.388 M
263.543 53.257 L
S
GR
GS
[0.78257 0 0 0.78197 0 0.22835] CT
1 LJ
0.639 LW
N
245.884 226.743 M
241.737 221.549 L
228.421 223.162 L
225.922 226.743 L
S
GR
GS
[0.78257 0 0 0.78197 0 0.22835] CT
1 LJ
0.639 LW
N
87.306 144.565 M
95.263 149.726 L
108.579 148.794 L
114.246 144.565 L
S
GR
GS
[0.78257 0 0 0.78197 0 0.22835] CT
1 LJ
0.639 LW
N
87.306 135.435 M
87.306 144.565 L
S
GR
GS
[0.78257 0 0 0.78197 0 0.22835] CT
1 LJ
0.639 LW
N
114.246 144.565 M
114.246 135.435 L
S
GR
GS
[0.78257 0 0 0.78197 0 0.22835] CT
1 LJ
0.639 LW
N
114.246 135.435 M
108.579 131.206 L
95.263 130.274 L
87.306 135.435 L
S
GR
GS
[0.78257 0 0 0.78197 0 0.22835] CT
1 LJ
0.639 LW
N
225.922 53.257 M
228.421 56.838 L
241.737 58.451 L
245.884 53.257 L
S
GR
GS
[0.78257 0 0 0.78197 0 0.22835] CT
1 0 0 RC
1 LJ
0.639 LW
N
42.851 191.814 M
41.989 190.702 L
S
GR
GS
[0.78257 0 0 0.78197 0 0.22835] CT
1 0 0 RC
1 LJ
0.639 LW
N
41.989 187.642 M
45.052 189.015 L
S
GR
GS
[0.78257 0 0 0.78197 0 0.22835] CT
1 0 0 RC
1 LJ
0.639 LW
N
44.604 180.644 M
41.989 179.511 L
S
GR
GS
[0.78257 0 0 0.78197 0 0.22835] CT
1 0 0 RC
1 LJ
0.639 LW
N
41.989 178.306 M
45.032 178.059 L
S
GR
GS
[0.78257 0 0 0.78197 0 0.22835] CT
1 0 0 RC
1 LJ
0.639 LW
N
46.399 170.213 M
41.989 171.695 L
S
GR
GS
[0.78257 0 0 0.78197 0 0.22835] CT
1 0 0 RC
1 LJ
0.639 LW
N
41.989 170.885 M
44.873 167.829 L
S
GR
GS
[0.78257 0 0 0.78197 0 0.22835] CT
1 0 0 RC
1 LJ
0.639 LW
N
47.479 157.218 M
41.989 161.381 L
S
GR
GS
[0.78257 0 0 0.78197 0 0.22835] CT
1 0 0 RC
1 LJ
0.639 LW
N
41.989 160.696 M
44.644 154.939 L
S
GR
GS
[0.78257 0 0 0.78197 0 0.22835] CT
1 0 0 RC
1 LJ
0.639 LW
N
47.389 139.438 M
41.989 143.632 L
S
GR
GS
[0.78257 0 0 0.78197 0 0.22835] CT
1 0 0 RC
1 LJ
0.639 LW
N
41.989 142.603 M
44.44 137.123 L
S
GR
GS
[0.78257 0 0 0.78197 0 0.22835] CT
1 0 0 RC
1 LJ
0.639 LW
N
46.167 116.67 M
41.989 118.381 L
S
GR
GS
[0.78257 0 0 0.78197 0 0.22835] CT
1 0 0 RC
1 LJ
0.639 LW
N
41.989 117.038 M
44.347 114.193 L
S
GR
GS
[0.78257 0 0 0.78197 0 0.22835] CT
1 0 0 RC
1 LJ
0.639 LW
N
44.328 90.815 M
41.989 90.158 L
S
GR
GS
[0.78257 0 0 0.78197 0 0.22835] CT
1 0 0 RC
1 LJ
0.639 LW
N
41.989 88.649 M
44.405 88.118 L
S
GR
GS
[0.78257 0 0 0.78197 0 0.22835] CT
1 0 0 RC
1 LJ
0.639 LW
N
72.89 192.379 M
69.893 187.462 L
74.851 190.39 L
S
GR
GS
[0.78257 0 0 0.78197 0 0.22835] CT
1 0 0 RC
1 LJ
0.639 LW
N
76.032 181.226 M
73.226 180.22 L
76.176 179.787 L
S
GR
GS
[0.78257 0 0 0.78197 0 0.22835] CT
1 0 0 RC
1 LJ
0.639 LW
N
79.081 170.334 M
76.375 173.345 L
77.346 169.414 L
S
GR
GS
[0.78257 0 0 0.78197 0 0.22835] CT
1 0 0 RC
1 LJ
0.639 LW
N
80.751 156.594 M
78.011 162.034 L
77.869 155.945 L
S
GR
GS
[0.78257 0 0 0.78197 0 0.22835] CT
1 0 0 RC
1 LJ
0.639 LW
N
80.338 138.1 M
77.445 143.356 L
77.524 137.358 L
S
GR
GS
[0.78257 0 0 0.78197 0 0.22835] CT
1 0 0 RC
1 LJ
0.639 LW
N
78.015 114.951 M
74.915 117.487 L
76.457 113.79 L
S
GR
GS
[0.78257 0 0 0.78197 0 0.22835] CT
1 0 0 RC
1 LJ
0.639 LW
N
74.763 89.206 M
71.489 87.635 L
75.117 87.48 L
S
GR
GS
[0.78257 0 0 0.78197 0 0.22835] CT
1 0 0 RC
1 LJ
0.639 LW
N
106.403 193.087 M
106.514 189.747 L
107.988 192.746 L
S
GR
GS
[0.78257 0 0 0.78197 0 0.22835] CT
1 0 0 RC
1 LJ
0.639 LW
N
110.007 182.173 M
110.482 182.941 L
109.701 182.487 L
S
GR
GS
[0.78257 0 0 0.78197 0 0.22835] CT
1 0 0 RC
1 LJ
0.639 LW
N
113.399 170.753 M
114.231 175.353 L
111.332 171.686 L
S
GR
GS
[0.78257 0 0 0.78197 0 0.22835] CT
1 0 0 RC
1 LJ
0.639 LW
N
115.149 155.943 M
116.179 162.483 L
112.193 157.197 L
S
GR
GS
[0.78257 0 0 0.78197 0 0.22835] CT
1 0 0 RC
1 LJ
0.639 LW
N
114.519 136.287 M
115.505 142.057 L
111.92 137.43 L
S
GR
GS
[0.78257 0 0 0.78197 0 0.22835] CT
1 0 0 RC
1 LJ
0.639 LW
N
111.775 112.372 M
112.494 114.987 L
110.629 113.018 L
S
GR
GS
[0.78257 0 0 0.78197 0 0.22835] CT
1 0 0 RC
1 LJ
0.639 LW
N
108.073 86.583 M
108.414 84.989 L
108.864 86.556 L
S
GR
GS
[0.78257 0 0 0.78197 0 0.22835] CT
1 0 0 RC
1 LJ
0.639 LW
N
140.49 193.637 M
144.007 191.906 L
141.718 195.089 L
S
GR
GS
[0.78257 0 0 0.78197 0 0.22835] CT
1 0 0 RC
1 LJ
0.639 LW
N
143.432 183.084 M
146.936 185.511 L
142.702 185.019 L
S
GR
GS
[0.78257 0 0 0.78197 0 0.22835] CT
1 0 0 RC
1 LJ
0.639 LW
N
146.111 171.295 M
149.703 177.251 L
143.731 173.687 L
S
GR
GS
[0.78257 0 0 0.78197 0 0.22835] CT
1 0 0 RC
1 LJ
0.639 LW
N
147.398 155.541 M
151.142 162.908 L
144.371 158.169 L
S
GR
GS
[0.78257 0 0 0.78197 0 0.22835] CT
1 0 0 RC
1 LJ
0.639 LW
N
146.749 134.763 M
150.644 140.829 L
144.353 137.309 L
S
GR
GS
[0.78257 0 0 0.78197 0 0.22835] CT
1 0 0 RC
1 LJ
0.639 LW
N
144.44 110.023 M
148.421 112.625 L
143.683 112.203 L
S
GR
GS
[0.78257 0 0 0.78197 0 0.22835] CT
1 0 0 RC
1 LJ
0.639 LW
N
141.442 84.053 M
145.41 82.488 L
142.645 85.736 L
S
GR
GS
[0.78257 0 0 0.78197 0 0.22835] CT
1 0 0 RC
1 LJ
0.639 LW
N
172.005 193.799 M
177.79 193.029 L
173.049 196.43 L
S
GR
GS
[0.78257 0 0 0.78197 0 0.22835] CT
1 0 0 RC
1 LJ
0.639 LW
N
173.441 183.577 M
178.445 186.847 L
172.491 186.317 L
S
GR
GS
[0.78257 0 0 0.78197 0 0.22835] CT
1 0 0 RC
1 LJ
0.639 LW
N
174.652 171.731 M
179.064 178.237 L
172.11 174.573 L
S
GR
GS
[0.78257 0 0 0.78197 0 0.22835] CT
1 0 0 RC
1 LJ
0.639 LW
N
175.128 155.555 M
179.386 163.128 L
172.065 158.45 L
S
GR
GS
[0.78257 0 0 0.78197 0 0.22835] CT
1 0 0 RC
1 LJ
0.639 LW
N
174.668 134.17 M
179.275 140.191 L
172.376 137.047 L
S
GR
GS
[0.78257 0 0 0.78197 0 0.22835] CT
1 0 0 RC
1 LJ
0.639 LW
N
173.466 108.893 M
178.777 111.398 L
172.912 111.688 L
S
GR
GS
[0.78257 0 0 0.78197 0 0.22835] CT
1 0 0 RC
1 LJ
0.639 LW
N
172.028 82.682 M
178.104 81.189 L
173.446 85.366 L
S
GR
GS
[0.78257 0 0 0.78197 0 0.22835] CT
1 0 0 RC
1 LJ
0.639 LW
N
198.89 193.504 M
204.847 192.641 L
199.998 196.206 L
S
GR
GS
[0.78257 0 0 0.78197 0 0.22835] CT
1 0 0 RC
1 LJ
0.639 LW
N
198.611 183.443 M
202.952 186.385 L
197.737 185.832 L
S
GR
GS
[0.78257 0 0 0.78197 0 0.22835] CT
1 0 0 RC
1 LJ
0.639 LW
N
198.218 171.877 M
201.162 177.896 L
195.732 173.97 L
S
GR
GS
[0.78257 0 0 0.78197 0 0.22835] CT
1 0 0 RC
1 LJ
0.639 LW
N
197.877 155.982 M
200.232 163.052 L
194.826 157.922 L
S
GR
GS
[0.78257 0 0 0.78197 0 0.22835] CT
1 0 0 RC
1 LJ
0.639 LW
N
197.731 134.76 M
200.553 140.412 L
195.403 136.753 L
S
GR
GS
[0.78257 0 0 0.78197 0 0.22835] CT
1 0 0 RC
1 LJ
0.639 LW
N
197.843 109.46 M
201.992 111.822 L
197.219 111.69 L
S
GR
GS
[0.78257 0 0 0.78197 0 0.22835] CT
1 0 0 RC
1 LJ
0.639 LW
N
198.164 83.049 M
203.94 81.638 L
199.508 85.601 L
S
GR
GS
[0.78257 0 0 0.78197 0 0.22835] CT
1 0 0 RC
1 LJ
0.639 LW
N
221.038 192.876 M
225 190.906 L
222.431 194.509 L
S
GR
GS
[0.78257 0 0 0.78197 0 0.22835] CT
1 0 0 RC
1 LJ
0.639 LW
N
219.558 182.738 M
221.354 184.32 L
219.025 183.769 L
S
GR
GS
[0.78257 0 0 0.78197 0 0.22835] CT
1 0 0 RC
1 LJ
0.639 LW
N
218.101 171.671 M
217.909 176.372 L
215.866 172.133 L
S
GR
GS
[0.78257 0 0 0.78197 0 0.22835] CT
1 0 0 RC
1 LJ
0.639 LW
N
217.281 156.639 M
216.119 162.711 L
214.287 156.807 L
S
GR
GS
[0.78257 0 0 0.78197 0 0.22835] CT
1 0 0 RC
1 LJ
0.639 LW
N
217.444 136.282 M
216.738 141.398 L
214.954 136.552 L
S
GR
GS
[0.78257 0 0 0.78197 0 0.22835] CT
1 0 0 RC
1 LJ
0.639 LW
N
218.522 111.483 M
219.505 113.72 L
217.585 112.209 L
S
GR
GS
[0.78257 0 0 0.78197 0 0.22835] CT
1 0 0 RC
1 LJ
0.639 LW
N
220.059 84.999 M
223.254 83.647 L
221.071 86.343 L
S
GR
GS
[0.78257 0 0 0.78197 0 0.22835] CT
1 0 0 RC
1 LJ
0.639 LW
N
240.339 192.181 M
240.98 188.556 L
242.12 192.056 L
S
GR
GS
[0.78257 0 0 0.78197 0 0.22835] CT
1 0 0 RC
1 LJ
0.639 LW
N
238.679 181.761 M
237.12 181.523 L
238.608 180.999 L
S
GR
GS
[0.78257 0 0 0.78197 0 0.22835] CT
1 0 0 RC
1 LJ
0.639 LW
N
237.148 171.2 M
233.474 174.307 L
235.253 169.837 L
S
GR
GS
[0.78257 0 0 0.78197 0 0.22835] CT
1 0 0 RC
1 LJ
0.639 LW
N
236.39 157.252 M
231.579 162.249 L
233.472 155.575 L
S
GR
GS
[0.78257 0 0 0.78197 0 0.22835] CT
1 0 0 RC
1 LJ
0.639 LW
N
236.725 138.096 M
232.234 142.734 L
234.014 136.528 L
S
GR
GS
[0.78257 0 0 0.78197 0 0.22835] CT
1 0 0 RC
1 LJ
0.639 LW
N
238.013 114.111 M
235.163 116.29 L
236.652 113.026 L
S
GR
GS
[0.78257 0 0 0.78197 0 0.22835] CT
1 0 0 RC
1 LJ
0.639 LW
N
239.71 87.709 M
239.131 86.368 L
240.273 87.279 L
S
GR
GS
[0.78257 0 0 0.78197 0 0.22835] CT
1 0 0 RC
1 LJ
0.639 LW
N
259.885 191.711 M
257.279 186.582 L
261.992 189.881 L
S
GR
GS
[0.78257 0 0 0.78197 0 0.22835] CT
1 0 0 RC
1 LJ
0.639 LW
N
259.142 180.922 M
254.833 179.173 L
259.458 178.689 L
S
GR
GS
[0.78257 0 0 0.78197 0 0.22835] CT
1 0 0 RC
1 LJ
0.639 LW
N
258.556 170.663 M
252.523 172.572 L
256.948 168.049 L
S
GR
GS
[0.78257 0 0 0.78197 0 0.22835] CT
1 0 0 RC
1 LJ
0.639 LW
N
258.374 157.56 M
251.322 161.861 L
255.521 154.747 L
S
GR
GS
[0.78257 0 0 0.78197 0 0.22835] CT
1 0 0 RC
1 LJ
0.639 LW
N
258.674 139.436 M
251.737 143.856 L
255.778 136.692 L
S
GR
GS
[0.78257 0 0 0.78197 0 0.22835] CT
1 0 0 RC
1 LJ
0.639 LW
N
259.328 116.234 M
253.593 118.449 L
257.611 113.796 L
S
GR
GS
[0.78257 0 0 0.78197 0 0.22835] CT
1 0 0 RC
1 LJ
0.639 LW
N
260.061 90.037 M
256.108 88.653 L
260.247 88.014 L
S
GR
GS
[0.78257 0 0 0.78197 0 0.22835] CT
1 0 0 RC
1 LJ
0.639 LW
N
55.316 199.35 M
41.989 188.871 L
S
GR
GS
[0.78257 0 0 0.78197 0 0.22835] CT
1 0 0 RC
1 LJ
0.639 LW
N
55.316 181.089 M
41.989 178.883 L
S
GR
GS
[0.78257 0 0 0.78197 0 0.22835] CT
1 0 0 RC
1 LJ
0.639 LW
N
55.316 162.827 M
41.989 171.355 L
S
GR
GS
[0.78257 0 0 0.78197 0 0.22835] CT
1 0 0 RC
1 LJ
0.639 LW
N
55.316 144.565 M
41.989 161.145 L
S
GR
GS
[0.78257 0 0 0.78197 0 0.22835] CT
1 0 0 RC
1 LJ
0.639 LW
N
55.316 126.304 M
41.989 143.281 L
S
GR
GS
[0.78257 0 0 0.78197 0 0.22835] CT
1 0 0 RC
1 LJ
0.639 LW
N
55.316 108.042 M
41.989 117.833 L
S
GR
GS
[0.78257 0 0 0.78197 0 0.22835] CT
1 0 0 RC
1 LJ
0.639 LW
N
55.316 89.78 M
41.989 89.399 L
S
GR
GS
[0.78257 0 0 0.78197 0 0.22835] CT
1 0 0 RC
1 LJ
0.639 LW
N
81.947 199.35 M
69.893 187.462 L
S
GR
GS
[0.78257 0 0 0.78197 0 0.22835] CT
1 0 0 RC
1 LJ
0.639 LW
N
81.947 181.089 M
73.226 180.22 L
S
GR
GS
[0.78257 0 0 0.78197 0 0.22835] CT
1 0 0 RC
1 LJ
0.639 LW
N
81.947 162.827 M
76.375 173.345 L
S
GR
GS
[0.78257 0 0 0.78197 0 0.22835] CT
1 0 0 RC
1 LJ
0.639 LW
N
81.947 144.565 M
78.011 162.034 L
S
GR
GS
[0.78257 0 0 0.78197 0 0.22835] CT
1 0 0 RC
1 LJ
0.639 LW
N
81.947 126.304 M
77.445 143.356 L
S
GR
GS
[0.78257 0 0 0.78197 0 0.22835] CT
1 0 0 RC
1 LJ
0.639 LW
N
81.947 108.042 M
74.915 117.487 L
S
GR
GS
[0.78257 0 0 0.78197 0 0.22835] CT
1 0 0 RC
1 LJ
0.639 LW
N
81.947 89.78 M
71.489 87.635 L
S
GR
GS
[0.78257 0 0 0.78197 0 0.22835] CT
1 0 0 RC
1 LJ
0.639 LW
N
108.579 199.35 M
106.514 189.747 L
S
GR
GS
[0.78257 0 0 0.78197 0 0.22835] CT
1 0 0 RC
1 LJ
0.639 LW
N
108.579 181.089 M
110.482 182.941 L
S
GR
GS
[0.78257 0 0 0.78197 0 0.22835] CT
1 0 0 RC
1 LJ
0.639 LW
N
108.579 162.827 M
114.231 175.353 L
S
GR
GS
[0.78257 0 0 0.78197 0 0.22835] CT
1 0 0 RC
1 LJ
0.639 LW
N
108.579 144.565 M
116.179 162.483 L
S
GR
GS
[0.78257 0 0 0.78197 0 0.22835] CT
1 0 0 RC
1 LJ
0.639 LW
N
108.579 126.304 M
115.505 142.057 L
S
GR
GS
[0.78257 0 0 0.78197 0 0.22835] CT
1 0 0 RC
1 LJ
0.639 LW
N
108.579 108.042 M
112.494 114.987 L
S
GR
GS
[0.78257 0 0 0.78197 0 0.22835] CT
1 0 0 RC
1 LJ
0.639 LW
N
108.579 89.78 M
108.414 84.989 L
S
GR
GS
[0.78257 0 0 0.78197 0 0.22835] CT
1 0 0 RC
1 LJ
0.639 LW
N
135.211 199.35 M
144.007 191.906 L
S
GR
GS
[0.78257 0 0 0.78197 0 0.22835] CT
1 0 0 RC
1 LJ
0.639 LW
N
135.211 181.089 M
146.936 185.511 L
S
GR
GS
[0.78257 0 0 0.78197 0 0.22835] CT
1 0 0 RC
1 LJ
0.639 LW
N
135.211 162.827 M
149.703 177.251 L
S
GR
GS
[0.78257 0 0 0.78197 0 0.22835] CT
1 0 0 RC
1 LJ
0.639 LW
N
135.211 144.565 M
151.142 162.908 L
S
GR
GS
[0.78257 0 0 0.78197 0 0.22835] CT
1 0 0 RC
1 LJ
0.639 LW
N
135.211 126.304 M
150.644 140.829 L
S
GR
GS
[0.78257 0 0 0.78197 0 0.22835] CT
1 0 0 RC
1 LJ
0.639 LW
N
135.211 108.042 M
148.421 112.625 L
S
GR
GS
[0.78257 0 0 0.78197 0 0.22835] CT
1 0 0 RC
1 LJ
0.639 LW
N
135.211 89.78 M
145.41 82.488 L
S
GR
GS
[0.78257 0 0 0.78197 0 0.22835] CT
1 0 0 RC
1 LJ
0.639 LW
N
161.842 199.35 M
177.79 193.029 L
S
GR
GS
[0.78257 0 0 0.78197 0 0.22835] CT
1 0 0 RC
1 LJ
0.639 LW
N
161.842 181.089 M
178.445 186.847 L
S
GR
GS
[0.78257 0 0 0.78197 0 0.22835] CT
1 0 0 RC
1 LJ
0.639 LW
N
161.842 162.827 M
179.064 178.237 L
S
GR
GS
[0.78257 0 0 0.78197 0 0.22835] CT
1 0 0 RC
1 LJ
0.639 LW
N
161.842 144.565 M
179.386 163.128 L
S
GR
GS
[0.78257 0 0 0.78197 0 0.22835] CT
1 0 0 RC
1 LJ
0.639 LW
N
161.842 126.304 M
179.275 140.191 L
S
GR
GS
[0.78257 0 0 0.78197 0 0.22835] CT
1 0 0 RC
1 LJ
0.639 LW
N
161.842 108.042 M
178.777 111.398 L
S
GR
GS
[0.78257 0 0 0.78197 0 0.22835] CT
1 0 0 RC
1 LJ
0.639 LW
N
161.842 89.78 M
178.104 81.189 L
S
GR
GS
[0.78257 0 0 0.78197 0 0.22835] CT
1 0 0 RC
1 LJ
0.639 LW
N
188.474 199.35 M
204.847 192.641 L
S
GR
GS
[0.78257 0 0 0.78197 0 0.22835] CT
1 0 0 RC
1 LJ
0.639 LW
N
188.474 181.089 M
202.952 186.385 L
S
GR
GS
[0.78257 0 0 0.78197 0 0.22835] CT
1 0 0 RC
1 LJ
0.639 LW
N
188.474 162.827 M
201.162 177.896 L
S
GR
GS
[0.78257 0 0 0.78197 0 0.22835] CT
1 0 0 RC
1 LJ
0.639 LW
N
188.474 144.565 M
200.232 163.052 L
S
GR
GS
[0.78257 0 0 0.78197 0 0.22835] CT
1 0 0 RC
1 LJ
0.639 LW
N
188.474 126.304 M
200.553 140.412 L
S
GR
GS
[0.78257 0 0 0.78197 0 0.22835] CT
1 0 0 RC
1 LJ
0.639 LW
N
188.474 108.042 M
201.992 111.822 L
S
GR
GS
[0.78257 0 0 0.78197 0 0.22835] CT
1 0 0 RC
1 LJ
0.639 LW
N
188.474 89.78 M
203.94 81.638 L
S
GR
GS
[0.78257 0 0 0.78197 0 0.22835] CT
1 0 0 RC
1 LJ
0.639 LW
N
215.105 199.35 M
225 190.906 L
S
GR
GS
[0.78257 0 0 0.78197 0 0.22835] CT
1 0 0 RC
1 LJ
0.639 LW
N
215.105 181.089 M
221.354 184.32 L
S
GR
GS
[0.78257 0 0 0.78197 0 0.22835] CT
1 0 0 RC
1 LJ
0.639 LW
N
215.105 162.827 M
217.909 176.372 L
S
GR
GS
[0.78257 0 0 0.78197 0 0.22835] CT
1 0 0 RC
1 LJ
0.639 LW
N
215.105 144.565 M
216.119 162.711 L
S
GR
GS
[0.78257 0 0 0.78197 0 0.22835] CT
1 0 0 RC
1 LJ
0.639 LW
N
215.105 126.304 M
216.738 141.398 L
S
GR
GS
[0.78257 0 0 0.78197 0 0.22835] CT
1 0 0 RC
1 LJ
0.639 LW
N
215.105 108.042 M
219.505 113.72 L
S
GR
GS
[0.78257 0 0 0.78197 0 0.22835] CT
1 0 0 RC
1 LJ
0.639 LW
N
215.105 89.78 M
223.254 83.647 L
S
GR
GS
[0.78257 0 0 0.78197 0 0.22835] CT
1 0 0 RC
1 LJ
0.639 LW
N
241.737 199.35 M
240.98 188.556 L
S
GR
GS
[0.78257 0 0 0.78197 0 0.22835] CT
1 0 0 RC
1 LJ
0.639 LW
N
241.737 181.089 M
237.12 181.523 L
S
GR
GS
[0.78257 0 0 0.78197 0 0.22835] CT
1 0 0 RC
1 LJ
0.639 LW
N
241.737 162.827 M
233.474 174.307 L
S
GR
GS
[0.78257 0 0 0.78197 0 0.22835] CT
1 0 0 RC
1 LJ
0.639 LW
N
241.737 144.565 M
231.579 162.249 L
S
GR
GS
[0.78257 0 0 0.78197 0 0.22835] CT
1 0 0 RC
1 LJ
0.639 LW
N
241.737 126.304 M
232.234 142.734 L
S
GR
GS
[0.78257 0 0 0.78197 0 0.22835] CT
1 0 0 RC
1 LJ
0.639 LW
N
241.737 108.042 M
235.163 116.29 L
S
GR
GS
[0.78257 0 0 0.78197 0 0.22835] CT
1 0 0 RC
1 LJ
0.639 LW
N
241.737 89.78 M
239.131 86.368 L
S
GR
GS
[0.78257 0 0 0.78197 0 0.22835] CT
1 0 0 RC
1 LJ
0.639 LW
N
268.368 199.35 M
257.279 186.582 L
S
GR
GS
[0.78257 0 0 0.78197 0 0.22835] CT
1 0 0 RC
1 LJ
0.639 LW
N
268.368 181.089 M
254.833 179.173 L
S
GR
GS
[0.78257 0 0 0.78197 0 0.22835] CT
1 0 0 RC
1 LJ
0.639 LW
N
268.368 162.827 M
252.523 172.572 L
S
GR
GS
[0.78257 0 0 0.78197 0 0.22835] CT
1 0 0 RC
1 LJ
0.639 LW
N
268.368 144.565 M
251.322 161.861 L
S
GR
GS
[0.78257 0 0 0.78197 0 0.22835] CT
1 0 0 RC
1 LJ
0.639 LW
N
268.368 126.304 M
251.737 143.856 L
S
GR
GS
[0.78257 0 0 0.78197 0 0.22835] CT
1 0 0 RC
1 LJ
0.639 LW
N
268.368 108.042 M
253.593 118.449 L
S
GR
GS
[0.78257 0 0 0.78197 0 0.22835] CT
1 0 0 RC
1 LJ
0.639 LW
N
268.368 89.78 M
256.108 88.653 L
S
GR
GS
[0.78257 0 0 0.78197 0 0.22835] CT
0.149 GC
2 setlinecap
1 LJ
0.639 LW
N
42 226.743 M
295 226.743 L
S
GR
GS
[0.78257 0 0 0.78197 0 0.22835] CT
0.149 GC
2 setlinecap
1 LJ
0.639 LW
N
42 53.257 M
295 53.257 L
S
GR
GS
[0.78257 0 0 0.78197 0 0.22835] CT
0.149 GC
2 setlinecap
1 LJ
0.639 LW
N
42 226.743 M
42 224.213 L
S
GR
GS
[0.78257 0 0 0.78197 0 0.22835] CT
0.149 GC
2 setlinecap
1 LJ
0.639 LW
N
88.019 226.743 M
88.019 224.213 L
S
GR
GS
[0.78257 0 0 0.78197 0 0.22835] CT
0.149 GC
2 setlinecap
1 LJ
0.639 LW
N
134.037 226.743 M
134.037 224.213 L
S
GR
GS
[0.78257 0 0 0.78197 0 0.22835] CT
0.149 GC
2 setlinecap
1 LJ
0.639 LW
N
180.056 226.743 M
180.056 224.213 L
S
GR
GS
[0.78257 0 0 0.78197 0 0.22835] CT
0.149 GC
2 setlinecap
1 LJ
0.639 LW
N
226.074 226.743 M
226.074 224.213 L
S
GR
GS
[0.78257 0 0 0.78197 0 0.22835] CT
0.149 GC
2 setlinecap
1 LJ
0.639 LW
N
272.093 226.743 M
272.093 224.213 L
S
GR
GS
[0.78257 0 0 0.78197 0 0.22835] CT
0.149 GC
2 setlinecap
1 LJ
0.639 LW
N
42 53.257 M
42 55.787 L
S
GR
GS
[0.78257 0 0 0.78197 0 0.22835] CT
0.149 GC
2 setlinecap
1 LJ
0.639 LW
N
88.019 53.257 M
88.019 55.787 L
S
GR
GS
[0.78257 0 0 0.78197 0 0.22835] CT
0.149 GC
2 setlinecap
1 LJ
0.639 LW
N
134.037 53.257 M
134.037 55.787 L
S
GR
GS
[0.78257 0 0 0.78197 0 0.22835] CT
0.149 GC
2 setlinecap
1 LJ
0.639 LW
N
180.056 53.257 M
180.056 55.787 L
S
GR
GS
[0.78257 0 0 0.78197 0 0.22835] CT
0.149 GC
2 setlinecap
1 LJ
0.639 LW
N
226.074 53.257 M
226.074 55.787 L
S
GR
GS
[0.78257 0 0 0.78197 0 0.22835] CT
0.149 GC
2 setlinecap
1 LJ
0.639 LW
N
272.093 53.257 M
272.093 55.787 L
S
GR
GS
[0.78257 0 0 0.78197 32.86798 180.93196] CT
0.149 GC
/Helvetica 12.139 F
GS
[1 0 0 1 0 0] CT
-4 12 moveto 
1 -1 scale
(0) t 
GR
GR
GS
[0.78257 0 0 0.78197 68.88073 180.93196] CT
0.149 GC
/Helvetica 12.139 F
GS
[1 0 0 1 0 0] CT
-4 12 moveto 
1 -1 scale
(1) t 
GR
GR
GS
[0.78257 0 0 0.78197 104.89348 180.93196] CT
0.149 GC
/Helvetica 12.139 F
GS
[1 0 0 1 0 0] CT
-4 12 moveto 
1 -1 scale
(2) t 
GR
GR
GS
[0.78257 0 0 0.78197 140.90622 180.93196] CT
0.149 GC
/Helvetica 12.139 F
GS
[1 0 0 1 0 0] CT
-4 12 moveto 
1 -1 scale
(3) t 
GR
GR
GS
[0.78257 0 0 0.78197 176.91898 180.93196] CT
0.149 GC
/Helvetica 12.139 F
GS
[1 0 0 1 0 0] CT
-4 12 moveto 
1 -1 scale
(4) t 
GR
GR
GS
[0.78257 0 0 0.78197 212.93171 180.93196] CT
0.149 GC
/Helvetica 12.139 F
GS
[1 0 0 1 0 0] CT
-4 12 moveto 
1 -1 scale
(5) t 
GR
GR
GS
[0.78257 0 0 0.78197 0 0.22835] CT
0.149 GC
2 setlinecap
1 LJ
0.639 LW
N
42 226.743 M
42 53.257 L
S
GR
GS
[0.78257 0 0 0.78197 0 0.22835] CT
0.149 GC
2 setlinecap
1 LJ
0.639 LW
N
295 226.743 M
295 53.257 L
S
GR
GS
[0.78257 0 0 0.78197 0 0.22835] CT
0.149 GC
2 setlinecap
1 LJ
0.639 LW
N
42 226.743 M
44.53 226.743 L
S
GR
GS
[0.78257 0 0 0.78197 0 0.22835] CT
0.149 GC
2 setlinecap
1 LJ
0.639 LW
N
42 180.724 M
44.53 180.724 L
S
GR
GS
[0.78257 0 0 0.78197 0 0.22835] CT
0.149 GC
2 setlinecap
1 LJ
0.639 LW
N
42 134.706 M
44.53 134.706 L
S
GR
GS
[0.78257 0 0 0.78197 0 0.22835] CT
0.149 GC
2 setlinecap
1 LJ
0.639 LW
N
42 88.687 M
44.53 88.687 L
S
GR
GS
[0.78257 0 0 0.78197 0 0.22835] CT
0.149 GC
2 setlinecap
1 LJ
0.639 LW
N
295 226.743 M
292.47 226.743 L
S
GR
GS
[0.78257 0 0 0.78197 0 0.22835] CT
0.149 GC
2 setlinecap
1 LJ
0.639 LW
N
295 180.724 M
292.47 180.724 L
S
GR
GS
[0.78257 0 0 0.78197 0 0.22835] CT
0.149 GC
2 setlinecap
1 LJ
0.639 LW
N
295 134.706 M
292.47 134.706 L
S
GR
GS
[0.78257 0 0 0.78197 0 0.22835] CT
0.149 GC
2 setlinecap
1 LJ
0.639 LW
N
295 88.687 M
292.47 88.687 L
S
GR
GS
[0.78257 0 0 0.78197 29.46814 177.53474] CT
0.149 GC
/Helvetica 12.139 F
GS
[1 0 0 1 0 0] CT
-8 4.5 moveto 
1 -1 scale
(0) t 
GR
GR
GS
[0.78257 0 0 0.78197 29.46814 141.54958] CT
0.149 GC
/Helvetica 12.139 F
GS
[1 0 0 1 0 0] CT
-8 4.5 moveto 
1 -1 scale
(1) t 
GR
GR
GS
[0.78257 0 0 0.78197 29.46814 105.56443] CT
0.149 GC
/Helvetica 12.139 F
GS
[1 0 0 1 0 0] CT
-8 4.5 moveto 
1 -1 scale
(2) t 
GR
GR
GS
[0.78257 0 0 0.78197 29.46814 69.57927] CT
0.149 GC
/Helvetica 12.139 F
GS
[1 0 0 1 0 0] CT
-8 4.5 moveto 
1 -1 scale
(3) t 
GR
GR
%%Trailer
%%Pages: 1
%%EOF
