%!PS-Adobe-3.0 EPSF-3.0
%%Creator: (MATLAB, The Mathworks, Inc. Version 9.10.0.1684407 \(R2021a\) Update 3. Operating System: Linux)
%%Title: /home/adoan/Code/PRoSA_PI-ESN_Git/pi-esn/Results/MFE_results/Figures/FIG1_5.eps
%%CreationDate: 2021-07-21T18:45:22
%%Pages: (atend)
%%BoundingBox:     0     0   255   227
%%LanguageLevel: 3
%%EndComments
%%BeginProlog
%%BeginResource: procset (Apache XML Graphics Std ProcSet) 1.2 0
%%Version: 1.2 0
%%Copyright: (Copyright 2001-2003,2010 The Apache Software Foundation. License terms: http://www.apache.org/licenses/LICENSE-2.0)
/bd{bind def}bind def
/ld{load def}bd
/GR/grestore ld
/GS/gsave ld
/RM/rmoveto ld
/C/curveto ld
/t/show ld
/L/lineto ld
/ML/setmiterlimit ld
/CT/concat ld
/f/fill ld
/N/newpath ld
/S/stroke ld
/CC/setcmykcolor ld
/A/ashow ld
/cp/closepath ld
/RC/setrgbcolor ld
/LJ/setlinejoin ld
/GC/setgray ld
/LW/setlinewidth ld
/M/moveto ld
/re {4 2 roll M
1 index 0 rlineto
0 exch rlineto
neg 0 rlineto
cp } bd
/_ctm matrix def
/_tm matrix def
/BT { _ctm currentmatrix pop matrix _tm copy pop 0 0 moveto } bd
/ET { _ctm setmatrix } bd
/iTm { _ctm setmatrix _tm concat } bd
/Tm { _tm astore pop iTm 0 0 moveto } bd
/ux 0.0 def
/uy 0.0 def
/F {
  /Tp exch def
  /Tf exch def
  Tf findfont Tp scalefont setfont
  /cf Tf def  /cs Tp def
} bd
/ULS {currentpoint /uy exch def /ux exch def} bd
/ULE {
  /Tcx currentpoint pop def
  gsave
  newpath
  cf findfont cs scalefont dup
  /FontMatrix get 0 get /Ts exch def /FontInfo get dup
  /UnderlinePosition get Ts mul /To exch def
  /UnderlineThickness get Ts mul /Tt exch def
  ux uy To add moveto  Tcx uy To add lineto
  Tt setlinewidth stroke
  grestore
} bd
/OLE {
  /Tcx currentpoint pop def
  gsave
  newpath
  cf findfont cs scalefont dup
  /FontMatrix get 0 get /Ts exch def /FontInfo get dup
  /UnderlinePosition get Ts mul /To exch def
  /UnderlineThickness get Ts mul /Tt exch def
  ux uy To add cs add moveto Tcx uy To add cs add lineto
  Tt setlinewidth stroke
  grestore
} bd
/SOE {
  /Tcx currentpoint pop def
  gsave
  newpath
  cf findfont cs scalefont dup
  /FontMatrix get 0 get /Ts exch def /FontInfo get dup
  /UnderlinePosition get Ts mul /To exch def
  /UnderlineThickness get Ts mul /Tt exch def
  ux uy To add cs 10 mul 26 idiv add moveto Tcx uy To add cs 10 mul 26 idiv add lineto
  Tt setlinewidth stroke
  grestore
} bd
/QT {
/Y22 exch store
/X22 exch store
/Y21 exch store
/X21 exch store
currentpoint
/Y21 load 2 mul add 3 div exch
/X21 load 2 mul add 3 div exch
/X21 load 2 mul /X22 load add 3 div
/Y21 load 2 mul /Y22 load add 3 div
/X22 load /Y22 load curveto
} bd
/SSPD {
dup length /d exch dict def
{
/v exch def
/k exch def
currentpagedevice k known {
/cpdv currentpagedevice k get def
v cpdv ne {
/upd false def
/nullv v type /nulltype eq def
/nullcpdv cpdv type /nulltype eq def
nullv nullcpdv or
{
/upd true def
} {
/sametype v type cpdv type eq def
sametype {
v type /arraytype eq {
/vlen v length def
/cpdvlen cpdv length def
vlen cpdvlen eq {
0 1 vlen 1 sub {
/i exch def
/obj v i get def
/cpdobj cpdv i get def
obj cpdobj ne {
/upd true def
exit
} if
} for
} {
/upd true def
} ifelse
} {
v type /dicttype eq {
v {
/dv exch def
/dk exch def
/cpddv cpdv dk get def
dv cpddv ne {
/upd true def
exit
} if
} forall
} {
/upd true def
} ifelse
} ifelse
} if
} ifelse
upd true eq {
d k v put
} if
} if
} if
} forall
d length 0 gt {
d setpagedevice
} if
} bd
/RE { % /NewFontName [NewEncodingArray] /FontName RE -
  findfont dup length dict begin
  {
    1 index /FID ne
    {def} {pop pop} ifelse
  } forall
  /Encoding exch def
  /FontName 1 index def
  currentdict definefont pop
  end
} bind def
%%EndResource
%%BeginResource: procset (Apache XML Graphics EPS ProcSet) 1.0 0
%%Version: 1.0 0
%%Copyright: (Copyright 2002-2003 The Apache Software Foundation. License terms: http://www.apache.org/licenses/LICENSE-2.0)
/BeginEPSF { %def
/b4_Inc_state save def         % Save state for cleanup
/dict_count countdictstack def % Count objects on dict stack
/op_count count 1 sub def      % Count objects on operand stack
userdict begin                 % Push userdict on dict stack
/showpage { } def              % Redefine showpage, { } = null proc
0 setgray 0 setlinecap         % Prepare graphics state
1 setlinewidth 0 setlinejoin
10 setmiterlimit [ ] 0 setdash newpath
/languagelevel where           % If level not equal to 1 then
{pop languagelevel             % set strokeadjust and
1 ne                           % overprint to their defaults.
{false setstrokeadjust false setoverprint
} if
} if
} bd
/EndEPSF { %def
count op_count sub {pop} repeat            % Clean up stacks
countdictstack dict_count sub {end} repeat
b4_Inc_state restore
} bd
%%EndResource
%FOPBeginFontDict
%%IncludeResource: font Courier-Oblique
%%IncludeResource: font Courier-BoldOblique
%%IncludeResource: font Courier-Bold
%%IncludeResource: font ZapfDingbats
%%IncludeResource: font Symbol
%%IncludeResource: font Helvetica
%%IncludeResource: font Helvetica-Oblique
%%IncludeResource: font Helvetica-Bold
%%IncludeResource: font Helvetica-BoldOblique
%%IncludeResource: font Times-Roman
%%IncludeResource: font Times-Italic
%%IncludeResource: font Times-Bold
%%IncludeResource: font Times-BoldItalic
%%IncludeResource: font Courier
%FOPEndFontDict
%%BeginResource: encoding WinAnsiEncoding
/WinAnsiEncoding [
/.notdef /.notdef /.notdef /.notdef /.notdef
/.notdef /.notdef /.notdef /.notdef /.notdef
/.notdef /.notdef /.notdef /.notdef /.notdef
/.notdef /.notdef /.notdef /.notdef /.notdef
/.notdef /.notdef /.notdef /.notdef /.notdef
/.notdef /.notdef /.notdef /.notdef /.notdef
/.notdef /.notdef /space /exclam /quotedbl
/numbersign /dollar /percent /ampersand /quotesingle
/parenleft /parenright /asterisk /plus /comma
/hyphen /period /slash /zero /one
/two /three /four /five /six
/seven /eight /nine /colon /semicolon
/less /equal /greater /question /at
/A /B /C /D /E
/F /G /H /I /J
/K /L /M /N /O
/P /Q /R /S /T
/U /V /W /X /Y
/Z /bracketleft /backslash /bracketright /asciicircum
/underscore /quoteleft /a /b /c
/d /e /f /g /h
/i /j /k /l /m
/n /o /p /q /r
/s /t /u /v /w
/x /y /z /braceleft /bar
/braceright /asciitilde /bullet /Euro /bullet
/quotesinglbase /florin /quotedblbase /ellipsis /dagger
/daggerdbl /circumflex /perthousand /Scaron /guilsinglleft
/OE /bullet /Zcaron /bullet /bullet
/quoteleft /quoteright /quotedblleft /quotedblright /bullet
/endash /emdash /asciitilde /trademark /scaron
/guilsinglright /oe /bullet /zcaron /Ydieresis
/space /exclamdown /cent /sterling /currency
/yen /brokenbar /section /dieresis /copyright
/ordfeminine /guillemotleft /logicalnot /sfthyphen /registered
/macron /degree /plusminus /twosuperior /threesuperior
/acute /mu /paragraph /middot /cedilla
/onesuperior /ordmasculine /guillemotright /onequarter /onehalf
/threequarters /questiondown /Agrave /Aacute /Acircumflex
/Atilde /Adieresis /Aring /AE /Ccedilla
/Egrave /Eacute /Ecircumflex /Edieresis /Igrave
/Iacute /Icircumflex /Idieresis /Eth /Ntilde
/Ograve /Oacute /Ocircumflex /Otilde /Odieresis
/multiply /Oslash /Ugrave /Uacute /Ucircumflex
/Udieresis /Yacute /Thorn /germandbls /agrave
/aacute /acircumflex /atilde /adieresis /aring
/ae /ccedilla /egrave /eacute /ecircumflex
/edieresis /igrave /iacute /icircumflex /idieresis
/eth /ntilde /ograve /oacute /ocircumflex
/otilde /odieresis /divide /oslash /ugrave
/uacute /ucircumflex /udieresis /yacute /thorn
/ydieresis
] def
%%EndResource
%FOPBeginFontReencode
/Courier-Oblique findfont
dup length dict begin
  {1 index /FID ne {def} {pop pop} ifelse} forall
  /Encoding WinAnsiEncoding def
  currentdict
end
/Courier-Oblique exch definefont pop
/Courier-BoldOblique findfont
dup length dict begin
  {1 index /FID ne {def} {pop pop} ifelse} forall
  /Encoding WinAnsiEncoding def
  currentdict
end
/Courier-BoldOblique exch definefont pop
/Courier-Bold findfont
dup length dict begin
  {1 index /FID ne {def} {pop pop} ifelse} forall
  /Encoding WinAnsiEncoding def
  currentdict
end
/Courier-Bold exch definefont pop
/Helvetica findfont
dup length dict begin
  {1 index /FID ne {def} {pop pop} ifelse} forall
  /Encoding WinAnsiEncoding def
  currentdict
end
/Helvetica exch definefont pop
/Helvetica-Oblique findfont
dup length dict begin
  {1 index /FID ne {def} {pop pop} ifelse} forall
  /Encoding WinAnsiEncoding def
  currentdict
end
/Helvetica-Oblique exch definefont pop
/Helvetica-Bold findfont
dup length dict begin
  {1 index /FID ne {def} {pop pop} ifelse} forall
  /Encoding WinAnsiEncoding def
  currentdict
end
/Helvetica-Bold exch definefont pop
/Helvetica-BoldOblique findfont
dup length dict begin
  {1 index /FID ne {def} {pop pop} ifelse} forall
  /Encoding WinAnsiEncoding def
  currentdict
end
/Helvetica-BoldOblique exch definefont pop
/Times-Roman findfont
dup length dict begin
  {1 index /FID ne {def} {pop pop} ifelse} forall
  /Encoding WinAnsiEncoding def
  currentdict
end
/Times-Roman exch definefont pop
/Times-Italic findfont
dup length dict begin
  {1 index /FID ne {def} {pop pop} ifelse} forall
  /Encoding WinAnsiEncoding def
  currentdict
end
/Times-Italic exch definefont pop
/Times-Bold findfont
dup length dict begin
  {1 index /FID ne {def} {pop pop} ifelse} forall
  /Encoding WinAnsiEncoding def
  currentdict
end
/Times-Bold exch definefont pop
/Times-BoldItalic findfont
dup length dict begin
  {1 index /FID ne {def} {pop pop} ifelse} forall
  /Encoding WinAnsiEncoding def
  currentdict
end
/Times-BoldItalic exch definefont pop
/Courier findfont
dup length dict begin
  {1 index /FID ne {def} {pop pop} ifelse} forall
  /Encoding WinAnsiEncoding def
  currentdict
end
/Courier exch definefont pop
%FOPEndFontReencode
%%EndProlog
%%Page: 1 1
%%PageBoundingBox: 0 0 255 227
%%BeginPageSetup
[1 0 0 -1 0 227] CT
%%EndPageSetup
GS
[0.78257 0 0 0.78197 0 0.22835] CT
1 GC
N
0 0 326 290 re
f
GR
GS
[0.78257 0 0 0.78197 0 0.22835] CT
1 GC
N
0 0 326 290 re
f
GR
GS
[0.78257 0 0 0.78197 0 0.22835] CT
1 GC
N
42 226.743 M
295 226.743 L
295 53.257 L
42 53.257 L
cp
f
GR
GS
[0.78257 0 0 0.78197 0 0.22835] CT
0.169 0.565 0.937 RC
N
158.077 217.612 M
158.18 226.743 L
161.842 226.743 L
175.158 226.743 L
188.474 226.743 L
201.789 226.743 L
203.241 226.743 L
202.962 217.612 L
202.172 208.481 L
201.789 205.561 L
200.431 199.35 L
198.183 190.22 L
196.033 181.089 L
194.186 171.958 L
192.755 162.827 L
191.789 153.696 L
191.304 144.565 L
191.304 135.435 L
191.789 126.304 L
192.755 117.173 L
194.186 108.042 L
196.033 98.911 L
198.183 89.78 L
200.431 80.65 L
201.789 74.44 L
202.172 71.519 L
202.962 62.388 L
203.241 53.257 L
201.789 53.257 L
188.474 53.257 L
175.158 53.257 L
161.842 53.257 L
158.18 53.257 L
158.077 62.388 L
157.77 71.519 L
157.259 80.65 L
156.552 89.78 L
155.679 98.911 L
154.702 108.042 L
153.735 117.173 L
152.936 126.304 L
152.479 135.435 L
152.479 144.565 L
152.936 153.696 L
153.735 162.827 L
154.702 171.958 L
155.679 181.089 L
156.552 190.22 L
157.259 199.35 L
157.77 208.481 L
cp
f
GR
GS
[0.78257 0 0 0.78197 0 0.22835] CT
0.149 0.596 0.914 RC
N
143.521 217.612 M
143.687 226.743 L
148.526 226.743 L
158.18 226.743 L
158.077 217.612 L
157.77 208.481 L
157.259 199.35 L
156.552 190.22 L
155.679 181.089 L
154.702 171.958 L
153.735 162.827 L
152.936 153.696 L
152.479 144.565 L
152.479 135.435 L
152.936 126.304 L
153.735 117.173 L
154.702 108.042 L
155.679 98.911 L
156.552 89.78 L
157.259 80.65 L
157.77 71.519 L
158.077 62.388 L
158.18 53.257 L
148.526 53.257 L
143.687 53.257 L
143.521 62.388 L
143.031 71.519 L
142.24 80.65 L
141.195 89.78 L
139.975 98.911 L
138.694 108.042 L
137.505 117.173 L
136.578 126.304 L
136.069 135.435 L
136.069 144.565 L
136.578 153.696 L
137.505 162.827 L
138.694 171.958 L
139.975 181.089 L
141.195 190.22 L
142.24 199.35 L
143.031 208.481 L
cp
202.962 217.612 M
203.241 226.743 L
215.105 226.743 L
217.442 226.743 L
217.188 217.612 L
216.459 208.481 L
215.344 199.35 L
215.105 197.762 L
213.647 190.22 L
211.819 181.089 L
210.135 171.958 L
208.751 162.827 L
207.773 153.696 L
207.269 144.565 L
207.269 135.435 L
207.773 126.304 L
208.751 117.173 L
210.135 108.042 L
211.819 98.911 L
213.647 89.78 L
215.105 82.238 L
215.344 80.65 L
216.459 71.519 L
217.188 62.388 L
217.442 53.257 L
215.105 53.257 L
203.241 53.257 L
202.962 62.388 L
202.172 71.519 L
201.789 74.44 L
200.431 80.65 L
198.183 89.78 L
196.033 98.911 L
194.186 108.042 L
192.755 117.173 L
191.789 126.304 L
191.304 135.435 L
191.304 144.565 L
191.789 153.696 L
192.755 162.827 L
194.186 171.958 L
196.033 181.089 L
198.183 190.22 L
200.431 199.35 L
201.789 205.561 L
202.172 208.481 L
cp
f
GR
GS
[0.78257 0 0 0.78197 0 0.22835] CT
0.122 0.643 0.886 RC
N
132.294 217.612 M
132.483 226.743 L
135.211 226.743 L
143.687 226.743 L
143.521 217.612 L
143.031 208.481 L
142.24 199.35 L
141.195 190.22 L
139.975 181.089 L
138.694 171.958 L
137.505 162.827 L
136.578 153.696 L
136.069 144.565 L
136.069 135.435 L
136.578 126.304 L
137.505 117.173 L
138.694 108.042 L
139.975 98.911 L
141.195 89.78 L
142.24 80.65 L
143.031 71.519 L
143.521 62.388 L
143.687 53.257 L
135.211 53.257 L
132.483 53.257 L
132.294 62.388 L
131.743 71.519 L
130.869 80.65 L
129.743 89.78 L
128.469 98.911 L
127.176 108.042 L
126.014 117.173 L
125.134 126.304 L
124.659 135.435 L
124.659 144.565 L
125.134 153.696 L
126.014 162.827 L
127.176 171.958 L
128.469 181.089 L
129.743 190.22 L
130.869 199.35 L
131.743 208.481 L
cp
217.188 217.612 M
217.442 226.743 L
228.421 226.743 L
228.52 226.743 L
228.421 222.875 L
228.264 217.612 L
227.482 208.481 L
226.287 199.35 L
224.823 190.22 L
223.261 181.089 L
221.77 171.958 L
220.504 162.827 L
219.589 153.696 L
219.109 144.565 L
219.109 135.435 L
219.589 126.304 L
220.504 117.173 L
221.77 108.042 L
223.261 98.911 L
224.823 89.78 L
226.287 80.65 L
227.482 71.519 L
228.264 62.388 L
228.421 57.125 L
228.52 53.257 L
228.421 53.257 L
217.442 53.257 L
217.188 62.388 L
216.459 71.519 L
215.344 80.65 L
215.105 82.238 L
213.647 89.78 L
211.819 98.911 L
210.135 108.042 L
208.751 117.173 L
207.773 126.304 L
207.269 135.435 L
207.269 144.565 L
207.773 153.696 L
208.751 162.827 L
210.135 171.958 L
211.819 181.089 L
213.647 190.22 L
215.105 197.762 L
215.344 199.35 L
216.459 208.481 L
cp
f
GR
GS
[0.78257 0 0 0.78197 0 0.22835] CT
0.082 0.686 0.851 RC
N
122.409 217.612 M
122.629 226.743 L
132.483 226.743 L
132.294 217.612 L
131.743 208.481 L
130.869 199.35 L
129.743 190.22 L
128.469 181.089 L
127.176 171.958 L
126.014 162.827 L
125.134 153.696 L
124.659 144.565 L
124.659 135.435 L
125.134 126.304 L
126.014 117.173 L
127.176 108.042 L
128.469 98.911 L
129.743 89.78 L
130.869 80.65 L
131.743 71.519 L
132.294 62.388 L
132.483 53.257 L
122.629 53.257 L
122.409 62.388 L
121.895 69.657 L
121.771 71.519 L
120.823 80.65 L
119.626 89.78 L
118.302 98.911 L
116.992 108.042 L
115.843 117.173 L
114.989 126.304 L
114.533 135.435 L
114.533 144.565 L
114.989 153.696 L
115.843 162.827 L
116.992 171.958 L
118.302 181.089 L
119.626 190.22 L
120.823 199.35 L
121.771 208.481 L
121.895 210.343 L
cp
228.264 217.612 M
228.421 222.875 L
228.52 226.743 L
238.035 226.743 L
237.806 217.612 L
237.142 208.481 L
236.111 199.35 L
234.822 190.22 L
233.411 181.089 L
232.031 171.958 L
230.833 162.827 L
229.95 153.696 L
229.482 144.565 L
229.482 135.435 L
229.95 126.304 L
230.833 117.173 L
232.031 108.042 L
233.411 98.911 L
234.822 89.78 L
236.111 80.65 L
237.142 71.519 L
237.806 62.388 L
238.035 53.257 L
228.52 53.257 L
228.421 57.125 L
228.264 62.388 L
227.482 71.519 L
226.287 80.65 L
224.823 89.78 L
223.261 98.911 L
221.77 108.042 L
220.504 117.173 L
219.589 126.304 L
219.109 135.435 L
219.109 144.565 L
219.589 153.696 L
220.504 162.827 L
221.77 171.958 L
223.261 181.089 L
224.823 190.22 L
226.287 199.35 L
227.482 208.481 L
cp
f
GR
GS
[0.78257 0 0 0.78197 0 0.22835] CT
0.004 0.718 0.792 RC
N
113.089 217.612 M
113.311 226.743 L
121.895 226.743 L
122.629 226.743 L
122.409 217.612 L
121.895 210.343 L
121.771 208.481 L
120.823 199.35 L
119.626 190.22 L
118.302 181.089 L
116.992 171.958 L
115.843 162.827 L
114.989 153.696 L
114.533 144.565 L
114.533 135.435 L
114.989 126.304 L
115.843 117.173 L
116.992 108.042 L
118.302 98.911 L
119.626 89.78 L
120.823 80.65 L
121.771 71.519 L
121.895 69.657 L
122.409 62.388 L
122.629 53.257 L
121.895 53.257 L
113.311 53.257 L
113.089 62.388 L
112.445 71.519 L
111.438 80.65 L
110.168 89.78 L
108.762 98.911 L
108.579 100.121 L
107.383 108.042 L
106.199 117.173 L
105.334 126.304 L
104.878 135.435 L
104.878 144.565 L
105.334 153.696 L
106.199 162.827 L
107.383 171.958 L
108.579 179.879 L
108.762 181.089 L
110.168 190.22 L
111.438 199.35 L
112.445 208.481 L
cp
237.806 217.612 M
238.035 226.743 L
241.737 226.743 L
247.296 226.743 L
247.09 217.612 L
246.491 208.481 L
245.548 199.35 L
244.348 190.22 L
243.007 181.089 L
241.737 172.435 L
241.666 171.958 L
240.492 162.827 L
239.626 153.696 L
239.167 144.565 L
239.167 135.435 L
239.626 126.304 L
240.492 117.173 L
241.666 108.042 L
241.737 107.565 L
243.007 98.911 L
244.348 89.78 L
245.548 80.65 L
246.491 71.519 L
247.09 62.388 L
247.296 53.257 L
241.737 53.257 L
238.035 53.257 L
237.806 62.388 L
237.142 71.519 L
236.111 80.65 L
234.822 89.78 L
233.411 98.911 L
232.031 108.042 L
230.833 117.173 L
229.95 126.304 L
229.482 135.435 L
229.482 144.565 L
229.95 153.696 L
230.833 162.827 L
232.031 171.958 L
233.411 181.089 L
234.822 190.22 L
236.111 199.35 L
237.142 208.481 L
cp
f
GR
GS
[0.78257 0 0 0.78197 0 0.22835] CT
0.075 0.745 0.722 RC
N
103.621 217.612 M
103.856 226.743 L
108.579 226.743 L
113.311 226.743 L
113.089 217.612 L
112.445 208.481 L
111.438 199.35 L
110.168 190.22 L
108.762 181.089 L
108.579 179.879 L
107.383 171.958 L
106.199 162.827 L
105.334 153.696 L
104.878 144.565 L
104.878 135.435 L
105.334 126.304 L
106.199 117.173 L
107.383 108.042 L
108.579 100.121 L
108.762 98.911 L
110.168 89.78 L
111.438 80.65 L
112.445 71.519 L
113.089 62.388 L
113.311 53.257 L
108.579 53.257 L
103.856 53.257 L
103.621 62.388 L
102.944 71.519 L
101.902 80.65 L
100.61 89.78 L
99.212 98.911 L
97.861 108.042 L
96.699 117.173 L
95.851 126.304 L
95.404 135.435 L
95.404 144.565 L
95.851 153.696 L
96.699 162.827 L
97.861 171.958 L
99.212 181.089 L
100.61 190.22 L
101.902 199.35 L
102.944 208.481 L
cp
247.09 217.612 M
247.296 226.743 L
255.053 226.743 L
256.469 226.743 L
256.275 217.612 L
255.707 208.481 L
255.053 201.842 L
254.819 199.35 L
253.738 190.22 L
252.529 181.089 L
251.32 171.958 L
250.249 162.827 L
249.446 153.696 L
249.016 144.565 L
249.016 135.435 L
249.446 126.304 L
250.249 117.173 L
251.32 108.042 L
252.529 98.911 L
253.738 89.78 L
254.819 80.65 L
255.053 78.158 L
255.707 71.519 L
256.275 62.388 L
256.469 53.257 L
255.053 53.257 L
247.296 53.257 L
247.09 62.388 L
246.491 71.519 L
245.548 80.65 L
244.348 89.78 L
243.007 98.911 L
241.737 107.565 L
241.666 108.042 L
240.492 117.173 L
239.626 126.304 L
239.167 135.435 L
239.167 144.565 L
239.626 153.696 L
240.492 162.827 L
241.666 171.958 L
241.737 172.435 L
243.007 181.089 L
244.348 190.22 L
245.548 199.35 L
246.491 208.481 L
cp
f
GR
GS
[0.78257 0 0 0.78197 0 0.22835] CT
0.173 0.765 0.651 RC
N
93.786 217.612 M
94.049 226.743 L
95.263 226.743 L
103.856 226.743 L
103.621 217.612 L
102.944 208.481 L
101.902 199.35 L
100.61 190.22 L
99.212 181.089 L
97.861 171.958 L
96.699 162.827 L
95.851 153.696 L
95.404 144.565 L
95.404 135.435 L
95.851 126.304 L
96.699 117.173 L
97.861 108.042 L
99.212 98.911 L
100.61 89.78 L
101.902 80.65 L
102.944 71.519 L
103.621 62.388 L
103.856 53.257 L
95.263 53.257 L
94.049 53.257 L
93.786 62.388 L
93.034 71.519 L
91.896 80.65 L
90.515 89.78 L
89.059 98.911 L
87.685 108.042 L
86.531 117.173 L
85.704 126.304 L
85.272 135.435 L
85.272 144.565 L
85.704 153.696 L
86.531 162.827 L
87.685 171.958 L
89.059 181.089 L
90.515 190.22 L
91.896 199.35 L
93.034 208.481 L
cp
256.275 217.612 M
256.469 226.743 L
266.076 226.743 L
265.921 217.612 L
265.465 208.481 L
264.739 199.35 L
263.798 190.22 L
262.722 181.089 L
261.62 171.958 L
260.621 162.827 L
259.858 153.696 L
259.444 144.565 L
259.444 135.435 L
259.858 126.304 L
260.621 117.173 L
261.62 108.042 L
262.722 98.911 L
263.798 89.78 L
264.739 80.65 L
265.465 71.519 L
265.921 62.388 L
266.076 53.257 L
256.469 53.257 L
256.275 62.388 L
255.707 71.519 L
255.053 78.158 L
254.819 80.65 L
253.738 89.78 L
252.529 98.911 L
251.32 108.042 L
250.249 117.173 L
249.446 126.304 L
249.016 135.435 L
249.016 144.565 L
249.446 153.696 L
250.249 162.827 L
251.32 171.958 L
252.529 181.089 L
253.738 190.22 L
254.819 199.35 L
255.053 201.842 L
255.707 208.481 L
cp
f
GR
GS
[0.78257 0 0 0.78197 0 0.22835] CT
0.231 0.788 0.569 RC
N
82.659 217.612 M
82.891 226.743 L
94.049 226.743 L
93.786 217.612 L
93.034 208.481 L
91.896 199.35 L
90.515 190.22 L
89.059 181.089 L
87.685 171.958 L
86.531 162.827 L
85.704 153.696 L
85.272 144.565 L
85.272 135.435 L
85.704 126.304 L
86.531 117.173 L
87.685 108.042 L
89.059 98.911 L
90.515 89.78 L
91.896 80.65 L
93.034 71.519 L
93.786 62.388 L
94.049 53.257 L
82.891 53.257 L
82.659 62.388 L
81.995 71.519 L
81.947 71.941 L
80.698 80.65 L
79.158 89.78 L
77.589 98.911 L
76.159 108.042 L
74.995 117.173 L
74.179 126.304 L
73.76 135.435 L
73.76 144.565 L
74.179 153.696 L
74.995 162.827 L
76.159 171.958 L
77.589 181.089 L
79.158 190.22 L
80.698 199.35 L
81.947 208.059 L
81.995 208.481 L
cp
265.921 217.612 M
266.076 226.743 L
268.368 226.743 L
277.007 226.743 L
276.887 217.612 L
276.532 208.481 L
275.956 199.35 L
275.192 190.22 L
274.294 181.089 L
273.345 171.958 L
272.458 162.827 L
271.763 153.696 L
271.379 144.565 L
271.379 135.435 L
271.763 126.304 L
272.458 117.173 L
273.345 108.042 L
274.294 98.911 L
275.192 89.78 L
275.956 80.65 L
276.532 71.519 L
276.887 62.388 L
277.007 53.257 L
268.368 53.257 L
266.076 53.257 L
265.921 62.388 L
265.465 71.519 L
264.739 80.65 L
263.798 89.78 L
262.722 98.911 L
261.62 108.042 L
260.621 117.173 L
259.858 126.304 L
259.444 135.435 L
259.444 144.565 L
259.858 153.696 L
260.621 162.827 L
261.62 171.958 L
262.722 181.089 L
263.798 190.22 L
264.739 199.35 L
265.465 208.481 L
cp
f
GR
GS
[0.78257 0 0 0.78197 0 0.22835] CT
0.341 0.8 0.475 RC
N
67.621 217.612 M
68.006 226.743 L
68.632 226.743 L
81.947 226.743 L
82.891 226.743 L
82.659 217.612 L
81.995 208.481 L
81.947 208.059 L
80.698 199.35 L
79.158 190.22 L
77.589 181.089 L
76.159 171.958 L
74.995 162.827 L
74.179 153.696 L
73.76 144.565 L
73.76 135.435 L
74.179 126.304 L
74.995 117.173 L
76.159 108.042 L
77.589 98.911 L
79.158 89.78 L
80.698 80.65 L
81.947 71.941 L
81.995 71.519 L
82.659 62.388 L
82.891 53.257 L
81.947 53.257 L
68.632 53.257 L
68.006 53.257 L
67.621 62.388 L
66.566 71.519 L
65.087 80.65 L
63.464 89.78 L
61.924 98.911 L
60.611 108.042 L
59.6 117.173 L
58.92 126.304 L
58.579 135.435 L
58.579 144.565 L
58.92 153.696 L
59.6 162.827 L
60.611 171.958 L
61.924 181.089 L
63.464 190.22 L
65.087 199.35 L
66.566 208.481 L
cp
276.887 217.612 M
277.007 226.743 L
281.684 226.743 L
290.928 226.743 L
290.889 217.612 L
290.773 208.481 L
290.579 199.35 L
290.311 190.22 L
289.98 181.089 L
289.609 171.958 L
289.243 162.827 L
288.941 153.696 L
288.768 144.565 L
288.768 135.435 L
288.941 126.304 L
289.243 117.173 L
289.609 108.042 L
289.98 98.911 L
290.311 89.78 L
290.579 80.65 L
290.773 71.519 L
290.889 62.388 L
290.928 53.257 L
281.684 53.257 L
277.007 53.257 L
276.887 62.388 L
276.532 71.519 L
275.956 80.65 L
275.192 89.78 L
274.294 98.911 L
273.345 108.042 L
272.458 117.173 L
271.763 126.304 L
271.379 135.435 L
271.379 144.565 L
271.763 153.696 L
272.458 162.827 L
273.345 171.958 L
274.294 181.089 L
275.192 190.22 L
275.956 199.35 L
276.532 208.481 L
cp
f
GR
GS
[0.78257 0 0 0.78197 0 0.22835] CT
0.486 0.8 0.357 RC
N
42 217.612 M
42 226.743 L
55.316 226.743 L
68.006 226.743 L
67.621 217.612 L
66.566 208.481 L
65.087 199.35 L
63.464 190.22 L
61.924 181.089 L
60.611 171.958 L
59.6 162.827 L
58.92 153.696 L
58.579 144.565 L
58.579 135.435 L
58.92 126.304 L
59.6 117.173 L
60.611 108.042 L
61.924 98.911 L
63.464 89.78 L
65.087 80.65 L
66.566 71.519 L
67.621 62.388 L
68.006 53.257 L
55.316 53.257 L
42 53.257 L
42 62.388 L
42 71.519 L
42 80.65 L
42 89.78 L
42 98.911 L
42 108.042 L
42 117.173 L
42 126.304 L
42 135.435 L
42 144.565 L
42 153.696 L
42 162.827 L
42 171.958 L
42 181.089 L
42 190.22 L
42 199.35 L
42 208.481 L
cp
290.889 217.612 M
290.928 226.743 L
295 226.743 L
295 217.612 L
295 208.481 L
295 199.35 L
295 190.22 L
295 181.089 L
295 171.958 L
295 162.827 L
295 153.696 L
295 144.565 L
295 135.435 L
295 126.304 L
295 117.173 L
295 108.042 L
295 98.911 L
295 89.78 L
295 80.65 L
295 71.519 L
295 62.388 L
295 53.257 L
290.928 53.257 L
290.889 62.388 L
290.773 71.519 L
290.579 80.65 L
290.311 89.78 L
289.98 98.911 L
289.609 108.042 L
289.243 117.173 L
288.941 126.304 L
288.768 135.435 L
288.768 144.565 L
288.941 153.696 L
289.243 162.827 L
289.609 171.958 L
289.98 181.089 L
290.311 190.22 L
290.579 199.35 L
290.773 208.481 L
cp
f
GR
GS
[0.78257 0 0 0.78197 0 0.22835] CT
1 LJ
0.639 LW
N
158.18 226.743 M
158.077 217.612 L
S
GR
GS
[0.78257 0 0 0.78197 0 0.22835] CT
1 LJ
0.639 LW
N
202.962 217.612 M
203.241 226.743 L
S
GR
GS
[0.78257 0 0 0.78197 0 0.22835] CT
1 LJ
0.639 LW
N
158.077 217.612 M
157.77 208.481 L
S
GR
GS
[0.78257 0 0 0.78197 0 0.22835] CT
1 LJ
0.639 LW
N
202.172 208.481 M
202.962 217.612 L
S
GR
GS
[0.78257 0 0 0.78197 0 0.22835] CT
1 LJ
0.639 LW
N
157.77 208.481 M
157.259 199.35 L
S
GR
GS
[0.78257 0 0 0.78197 0 0.22835] CT
1 LJ
0.639 LW
N
200.431 199.35 M
201.789 205.561 L
202.172 208.481 L
S
GR
GS
[0.78257 0 0 0.78197 0 0.22835] CT
1 LJ
0.639 LW
N
157.259 199.35 M
156.552 190.22 L
S
GR
GS
[0.78257 0 0 0.78197 0 0.22835] CT
1 LJ
0.639 LW
N
198.183 190.22 M
200.431 199.35 L
S
GR
GS
[0.78257 0 0 0.78197 0 0.22835] CT
1 LJ
0.639 LW
N
156.552 190.22 M
155.679 181.089 L
S
GR
GS
[0.78257 0 0 0.78197 0 0.22835] CT
1 LJ
0.639 LW
N
196.033 181.089 M
198.183 190.22 L
S
GR
GS
[0.78257 0 0 0.78197 0 0.22835] CT
1 LJ
0.639 LW
N
155.679 181.089 M
154.702 171.958 L
S
GR
GS
[0.78257 0 0 0.78197 0 0.22835] CT
1 LJ
0.639 LW
N
194.186 171.958 M
196.033 181.089 L
S
GR
GS
[0.78257 0 0 0.78197 0 0.22835] CT
1 LJ
0.639 LW
N
154.702 171.958 M
153.735 162.827 L
S
GR
GS
[0.78257 0 0 0.78197 0 0.22835] CT
1 LJ
0.639 LW
N
192.755 162.827 M
194.186 171.958 L
S
GR
GS
[0.78257 0 0 0.78197 0 0.22835] CT
1 LJ
0.639 LW
N
153.735 162.827 M
152.936 153.696 L
S
GR
GS
[0.78257 0 0 0.78197 0 0.22835] CT
1 LJ
0.639 LW
N
191.789 153.696 M
192.755 162.827 L
S
GR
GS
[0.78257 0 0 0.78197 0 0.22835] CT
1 LJ
0.639 LW
N
152.936 153.696 M
152.479 144.565 L
S
GR
GS
[0.78257 0 0 0.78197 0 0.22835] CT
1 LJ
0.639 LW
N
191.304 144.565 M
191.789 153.696 L
S
GR
GS
[0.78257 0 0 0.78197 0 0.22835] CT
1 LJ
0.639 LW
N
152.479 144.565 M
152.479 135.435 L
S
GR
GS
[0.78257 0 0 0.78197 0 0.22835] CT
1 LJ
0.639 LW
N
191.304 135.435 M
191.304 144.565 L
S
GR
GS
[0.78257 0 0 0.78197 0 0.22835] CT
1 LJ
0.639 LW
N
152.479 135.435 M
152.936 126.304 L
S
GR
GS
[0.78257 0 0 0.78197 0 0.22835] CT
1 LJ
0.639 LW
N
191.789 126.304 M
191.304 135.435 L
S
GR
GS
[0.78257 0 0 0.78197 0 0.22835] CT
1 LJ
0.639 LW
N
152.936 126.304 M
153.735 117.173 L
S
GR
GS
[0.78257 0 0 0.78197 0 0.22835] CT
1 LJ
0.639 LW
N
192.755 117.173 M
191.789 126.304 L
S
GR
GS
[0.78257 0 0 0.78197 0 0.22835] CT
1 LJ
0.639 LW
N
153.735 117.173 M
154.702 108.042 L
S
GR
GS
[0.78257 0 0 0.78197 0 0.22835] CT
1 LJ
0.639 LW
N
194.186 108.042 M
192.755 117.173 L
S
GR
GS
[0.78257 0 0 0.78197 0 0.22835] CT
1 LJ
0.639 LW
N
154.702 108.042 M
155.679 98.911 L
S
GR
GS
[0.78257 0 0 0.78197 0 0.22835] CT
1 LJ
0.639 LW
N
196.033 98.911 M
194.186 108.042 L
S
GR
GS
[0.78257 0 0 0.78197 0 0.22835] CT
1 LJ
0.639 LW
N
155.679 98.911 M
156.552 89.78 L
S
GR
GS
[0.78257 0 0 0.78197 0 0.22835] CT
1 LJ
0.639 LW
N
198.183 89.78 M
196.033 98.911 L
S
GR
GS
[0.78257 0 0 0.78197 0 0.22835] CT
1 LJ
0.639 LW
N
156.552 89.78 M
157.259 80.65 L
S
GR
GS
[0.78257 0 0 0.78197 0 0.22835] CT
1 LJ
0.639 LW
N
200.431 80.65 M
198.183 89.78 L
S
GR
GS
[0.78257 0 0 0.78197 0 0.22835] CT
1 LJ
0.639 LW
N
157.259 80.65 M
157.77 71.519 L
S
GR
GS
[0.78257 0 0 0.78197 0 0.22835] CT
1 LJ
0.639 LW
N
202.172 71.519 M
201.789 74.44 L
200.431 80.65 L
S
GR
GS
[0.78257 0 0 0.78197 0 0.22835] CT
1 LJ
0.639 LW
N
157.77 71.519 M
158.077 62.388 L
S
GR
GS
[0.78257 0 0 0.78197 0 0.22835] CT
1 LJ
0.639 LW
N
202.962 62.388 M
202.172 71.519 L
S
GR
GS
[0.78257 0 0 0.78197 0 0.22835] CT
1 LJ
0.639 LW
N
158.077 62.388 M
158.18 53.257 L
S
GR
GS
[0.78257 0 0 0.78197 0 0.22835] CT
1 LJ
0.639 LW
N
203.241 53.257 M
202.962 62.388 L
S
GR
GS
[0.78257 0 0 0.78197 0 0.22835] CT
1 LJ
0.639 LW
N
143.687 226.743 M
143.521 217.612 L
S
GR
GS
[0.78257 0 0 0.78197 0 0.22835] CT
1 LJ
0.639 LW
N
217.188 217.612 M
217.442 226.743 L
S
GR
GS
[0.78257 0 0 0.78197 0 0.22835] CT
1 LJ
0.639 LW
N
143.521 217.612 M
143.031 208.481 L
S
GR
GS
[0.78257 0 0 0.78197 0 0.22835] CT
1 LJ
0.639 LW
N
216.459 208.481 M
217.188 217.612 L
S
GR
GS
[0.78257 0 0 0.78197 0 0.22835] CT
1 LJ
0.639 LW
N
143.031 208.481 M
142.24 199.35 L
S
GR
GS
[0.78257 0 0 0.78197 0 0.22835] CT
1 LJ
0.639 LW
N
215.344 199.35 M
216.459 208.481 L
S
GR
GS
[0.78257 0 0 0.78197 0 0.22835] CT
1 LJ
0.639 LW
N
142.24 199.35 M
141.195 190.22 L
S
GR
GS
[0.78257 0 0 0.78197 0 0.22835] CT
1 LJ
0.639 LW
N
213.647 190.22 M
215.105 197.762 L
215.344 199.35 L
S
GR
GS
[0.78257 0 0 0.78197 0 0.22835] CT
1 LJ
0.639 LW
N
141.195 190.22 M
139.975 181.089 L
S
GR
GS
[0.78257 0 0 0.78197 0 0.22835] CT
1 LJ
0.639 LW
N
211.819 181.089 M
213.647 190.22 L
S
GR
GS
[0.78257 0 0 0.78197 0 0.22835] CT
1 LJ
0.639 LW
N
139.975 181.089 M
138.694 171.958 L
S
GR
GS
[0.78257 0 0 0.78197 0 0.22835] CT
1 LJ
0.639 LW
N
210.135 171.958 M
211.819 181.089 L
S
GR
GS
[0.78257 0 0 0.78197 0 0.22835] CT
1 LJ
0.639 LW
N
138.694 171.958 M
137.505 162.827 L
S
GR
GS
[0.78257 0 0 0.78197 0 0.22835] CT
1 LJ
0.639 LW
N
208.751 162.827 M
210.135 171.958 L
S
GR
GS
[0.78257 0 0 0.78197 0 0.22835] CT
1 LJ
0.639 LW
N
137.505 162.827 M
136.578 153.696 L
S
GR
GS
[0.78257 0 0 0.78197 0 0.22835] CT
1 LJ
0.639 LW
N
207.773 153.696 M
208.751 162.827 L
S
GR
GS
[0.78257 0 0 0.78197 0 0.22835] CT
1 LJ
0.639 LW
N
136.578 153.696 M
136.069 144.565 L
S
GR
GS
[0.78257 0 0 0.78197 0 0.22835] CT
1 LJ
0.639 LW
N
207.269 144.565 M
207.773 153.696 L
S
GR
GS
[0.78257 0 0 0.78197 0 0.22835] CT
1 LJ
0.639 LW
N
136.069 144.565 M
136.069 135.435 L
S
GR
GS
[0.78257 0 0 0.78197 0 0.22835] CT
1 LJ
0.639 LW
N
207.269 135.435 M
207.269 144.565 L
S
GR
GS
[0.78257 0 0 0.78197 0 0.22835] CT
1 LJ
0.639 LW
N
136.069 135.435 M
136.578 126.304 L
S
GR
GS
[0.78257 0 0 0.78197 0 0.22835] CT
1 LJ
0.639 LW
N
207.773 126.304 M
207.269 135.435 L
S
GR
GS
[0.78257 0 0 0.78197 0 0.22835] CT
1 LJ
0.639 LW
N
136.578 126.304 M
137.505 117.173 L
S
GR
GS
[0.78257 0 0 0.78197 0 0.22835] CT
1 LJ
0.639 LW
N
208.751 117.173 M
207.773 126.304 L
S
GR
GS
[0.78257 0 0 0.78197 0 0.22835] CT
1 LJ
0.639 LW
N
137.505 117.173 M
138.694 108.042 L
S
GR
GS
[0.78257 0 0 0.78197 0 0.22835] CT
1 LJ
0.639 LW
N
210.135 108.042 M
208.751 117.173 L
S
GR
GS
[0.78257 0 0 0.78197 0 0.22835] CT
1 LJ
0.639 LW
N
138.694 108.042 M
139.975 98.911 L
S
GR
GS
[0.78257 0 0 0.78197 0 0.22835] CT
1 LJ
0.639 LW
N
211.819 98.911 M
210.135 108.042 L
S
GR
GS
[0.78257 0 0 0.78197 0 0.22835] CT
1 LJ
0.639 LW
N
139.975 98.911 M
141.195 89.78 L
S
GR
GS
[0.78257 0 0 0.78197 0 0.22835] CT
1 LJ
0.639 LW
N
213.647 89.78 M
211.819 98.911 L
S
GR
GS
[0.78257 0 0 0.78197 0 0.22835] CT
1 LJ
0.639 LW
N
141.195 89.78 M
142.24 80.65 L
S
GR
GS
[0.78257 0 0 0.78197 0 0.22835] CT
1 LJ
0.639 LW
N
215.344 80.65 M
215.105 82.238 L
213.647 89.78 L
S
GR
GS
[0.78257 0 0 0.78197 0 0.22835] CT
1 LJ
0.639 LW
N
142.24 80.65 M
143.031 71.519 L
S
GR
GS
[0.78257 0 0 0.78197 0 0.22835] CT
1 LJ
0.639 LW
N
216.459 71.519 M
215.344 80.65 L
S
GR
GS
[0.78257 0 0 0.78197 0 0.22835] CT
1 LJ
0.639 LW
N
143.031 71.519 M
143.521 62.388 L
S
GR
GS
[0.78257 0 0 0.78197 0 0.22835] CT
1 LJ
0.639 LW
N
217.188 62.388 M
216.459 71.519 L
S
GR
GS
[0.78257 0 0 0.78197 0 0.22835] CT
1 LJ
0.639 LW
N
143.521 62.388 M
143.687 53.257 L
S
GR
GS
[0.78257 0 0 0.78197 0 0.22835] CT
1 LJ
0.639 LW
N
217.442 53.257 M
217.188 62.388 L
S
GR
GS
[0.78257 0 0 0.78197 0 0.22835] CT
1 LJ
0.639 LW
N
132.483 226.743 M
132.294 217.612 L
S
GR
GS
[0.78257 0 0 0.78197 0 0.22835] CT
1 LJ
0.639 LW
N
228.264 217.612 M
228.421 222.875 L
228.52 226.743 L
S
GR
GS
[0.78257 0 0 0.78197 0 0.22835] CT
1 LJ
0.639 LW
N
132.294 217.612 M
131.743 208.481 L
S
GR
GS
[0.78257 0 0 0.78197 0 0.22835] CT
1 LJ
0.639 LW
N
227.482 208.481 M
228.264 217.612 L
S
GR
GS
[0.78257 0 0 0.78197 0 0.22835] CT
1 LJ
0.639 LW
N
131.743 208.481 M
130.869 199.35 L
S
GR
GS
[0.78257 0 0 0.78197 0 0.22835] CT
1 LJ
0.639 LW
N
226.287 199.35 M
227.482 208.481 L
S
GR
GS
[0.78257 0 0 0.78197 0 0.22835] CT
1 LJ
0.639 LW
N
130.869 199.35 M
129.743 190.22 L
S
GR
GS
[0.78257 0 0 0.78197 0 0.22835] CT
1 LJ
0.639 LW
N
224.823 190.22 M
226.287 199.35 L
S
GR
GS
[0.78257 0 0 0.78197 0 0.22835] CT
1 LJ
0.639 LW
N
129.743 190.22 M
128.469 181.089 L
S
GR
GS
[0.78257 0 0 0.78197 0 0.22835] CT
1 LJ
0.639 LW
N
223.261 181.089 M
224.823 190.22 L
S
GR
GS
[0.78257 0 0 0.78197 0 0.22835] CT
1 LJ
0.639 LW
N
128.469 181.089 M
127.176 171.958 L
S
GR
GS
[0.78257 0 0 0.78197 0 0.22835] CT
1 LJ
0.639 LW
N
221.77 171.958 M
223.261 181.089 L
S
GR
GS
[0.78257 0 0 0.78197 0 0.22835] CT
1 LJ
0.639 LW
N
127.176 171.958 M
126.014 162.827 L
S
GR
GS
[0.78257 0 0 0.78197 0 0.22835] CT
1 LJ
0.639 LW
N
220.504 162.827 M
221.77 171.958 L
S
GR
GS
[0.78257 0 0 0.78197 0 0.22835] CT
1 LJ
0.639 LW
N
126.014 162.827 M
125.134 153.696 L
S
GR
GS
[0.78257 0 0 0.78197 0 0.22835] CT
1 LJ
0.639 LW
N
219.589 153.696 M
220.504 162.827 L
S
GR
GS
[0.78257 0 0 0.78197 0 0.22835] CT
1 LJ
0.639 LW
N
125.134 153.696 M
124.659 144.565 L
S
GR
GS
[0.78257 0 0 0.78197 0 0.22835] CT
1 LJ
0.639 LW
N
219.109 144.565 M
219.589 153.696 L
S
GR
GS
[0.78257 0 0 0.78197 0 0.22835] CT
1 LJ
0.639 LW
N
124.659 144.565 M
124.659 135.435 L
S
GR
GS
[0.78257 0 0 0.78197 0 0.22835] CT
1 LJ
0.639 LW
N
219.109 135.435 M
219.109 144.565 L
S
GR
GS
[0.78257 0 0 0.78197 0 0.22835] CT
1 LJ
0.639 LW
N
124.659 135.435 M
125.134 126.304 L
S
GR
GS
[0.78257 0 0 0.78197 0 0.22835] CT
1 LJ
0.639 LW
N
219.589 126.304 M
219.109 135.435 L
S
GR
GS
[0.78257 0 0 0.78197 0 0.22835] CT
1 LJ
0.639 LW
N
125.134 126.304 M
126.014 117.173 L
S
GR
GS
[0.78257 0 0 0.78197 0 0.22835] CT
1 LJ
0.639 LW
N
220.504 117.173 M
219.589 126.304 L
S
GR
GS
[0.78257 0 0 0.78197 0 0.22835] CT
1 LJ
0.639 LW
N
126.014 117.173 M
127.176 108.042 L
S
GR
GS
[0.78257 0 0 0.78197 0 0.22835] CT
1 LJ
0.639 LW
N
221.77 108.042 M
220.504 117.173 L
S
GR
GS
[0.78257 0 0 0.78197 0 0.22835] CT
1 LJ
0.639 LW
N
127.176 108.042 M
128.469 98.911 L
S
GR
GS
[0.78257 0 0 0.78197 0 0.22835] CT
1 LJ
0.639 LW
N
223.261 98.911 M
221.77 108.042 L
S
GR
GS
[0.78257 0 0 0.78197 0 0.22835] CT
1 LJ
0.639 LW
N
128.469 98.911 M
129.743 89.78 L
S
GR
GS
[0.78257 0 0 0.78197 0 0.22835] CT
1 LJ
0.639 LW
N
224.823 89.78 M
223.261 98.911 L
S
GR
GS
[0.78257 0 0 0.78197 0 0.22835] CT
1 LJ
0.639 LW
N
129.743 89.78 M
130.869 80.65 L
S
GR
GS
[0.78257 0 0 0.78197 0 0.22835] CT
1 LJ
0.639 LW
N
226.287 80.65 M
224.823 89.78 L
S
GR
GS
[0.78257 0 0 0.78197 0 0.22835] CT
1 LJ
0.639 LW
N
130.869 80.65 M
131.743 71.519 L
S
GR
GS
[0.78257 0 0 0.78197 0 0.22835] CT
1 LJ
0.639 LW
N
227.482 71.519 M
226.287 80.65 L
S
GR
GS
[0.78257 0 0 0.78197 0 0.22835] CT
1 LJ
0.639 LW
N
131.743 71.519 M
132.294 62.388 L
S
GR
GS
[0.78257 0 0 0.78197 0 0.22835] CT
1 LJ
0.639 LW
N
228.264 62.388 M
227.482 71.519 L
S
GR
GS
[0.78257 0 0 0.78197 0 0.22835] CT
1 LJ
0.639 LW
N
132.294 62.388 M
132.483 53.257 L
S
GR
GS
[0.78257 0 0 0.78197 0 0.22835] CT
1 LJ
0.639 LW
N
228.52 53.257 M
228.421 57.125 L
228.264 62.388 L
S
GR
GS
[0.78257 0 0 0.78197 0 0.22835] CT
1 LJ
0.639 LW
N
122.629 226.743 M
122.409 217.612 L
S
GR
GS
[0.78257 0 0 0.78197 0 0.22835] CT
1 LJ
0.639 LW
N
237.806 217.612 M
238.035 226.743 L
S
GR
GS
[0.78257 0 0 0.78197 0 0.22835] CT
1 LJ
0.639 LW
N
122.409 217.612 M
121.895 210.343 L
121.771 208.481 L
S
GR
GS
[0.78257 0 0 0.78197 0 0.22835] CT
1 LJ
0.639 LW
N
237.142 208.481 M
237.806 217.612 L
S
GR
GS
[0.78257 0 0 0.78197 0 0.22835] CT
1 LJ
0.639 LW
N
121.771 208.481 M
120.823 199.35 L
S
GR
GS
[0.78257 0 0 0.78197 0 0.22835] CT
1 LJ
0.639 LW
N
236.111 199.35 M
237.142 208.481 L
S
GR
GS
[0.78257 0 0 0.78197 0 0.22835] CT
1 LJ
0.639 LW
N
120.823 199.35 M
119.626 190.22 L
S
GR
GS
[0.78257 0 0 0.78197 0 0.22835] CT
1 LJ
0.639 LW
N
234.822 190.22 M
236.111 199.35 L
S
GR
GS
[0.78257 0 0 0.78197 0 0.22835] CT
1 LJ
0.639 LW
N
119.626 190.22 M
118.302 181.089 L
S
GR
GS
[0.78257 0 0 0.78197 0 0.22835] CT
1 LJ
0.639 LW
N
233.411 181.089 M
234.822 190.22 L
S
GR
GS
[0.78257 0 0 0.78197 0 0.22835] CT
1 LJ
0.639 LW
N
118.302 181.089 M
116.992 171.958 L
S
GR
GS
[0.78257 0 0 0.78197 0 0.22835] CT
1 LJ
0.639 LW
N
232.031 171.958 M
233.411 181.089 L
S
GR
GS
[0.78257 0 0 0.78197 0 0.22835] CT
1 LJ
0.639 LW
N
116.992 171.958 M
115.843 162.827 L
S
GR
GS
[0.78257 0 0 0.78197 0 0.22835] CT
1 LJ
0.639 LW
N
230.833 162.827 M
232.031 171.958 L
S
GR
GS
[0.78257 0 0 0.78197 0 0.22835] CT
1 LJ
0.639 LW
N
115.843 162.827 M
114.989 153.696 L
S
GR
GS
[0.78257 0 0 0.78197 0 0.22835] CT
1 LJ
0.639 LW
N
229.95 153.696 M
230.833 162.827 L
S
GR
GS
[0.78257 0 0 0.78197 0 0.22835] CT
1 LJ
0.639 LW
N
114.989 153.696 M
114.533 144.565 L
S
GR
GS
[0.78257 0 0 0.78197 0 0.22835] CT
1 LJ
0.639 LW
N
229.482 144.565 M
229.95 153.696 L
S
GR
GS
[0.78257 0 0 0.78197 0 0.22835] CT
1 LJ
0.639 LW
N
114.533 144.565 M
114.533 135.435 L
S
GR
GS
[0.78257 0 0 0.78197 0 0.22835] CT
1 LJ
0.639 LW
N
229.482 135.435 M
229.482 144.565 L
S
GR
GS
[0.78257 0 0 0.78197 0 0.22835] CT
1 LJ
0.639 LW
N
114.533 135.435 M
114.989 126.304 L
S
GR
GS
[0.78257 0 0 0.78197 0 0.22835] CT
1 LJ
0.639 LW
N
229.95 126.304 M
229.482 135.435 L
S
GR
GS
[0.78257 0 0 0.78197 0 0.22835] CT
1 LJ
0.639 LW
N
114.989 126.304 M
115.843 117.173 L
S
GR
GS
[0.78257 0 0 0.78197 0 0.22835] CT
1 LJ
0.639 LW
N
230.833 117.173 M
229.95 126.304 L
S
GR
GS
[0.78257 0 0 0.78197 0 0.22835] CT
1 LJ
0.639 LW
N
115.843 117.173 M
116.992 108.042 L
S
GR
GS
[0.78257 0 0 0.78197 0 0.22835] CT
1 LJ
0.639 LW
N
232.031 108.042 M
230.833 117.173 L
S
GR
GS
[0.78257 0 0 0.78197 0 0.22835] CT
1 LJ
0.639 LW
N
116.992 108.042 M
118.302 98.911 L
S
GR
GS
[0.78257 0 0 0.78197 0 0.22835] CT
1 LJ
0.639 LW
N
233.411 98.911 M
232.031 108.042 L
S
GR
GS
[0.78257 0 0 0.78197 0 0.22835] CT
1 LJ
0.639 LW
N
118.302 98.911 M
119.626 89.78 L
S
GR
GS
[0.78257 0 0 0.78197 0 0.22835] CT
1 LJ
0.639 LW
N
234.822 89.78 M
233.411 98.911 L
S
GR
GS
[0.78257 0 0 0.78197 0 0.22835] CT
1 LJ
0.639 LW
N
119.626 89.78 M
120.823 80.65 L
S
GR
GS
[0.78257 0 0 0.78197 0 0.22835] CT
1 LJ
0.639 LW
N
236.111 80.65 M
234.822 89.78 L
S
GR
GS
[0.78257 0 0 0.78197 0 0.22835] CT
1 LJ
0.639 LW
N
120.823 80.65 M
121.771 71.519 L
S
GR
GS
[0.78257 0 0 0.78197 0 0.22835] CT
1 LJ
0.639 LW
N
237.142 71.519 M
236.111 80.65 L
S
GR
GS
[0.78257 0 0 0.78197 0 0.22835] CT
1 LJ
0.639 LW
N
121.771 71.519 M
121.895 69.657 L
122.409 62.388 L
S
GR
GS
[0.78257 0 0 0.78197 0 0.22835] CT
1 LJ
0.639 LW
N
237.806 62.388 M
237.142 71.519 L
S
GR
GS
[0.78257 0 0 0.78197 0 0.22835] CT
1 LJ
0.639 LW
N
122.409 62.388 M
122.629 53.257 L
S
GR
GS
[0.78257 0 0 0.78197 0 0.22835] CT
1 LJ
0.639 LW
N
238.035 53.257 M
237.806 62.388 L
S
GR
GS
[0.78257 0 0 0.78197 0 0.22835] CT
1 LJ
0.639 LW
N
113.311 226.743 M
113.089 217.612 L
S
GR
GS
[0.78257 0 0 0.78197 0 0.22835] CT
1 LJ
0.639 LW
N
247.09 217.612 M
247.296 226.743 L
S
GR
GS
[0.78257 0 0 0.78197 0 0.22835] CT
1 LJ
0.639 LW
N
113.089 217.612 M
112.445 208.481 L
S
GR
GS
[0.78257 0 0 0.78197 0 0.22835] CT
1 LJ
0.639 LW
N
246.491 208.481 M
247.09 217.612 L
S
GR
GS
[0.78257 0 0 0.78197 0 0.22835] CT
1 LJ
0.639 LW
N
112.445 208.481 M
111.438 199.35 L
S
GR
GS
[0.78257 0 0 0.78197 0 0.22835] CT
1 LJ
0.639 LW
N
245.548 199.35 M
246.491 208.481 L
S
GR
GS
[0.78257 0 0 0.78197 0 0.22835] CT
1 LJ
0.639 LW
N
111.438 199.35 M
110.168 190.22 L
S
GR
GS
[0.78257 0 0 0.78197 0 0.22835] CT
1 LJ
0.639 LW
N
244.348 190.22 M
245.548 199.35 L
S
GR
GS
[0.78257 0 0 0.78197 0 0.22835] CT
1 LJ
0.639 LW
N
110.168 190.22 M
108.762 181.089 L
S
GR
GS
[0.78257 0 0 0.78197 0 0.22835] CT
1 LJ
0.639 LW
N
243.007 181.089 M
244.348 190.22 L
S
GR
GS
[0.78257 0 0 0.78197 0 0.22835] CT
1 LJ
0.639 LW
N
108.762 181.089 M
108.579 179.879 L
107.383 171.958 L
S
GR
GS
[0.78257 0 0 0.78197 0 0.22835] CT
1 LJ
0.639 LW
N
241.666 171.958 M
241.737 172.435 L
243.007 181.089 L
S
GR
GS
[0.78257 0 0 0.78197 0 0.22835] CT
1 LJ
0.639 LW
N
107.383 171.958 M
106.199 162.827 L
S
GR
GS
[0.78257 0 0 0.78197 0 0.22835] CT
1 LJ
0.639 LW
N
240.492 162.827 M
241.666 171.958 L
S
GR
GS
[0.78257 0 0 0.78197 0 0.22835] CT
1 LJ
0.639 LW
N
106.199 162.827 M
105.334 153.696 L
S
GR
GS
[0.78257 0 0 0.78197 0 0.22835] CT
1 LJ
0.639 LW
N
239.626 153.696 M
240.492 162.827 L
S
GR
GS
[0.78257 0 0 0.78197 0 0.22835] CT
1 LJ
0.639 LW
N
105.334 153.696 M
104.878 144.565 L
S
GR
GS
[0.78257 0 0 0.78197 0 0.22835] CT
1 LJ
0.639 LW
N
239.167 144.565 M
239.626 153.696 L
S
GR
GS
[0.78257 0 0 0.78197 0 0.22835] CT
1 LJ
0.639 LW
N
104.878 144.565 M
104.878 135.435 L
S
GR
GS
[0.78257 0 0 0.78197 0 0.22835] CT
1 LJ
0.639 LW
N
239.167 135.435 M
239.167 144.565 L
S
GR
GS
[0.78257 0 0 0.78197 0 0.22835] CT
1 LJ
0.639 LW
N
104.878 135.435 M
105.334 126.304 L
S
GR
GS
[0.78257 0 0 0.78197 0 0.22835] CT
1 LJ
0.639 LW
N
239.626 126.304 M
239.167 135.435 L
S
GR
GS
[0.78257 0 0 0.78197 0 0.22835] CT
1 LJ
0.639 LW
N
105.334 126.304 M
106.199 117.173 L
S
GR
GS
[0.78257 0 0 0.78197 0 0.22835] CT
1 LJ
0.639 LW
N
240.492 117.173 M
239.626 126.304 L
S
GR
GS
[0.78257 0 0 0.78197 0 0.22835] CT
1 LJ
0.639 LW
N
106.199 117.173 M
107.383 108.042 L
S
GR
GS
[0.78257 0 0 0.78197 0 0.22835] CT
1 LJ
0.639 LW
N
241.666 108.042 M
240.492 117.173 L
S
GR
GS
[0.78257 0 0 0.78197 0 0.22835] CT
1 LJ
0.639 LW
N
107.383 108.042 M
108.579 100.121 L
108.762 98.911 L
S
GR
GS
[0.78257 0 0 0.78197 0 0.22835] CT
1 LJ
0.639 LW
N
243.007 98.911 M
241.737 107.565 L
241.666 108.042 L
S
GR
GS
[0.78257 0 0 0.78197 0 0.22835] CT
1 LJ
0.639 LW
N
108.762 98.911 M
110.168 89.78 L
S
GR
GS
[0.78257 0 0 0.78197 0 0.22835] CT
1 LJ
0.639 LW
N
244.348 89.78 M
243.007 98.911 L
S
GR
GS
[0.78257 0 0 0.78197 0 0.22835] CT
1 LJ
0.639 LW
N
110.168 89.78 M
111.438 80.65 L
S
GR
GS
[0.78257 0 0 0.78197 0 0.22835] CT
1 LJ
0.639 LW
N
245.548 80.65 M
244.348 89.78 L
S
GR
GS
[0.78257 0 0 0.78197 0 0.22835] CT
1 LJ
0.639 LW
N
111.438 80.65 M
112.445 71.519 L
S
GR
GS
[0.78257 0 0 0.78197 0 0.22835] CT
1 LJ
0.639 LW
N
246.491 71.519 M
245.548 80.65 L
S
GR
GS
[0.78257 0 0 0.78197 0 0.22835] CT
1 LJ
0.639 LW
N
112.445 71.519 M
113.089 62.388 L
S
GR
GS
[0.78257 0 0 0.78197 0 0.22835] CT
1 LJ
0.639 LW
N
247.09 62.388 M
246.491 71.519 L
S
GR
GS
[0.78257 0 0 0.78197 0 0.22835] CT
1 LJ
0.639 LW
N
113.089 62.388 M
113.311 53.257 L
S
GR
GS
[0.78257 0 0 0.78197 0 0.22835] CT
1 LJ
0.639 LW
N
247.296 53.257 M
247.09 62.388 L
S
GR
GS
[0.78257 0 0 0.78197 0 0.22835] CT
1 LJ
0.639 LW
N
103.856 226.743 M
103.621 217.612 L
S
GR
GS
[0.78257 0 0 0.78197 0 0.22835] CT
1 LJ
0.639 LW
N
256.275 217.612 M
256.469 226.743 L
S
GR
GS
[0.78257 0 0 0.78197 0 0.22835] CT
1 LJ
0.639 LW
N
103.621 217.612 M
102.944 208.481 L
S
GR
GS
[0.78257 0 0 0.78197 0 0.22835] CT
1 LJ
0.639 LW
N
255.707 208.481 M
256.275 217.612 L
S
GR
GS
[0.78257 0 0 0.78197 0 0.22835] CT
1 LJ
0.639 LW
N
102.944 208.481 M
101.902 199.35 L
S
GR
GS
[0.78257 0 0 0.78197 0 0.22835] CT
1 LJ
0.639 LW
N
254.819 199.35 M
255.053 201.842 L
255.707 208.481 L
S
GR
GS
[0.78257 0 0 0.78197 0 0.22835] CT
1 LJ
0.639 LW
N
101.902 199.35 M
100.61 190.22 L
S
GR
GS
[0.78257 0 0 0.78197 0 0.22835] CT
1 LJ
0.639 LW
N
253.738 190.22 M
254.819 199.35 L
S
GR
GS
[0.78257 0 0 0.78197 0 0.22835] CT
1 LJ
0.639 LW
N
100.61 190.22 M
99.212 181.089 L
S
GR
GS
[0.78257 0 0 0.78197 0 0.22835] CT
1 LJ
0.639 LW
N
252.529 181.089 M
253.738 190.22 L
S
GR
GS
[0.78257 0 0 0.78197 0 0.22835] CT
1 LJ
0.639 LW
N
99.212 181.089 M
97.861 171.958 L
S
GR
GS
[0.78257 0 0 0.78197 0 0.22835] CT
1 LJ
0.639 LW
N
251.32 171.958 M
252.529 181.089 L
S
GR
GS
[0.78257 0 0 0.78197 0 0.22835] CT
1 LJ
0.639 LW
N
97.861 171.958 M
96.699 162.827 L
S
GR
GS
[0.78257 0 0 0.78197 0 0.22835] CT
1 LJ
0.639 LW
N
250.249 162.827 M
251.32 171.958 L
S
GR
GS
[0.78257 0 0 0.78197 0 0.22835] CT
1 LJ
0.639 LW
N
96.699 162.827 M
95.851 153.696 L
S
GR
GS
[0.78257 0 0 0.78197 0 0.22835] CT
1 LJ
0.639 LW
N
249.446 153.696 M
250.249 162.827 L
S
GR
GS
[0.78257 0 0 0.78197 0 0.22835] CT
1 LJ
0.639 LW
N
95.851 153.696 M
95.404 144.565 L
S
GR
GS
[0.78257 0 0 0.78197 0 0.22835] CT
1 LJ
0.639 LW
N
249.016 144.565 M
249.446 153.696 L
S
GR
GS
[0.78257 0 0 0.78197 0 0.22835] CT
1 LJ
0.639 LW
N
95.404 144.565 M
95.404 135.435 L
S
GR
GS
[0.78257 0 0 0.78197 0 0.22835] CT
1 LJ
0.639 LW
N
249.016 135.435 M
249.016 144.565 L
S
GR
GS
[0.78257 0 0 0.78197 0 0.22835] CT
1 LJ
0.639 LW
N
95.404 135.435 M
95.851 126.304 L
S
GR
GS
[0.78257 0 0 0.78197 0 0.22835] CT
1 LJ
0.639 LW
N
249.446 126.304 M
249.016 135.435 L
S
GR
GS
[0.78257 0 0 0.78197 0 0.22835] CT
1 LJ
0.639 LW
N
95.851 126.304 M
96.699 117.173 L
S
GR
GS
[0.78257 0 0 0.78197 0 0.22835] CT
1 LJ
0.639 LW
N
250.249 117.173 M
249.446 126.304 L
S
GR
GS
[0.78257 0 0 0.78197 0 0.22835] CT
1 LJ
0.639 LW
N
96.699 117.173 M
97.861 108.042 L
S
GR
GS
[0.78257 0 0 0.78197 0 0.22835] CT
1 LJ
0.639 LW
N
251.32 108.042 M
250.249 117.173 L
S
GR
GS
[0.78257 0 0 0.78197 0 0.22835] CT
1 LJ
0.639 LW
N
97.861 108.042 M
99.212 98.911 L
S
GR
GS
[0.78257 0 0 0.78197 0 0.22835] CT
1 LJ
0.639 LW
N
252.529 98.911 M
251.32 108.042 L
S
GR
GS
[0.78257 0 0 0.78197 0 0.22835] CT
1 LJ
0.639 LW
N
99.212 98.911 M
100.61 89.78 L
S
GR
GS
[0.78257 0 0 0.78197 0 0.22835] CT
1 LJ
0.639 LW
N
253.738 89.78 M
252.529 98.911 L
S
GR
GS
[0.78257 0 0 0.78197 0 0.22835] CT
1 LJ
0.639 LW
N
100.61 89.78 M
101.902 80.65 L
S
GR
GS
[0.78257 0 0 0.78197 0 0.22835] CT
1 LJ
0.639 LW
N
254.819 80.65 M
253.738 89.78 L
S
GR
GS
[0.78257 0 0 0.78197 0 0.22835] CT
1 LJ
0.639 LW
N
101.902 80.65 M
102.944 71.519 L
S
GR
GS
[0.78257 0 0 0.78197 0 0.22835] CT
1 LJ
0.639 LW
N
255.707 71.519 M
255.053 78.158 L
254.819 80.65 L
S
GR
GS
[0.78257 0 0 0.78197 0 0.22835] CT
1 LJ
0.639 LW
N
102.944 71.519 M
103.621 62.388 L
S
GR
GS
[0.78257 0 0 0.78197 0 0.22835] CT
1 LJ
0.639 LW
N
256.275 62.388 M
255.707 71.519 L
S
GR
GS
[0.78257 0 0 0.78197 0 0.22835] CT
1 LJ
0.639 LW
N
103.621 62.388 M
103.856 53.257 L
S
GR
GS
[0.78257 0 0 0.78197 0 0.22835] CT
1 LJ
0.639 LW
N
256.469 53.257 M
256.275 62.388 L
S
GR
GS
[0.78257 0 0 0.78197 0 0.22835] CT
1 LJ
0.639 LW
N
94.049 226.743 M
93.786 217.612 L
S
GR
GS
[0.78257 0 0 0.78197 0 0.22835] CT
1 LJ
0.639 LW
N
265.921 217.612 M
266.076 226.743 L
S
GR
GS
[0.78257 0 0 0.78197 0 0.22835] CT
1 LJ
0.639 LW
N
93.786 217.612 M
93.034 208.481 L
S
GR
GS
[0.78257 0 0 0.78197 0 0.22835] CT
1 LJ
0.639 LW
N
265.465 208.481 M
265.921 217.612 L
S
GR
GS
[0.78257 0 0 0.78197 0 0.22835] CT
1 LJ
0.639 LW
N
93.034 208.481 M
91.896 199.35 L
S
GR
GS
[0.78257 0 0 0.78197 0 0.22835] CT
1 LJ
0.639 LW
N
264.739 199.35 M
265.465 208.481 L
S
GR
GS
[0.78257 0 0 0.78197 0 0.22835] CT
1 LJ
0.639 LW
N
91.896 199.35 M
90.515 190.22 L
S
GR
GS
[0.78257 0 0 0.78197 0 0.22835] CT
1 LJ
0.639 LW
N
263.798 190.22 M
264.739 199.35 L
S
GR
GS
[0.78257 0 0 0.78197 0 0.22835] CT
1 LJ
0.639 LW
N
90.515 190.22 M
89.059 181.089 L
S
GR
GS
[0.78257 0 0 0.78197 0 0.22835] CT
1 LJ
0.639 LW
N
262.722 181.089 M
263.798 190.22 L
S
GR
GS
[0.78257 0 0 0.78197 0 0.22835] CT
1 LJ
0.639 LW
N
89.059 181.089 M
87.685 171.958 L
S
GR
GS
[0.78257 0 0 0.78197 0 0.22835] CT
1 LJ
0.639 LW
N
261.62 171.958 M
262.722 181.089 L
S
GR
GS
[0.78257 0 0 0.78197 0 0.22835] CT
1 LJ
0.639 LW
N
87.685 171.958 M
86.531 162.827 L
S
GR
GS
[0.78257 0 0 0.78197 0 0.22835] CT
1 LJ
0.639 LW
N
260.621 162.827 M
261.62 171.958 L
S
GR
GS
[0.78257 0 0 0.78197 0 0.22835] CT
1 LJ
0.639 LW
N
86.531 162.827 M
85.704 153.696 L
S
GR
GS
[0.78257 0 0 0.78197 0 0.22835] CT
1 LJ
0.639 LW
N
259.858 153.696 M
260.621 162.827 L
S
GR
GS
[0.78257 0 0 0.78197 0 0.22835] CT
1 LJ
0.639 LW
N
85.704 153.696 M
85.272 144.565 L
S
GR
GS
[0.78257 0 0 0.78197 0 0.22835] CT
1 LJ
0.639 LW
N
259.444 144.565 M
259.858 153.696 L
S
GR
GS
[0.78257 0 0 0.78197 0 0.22835] CT
1 LJ
0.639 LW
N
85.272 144.565 M
85.272 135.435 L
S
GR
GS
[0.78257 0 0 0.78197 0 0.22835] CT
1 LJ
0.639 LW
N
259.444 135.435 M
259.444 144.565 L
S
GR
GS
[0.78257 0 0 0.78197 0 0.22835] CT
1 LJ
0.639 LW
N
85.272 135.435 M
85.704 126.304 L
S
GR
GS
[0.78257 0 0 0.78197 0 0.22835] CT
1 LJ
0.639 LW
N
259.858 126.304 M
259.444 135.435 L
S
GR
GS
[0.78257 0 0 0.78197 0 0.22835] CT
1 LJ
0.639 LW
N
85.704 126.304 M
86.531 117.173 L
S
GR
GS
[0.78257 0 0 0.78197 0 0.22835] CT
1 LJ
0.639 LW
N
260.621 117.173 M
259.858 126.304 L
S
GR
GS
[0.78257 0 0 0.78197 0 0.22835] CT
1 LJ
0.639 LW
N
86.531 117.173 M
87.685 108.042 L
S
GR
GS
[0.78257 0 0 0.78197 0 0.22835] CT
1 LJ
0.639 LW
N
261.62 108.042 M
260.621 117.173 L
S
GR
GS
[0.78257 0 0 0.78197 0 0.22835] CT
1 LJ
0.639 LW
N
87.685 108.042 M
89.059 98.911 L
S
GR
GS
[0.78257 0 0 0.78197 0 0.22835] CT
1 LJ
0.639 LW
N
262.722 98.911 M
261.62 108.042 L
S
GR
GS
[0.78257 0 0 0.78197 0 0.22835] CT
1 LJ
0.639 LW
N
89.059 98.911 M
90.515 89.78 L
S
GR
GS
[0.78257 0 0 0.78197 0 0.22835] CT
1 LJ
0.639 LW
N
263.798 89.78 M
262.722 98.911 L
S
GR
GS
[0.78257 0 0 0.78197 0 0.22835] CT
1 LJ
0.639 LW
N
90.515 89.78 M
91.896 80.65 L
S
GR
GS
[0.78257 0 0 0.78197 0 0.22835] CT
1 LJ
0.639 LW
N
264.739 80.65 M
263.798 89.78 L
S
GR
GS
[0.78257 0 0 0.78197 0 0.22835] CT
1 LJ
0.639 LW
N
91.896 80.65 M
93.034 71.519 L
S
GR
GS
[0.78257 0 0 0.78197 0 0.22835] CT
1 LJ
0.639 LW
N
265.465 71.519 M
264.739 80.65 L
S
GR
GS
[0.78257 0 0 0.78197 0 0.22835] CT
1 LJ
0.639 LW
N
93.034 71.519 M
93.786 62.388 L
S
GR
GS
[0.78257 0 0 0.78197 0 0.22835] CT
1 LJ
0.639 LW
N
265.921 62.388 M
265.465 71.519 L
S
GR
GS
[0.78257 0 0 0.78197 0 0.22835] CT
1 LJ
0.639 LW
N
93.786 62.388 M
94.049 53.257 L
S
GR
GS
[0.78257 0 0 0.78197 0 0.22835] CT
1 LJ
0.639 LW
N
266.076 53.257 M
265.921 62.388 L
S
GR
GS
[0.78257 0 0 0.78197 0 0.22835] CT
1 LJ
0.639 LW
N
82.891 226.743 M
82.659 217.612 L
S
GR
GS
[0.78257 0 0 0.78197 0 0.22835] CT
1 LJ
0.639 LW
N
276.887 217.612 M
277.007 226.743 L
S
GR
GS
[0.78257 0 0 0.78197 0 0.22835] CT
1 LJ
0.639 LW
N
82.659 217.612 M
81.995 208.481 L
S
GR
GS
[0.78257 0 0 0.78197 0 0.22835] CT
1 LJ
0.639 LW
N
276.532 208.481 M
276.887 217.612 L
S
GR
GS
[0.78257 0 0 0.78197 0 0.22835] CT
1 LJ
0.639 LW
N
81.995 208.481 M
81.947 208.059 L
80.698 199.35 L
S
GR
GS
[0.78257 0 0 0.78197 0 0.22835] CT
1 LJ
0.639 LW
N
275.956 199.35 M
276.532 208.481 L
S
GR
GS
[0.78257 0 0 0.78197 0 0.22835] CT
1 LJ
0.639 LW
N
80.698 199.35 M
79.158 190.22 L
S
GR
GS
[0.78257 0 0 0.78197 0 0.22835] CT
1 LJ
0.639 LW
N
275.192 190.22 M
275.956 199.35 L
S
GR
GS
[0.78257 0 0 0.78197 0 0.22835] CT
1 LJ
0.639 LW
N
79.158 190.22 M
77.589 181.089 L
S
GR
GS
[0.78257 0 0 0.78197 0 0.22835] CT
1 LJ
0.639 LW
N
274.294 181.089 M
275.192 190.22 L
S
GR
GS
[0.78257 0 0 0.78197 0 0.22835] CT
1 LJ
0.639 LW
N
77.589 181.089 M
76.159 171.958 L
S
GR
GS
[0.78257 0 0 0.78197 0 0.22835] CT
1 LJ
0.639 LW
N
273.345 171.958 M
274.294 181.089 L
S
GR
GS
[0.78257 0 0 0.78197 0 0.22835] CT
1 LJ
0.639 LW
N
76.159 171.958 M
74.995 162.827 L
S
GR
GS
[0.78257 0 0 0.78197 0 0.22835] CT
1 LJ
0.639 LW
N
272.458 162.827 M
273.345 171.958 L
S
GR
GS
[0.78257 0 0 0.78197 0 0.22835] CT
1 LJ
0.639 LW
N
74.995 162.827 M
74.179 153.696 L
S
GR
GS
[0.78257 0 0 0.78197 0 0.22835] CT
1 LJ
0.639 LW
N
271.763 153.696 M
272.458 162.827 L
S
GR
GS
[0.78257 0 0 0.78197 0 0.22835] CT
1 LJ
0.639 LW
N
74.179 153.696 M
73.76 144.565 L
S
GR
GS
[0.78257 0 0 0.78197 0 0.22835] CT
1 LJ
0.639 LW
N
271.379 144.565 M
271.763 153.696 L
S
GR
GS
[0.78257 0 0 0.78197 0 0.22835] CT
1 LJ
0.639 LW
N
73.76 144.565 M
73.76 135.435 L
S
GR
GS
[0.78257 0 0 0.78197 0 0.22835] CT
1 LJ
0.639 LW
N
271.379 135.435 M
271.379 144.565 L
S
GR
GS
[0.78257 0 0 0.78197 0 0.22835] CT
1 LJ
0.639 LW
N
73.76 135.435 M
74.179 126.304 L
S
GR
GS
[0.78257 0 0 0.78197 0 0.22835] CT
1 LJ
0.639 LW
N
271.763 126.304 M
271.379 135.435 L
S
GR
GS
[0.78257 0 0 0.78197 0 0.22835] CT
1 LJ
0.639 LW
N
74.179 126.304 M
74.995 117.173 L
S
GR
GS
[0.78257 0 0 0.78197 0 0.22835] CT
1 LJ
0.639 LW
N
272.458 117.173 M
271.763 126.304 L
S
GR
GS
[0.78257 0 0 0.78197 0 0.22835] CT
1 LJ
0.639 LW
N
74.995 117.173 M
76.159 108.042 L
S
GR
GS
[0.78257 0 0 0.78197 0 0.22835] CT
1 LJ
0.639 LW
N
273.345 108.042 M
272.458 117.173 L
S
GR
GS
[0.78257 0 0 0.78197 0 0.22835] CT
1 LJ
0.639 LW
N
76.159 108.042 M
77.589 98.911 L
S
GR
GS
[0.78257 0 0 0.78197 0 0.22835] CT
1 LJ
0.639 LW
N
274.294 98.911 M
273.345 108.042 L
S
GR
GS
[0.78257 0 0 0.78197 0 0.22835] CT
1 LJ
0.639 LW
N
77.589 98.911 M
79.158 89.78 L
S
GR
GS
[0.78257 0 0 0.78197 0 0.22835] CT
1 LJ
0.639 LW
N
275.192 89.78 M
274.294 98.911 L
S
GR
GS
[0.78257 0 0 0.78197 0 0.22835] CT
1 LJ
0.639 LW
N
79.158 89.78 M
80.698 80.65 L
S
GR
GS
[0.78257 0 0 0.78197 0 0.22835] CT
1 LJ
0.639 LW
N
275.956 80.65 M
275.192 89.78 L
S
GR
GS
[0.78257 0 0 0.78197 0 0.22835] CT
1 LJ
0.639 LW
N
80.698 80.65 M
81.947 71.941 L
81.995 71.519 L
S
GR
GS
[0.78257 0 0 0.78197 0 0.22835] CT
1 LJ
0.639 LW
N
276.532 71.519 M
275.956 80.65 L
S
GR
GS
[0.78257 0 0 0.78197 0 0.22835] CT
1 LJ
0.639 LW
N
81.995 71.519 M
82.659 62.388 L
S
GR
GS
[0.78257 0 0 0.78197 0 0.22835] CT
1 LJ
0.639 LW
N
276.887 62.388 M
276.532 71.519 L
S
GR
GS
[0.78257 0 0 0.78197 0 0.22835] CT
1 LJ
0.639 LW
N
82.659 62.388 M
82.891 53.257 L
S
GR
GS
[0.78257 0 0 0.78197 0 0.22835] CT
1 LJ
0.639 LW
N
277.007 53.257 M
276.887 62.388 L
S
GR
GS
[0.78257 0 0 0.78197 0 0.22835] CT
1 LJ
0.639 LW
N
68.006 226.743 M
67.621 217.612 L
S
GR
GS
[0.78257 0 0 0.78197 0 0.22835] CT
1 LJ
0.639 LW
N
290.889 217.612 M
290.928 226.743 L
S
GR
GS
[0.78257 0 0 0.78197 0 0.22835] CT
1 LJ
0.639 LW
N
67.621 217.612 M
66.566 208.481 L
S
GR
GS
[0.78257 0 0 0.78197 0 0.22835] CT
1 LJ
0.639 LW
N
290.773 208.481 M
290.889 217.612 L
S
GR
GS
[0.78257 0 0 0.78197 0 0.22835] CT
1 LJ
0.639 LW
N
66.566 208.481 M
65.087 199.35 L
S
GR
GS
[0.78257 0 0 0.78197 0 0.22835] CT
1 LJ
0.639 LW
N
290.579 199.35 M
290.773 208.481 L
S
GR
GS
[0.78257 0 0 0.78197 0 0.22835] CT
1 LJ
0.639 LW
N
65.087 199.35 M
63.464 190.22 L
S
GR
GS
[0.78257 0 0 0.78197 0 0.22835] CT
1 LJ
0.639 LW
N
290.311 190.22 M
290.579 199.35 L
S
GR
GS
[0.78257 0 0 0.78197 0 0.22835] CT
1 LJ
0.639 LW
N
63.464 190.22 M
61.924 181.089 L
S
GR
GS
[0.78257 0 0 0.78197 0 0.22835] CT
1 LJ
0.639 LW
N
289.98 181.089 M
290.311 190.22 L
S
GR
GS
[0.78257 0 0 0.78197 0 0.22835] CT
1 LJ
0.639 LW
N
61.924 181.089 M
60.611 171.958 L
S
GR
GS
[0.78257 0 0 0.78197 0 0.22835] CT
1 LJ
0.639 LW
N
289.609 171.958 M
289.98 181.089 L
S
GR
GS
[0.78257 0 0 0.78197 0 0.22835] CT
1 LJ
0.639 LW
N
60.611 171.958 M
59.6 162.827 L
S
GR
GS
[0.78257 0 0 0.78197 0 0.22835] CT
1 LJ
0.639 LW
N
289.243 162.827 M
289.609 171.958 L
S
GR
GS
[0.78257 0 0 0.78197 0 0.22835] CT
1 LJ
0.639 LW
N
59.6 162.827 M
58.92 153.696 L
S
GR
GS
[0.78257 0 0 0.78197 0 0.22835] CT
1 LJ
0.639 LW
N
288.941 153.696 M
289.243 162.827 L
S
GR
GS
[0.78257 0 0 0.78197 0 0.22835] CT
1 LJ
0.639 LW
N
58.92 153.696 M
58.579 144.565 L
S
GR
GS
[0.78257 0 0 0.78197 0 0.22835] CT
1 LJ
0.639 LW
N
288.768 144.565 M
288.941 153.696 L
S
GR
GS
[0.78257 0 0 0.78197 0 0.22835] CT
1 LJ
0.639 LW
N
58.579 144.565 M
58.579 135.435 L
S
GR
GS
[0.78257 0 0 0.78197 0 0.22835] CT
1 LJ
0.639 LW
N
288.768 135.435 M
288.768 144.565 L
S
GR
GS
[0.78257 0 0 0.78197 0 0.22835] CT
1 LJ
0.639 LW
N
58.579 135.435 M
58.92 126.304 L
S
GR
GS
[0.78257 0 0 0.78197 0 0.22835] CT
1 LJ
0.639 LW
N
288.941 126.304 M
288.768 135.435 L
S
GR
GS
[0.78257 0 0 0.78197 0 0.22835] CT
1 LJ
0.639 LW
N
58.92 126.304 M
59.6 117.173 L
S
GR
GS
[0.78257 0 0 0.78197 0 0.22835] CT
1 LJ
0.639 LW
N
289.243 117.173 M
288.941 126.304 L
S
GR
GS
[0.78257 0 0 0.78197 0 0.22835] CT
1 LJ
0.639 LW
N
59.6 117.173 M
60.611 108.042 L
S
GR
GS
[0.78257 0 0 0.78197 0 0.22835] CT
1 LJ
0.639 LW
N
289.609 108.042 M
289.243 117.173 L
S
GR
GS
[0.78257 0 0 0.78197 0 0.22835] CT
1 LJ
0.639 LW
N
60.611 108.042 M
61.924 98.911 L
S
GR
GS
[0.78257 0 0 0.78197 0 0.22835] CT
1 LJ
0.639 LW
N
289.98 98.911 M
289.609 108.042 L
S
GR
GS
[0.78257 0 0 0.78197 0 0.22835] CT
1 LJ
0.639 LW
N
61.924 98.911 M
63.464 89.78 L
S
GR
GS
[0.78257 0 0 0.78197 0 0.22835] CT
1 LJ
0.639 LW
N
290.311 89.78 M
289.98 98.911 L
S
GR
GS
[0.78257 0 0 0.78197 0 0.22835] CT
1 LJ
0.639 LW
N
63.464 89.78 M
65.087 80.65 L
S
GR
GS
[0.78257 0 0 0.78197 0 0.22835] CT
1 LJ
0.639 LW
N
290.579 80.65 M
290.311 89.78 L
S
GR
GS
[0.78257 0 0 0.78197 0 0.22835] CT
1 LJ
0.639 LW
N
65.087 80.65 M
66.566 71.519 L
S
GR
GS
[0.78257 0 0 0.78197 0 0.22835] CT
1 LJ
0.639 LW
N
290.773 71.519 M
290.579 80.65 L
S
GR
GS
[0.78257 0 0 0.78197 0 0.22835] CT
1 LJ
0.639 LW
N
66.566 71.519 M
67.621 62.388 L
S
GR
GS
[0.78257 0 0 0.78197 0 0.22835] CT
1 LJ
0.639 LW
N
290.889 62.388 M
290.773 71.519 L
S
GR
GS
[0.78257 0 0 0.78197 0 0.22835] CT
1 LJ
0.639 LW
N
67.621 62.388 M
68.006 53.257 L
S
GR
GS
[0.78257 0 0 0.78197 0 0.22835] CT
1 LJ
0.639 LW
N
290.928 53.257 M
290.889 62.388 L
S
GR
GS
[0.78257 0 0 0.78197 0 0.22835] CT
1 0 0 RC
1 LJ
0.639 LW
N
45.008 208.259 M
41.989 209.345 L
S
GR
GS
[0.78257 0 0 0.78197 0 0.22835] CT
1 0 0 RC
1 LJ
0.639 LW
N
41.989 206.781 M
43.155 205.493 L
S
GR
GS
[0.78257 0 0 0.78197 0 0.22835] CT
1 0 0 RC
1 LJ
0.639 LW
N
42.911 188.105 M
41.989 188.241 L
S
GR
GS
[0.78257 0 0 0.78197 0 0.22835] CT
1 0 0 RC
1 LJ
0.639 LW
N
41.989 98.985 M
42.211 99.038 L
S
GR
GS
[0.78257 0 0 0.78197 0 0.22835] CT
1 0 0 RC
1 LJ
0.639 LW
N
42.653 86.813 M
41.989 86.361 L
S
GR
GS
[0.78257 0 0 0.78197 0 0.22835] CT
1 0 0 RC
1 LJ
0.639 LW
N
41.989 83.639 M
43.751 83.83 L
S
GR
GS
[0.78257 0 0 0.78197 0 0.22835] CT
1 0 0 RC
1 LJ
0.639 LW
N
79.315 205.226 M
77.013 207.513 L
77.968 204.412 L
S
GR
GS
[0.78257 0 0 0.78197 0 0.22835] CT
1 0 0 RC
1 LJ
0.639 LW
N
74.271 185.036 M
69.947 185.503 L
73.543 183.056 L
S
GR
GS
[0.78257 0 0 0.78197 0 0.22835] CT
1 0 0 RC
1 LJ
0.639 LW
N
69.336 163.567 M
63.272 161.632 L
69.533 160.486 L
S
GR
GS
[0.78257 0 0 0.78197 0 0.22835] CT
1 0 0 RC
1 LJ
0.639 LW
N
66.591 142.171 M
59.803 138.265 L
67.63 138.517 L
S
GR
GS
[0.78257 0 0 0.78197 0 0.22835] CT
1 0 0 RC
1 LJ
0.639 LW
N
67.192 122.17 M
61.002 117.554 L
68.636 118.714 L
S
GR
GS
[0.78257 0 0 0.78197 0 0.22835] CT
1 0 0 RC
1 LJ
0.639 LW
N
70.888 104.297 M
66.365 100.534 L
72.127 101.726 L
S
GR
GS
[0.78257 0 0 0.78197 0 0.22835] CT
1 0 0 RC
1 LJ
0.639 LW
N
76.118 88.389 M
73.629 86.68 L
76.63 87.017 L
S
GR
GS
[0.78257 0 0 0.78197 0 0.22835] CT
1 0 0 RC
1 LJ
0.639 LW
N
114.869 200.832 M
117.559 202.668 L
114.322 202.314 L
S
GR
GS
[0.78257 0 0 0.78197 0 0.22835] CT
1 0 0 RC
1 LJ
0.639 LW
N
108.848 180.135 M
109.147 179.735 L
109.071 180.229 L
S
GR
GS
[0.78257 0 0 0.78197 0 0.22835] CT
1 0 0 RC
1 LJ
0.639 LW
N
103.186 159.782 M
101.201 157.374 L
104.086 158.565 L
S
GR
GS
[0.78257 0 0 0.78197 0 0.22835] CT
1 0 0 RC
1 LJ
0.639 LW
N
100.27 140.655 M
97.071 137.312 L
101.467 138.756 L
S
GR
GS
[0.78257 0 0 0.78197 0 0.22835] CT
1 0 0 RC
1 LJ
0.639 LW
N
101.331 123.119 M
98.499 120.309 L
102.32 121.456 L
S
GR
GS
[0.78257 0 0 0.78197 0 0.22835] CT
1 0 0 RC
1 LJ
0.639 LW
N
105.921 106.868 M
104.883 105.834 L
106.285 106.258 L
S
GR
GS
[0.78257 0 0 0.78197 0 0.22835] CT
1 0 0 RC
1 LJ
0.639 LW
N
112.104 91.054 M
113.531 92.291 L
111.69 91.871 L
S
GR
GS
[0.78257 0 0 0.78197 0 0.22835] CT
1 0 0 RC
1 LJ
0.639 LW
N
147.909 196.93 M
154.318 198.09 L
148.117 200.083 L
S
GR
GS
[0.78257 0 0 0.78197 0 0.22835] CT
1 0 0 RC
1 LJ
0.639 LW
N
143.291 175.467 M
148.108 174.286 L
144.413 177.595 L
S
GR
GS
[0.78257 0 0 0.78197 0 0.22835] CT
1 0 0 RC
1 LJ
0.639 LW
N
139.14 155.898 M
142.242 153.351 L
140.703 157.058 L
S
GR
GS
[0.78257 0 0 0.78197 0 0.22835] CT
1 0 0 RC
1 LJ
0.639 LW
N
137.206 138.774 M
139.193 136.412 L
138.551 139.431 L
S
GR
GS
[0.78257 0 0 0.78197 0 0.22835] CT
1 0 0 RC
1 LJ
0.639 LW
N
138.305 123.615 M
140.247 122.911 L
138.865 124.446 L
S
GR
GS
[0.78257 0 0 0.78197 0 0.22835] CT
1 0 0 RC
1 LJ
0.639 LW
N
141.974 109.113 M
144.96 110.841 L
141.512 110.722 L
S
GR
GS
[0.78257 0 0 0.78197 0 0.22835] CT
1 0 0 RC
1 LJ
0.639 LW
N
146.665 93.682 M
151.344 97.591 L
145.376 96.344 L
S
GR
GS
[0.78257 0 0 0.78197 0 0.22835] CT
1 0 0 RC
1 LJ
0.639 LW
N
175.73 195.165 M
183.019 195.711 L
176.331 198.659 L
S
GR
GS
[0.78257 0 0 0.78197 0 0.22835] CT
1 0 0 RC
1 LJ
0.639 LW
N
174.305 173.001 M
181.63 171.454 L
175.895 176.266 L
S
GR
GS
[0.78257 0 0 0.78197 0 0.22835] CT
1 0 0 RC
1 LJ
0.639 LW
N
173.266 153.553 M
180.317 151.261 L
175.175 156.602 L
S
GR
GS
[0.78257 0 0 0.78197 0 0.22835] CT
1 0 0 RC
1 LJ
0.639 LW
N
173.052 137.321 M
179.635 135.944 L
174.475 140.257 L
S
GR
GS
[0.78257 0 0 0.78197 0 0.22835] CT
1 0 0 RC
1 LJ
0.639 LW
N
173.753 123.45 M
179.871 124.264 L
174.09 126.424 L
S
GR
GS
[0.78257 0 0 0.78197 0 0.22835] CT
1 0 0 RC
1 LJ
0.639 LW
N
175.074 110.087 M
180.925 113.444 L
174.182 113.236 L
S
GR
GS
[0.78257 0 0 0.78197 0 0.22835] CT
1 0 0 RC
1 LJ
0.639 LW
N
176.456 95.167 M
182.354 100.345 L
174.713 98.551 L
S
GR
GS
[0.78257 0 0 0.78197 0 0.22835] CT
1 0 0 RC
1 LJ
0.639 LW
N
197.833 196.282 M
202.789 196.534 L
198.297 198.645 L
S
GR
GS
[0.78257 0 0 0.78197 0 0.22835] CT
1 0 0 RC
1 LJ
0.639 LW
N
200.043 173.777 M
206.806 172.434 L
201.471 176.802 L
S
GR
GS
[0.78257 0 0 0.78197 0 0.22835] CT
1 0 0 RC
1 LJ
0.639 LW
N
202.405 153.736 M
210.601 151.984 L
204.194 157.387 L
S
GR
GS
[0.78257 0 0 0.78197 0 0.22835] CT
1 0 0 RC
1 LJ
0.639 LW
N
203.923 136.909 M
212.574 136.106 L
205.319 140.886 L
S
GR
GS
[0.78257 0 0 0.78197 0 0.22835] CT
1 0 0 RC
1 LJ
0.639 LW
N
203.957 122.692 M
211.892 123.796 L
204.371 126.556 L
S
GR
GS
[0.78257 0 0 0.78197 0 0.22835] CT
1 0 0 RC
1 LJ
0.639 LW
N
202.492 109.378 M
208.843 112.544 L
201.75 112.739 L
S
GR
GS
[0.78257 0 0 0.78197 0 0.22835] CT
1 0 0 RC
1 LJ
0.639 LW
N
200.147 94.881 M
204.713 99.393 L
198.561 97.56 L
S
GR
GS
[0.78257 0 0 0.78197 0 0.22835] CT
1 0 0 RC
1 LJ
0.639 LW
N
216.126 199.81 M
216.522 200.211 L
215.984 200.044 L
S
GR
GS
[0.78257 0 0 0.78197 0 0.22835] CT
1 0 0 RC
1 LJ
0.639 LW
N
220.881 177.468 M
224.252 176.811 L
221.586 178.978 L
S
GR
GS
[0.78257 0 0 0.78197 0 0.22835] CT
1 0 0 RC
1 LJ
0.639 LW
N
225.498 156.37 M
231.554 155.215 L
226.754 159.084 L
S
GR
GS
[0.78257 0 0 0.78197 0 0.22835] CT
1 0 0 RC
1 LJ
0.639 LW
N
228.03 137.712 M
235.349 136.829 L
229.307 141.052 L
S
GR
GS
[0.78257 0 0 0.78197 0 0.22835] CT
1 0 0 RC
1 LJ
0.639 LW
N
227.41 121.661 M
234.036 121.706 L
228.169 124.785 L
S
GR
GS
[0.78257 0 0 0.78197 0 0.22835] CT
1 0 0 RC
1 LJ
0.639 LW
N
223.898 107.285 M
228.17 108.521 L
223.819 109.441 L
S
GR
GS
[0.78257 0 0 0.78197 0 0.22835] CT
1 0 0 RC
1 LJ
0.639 LW
N
218.976 92.945 M
220.224 95.135 L
218.093 93.79 L
S
GR
GS
[0.78257 0 0 0.78197 0 0.22835] CT
1 0 0 RC
1 LJ
0.639 LW
N
234.126 204.261 M
229.658 205.193 L
233.162 202.268 L
S
GR
GS
[0.78257 0 0 0.78197 0 0.22835] CT
1 0 0 RC
1 LJ
0.639 LW
N
239.262 182.517 M
237.84 182.741 L
238.99 181.874 L
S
GR
GS
[0.78257 0 0 0.78197 0 0.22835] CT
1 0 0 RC
1 LJ
0.639 LW
N
244.038 160.344 M
245.57 159.593 L
244.572 160.976 L
S
GR
GS
[0.78257 0 0 0.78197 0 0.22835] CT
1 0 0 RC
1 LJ
0.639 LW
N
246.439 139.391 M
249.587 137.808 L
247.554 140.686 L
S
GR
GS
[0.78257 0 0 0.78197 0 0.22835] CT
1 0 0 RC
1 LJ
0.639 LW
N
245.453 120.793 M
248.198 118.874 L
246.679 121.859 L
S
GR
GS
[0.78257 0 0 0.78197 0 0.22835] CT
1 0 0 RC
1 LJ
0.639 LW
N
241.495 104.692 M
241.988 103.072 L
242.315 104.733 L
S
GR
GS
[0.78257 0 0 0.78197 0 0.22835] CT
1 0 0 RC
1 LJ
0.639 LW
N
236.235 90.176 M
233.576 89.367 L
236.303 88.83 L
S
GR
GS
[0.78257 0 0 0.78197 0 0.22835] CT
1 0 0 RC
1 LJ
0.639 LW
N
255.473 207.758 M
247.887 209.377 L
253.819 204.378 L
S
GR
GS
[0.78257 0 0 0.78197 0 0.22835] CT
1 0 0 RC
1 LJ
0.639 LW
N
258.667 186.795 M
253.072 187.722 L
257.572 184.271 L
S
GR
GS
[0.78257 0 0 0.78197 0 0.22835] CT
1 0 0 RC
1 LJ
0.639 LW
N
261.437 163.982 M
257.969 163.27 L
261.364 162.266 L
S
GR
GS
[0.78257 0 0 0.78197 0 0.22835] CT
1 0 0 RC
1 LJ
0.639 LW
N
262.617 141.237 M
260.514 138.631 L
263.596 139.941 L
S
GR
GS
[0.78257 0 0 0.78197 0 0.22835] CT
1 0 0 RC
1 LJ
0.639 LW
N
261.707 120.452 M
259.634 116.495 L
263.326 119.011 L
S
GR
GS
[0.78257 0 0 0.78197 0 0.22835] CT
1 0 0 RC
1 LJ
0.639 LW
N
259.093 102.691 M
255.7 98.495 L
260.668 100.6 L
S
GR
GS
[0.78257 0 0 0.78197 0 0.22835] CT
1 0 0 RC
1 LJ
0.639 LW
N
255.876 87.742 M
250.37 84.521 L
256.743 84.772 L
S
GR
GS
[0.78257 0 0 0.78197 0 0.22835] CT
1 0 0 RC
1 LJ
0.639 LW
N
55.316 199.35 M
41.989 208.278 L
S
GR
GS
[0.78257 0 0 0.78197 0 0.22835] CT
1 0 0 RC
1 LJ
0.639 LW
N
55.316 181.089 M
41.989 186.601 L
S
GR
GS
[0.78257 0 0 0.78197 0 0.22835] CT
1 0 0 RC
1 LJ
0.639 LW
N
55.316 162.827 M
41.989 163.733 L
S
GR
GS
[0.78257 0 0 0.78197 0 0.22835] CT
1 0 0 RC
1 LJ
0.639 LW
N
55.316 144.565 M
41.989 141.327 L
S
GR
GS
[0.78257 0 0 0.78197 0 0.22835] CT
1 0 0 RC
1 LJ
0.639 LW
N
55.316 126.304 M
41.989 120.217 L
S
GR
GS
[0.78257 0 0 0.78197 0 0.22835] CT
1 0 0 RC
1 LJ
0.639 LW
N
55.316 108.042 M
41.989 101.113 L
S
GR
GS
[0.78257 0 0 0.78197 0 0.22835] CT
1 0 0 RC
1 LJ
0.639 LW
N
55.316 89.78 M
41.989 84.875 L
S
GR
GS
[0.78257 0 0 0.78197 0 0.22835] CT
1 0 0 RC
1 LJ
0.639 LW
N
81.947 199.35 M
77.013 207.513 L
S
GR
GS
[0.78257 0 0 0.78197 0 0.22835] CT
1 0 0 RC
1 LJ
0.639 LW
N
81.947 181.089 M
69.947 185.503 L
S
GR
GS
[0.78257 0 0 0.78197 0 0.22835] CT
1 0 0 RC
1 LJ
0.639 LW
N
81.947 162.827 M
63.272 161.632 L
S
GR
GS
[0.78257 0 0 0.78197 0 0.22835] CT
1 0 0 RC
1 LJ
0.639 LW
N
81.947 144.565 M
59.803 138.265 L
S
GR
GS
[0.78257 0 0 0.78197 0 0.22835] CT
1 0 0 RC
1 LJ
0.639 LW
N
81.947 126.304 M
61.002 117.554 L
S
GR
GS
[0.78257 0 0 0.78197 0 0.22835] CT
1 0 0 RC
1 LJ
0.639 LW
N
81.947 108.042 M
66.365 100.534 L
S
GR
GS
[0.78257 0 0 0.78197 0 0.22835] CT
1 0 0 RC
1 LJ
0.639 LW
N
81.947 89.78 M
73.629 86.68 L
S
GR
GS
[0.78257 0 0 0.78197 0 0.22835] CT
1 0 0 RC
1 LJ
0.639 LW
N
108.579 199.35 M
117.559 202.668 L
S
GR
GS
[0.78257 0 0 0.78197 0 0.22835] CT
1 0 0 RC
1 LJ
0.639 LW
N
108.579 181.089 M
109.147 179.735 L
S
GR
GS
[0.78257 0 0 0.78197 0 0.22835] CT
1 0 0 RC
1 LJ
0.639 LW
N
108.579 162.827 M
101.201 157.374 L
S
GR
GS
[0.78257 0 0 0.78197 0 0.22835] CT
1 0 0 RC
1 LJ
0.639 LW
N
108.579 144.565 M
97.071 137.312 L
S
GR
GS
[0.78257 0 0 0.78197 0 0.22835] CT
1 0 0 RC
1 LJ
0.639 LW
N
108.579 126.304 M
98.499 120.309 L
S
GR
GS
[0.78257 0 0 0.78197 0 0.22835] CT
1 0 0 RC
1 LJ
0.639 LW
N
108.579 108.042 M
104.883 105.834 L
S
GR
GS
[0.78257 0 0 0.78197 0 0.22835] CT
1 0 0 RC
1 LJ
0.639 LW
N
108.579 89.78 M
113.531 92.291 L
S
GR
GS
[0.78257 0 0 0.78197 0 0.22835] CT
1 0 0 RC
1 LJ
0.639 LW
N
135.211 199.35 M
154.318 198.09 L
S
GR
GS
[0.78257 0 0 0.78197 0 0.22835] CT
1 0 0 RC
1 LJ
0.639 LW
N
135.211 181.089 M
148.108 174.286 L
S
GR
GS
[0.78257 0 0 0.78197 0 0.22835] CT
1 0 0 RC
1 LJ
0.639 LW
N
135.211 162.827 M
142.242 153.351 L
S
GR
GS
[0.78257 0 0 0.78197 0 0.22835] CT
1 0 0 RC
1 LJ
0.639 LW
N
135.211 144.565 M
139.193 136.412 L
S
GR
GS
[0.78257 0 0 0.78197 0 0.22835] CT
1 0 0 RC
1 LJ
0.639 LW
N
135.211 126.304 M
140.247 122.911 L
S
GR
GS
[0.78257 0 0 0.78197 0 0.22835] CT
1 0 0 RC
1 LJ
0.639 LW
N
135.211 108.042 M
144.96 110.841 L
S
GR
GS
[0.78257 0 0 0.78197 0 0.22835] CT
1 0 0 RC
1 LJ
0.639 LW
N
135.211 89.78 M
151.344 97.591 L
S
GR
GS
[0.78257 0 0 0.78197 0 0.22835] CT
1 0 0 RC
1 LJ
0.639 LW
N
161.842 199.35 M
183.019 195.711 L
S
GR
GS
[0.78257 0 0 0.78197 0 0.22835] CT
1 0 0 RC
1 LJ
0.639 LW
N
161.842 181.089 M
181.63 171.454 L
S
GR
GS
[0.78257 0 0 0.78197 0 0.22835] CT
1 0 0 RC
1 LJ
0.639 LW
N
161.842 162.827 M
180.317 151.261 L
S
GR
GS
[0.78257 0 0 0.78197 0 0.22835] CT
1 0 0 RC
1 LJ
0.639 LW
N
161.842 144.565 M
179.635 135.944 L
S
GR
GS
[0.78257 0 0 0.78197 0 0.22835] CT
1 0 0 RC
1 LJ
0.639 LW
N
161.842 126.304 M
179.871 124.264 L
S
GR
GS
[0.78257 0 0 0.78197 0 0.22835] CT
1 0 0 RC
1 LJ
0.639 LW
N
161.842 108.042 M
180.925 113.444 L
S
GR
GS
[0.78257 0 0 0.78197 0 0.22835] CT
1 0 0 RC
1 LJ
0.639 LW
N
161.842 89.78 M
182.354 100.345 L
S
GR
GS
[0.78257 0 0 0.78197 0 0.22835] CT
1 0 0 RC
1 LJ
0.639 LW
N
188.474 199.35 M
202.789 196.534 L
S
GR
GS
[0.78257 0 0 0.78197 0 0.22835] CT
1 0 0 RC
1 LJ
0.639 LW
N
188.474 181.089 M
206.806 172.434 L
S
GR
GS
[0.78257 0 0 0.78197 0 0.22835] CT
1 0 0 RC
1 LJ
0.639 LW
N
188.474 162.827 M
210.601 151.984 L
S
GR
GS
[0.78257 0 0 0.78197 0 0.22835] CT
1 0 0 RC
1 LJ
0.639 LW
N
188.474 144.565 M
212.574 136.106 L
S
GR
GS
[0.78257 0 0 0.78197 0 0.22835] CT
1 0 0 RC
1 LJ
0.639 LW
N
188.474 126.304 M
211.892 123.796 L
S
GR
GS
[0.78257 0 0 0.78197 0 0.22835] CT
1 0 0 RC
1 LJ
0.639 LW
N
188.474 108.042 M
208.843 112.544 L
S
GR
GS
[0.78257 0 0 0.78197 0 0.22835] CT
1 0 0 RC
1 LJ
0.639 LW
N
188.474 89.78 M
204.713 99.393 L
S
GR
GS
[0.78257 0 0 0.78197 0 0.22835] CT
1 0 0 RC
1 LJ
0.639 LW
N
215.105 199.35 M
216.522 200.211 L
S
GR
GS
[0.78257 0 0 0.78197 0 0.22835] CT
1 0 0 RC
1 LJ
0.639 LW
N
215.105 181.089 M
224.252 176.811 L
S
GR
GS
[0.78257 0 0 0.78197 0 0.22835] CT
1 0 0 RC
1 LJ
0.639 LW
N
215.105 162.827 M
231.554 155.215 L
S
GR
GS
[0.78257 0 0 0.78197 0 0.22835] CT
1 0 0 RC
1 LJ
0.639 LW
N
215.105 144.565 M
235.349 136.829 L
S
GR
GS
[0.78257 0 0 0.78197 0 0.22835] CT
1 0 0 RC
1 LJ
0.639 LW
N
215.105 126.304 M
234.036 121.706 L
S
GR
GS
[0.78257 0 0 0.78197 0 0.22835] CT
1 0 0 RC
1 LJ
0.639 LW
N
215.105 108.042 M
228.17 108.521 L
S
GR
GS
[0.78257 0 0 0.78197 0 0.22835] CT
1 0 0 RC
1 LJ
0.639 LW
N
215.105 89.78 M
220.224 95.135 L
S
GR
GS
[0.78257 0 0 0.78197 0 0.22835] CT
1 0 0 RC
1 LJ
0.639 LW
N
241.737 199.35 M
229.658 205.193 L
S
GR
GS
[0.78257 0 0 0.78197 0 0.22835] CT
1 0 0 RC
1 LJ
0.639 LW
N
241.737 181.089 M
237.84 182.741 L
S
GR
GS
[0.78257 0 0 0.78197 0 0.22835] CT
1 0 0 RC
1 LJ
0.639 LW
N
241.737 162.827 M
245.57 159.593 L
S
GR
GS
[0.78257 0 0 0.78197 0 0.22835] CT
1 0 0 RC
1 LJ
0.639 LW
N
241.737 144.565 M
249.587 137.808 L
S
GR
GS
[0.78257 0 0 0.78197 0 0.22835] CT
1 0 0 RC
1 LJ
0.639 LW
N
241.737 126.304 M
248.198 118.874 L
S
GR
GS
[0.78257 0 0 0.78197 0 0.22835] CT
1 0 0 RC
1 LJ
0.639 LW
N
241.737 108.042 M
241.988 103.072 L
S
GR
GS
[0.78257 0 0 0.78197 0 0.22835] CT
1 0 0 RC
1 LJ
0.639 LW
N
241.737 89.78 M
233.576 89.367 L
S
GR
GS
[0.78257 0 0 0.78197 0 0.22835] CT
1 0 0 RC
1 LJ
0.639 LW
N
268.368 199.35 M
247.887 209.377 L
S
GR
GS
[0.78257 0 0 0.78197 0 0.22835] CT
1 0 0 RC
1 LJ
0.639 LW
N
268.368 181.089 M
253.072 187.722 L
S
GR
GS
[0.78257 0 0 0.78197 0 0.22835] CT
1 0 0 RC
1 LJ
0.639 LW
N
268.368 162.827 M
257.969 163.27 L
S
GR
GS
[0.78257 0 0 0.78197 0 0.22835] CT
1 0 0 RC
1 LJ
0.639 LW
N
268.368 144.565 M
260.514 138.631 L
S
GR
GS
[0.78257 0 0 0.78197 0 0.22835] CT
1 0 0 RC
1 LJ
0.639 LW
N
268.368 126.304 M
259.634 116.495 L
S
GR
GS
[0.78257 0 0 0.78197 0 0.22835] CT
1 0 0 RC
1 LJ
0.639 LW
N
268.368 108.042 M
255.7 98.495 L
S
GR
GS
[0.78257 0 0 0.78197 0 0.22835] CT
1 0 0 RC
1 LJ
0.639 LW
N
268.368 89.78 M
250.37 84.521 L
S
GR
GS
[0.78257 0 0 0.78197 0 0.22835] CT
0.149 GC
2 setlinecap
1 LJ
0.639 LW
N
42 226.743 M
295 226.743 L
S
GR
GS
[0.78257 0 0 0.78197 0 0.22835] CT
0.149 GC
2 setlinecap
1 LJ
0.639 LW
N
42 53.257 M
295 53.257 L
S
GR
GS
[0.78257 0 0 0.78197 0 0.22835] CT
0.149 GC
2 setlinecap
1 LJ
0.639 LW
N
42 226.743 M
42 224.213 L
S
GR
GS
[0.78257 0 0 0.78197 0 0.22835] CT
0.149 GC
2 setlinecap
1 LJ
0.639 LW
N
88.019 226.743 M
88.019 224.213 L
S
GR
GS
[0.78257 0 0 0.78197 0 0.22835] CT
0.149 GC
2 setlinecap
1 LJ
0.639 LW
N
134.037 226.743 M
134.037 224.213 L
S
GR
GS
[0.78257 0 0 0.78197 0 0.22835] CT
0.149 GC
2 setlinecap
1 LJ
0.639 LW
N
180.056 226.743 M
180.056 224.213 L
S
GR
GS
[0.78257 0 0 0.78197 0 0.22835] CT
0.149 GC
2 setlinecap
1 LJ
0.639 LW
N
226.074 226.743 M
226.074 224.213 L
S
GR
GS
[0.78257 0 0 0.78197 0 0.22835] CT
0.149 GC
2 setlinecap
1 LJ
0.639 LW
N
272.093 226.743 M
272.093 224.213 L
S
GR
GS
[0.78257 0 0 0.78197 0 0.22835] CT
0.149 GC
2 setlinecap
1 LJ
0.639 LW
N
42 53.257 M
42 55.787 L
S
GR
GS
[0.78257 0 0 0.78197 0 0.22835] CT
0.149 GC
2 setlinecap
1 LJ
0.639 LW
N
88.019 53.257 M
88.019 55.787 L
S
GR
GS
[0.78257 0 0 0.78197 0 0.22835] CT
0.149 GC
2 setlinecap
1 LJ
0.639 LW
N
134.037 53.257 M
134.037 55.787 L
S
GR
GS
[0.78257 0 0 0.78197 0 0.22835] CT
0.149 GC
2 setlinecap
1 LJ
0.639 LW
N
180.056 53.257 M
180.056 55.787 L
S
GR
GS
[0.78257 0 0 0.78197 0 0.22835] CT
0.149 GC
2 setlinecap
1 LJ
0.639 LW
N
226.074 53.257 M
226.074 55.787 L
S
GR
GS
[0.78257 0 0 0.78197 0 0.22835] CT
0.149 GC
2 setlinecap
1 LJ
0.639 LW
N
272.093 53.257 M
272.093 55.787 L
S
GR
GS
[0.78257 0 0 0.78197 32.86798 180.93196] CT
0.149 GC
/Helvetica 12.139 F
GS
[1 0 0 1 0 0] CT
-4 12 moveto 
1 -1 scale
(0) t 
GR
GR
GS
[0.78257 0 0 0.78197 68.88073 180.93196] CT
0.149 GC
/Helvetica 12.139 F
GS
[1 0 0 1 0 0] CT
-4 12 moveto 
1 -1 scale
(1) t 
GR
GR
GS
[0.78257 0 0 0.78197 104.89348 180.93196] CT
0.149 GC
/Helvetica 12.139 F
GS
[1 0 0 1 0 0] CT
-4 12 moveto 
1 -1 scale
(2) t 
GR
GR
GS
[0.78257 0 0 0.78197 140.90622 180.93196] CT
0.149 GC
/Helvetica 12.139 F
GS
[1 0 0 1 0 0] CT
-4 12 moveto 
1 -1 scale
(3) t 
GR
GR
GS
[0.78257 0 0 0.78197 176.91898 180.93196] CT
0.149 GC
/Helvetica 12.139 F
GS
[1 0 0 1 0 0] CT
-4 12 moveto 
1 -1 scale
(4) t 
GR
GR
GS
[0.78257 0 0 0.78197 212.93171 180.93196] CT
0.149 GC
/Helvetica 12.139 F
GS
[1 0 0 1 0 0] CT
-4 12 moveto 
1 -1 scale
(5) t 
GR
GR
GS
[0.78257 0 0 0.78197 0 0.22835] CT
0.149 GC
2 setlinecap
1 LJ
0.639 LW
N
42 226.743 M
42 53.257 L
S
GR
GS
[0.78257 0 0 0.78197 0 0.22835] CT
0.149 GC
2 setlinecap
1 LJ
0.639 LW
N
295 226.743 M
295 53.257 L
S
GR
GS
[0.78257 0 0 0.78197 0 0.22835] CT
0.149 GC
2 setlinecap
1 LJ
0.639 LW
N
42 226.743 M
44.53 226.743 L
S
GR
GS
[0.78257 0 0 0.78197 0 0.22835] CT
0.149 GC
2 setlinecap
1 LJ
0.639 LW
N
42 180.724 M
44.53 180.724 L
S
GR
GS
[0.78257 0 0 0.78197 0 0.22835] CT
0.149 GC
2 setlinecap
1 LJ
0.639 LW
N
42 134.706 M
44.53 134.706 L
S
GR
GS
[0.78257 0 0 0.78197 0 0.22835] CT
0.149 GC
2 setlinecap
1 LJ
0.639 LW
N
42 88.687 M
44.53 88.687 L
S
GR
GS
[0.78257 0 0 0.78197 0 0.22835] CT
0.149 GC
2 setlinecap
1 LJ
0.639 LW
N
295 226.743 M
292.47 226.743 L
S
GR
GS
[0.78257 0 0 0.78197 0 0.22835] CT
0.149 GC
2 setlinecap
1 LJ
0.639 LW
N
295 180.724 M
292.47 180.724 L
S
GR
GS
[0.78257 0 0 0.78197 0 0.22835] CT
0.149 GC
2 setlinecap
1 LJ
0.639 LW
N
295 134.706 M
292.47 134.706 L
S
GR
GS
[0.78257 0 0 0.78197 0 0.22835] CT
0.149 GC
2 setlinecap
1 LJ
0.639 LW
N
295 88.687 M
292.47 88.687 L
S
GR
GS
[0.78257 0 0 0.78197 29.46814 177.53474] CT
0.149 GC
/Helvetica 12.139 F
GS
[1 0 0 1 0 0] CT
-8 4.5 moveto 
1 -1 scale
(0) t 
GR
GR
GS
[0.78257 0 0 0.78197 29.46814 141.54958] CT
0.149 GC
/Helvetica 12.139 F
GS
[1 0 0 1 0 0] CT
-8 4.5 moveto 
1 -1 scale
(1) t 
GR
GR
GS
[0.78257 0 0 0.78197 29.46814 105.56443] CT
0.149 GC
/Helvetica 12.139 F
GS
[1 0 0 1 0 0] CT
-8 4.5 moveto 
1 -1 scale
(2) t 
GR
GR
GS
[0.78257 0 0 0.78197 29.46814 69.57927] CT
0.149 GC
/Helvetica 12.139 F
GS
[1 0 0 1 0 0] CT
-8 4.5 moveto 
1 -1 scale
(3) t 
GR
GR
%%Trailer
%%Pages: 1
%%EOF
