%!PS-Adobe-3.0 EPSF-3.0
%%Creator: (MATLAB, The Mathworks, Inc. Version 9.10.0.1684407 \(R2021a\) Update 3. Operating System: Linux)
%%Title: /home/adoan/Code/PRoSA_PI-ESN_Git/pi-esn/Results/MFE_results/Figures/FIG4B.eps
%%CreationDate: 2021-07-21T18:41:13
%%Pages: (atend)
%%BoundingBox:     0     0   283   170
%%LanguageLevel: 3
%%EndComments
%%BeginProlog
%%BeginResource: procset (Apache XML Graphics Std ProcSet) 1.2 0
%%Version: 1.2 0
%%Copyright: (Copyright 2001-2003,2010 The Apache Software Foundation. License terms: http://www.apache.org/licenses/LICENSE-2.0)
/bd{bind def}bind def
/ld{load def}bd
/GR/grestore ld
/GS/gsave ld
/RM/rmoveto ld
/C/curveto ld
/t/show ld
/L/lineto ld
/ML/setmiterlimit ld
/CT/concat ld
/f/fill ld
/N/newpath ld
/S/stroke ld
/CC/setcmykcolor ld
/A/ashow ld
/cp/closepath ld
/RC/setrgbcolor ld
/LJ/setlinejoin ld
/GC/setgray ld
/LW/setlinewidth ld
/M/moveto ld
/re {4 2 roll M
1 index 0 rlineto
0 exch rlineto
neg 0 rlineto
cp } bd
/_ctm matrix def
/_tm matrix def
/BT { _ctm currentmatrix pop matrix _tm copy pop 0 0 moveto } bd
/ET { _ctm setmatrix } bd
/iTm { _ctm setmatrix _tm concat } bd
/Tm { _tm astore pop iTm 0 0 moveto } bd
/ux 0.0 def
/uy 0.0 def
/F {
  /Tp exch def
  /Tf exch def
  Tf findfont Tp scalefont setfont
  /cf Tf def  /cs Tp def
} bd
/ULS {currentpoint /uy exch def /ux exch def} bd
/ULE {
  /Tcx currentpoint pop def
  gsave
  newpath
  cf findfont cs scalefont dup
  /FontMatrix get 0 get /Ts exch def /FontInfo get dup
  /UnderlinePosition get Ts mul /To exch def
  /UnderlineThickness get Ts mul /Tt exch def
  ux uy To add moveto  Tcx uy To add lineto
  Tt setlinewidth stroke
  grestore
} bd
/OLE {
  /Tcx currentpoint pop def
  gsave
  newpath
  cf findfont cs scalefont dup
  /FontMatrix get 0 get /Ts exch def /FontInfo get dup
  /UnderlinePosition get Ts mul /To exch def
  /UnderlineThickness get Ts mul /Tt exch def
  ux uy To add cs add moveto Tcx uy To add cs add lineto
  Tt setlinewidth stroke
  grestore
} bd
/SOE {
  /Tcx currentpoint pop def
  gsave
  newpath
  cf findfont cs scalefont dup
  /FontMatrix get 0 get /Ts exch def /FontInfo get dup
  /UnderlinePosition get Ts mul /To exch def
  /UnderlineThickness get Ts mul /Tt exch def
  ux uy To add cs 10 mul 26 idiv add moveto Tcx uy To add cs 10 mul 26 idiv add lineto
  Tt setlinewidth stroke
  grestore
} bd
/QT {
/Y22 exch store
/X22 exch store
/Y21 exch store
/X21 exch store
currentpoint
/Y21 load 2 mul add 3 div exch
/X21 load 2 mul add 3 div exch
/X21 load 2 mul /X22 load add 3 div
/Y21 load 2 mul /Y22 load add 3 div
/X22 load /Y22 load curveto
} bd
/SSPD {
dup length /d exch dict def
{
/v exch def
/k exch def
currentpagedevice k known {
/cpdv currentpagedevice k get def
v cpdv ne {
/upd false def
/nullv v type /nulltype eq def
/nullcpdv cpdv type /nulltype eq def
nullv nullcpdv or
{
/upd true def
} {
/sametype v type cpdv type eq def
sametype {
v type /arraytype eq {
/vlen v length def
/cpdvlen cpdv length def
vlen cpdvlen eq {
0 1 vlen 1 sub {
/i exch def
/obj v i get def
/cpdobj cpdv i get def
obj cpdobj ne {
/upd true def
exit
} if
} for
} {
/upd true def
} ifelse
} {
v type /dicttype eq {
v {
/dv exch def
/dk exch def
/cpddv cpdv dk get def
dv cpddv ne {
/upd true def
exit
} if
} forall
} {
/upd true def
} ifelse
} ifelse
} if
} ifelse
upd true eq {
d k v put
} if
} if
} if
} forall
d length 0 gt {
d setpagedevice
} if
} bd
/RE { % /NewFontName [NewEncodingArray] /FontName RE -
  findfont dup length dict begin
  {
    1 index /FID ne
    {def} {pop pop} ifelse
  } forall
  /Encoding exch def
  /FontName 1 index def
  currentdict definefont pop
  end
} bind def
%%EndResource
%%BeginResource: procset (Apache XML Graphics EPS ProcSet) 1.0 0
%%Version: 1.0 0
%%Copyright: (Copyright 2002-2003 The Apache Software Foundation. License terms: http://www.apache.org/licenses/LICENSE-2.0)
/BeginEPSF { %def
/b4_Inc_state save def         % Save state for cleanup
/dict_count countdictstack def % Count objects on dict stack
/op_count count 1 sub def      % Count objects on operand stack
userdict begin                 % Push userdict on dict stack
/showpage { } def              % Redefine showpage, { } = null proc
0 setgray 0 setlinecap         % Prepare graphics state
1 setlinewidth 0 setlinejoin
10 setmiterlimit [ ] 0 setdash newpath
/languagelevel where           % If level not equal to 1 then
{pop languagelevel             % set strokeadjust and
1 ne                           % overprint to their defaults.
{false setstrokeadjust false setoverprint
} if
} if
} bd
/EndEPSF { %def
count op_count sub {pop} repeat            % Clean up stacks
countdictstack dict_count sub {end} repeat
b4_Inc_state restore
} bd
%%EndResource
%FOPBeginFontDict
%%IncludeResource: font Courier-Oblique
%%IncludeResource: font Courier-BoldOblique
%%IncludeResource: font Courier-Bold
%%IncludeResource: font ZapfDingbats
%%IncludeResource: font Symbol
%%IncludeResource: font Helvetica
%%IncludeResource: font Helvetica-Oblique
%%IncludeResource: font Helvetica-Bold
%%IncludeResource: font Helvetica-BoldOblique
%%IncludeResource: font Times-Roman
%%IncludeResource: font Times-Italic
%%IncludeResource: font Times-Bold
%%IncludeResource: font Times-BoldItalic
%%IncludeResource: font Courier
%FOPEndFontDict
%%BeginResource: encoding WinAnsiEncoding
/WinAnsiEncoding [
/.notdef /.notdef /.notdef /.notdef /.notdef
/.notdef /.notdef /.notdef /.notdef /.notdef
/.notdef /.notdef /.notdef /.notdef /.notdef
/.notdef /.notdef /.notdef /.notdef /.notdef
/.notdef /.notdef /.notdef /.notdef /.notdef
/.notdef /.notdef /.notdef /.notdef /.notdef
/.notdef /.notdef /space /exclam /quotedbl
/numbersign /dollar /percent /ampersand /quotesingle
/parenleft /parenright /asterisk /plus /comma
/hyphen /period /slash /zero /one
/two /three /four /five /six
/seven /eight /nine /colon /semicolon
/less /equal /greater /question /at
/A /B /C /D /E
/F /G /H /I /J
/K /L /M /N /O
/P /Q /R /S /T
/U /V /W /X /Y
/Z /bracketleft /backslash /bracketright /asciicircum
/underscore /quoteleft /a /b /c
/d /e /f /g /h
/i /j /k /l /m
/n /o /p /q /r
/s /t /u /v /w
/x /y /z /braceleft /bar
/braceright /asciitilde /bullet /Euro /bullet
/quotesinglbase /florin /quotedblbase /ellipsis /dagger
/daggerdbl /circumflex /perthousand /Scaron /guilsinglleft
/OE /bullet /Zcaron /bullet /bullet
/quoteleft /quoteright /quotedblleft /quotedblright /bullet
/endash /emdash /asciitilde /trademark /scaron
/guilsinglright /oe /bullet /zcaron /Ydieresis
/space /exclamdown /cent /sterling /currency
/yen /brokenbar /section /dieresis /copyright
/ordfeminine /guillemotleft /logicalnot /sfthyphen /registered
/macron /degree /plusminus /twosuperior /threesuperior
/acute /mu /paragraph /middot /cedilla
/onesuperior /ordmasculine /guillemotright /onequarter /onehalf
/threequarters /questiondown /Agrave /Aacute /Acircumflex
/Atilde /Adieresis /Aring /AE /Ccedilla
/Egrave /Eacute /Ecircumflex /Edieresis /Igrave
/Iacute /Icircumflex /Idieresis /Eth /Ntilde
/Ograve /Oacute /Ocircumflex /Otilde /Odieresis
/multiply /Oslash /Ugrave /Uacute /Ucircumflex
/Udieresis /Yacute /Thorn /germandbls /agrave
/aacute /acircumflex /atilde /adieresis /aring
/ae /ccedilla /egrave /eacute /ecircumflex
/edieresis /igrave /iacute /icircumflex /idieresis
/eth /ntilde /ograve /oacute /ocircumflex
/otilde /odieresis /divide /oslash /ugrave
/uacute /ucircumflex /udieresis /yacute /thorn
/ydieresis
] def
%%EndResource
%FOPBeginFontReencode
/Courier-Oblique findfont
dup length dict begin
  {1 index /FID ne {def} {pop pop} ifelse} forall
  /Encoding WinAnsiEncoding def
  currentdict
end
/Courier-Oblique exch definefont pop
/Courier-BoldOblique findfont
dup length dict begin
  {1 index /FID ne {def} {pop pop} ifelse} forall
  /Encoding WinAnsiEncoding def
  currentdict
end
/Courier-BoldOblique exch definefont pop
/Courier-Bold findfont
dup length dict begin
  {1 index /FID ne {def} {pop pop} ifelse} forall
  /Encoding WinAnsiEncoding def
  currentdict
end
/Courier-Bold exch definefont pop
/Helvetica findfont
dup length dict begin
  {1 index /FID ne {def} {pop pop} ifelse} forall
  /Encoding WinAnsiEncoding def
  currentdict
end
/Helvetica exch definefont pop
/Helvetica-Oblique findfont
dup length dict begin
  {1 index /FID ne {def} {pop pop} ifelse} forall
  /Encoding WinAnsiEncoding def
  currentdict
end
/Helvetica-Oblique exch definefont pop
/Helvetica-Bold findfont
dup length dict begin
  {1 index /FID ne {def} {pop pop} ifelse} forall
  /Encoding WinAnsiEncoding def
  currentdict
end
/Helvetica-Bold exch definefont pop
/Helvetica-BoldOblique findfont
dup length dict begin
  {1 index /FID ne {def} {pop pop} ifelse} forall
  /Encoding WinAnsiEncoding def
  currentdict
end
/Helvetica-BoldOblique exch definefont pop
/Times-Roman findfont
dup length dict begin
  {1 index /FID ne {def} {pop pop} ifelse} forall
  /Encoding WinAnsiEncoding def
  currentdict
end
/Times-Roman exch definefont pop
/Times-Italic findfont
dup length dict begin
  {1 index /FID ne {def} {pop pop} ifelse} forall
  /Encoding WinAnsiEncoding def
  currentdict
end
/Times-Italic exch definefont pop
/Times-Bold findfont
dup length dict begin
  {1 index /FID ne {def} {pop pop} ifelse} forall
  /Encoding WinAnsiEncoding def
  currentdict
end
/Times-Bold exch definefont pop
/Times-BoldItalic findfont
dup length dict begin
  {1 index /FID ne {def} {pop pop} ifelse} forall
  /Encoding WinAnsiEncoding def
  currentdict
end
/Times-BoldItalic exch definefont pop
/Courier findfont
dup length dict begin
  {1 index /FID ne {def} {pop pop} ifelse} forall
  /Encoding WinAnsiEncoding def
  currentdict
end
/Courier exch definefont pop
%FOPEndFontReencode
%%EndProlog
%%Page: 1 1
%%PageBoundingBox: 0 0 283 170
%%BeginPageSetup
[1 0 0 -1 0 170] CT
%%EndPageSetup
GS
[0.78305 0 0 0.78377 0 -0.07875] CT
1 GC
N
0 0 362 217 re
f
GR
GS
[0.78305 0 0 0.78377 0 -0.07875] CT
1 GC
N
0 0 362 217 re
f
GR
GS
[0.78305 0 0 0.78377 0 -0.07875] CT
1 GC
N
61 170 M
328 170 L
328 16 L
61 16 L
cp
f
GR
GS
[0.78305 0 0 0.78377 0 -0.07875] CT
0.149 GC
2 setlinecap
1 LJ
0.639 LW
N
61 170 M
328 170 L
S
GR
GS
[0.78305 0 0 0.78377 0 -0.07875] CT
0.149 GC
2 setlinecap
1 LJ
0.639 LW
N
61 16 M
328 16 L
S
GR
GS
[0.78305 0 0 0.78377 0 -0.07875] CT
0.149 GC
2 setlinecap
1 LJ
0.639 LW
N
61 170 M
61 167.33 L
S
GR
GS
[0.78305 0 0 0.78377 0 -0.07875] CT
0.149 GC
2 setlinecap
1 LJ
0.639 LW
N
150 170 M
150 167.33 L
S
GR
GS
[0.78305 0 0 0.78377 0 -0.07875] CT
0.149 GC
2 setlinecap
1 LJ
0.639 LW
N
239 170 M
239 167.33 L
S
GR
GS
[0.78305 0 0 0.78377 0 -0.07875] CT
0.149 GC
2 setlinecap
1 LJ
0.639 LW
N
328 170 M
328 167.33 L
S
GR
GS
[0.78305 0 0 0.78377 0 -0.07875] CT
0.149 GC
2 setlinecap
1 LJ
0.639 LW
N
61 16 M
61 18.67 L
S
GR
GS
[0.78305 0 0 0.78377 0 -0.07875] CT
0.149 GC
2 setlinecap
1 LJ
0.639 LW
N
150 16 M
150 18.67 L
S
GR
GS
[0.78305 0 0 0.78377 0 -0.07875] CT
0.149 GC
2 setlinecap
1 LJ
0.639 LW
N
239 16 M
239 18.67 L
S
GR
GS
[0.78305 0 0 0.78377 0 -0.07875] CT
0.149 GC
2 setlinecap
1 LJ
0.639 LW
N
328 16 M
328 18.67 L
S
GR
GS
[0.78305 0 0 0.78377 47.76613 137.56921] CT
0.149 GC
N
-0.083 13.208 M
-1.927 13.208 -2.583 11.692 QT
-3.24 10.177 -3.24 8.099 QT
-3.24 6.786 -3.005 5.638 QT
-2.771 4.489 -2.068 3.692 QT
-1.365 2.896 -0.083 2.896 QT
0.901 2.896 1.534 3.372 QT
2.167 3.849 2.495 4.614 QT
2.823 5.38 2.948 6.255 QT
3.073 7.13 3.073 8.099 QT
3.073 9.38 2.831 10.505 QT
2.589 11.63 1.893 12.419 QT
1.198 13.208 -0.083 13.208 QT
cp
-0.083 12.817 M
0.745 12.817 1.159 11.966 QT
1.573 11.114 1.667 10.067 QT
1.76 9.021 1.76 7.849 QT
1.76 6.724 1.667 5.771 QT
1.573 4.817 1.167 4.044 QT
0.76 3.271 -0.083 3.271 QT
-0.927 3.271 -1.341 4.052 QT
-1.755 4.833 -1.849 5.778 QT
-1.943 6.724 -1.943 7.849 QT
-1.943 8.692 -1.904 9.435 QT
-1.865 10.177 -1.685 10.958 QT
-1.505 11.739 -1.115 12.278 QT
-0.724 12.817 -0.083 12.817 QT
cp
f
GR
GS
[0.78305 0 0 0.78377 117.45769 137.56921] CT
0.149 GC
N
-6.046 13.208 M
-7.89 13.208 -8.546 11.692 QT
-9.203 10.177 -9.203 8.099 QT
-9.203 6.786 -8.968 5.638 QT
-8.734 4.489 -8.031 3.692 QT
-7.328 2.896 -6.046 2.896 QT
-5.062 2.896 -4.429 3.372 QT
-3.796 3.849 -3.468 4.614 QT
-3.14 5.38 -3.015 6.255 QT
-2.89 7.13 -2.89 8.099 QT
-2.89 9.38 -3.132 10.505 QT
-3.374 11.63 -4.07 12.419 QT
-4.765 13.208 -6.046 13.208 QT
cp
-6.046 12.817 M
-5.218 12.817 -4.804 11.966 QT
-4.39 11.114 -4.296 10.067 QT
-4.203 9.021 -4.203 7.849 QT
-4.203 6.724 -4.296 5.771 QT
-4.39 4.817 -4.796 4.044 QT
-5.203 3.271 -6.046 3.271 QT
-6.89 3.271 -7.304 4.052 QT
-7.718 4.833 -7.812 5.778 QT
-7.906 6.724 -7.906 7.849 QT
-7.906 8.692 -7.867 9.435 QT
-7.828 10.177 -7.648 10.958 QT
-7.468 11.739 -7.078 12.278 QT
-6.687 12.817 -6.046 12.817 QT
cp
f
GR
GS
[0.78305 0 0 0.78377 117.45769 137.56921] CT
0.149 GC
N
-0.864 12.052 M
-0.864 11.708 -0.614 11.474 QT
-0.364 11.239 -0.036 11.239 QT
0.167 11.239 0.363 11.349 QT
0.558 11.458 0.667 11.653 QT
0.777 11.849 0.777 12.052 QT
0.777 12.38 0.534 12.63 QT
0.292 12.88 -0.036 12.88 QT
-0.364 12.88 -0.614 12.63 QT
-0.864 12.38 -0.864 12.052 QT
cp
f
GR
GS
[0.78305 0 0 0.78377 117.45769 137.56921] CT
0.149 GC
N
2.88 12.88 M
2.88 12.474 L
2.88 12.442 2.911 12.396 QT
5.239 9.817 L
5.77 9.239 6.098 8.857 QT
6.427 8.474 6.747 7.966 QT
7.067 7.458 7.255 6.935 QT
7.442 6.411 7.442 5.833 QT
7.442 5.208 7.216 4.646 QT
6.989 4.083 6.536 3.747 QT
6.083 3.411 5.442 3.411 QT
4.802 3.411 4.278 3.81 QT
3.755 4.208 3.536 4.817 QT
3.598 4.802 3.708 4.802 QT
4.036 4.802 4.278 5.028 QT
4.52 5.255 4.52 5.614 QT
4.52 5.958 4.278 6.2 QT
4.036 6.442 3.708 6.442 QT
3.348 6.442 3.114 6.2 QT
2.88 5.958 2.88 5.614 QT
2.88 5.052 3.091 4.56 QT
3.302 4.067 3.7 3.685 QT
4.098 3.302 4.598 3.099 QT
5.098 2.896 5.661 2.896 QT
6.52 2.896 7.262 3.255 QT
8.005 3.614 8.434 4.278 QT
8.864 4.942 8.864 5.833 QT
8.864 6.474 8.583 7.06 QT
8.302 7.646 7.856 8.13 QT
7.411 8.614 6.708 9.224 QT
6.005 9.833 5.786 10.036 QT
4.098 11.661 L
5.536 11.661 L
6.598 11.661 7.309 11.646 QT
8.02 11.63 8.067 11.583 QT
8.239 11.396 8.427 10.208 QT
8.864 10.208 L
8.442 12.88 L
2.88 12.88 L
cp
f
GR
GS
[0.78305 0 0 0.78377 187.14926 137.56921] CT
0.149 GC
N
/f-1594609805{-6.046 13.208 M
-7.89 13.208 -8.546 11.692 QT
-9.203 10.177 -9.203 8.099 QT
-9.203 6.786 -8.968 5.638 QT
-8.734 4.489 -8.031 3.692 QT
-7.328 2.896 -6.046 2.896 QT
-5.062 2.896 -4.429 3.372 QT
-3.796 3.849 -3.468 4.614 QT
-3.14 5.38 -3.015 6.255 QT
-2.89 7.13 -2.89 8.099 QT
-2.89 9.38 -3.132 10.505 QT
-3.374 11.63 -4.07 12.419 QT
-4.765 13.208 -6.046 13.208 QT
cp
-6.046 12.817 M
-5.218 12.817 -4.804 11.966 QT
-4.39 11.114 -4.296 10.067 QT
-4.203 9.021 -4.203 7.849 QT
-4.203 6.724 -4.296 5.771 QT
-4.39 4.817 -4.796 4.044 QT
-5.203 3.271 -6.046 3.271 QT
-6.89 3.271 -7.304 4.052 QT
-7.718 4.833 -7.812 5.778 QT
-7.906 6.724 -7.906 7.849 QT
-7.906 8.692 -7.867 9.435 QT
-7.828 10.177 -7.648 10.958 QT
-7.468 11.739 -7.078 12.278 QT
-6.687 12.817 -6.046 12.817 QT
cp}def
f-1594609805
f
GR
GS
[0.78305 0 0 0.78377 187.14926 137.56921] CT
0.149 GC
N
/f920304901{-0.864 12.052 M
-0.864 11.708 -0.614 11.474 QT
-0.364 11.239 -0.036 11.239 QT
0.167 11.239 0.363 11.349 QT
0.558 11.458 0.667 11.653 QT
0.777 11.849 0.777 12.052 QT
0.777 12.38 0.534 12.63 QT
0.292 12.88 -0.036 12.88 QT
-0.364 12.88 -0.614 12.63 QT
-0.864 12.38 -0.864 12.052 QT
cp}def
f920304901
f
GR
GS
[0.78305 0 0 0.78377 187.14926 137.56921] CT
0.149 GC
N
/f1595514502{2.552 10.411 M
2.552 9.88 L
7.177 2.958 L
7.239 2.896 7.333 2.896 QT
7.552 2.896 L
7.723 2.896 7.723 3.052 QT
7.723 9.88 L
9.192 9.88 L
9.192 10.411 L
7.723 10.411 L
7.723 11.88 L
7.723 12.177 8.161 12.263 QT
8.598 12.349 9.177 12.349 QT
9.177 12.88 L
5.052 12.88 L
5.052 12.349 L
5.63 12.349 6.067 12.263 QT
6.505 12.177 6.505 11.88 QT
6.505 10.411 L
2.552 10.411 L
cp
3.052 9.88 M
6.598 9.88 L
6.598 4.567 L
3.052 9.88 L
cp}def
f1595514502
f
GR
GS
[0.78305 0 0 0.78377 256.84083 137.56921] CT
0.149 GC
N
f-1594609805
f
GR
GS
[0.78305 0 0 0.78377 256.84083 137.56921] CT
0.149 GC
N
f920304901
f
GR
GS
[0.78305 0 0 0.78377 256.84083 137.56921] CT
0.149 GC
N
/f1483888545{5.88 13.208 M
4.942 13.208 4.325 12.716 QT
3.708 12.224 3.364 11.435 QT
3.02 10.646 2.887 9.778 QT
2.755 8.911 2.755 8.036 QT
2.755 6.849 3.216 5.653 QT
3.677 4.458 4.575 3.677 QT
5.473 2.896 6.708 2.896 QT
7.223 2.896 7.669 3.083 QT
8.114 3.271 8.364 3.653 QT
8.614 4.036 8.614 4.567 QT
8.614 4.88 8.403 5.083 QT
8.192 5.286 7.88 5.286 QT
7.598 5.286 7.387 5.075 QT
7.177 4.864 7.177 4.567 QT
7.177 4.271 7.387 4.06 QT
7.598 3.849 7.88 3.849 QT
7.973 3.849 L
7.77 3.583 7.427 3.45 QT
7.083 3.317 6.708 3.317 QT
6.255 3.317 5.872 3.521 QT
5.489 3.724 5.177 4.06 QT
4.864 4.396 4.661 4.802 QT
4.458 5.208 4.348 5.724 QT
4.239 6.239 4.208 6.692 QT
4.177 7.146 4.177 7.833 QT
4.442 7.224 4.927 6.833 QT
5.411 6.442 6.005 6.442 QT
6.677 6.442 7.223 6.716 QT
7.77 6.989 8.169 7.466 QT
8.567 7.942 8.778 8.56 QT
8.989 9.177 8.989 9.802 QT
8.989 10.677 8.598 11.474 QT
8.208 12.271 7.497 12.739 QT
6.786 13.208 5.88 13.208 QT
cp
5.88 12.739 M
6.458 12.739 6.809 12.474 QT
7.161 12.208 7.325 11.771 QT
7.489 11.333 7.528 10.888 QT
7.567 10.442 7.567 9.802 QT
7.567 8.958 7.489 8.357 QT
7.411 7.755 7.052 7.294 QT
6.692 6.833 5.958 6.833 QT
5.348 6.833 4.958 7.247 QT
4.567 7.661 4.387 8.286 QT
4.208 8.911 4.208 9.489 QT
4.208 9.692 4.223 9.786 QT
4.223 9.817 4.216 9.825 QT
4.208 9.833 4.208 9.864 QT
4.208 10.505 4.341 11.161 QT
4.473 11.817 4.841 12.278 QT
5.208 12.739 5.88 12.739 QT
cp}def
f1483888545
f
GR
GS
[0.78305 0 0 0.78377 152.30357 152.99213] CT
0.149 GC
N
/f-684531027{-5.181 15.23 M
-6.306 15.23 -6.962 14.37 QT
-7.618 13.511 -7.618 12.339 QT
-7.618 11.198 -7.024 9.956 QT
-6.431 8.714 -5.415 7.894 QT
-4.399 7.073 -3.228 7.073 QT
-2.696 7.073 -2.274 7.363 QT
-1.853 7.652 -1.603 8.152 QT
-1.399 7.433 -0.821 7.433 QT
-0.587 7.433 -0.431 7.566 QT
-0.274 7.698 -0.274 7.933 QT
-0.274 7.98 -0.282 8.011 QT
-0.29 8.042 -0.306 8.073 QT
-1.556 13.105 L
-1.681 13.636 -1.681 13.98 QT
-1.681 14.761 -1.165 14.761 QT
-0.603 14.761 -0.306 14.042 QT
-0.009 13.323 0.194 12.386 QT
0.226 12.277 0.335 12.277 QT
0.554 12.277 L
0.632 12.277 0.671 12.339 QT
0.71 12.402 0.71 12.448 QT
0.397 13.714 0.022 14.472 QT
-0.353 15.23 -1.196 15.23 QT
-1.806 15.23 -2.267 14.87 QT
-2.728 14.511 -2.853 13.933 QT
-4.009 15.23 -5.181 15.23 QT
cp
-5.165 14.761 M
-4.509 14.761 -3.899 14.269 QT
-3.29 13.777 -2.853 13.12 QT
-2.837 13.105 -2.837 13.073 QT
-1.868 9.152 L
-1.853 9.105 L
-1.946 8.464 -2.306 8.003 QT
-2.665 7.542 -3.274 7.542 QT
-3.868 7.542 -4.392 8.034 QT
-4.915 8.527 -5.274 9.214 QT
-5.634 9.933 -5.954 11.191 QT
-6.274 12.448 -6.274 13.136 QT
-6.274 13.761 -6.009 14.261 QT
-5.743 14.761 -5.165 14.761 QT
cp}def
f-684531027
f
GR
GS
[0.78305 0 0 0.78377 152.30357 152.99213] CT
0.149 GC
N
/f-363932608{2.353 17.71 M
2.353 17.257 L
3.978 17.257 3.978 16.835 QT
3.978 10.022 L
3.306 10.335 2.275 10.335 QT
2.275 9.882 L
3.869 9.882 4.681 9.054 QT
4.869 9.054 L
4.916 9.054 4.955 9.085 QT
4.994 9.116 4.994 9.163 QT
4.994 16.835 L
4.994 17.257 6.619 17.257 QT
6.619 17.71 L
2.353 17.71 L
cp}def
f-363932608
f
GR
GS
[0.78305 0 0 0.78377 0 -0.07875] CT
0.149 GC
2 setlinecap
1 LJ
0.639 LW
N
61 170 M
61 16 L
S
GR
GS
[0.78305 0 0 0.78377 0 -0.07875] CT
0.149 GC
2 setlinecap
1 LJ
0.639 LW
N
328 170 M
328 16 L
S
GR
GS
[0.78305 0 0 0.78377 0 -0.07875] CT
0.149 GC
2 setlinecap
1 LJ
0.639 LW
N
61 170 M
63.67 170 L
S
GR
GS
[0.78305 0 0 0.78377 0 -0.07875] CT
0.149 GC
2 setlinecap
1 LJ
0.639 LW
N
61 69.329 M
63.67 69.329 L
S
GR
GS
[0.78305 0 0 0.78377 0 -0.07875] CT
0.149 GC
2 setlinecap
1 LJ
0.639 LW
N
328 170 M
325.33 170 L
S
GR
GS
[0.78305 0 0 0.78377 0 -0.07875] CT
0.149 GC
2 setlinecap
1 LJ
0.639 LW
N
328 69.329 M
325.33 69.329 L
S
GR
GS
[0.78305 0 0 0.78377 0 -0.07875] CT
0.149 GC
2 setlinecap
1 LJ
0.639 LW
N
61 170 M
62.335 170 L
S
GR
GS
[0.78305 0 0 0.78377 0 -0.07875] CT
0.149 GC
2 setlinecap
1 LJ
0.639 LW
N
61 154.848 M
62.335 154.848 L
S
GR
GS
[0.78305 0 0 0.78377 0 -0.07875] CT
0.149 GC
2 setlinecap
1 LJ
0.639 LW
N
61 145.984 M
62.335 145.984 L
S
GR
GS
[0.78305 0 0 0.78377 0 -0.07875] CT
0.149 GC
2 setlinecap
1 LJ
0.639 LW
N
61 139.695 M
62.335 139.695 L
S
GR
GS
[0.78305 0 0 0.78377 0 -0.07875] CT
0.149 GC
2 setlinecap
1 LJ
0.639 LW
N
61 134.817 M
62.335 134.817 L
S
GR
GS
[0.78305 0 0 0.78377 0 -0.07875] CT
0.149 GC
2 setlinecap
1 LJ
0.639 LW
N
61 130.831 M
62.335 130.831 L
S
GR
GS
[0.78305 0 0 0.78377 0 -0.07875] CT
0.149 GC
2 setlinecap
1 LJ
0.639 LW
N
61 127.462 M
62.335 127.462 L
S
GR
GS
[0.78305 0 0 0.78377 0 -0.07875] CT
0.149 GC
2 setlinecap
1 LJ
0.639 LW
N
61 124.543 M
62.335 124.543 L
S
GR
GS
[0.78305 0 0 0.78377 0 -0.07875] CT
0.149 GC
2 setlinecap
1 LJ
0.639 LW
N
61 121.968 M
62.335 121.968 L
S
GR
GS
[0.78305 0 0 0.78377 0 -0.07875] CT
0.149 GC
2 setlinecap
1 LJ
0.639 LW
N
61 119.665 M
62.335 119.665 L
S
GR
GS
[0.78305 0 0 0.78377 0 -0.07875] CT
0.149 GC
2 setlinecap
1 LJ
0.639 LW
N
61 104.512 M
62.335 104.512 L
S
GR
GS
[0.78305 0 0 0.78377 0 -0.07875] CT
0.149 GC
2 setlinecap
1 LJ
0.639 LW
N
61 95.649 M
62.335 95.649 L
S
GR
GS
[0.78305 0 0 0.78377 0 -0.07875] CT
0.149 GC
2 setlinecap
1 LJ
0.639 LW
N
61 89.36 M
62.335 89.36 L
S
GR
GS
[0.78305 0 0 0.78377 0 -0.07875] CT
0.149 GC
2 setlinecap
1 LJ
0.639 LW
N
61 84.482 M
62.335 84.482 L
S
GR
GS
[0.78305 0 0 0.78377 0 -0.07875] CT
0.149 GC
2 setlinecap
1 LJ
0.639 LW
N
61 80.496 M
62.335 80.496 L
S
GR
GS
[0.78305 0 0 0.78377 0 -0.07875] CT
0.149 GC
2 setlinecap
1 LJ
0.639 LW
N
61 77.126 M
62.335 77.126 L
S
GR
GS
[0.78305 0 0 0.78377 0 -0.07875] CT
0.149 GC
2 setlinecap
1 LJ
0.639 LW
N
61 74.207 M
62.335 74.207 L
S
GR
GS
[0.78305 0 0 0.78377 0 -0.07875] CT
0.149 GC
2 setlinecap
1 LJ
0.639 LW
N
61 71.633 M
62.335 71.633 L
S
GR
GS
[0.78305 0 0 0.78377 0 -0.07875] CT
0.149 GC
2 setlinecap
1 LJ
0.639 LW
N
61 69.329 M
62.335 69.329 L
S
GR
GS
[0.78305 0 0 0.78377 0 -0.07875] CT
0.149 GC
2 setlinecap
1 LJ
0.639 LW
N
61 54.177 M
62.335 54.177 L
S
GR
GS
[0.78305 0 0 0.78377 0 -0.07875] CT
0.149 GC
2 setlinecap
1 LJ
0.639 LW
N
61 45.313 M
62.335 45.313 L
S
GR
GS
[0.78305 0 0 0.78377 0 -0.07875] CT
0.149 GC
2 setlinecap
1 LJ
0.639 LW
N
61 39.024 M
62.335 39.024 L
S
GR
GS
[0.78305 0 0 0.78377 0 -0.07875] CT
0.149 GC
2 setlinecap
1 LJ
0.639 LW
N
61 34.146 M
62.335 34.146 L
S
GR
GS
[0.78305 0 0 0.78377 0 -0.07875] CT
0.149 GC
2 setlinecap
1 LJ
0.639 LW
N
61 30.161 M
62.335 30.161 L
S
GR
GS
[0.78305 0 0 0.78377 0 -0.07875] CT
0.149 GC
2 setlinecap
1 LJ
0.639 LW
N
61 26.791 M
62.335 26.791 L
S
GR
GS
[0.78305 0 0 0.78377 0 -0.07875] CT
0.149 GC
2 setlinecap
1 LJ
0.639 LW
N
61 23.872 M
62.335 23.872 L
S
GR
GS
[0.78305 0 0 0.78377 0 -0.07875] CT
0.149 GC
2 setlinecap
1 LJ
0.639 LW
N
61 21.297 M
62.335 21.297 L
S
GR
GS
[0.78305 0 0 0.78377 0 -0.07875] CT
0.149 GC
2 setlinecap
1 LJ
0.639 LW
N
61 18.994 M
62.335 18.994 L
S
GR
GS
[0.78305 0 0 0.78377 0 -0.07875] CT
0.149 GC
2 setlinecap
1 LJ
0.639 LW
N
328 170 M
326.665 170 L
S
GR
GS
[0.78305 0 0 0.78377 0 -0.07875] CT
0.149 GC
2 setlinecap
1 LJ
0.639 LW
N
328 154.848 M
326.665 154.848 L
S
GR
GS
[0.78305 0 0 0.78377 0 -0.07875] CT
0.149 GC
2 setlinecap
1 LJ
0.639 LW
N
328 145.984 M
326.665 145.984 L
S
GR
GS
[0.78305 0 0 0.78377 0 -0.07875] CT
0.149 GC
2 setlinecap
1 LJ
0.639 LW
N
328 139.695 M
326.665 139.695 L
S
GR
GS
[0.78305 0 0 0.78377 0 -0.07875] CT
0.149 GC
2 setlinecap
1 LJ
0.639 LW
N
328 134.817 M
326.665 134.817 L
S
GR
GS
[0.78305 0 0 0.78377 0 -0.07875] CT
0.149 GC
2 setlinecap
1 LJ
0.639 LW
N
328 130.831 M
326.665 130.831 L
S
GR
GS
[0.78305 0 0 0.78377 0 -0.07875] CT
0.149 GC
2 setlinecap
1 LJ
0.639 LW
N
328 127.462 M
326.665 127.462 L
S
GR
GS
[0.78305 0 0 0.78377 0 -0.07875] CT
0.149 GC
2 setlinecap
1 LJ
0.639 LW
N
328 124.543 M
326.665 124.543 L
S
GR
GS
[0.78305 0 0 0.78377 0 -0.07875] CT
0.149 GC
2 setlinecap
1 LJ
0.639 LW
N
328 121.968 M
326.665 121.968 L
S
GR
GS
[0.78305 0 0 0.78377 0 -0.07875] CT
0.149 GC
2 setlinecap
1 LJ
0.639 LW
N
328 119.665 M
326.665 119.665 L
S
GR
GS
[0.78305 0 0 0.78377 0 -0.07875] CT
0.149 GC
2 setlinecap
1 LJ
0.639 LW
N
328 104.512 M
326.665 104.512 L
S
GR
GS
[0.78305 0 0 0.78377 0 -0.07875] CT
0.149 GC
2 setlinecap
1 LJ
0.639 LW
N
328 95.649 M
326.665 95.649 L
S
GR
GS
[0.78305 0 0 0.78377 0 -0.07875] CT
0.149 GC
2 setlinecap
1 LJ
0.639 LW
N
328 89.36 M
326.665 89.36 L
S
GR
GS
[0.78305 0 0 0.78377 0 -0.07875] CT
0.149 GC
2 setlinecap
1 LJ
0.639 LW
N
328 84.482 M
326.665 84.482 L
S
GR
GS
[0.78305 0 0 0.78377 0 -0.07875] CT
0.149 GC
2 setlinecap
1 LJ
0.639 LW
N
328 80.496 M
326.665 80.496 L
S
GR
GS
[0.78305 0 0 0.78377 0 -0.07875] CT
0.149 GC
2 setlinecap
1 LJ
0.639 LW
N
328 77.126 M
326.665 77.126 L
S
GR
GS
[0.78305 0 0 0.78377 0 -0.07875] CT
0.149 GC
2 setlinecap
1 LJ
0.639 LW
N
328 74.207 M
326.665 74.207 L
S
GR
GS
[0.78305 0 0 0.78377 0 -0.07875] CT
0.149 GC
2 setlinecap
1 LJ
0.639 LW
N
328 71.633 M
326.665 71.633 L
S
GR
GS
[0.78305 0 0 0.78377 0 -0.07875] CT
0.149 GC
2 setlinecap
1 LJ
0.639 LW
N
328 69.329 M
326.665 69.329 L
S
GR
GS
[0.78305 0 0 0.78377 0 -0.07875] CT
0.149 GC
2 setlinecap
1 LJ
0.639 LW
N
328 54.177 M
326.665 54.177 L
S
GR
GS
[0.78305 0 0 0.78377 0 -0.07875] CT
0.149 GC
2 setlinecap
1 LJ
0.639 LW
N
328 45.313 M
326.665 45.313 L
S
GR
GS
[0.78305 0 0 0.78377 0 -0.07875] CT
0.149 GC
2 setlinecap
1 LJ
0.639 LW
N
328 39.024 M
326.665 39.024 L
S
GR
GS
[0.78305 0 0 0.78377 0 -0.07875] CT
0.149 GC
2 setlinecap
1 LJ
0.639 LW
N
328 34.146 M
326.665 34.146 L
S
GR
GS
[0.78305 0 0 0.78377 0 -0.07875] CT
0.149 GC
2 setlinecap
1 LJ
0.639 LW
N
328 30.161 M
326.665 30.161 L
S
GR
GS
[0.78305 0 0 0.78377 0 -0.07875] CT
0.149 GC
2 setlinecap
1 LJ
0.639 LW
N
328 26.791 M
326.665 26.791 L
S
GR
GS
[0.78305 0 0 0.78377 0 -0.07875] CT
0.149 GC
2 setlinecap
1 LJ
0.639 LW
N
328 23.872 M
326.665 23.872 L
S
GR
GS
[0.78305 0 0 0.78377 0 -0.07875] CT
0.149 GC
2 setlinecap
1 LJ
0.639 LW
N
328 21.297 M
326.665 21.297 L
S
GR
GS
[0.78305 0 0 0.78377 0 -0.07875] CT
0.149 GC
2 setlinecap
1 LJ
0.639 LW
N
328 18.994 M
326.665 18.994 L
S
GR
GS
[0.78305 0 0 0.78377 43.36364 133.16267] CT
0.149 GC
N
/f717694601{-28.424 3.68 M
-28.424 3.149 L
-26.549 3.149 -26.549 2.68 QT
-26.549 -5.195 L
-27.331 -4.82 -28.518 -4.82 QT
-28.518 -5.351 L
-26.674 -5.351 -25.737 -6.304 QT
-25.518 -6.304 L
-25.471 -6.304 -25.424 -6.265 QT
-25.377 -6.226 -25.377 -6.179 QT
-25.377 2.68 L
-25.377 3.149 -23.502 3.149 QT
-23.502 3.68 L
-28.424 3.68 L
cp}def
f717694601
f
GR
GS
[0.78305 0 0 0.78377 43.36364 133.16267] CT
0.149 GC
N
/f1176857014{-18.398 4.008 M
-20.242 4.008 -20.898 2.492 QT
-21.554 0.977 -21.554 -1.101 QT
-21.554 -2.414 -21.32 -3.562 QT
-21.086 -4.711 -20.383 -5.508 QT
-19.679 -6.304 -18.398 -6.304 QT
-17.414 -6.304 -16.781 -5.828 QT
-16.148 -5.351 -15.82 -4.586 QT
-15.492 -3.82 -15.367 -2.945 QT
-15.242 -2.07 -15.242 -1.101 QT
-15.242 0.18 -15.484 1.305 QT
-15.726 2.43 -16.422 3.219 QT
-17.117 4.008 -18.398 4.008 QT
cp
-18.398 3.617 M
-17.57 3.617 -17.156 2.766 QT
-16.742 1.914 -16.648 0.867 QT
-16.554 -0.179 -16.554 -1.351 QT
-16.554 -2.476 -16.648 -3.429 QT
-16.742 -4.383 -17.148 -5.156 QT
-17.554 -5.929 -18.398 -5.929 QT
-19.242 -5.929 -19.656 -5.148 QT
-20.07 -4.367 -20.164 -3.422 QT
-20.258 -2.476 -20.258 -1.351 QT
-20.258 -0.508 -20.219 0.235 QT
-20.179 0.977 -20 1.758 QT
-19.82 2.539 -19.429 3.078 QT
-19.039 3.617 -18.398 3.617 QT
cp}def
f1176857014
f
GR
GS
[0.78305 0 0 0.78377 43.36364 133.16267] CT
0.149 GC
N
/f833253645{-13.357 -4.416 M
-13.45 -4.416 -13.513 -4.486 QT
-13.575 -4.556 -13.575 -4.634 QT
-13.575 -4.713 -13.513 -4.783 QT
-13.45 -4.853 -13.357 -4.853 QT
-7.044 -4.853 L
-6.966 -4.853 -6.911 -4.783 QT
-6.857 -4.713 -6.857 -4.634 QT
-6.857 -4.556 -6.911 -4.486 QT
-6.966 -4.416 -7.044 -4.416 QT
-13.357 -4.416 L
cp}def
f833253645
f
GR
GS
[0.78305 0 0 0.78377 43.36364 133.16267] CT
0.149 GC
N
/f1510640302{-5.586 -1.884 M
-5.586 -2.181 L
-5.586 -2.213 -5.571 -2.244 QT
-3.852 -4.134 L
-3.461 -4.556 -3.227 -4.838 QT
-2.993 -5.119 -2.751 -5.486 QT
-2.508 -5.853 -2.376 -6.244 QT
-2.243 -6.634 -2.243 -7.056 QT
-2.243 -7.509 -2.407 -7.923 QT
-2.571 -8.338 -2.899 -8.58 QT
-3.227 -8.822 -3.696 -8.822 QT
-4.18 -8.822 -4.563 -8.533 QT
-4.946 -8.244 -5.102 -7.791 QT
-5.055 -7.806 -4.977 -7.806 QT
-4.727 -7.806 -4.555 -7.642 QT
-4.383 -7.478 -4.383 -7.213 QT
-4.383 -6.963 -4.555 -6.783 QT
-4.727 -6.603 -4.977 -6.603 QT
-5.243 -6.603 -5.415 -6.783 QT
-5.586 -6.963 -5.586 -7.213 QT
-5.586 -7.619 -5.43 -7.986 QT
-5.274 -8.353 -4.985 -8.634 QT
-4.696 -8.916 -4.321 -9.064 QT
-3.946 -9.213 -3.54 -9.213 QT
-2.915 -9.213 -2.368 -8.947 QT
-1.821 -8.681 -1.508 -8.197 QT
-1.196 -7.713 -1.196 -7.056 QT
-1.196 -6.572 -1.407 -6.142 QT
-1.618 -5.713 -1.938 -5.361 QT
-2.258 -5.009 -2.774 -4.564 QT
-3.29 -4.119 -3.446 -3.978 QT
-4.696 -2.775 L
-3.633 -2.775 L
-2.852 -2.775 -2.329 -2.791 QT
-1.805 -2.806 -1.774 -2.838 QT
-1.649 -2.963 -1.508 -3.838 QT
-1.196 -3.838 L
-1.508 -1.884 L
-5.586 -1.884 L
cp}def
f1510640302
f
GR
GS
[0.78305 0 0 0.78377 43.36364 54.2597] CT
0.149 GC
N
/f-1406076787{-20.076 3.68 M
-20.076 3.149 L
-18.201 3.149 -18.201 2.68 QT
-18.201 -5.195 L
-18.982 -4.82 -20.17 -4.82 QT
-20.17 -5.351 L
-18.326 -5.351 -17.389 -6.304 QT
-17.17 -6.304 L
-17.123 -6.304 -17.076 -6.265 QT
-17.029 -6.226 -17.029 -6.179 QT
-17.029 2.68 L
-17.029 3.149 -15.154 3.149 QT
-15.154 3.68 L
-20.076 3.68 L
cp}def
f-1406076787
f
GR
GS
[0.78305 0 0 0.78377 43.36364 54.2597] CT
0.149 GC
N
/f179358800{-10.05 4.008 M
-11.894 4.008 -12.55 2.492 QT
-13.206 0.977 -13.206 -1.101 QT
-13.206 -2.414 -12.972 -3.562 QT
-12.738 -4.711 -12.034 -5.508 QT
-11.331 -6.304 -10.05 -6.304 QT
-9.066 -6.304 -8.433 -5.828 QT
-7.8 -5.351 -7.472 -4.586 QT
-7.144 -3.82 -7.019 -2.945 QT
-6.894 -2.07 -6.894 -1.101 QT
-6.894 0.18 -7.136 1.305 QT
-7.378 2.43 -8.073 3.219 QT
-8.769 4.008 -10.05 4.008 QT
cp
-10.05 3.617 M
-9.222 3.617 -8.808 2.766 QT
-8.394 1.914 -8.3 0.867 QT
-8.206 -0.179 -8.206 -1.351 QT
-8.206 -2.476 -8.3 -3.429 QT
-8.394 -4.383 -8.8 -5.156 QT
-9.206 -5.929 -10.05 -5.929 QT
-10.894 -5.929 -11.308 -5.148 QT
-11.722 -4.367 -11.816 -3.422 QT
-11.909 -2.476 -11.909 -1.351 QT
-11.909 -0.508 -11.87 0.235 QT
-11.831 0.977 -11.652 1.758 QT
-11.472 2.539 -11.081 3.078 QT
-10.691 3.617 -10.05 3.617 QT
cp}def
f179358800
f
GR
GS
[0.78305 0 0 0.78377 43.36364 54.2597] CT
0.149 GC
N
/f-179175654{-3.383 -1.65 M
-4.727 -1.65 -5.211 -2.759 QT
-5.696 -3.869 -5.696 -5.384 QT
-5.696 -6.353 -5.524 -7.197 QT
-5.352 -8.041 -4.836 -8.627 QT
-4.321 -9.213 -3.383 -9.213 QT
-2.665 -9.213 -2.196 -8.861 QT
-1.727 -8.509 -1.493 -7.947 QT
-1.258 -7.384 -1.165 -6.744 QT
-1.071 -6.103 -1.071 -5.384 QT
-1.071 -4.447 -1.251 -3.619 QT
-1.43 -2.791 -1.938 -2.22 QT
-2.446 -1.65 -3.383 -1.65 QT
cp
-3.383 -1.931 M
-2.774 -1.931 -2.469 -2.556 QT
-2.165 -3.181 -2.094 -3.947 QT
-2.024 -4.713 -2.024 -5.572 QT
-2.024 -6.4 -2.094 -7.095 QT
-2.165 -7.791 -2.461 -8.361 QT
-2.758 -8.931 -3.383 -8.931 QT
-4.008 -8.931 -4.305 -8.361 QT
-4.602 -7.791 -4.672 -7.095 QT
-4.743 -6.4 -4.743 -5.572 QT
-4.743 -4.963 -4.719 -4.416 QT
-4.696 -3.869 -4.563 -3.291 QT
-4.43 -2.713 -4.141 -2.322 QT
-3.852 -1.931 -3.383 -1.931 QT
cp}def
f-179175654
f
GR
GS
[0 -0.78377 0.78305 0 17.01536 72.81208] CT
0.149 GC
N
/f138299501{-20.216 -2.956 M
-20.372 -2.956 -20.372 -3.174 QT
-20.31 -3.581 -20.138 -3.581 QT
-19.575 -3.581 -19.349 -3.682 QT
-19.122 -3.784 -19.013 -4.19 QT
-16.981 -12.299 L
-16.841 -12.628 -16.841 -13.159 QT
-16.841 -13.924 -17.372 -13.924 QT
-17.935 -13.924 -18.208 -13.253 QT
-18.481 -12.581 -18.731 -11.549 QT
-18.731 -11.44 -18.888 -11.44 QT
-19.091 -11.44 L
-19.138 -11.44 -19.192 -11.51 QT
-19.247 -11.581 -19.247 -11.628 QT
-19.044 -12.409 -18.864 -12.956 QT
-18.685 -13.503 -18.302 -13.948 QT
-17.919 -14.393 -17.356 -14.393 QT
-16.731 -14.393 -16.271 -14.049 QT
-15.81 -13.706 -15.669 -13.096 QT
-15.185 -13.674 -14.583 -14.034 QT
-13.981 -14.393 -13.356 -14.393 QT
-12.606 -14.393 -12.044 -13.987 QT
-11.481 -13.581 -11.2 -12.932 QT
-10.919 -12.284 -10.919 -11.518 QT
-10.919 -10.362 -11.513 -9.12 QT
-12.106 -7.878 -13.122 -7.057 QT
-14.138 -6.237 -15.294 -6.237 QT
-15.825 -6.237 -16.255 -6.534 QT
-16.685 -6.831 -16.919 -7.315 QT
-17.731 -4.112 L
-17.778 -3.862 -17.778 -3.815 QT
-17.778 -3.581 -16.591 -3.581 QT
-16.419 -3.581 -16.419 -3.346 QT
-16.481 -3.112 -16.521 -3.034 QT
-16.56 -2.956 -16.716 -2.956 QT
-20.216 -2.956 L
cp
-15.278 -6.706 M
-14.653 -6.706 -14.122 -7.221 QT
-13.591 -7.737 -13.247 -8.378 QT
-12.997 -8.862 -12.786 -9.565 QT
-12.575 -10.268 -12.419 -11.057 QT
-12.263 -11.846 -12.263 -12.315 QT
-12.263 -12.721 -12.372 -13.081 QT
-12.481 -13.44 -12.731 -13.682 QT
-12.981 -13.924 -13.388 -13.924 QT
-14.044 -13.924 -14.63 -13.456 QT
-15.216 -12.987 -15.7 -12.299 QT
-15.7 -12.237 L
-16.685 -8.253 L
-16.56 -7.612 -16.208 -7.159 QT
-15.856 -6.706 -15.278 -6.706 QT
cp}def
f138299501
f
GR
GS
[0 -0.78377 0.78305 0 17.01536 72.81208] CT
0.149 GC
N
/f-1079275818{-5.184 -1.971 M
-6.184 -2.768 -6.911 -3.792 QT
-7.637 -4.815 -8.098 -5.971 QT
-8.559 -7.128 -8.786 -8.393 QT
-9.012 -9.659 -9.012 -10.94 QT
-9.012 -12.237 -8.786 -13.503 QT
-8.559 -14.768 -8.09 -15.932 QT
-7.622 -17.096 -6.887 -18.12 QT
-6.153 -19.143 -5.184 -19.909 QT
-5.184 -19.94 -5.09 -19.94 QT
-4.919 -19.94 L
-4.872 -19.94 -4.825 -19.893 QT
-4.778 -19.846 -4.778 -19.784 QT
-4.778 -19.706 -4.825 -19.674 QT
-5.7 -18.799 -6.286 -17.815 QT
-6.872 -16.831 -7.223 -15.721 QT
-7.575 -14.612 -7.739 -13.424 QT
-7.903 -12.237 -7.903 -10.94 QT
-7.903 -5.221 -4.84 -2.253 QT
-4.778 -2.19 -4.778 -2.096 QT
-4.778 -2.049 -4.833 -1.995 QT
-4.887 -1.94 -4.919 -1.94 QT
-5.09 -1.94 L
-5.184 -1.94 -5.184 -1.971 QT
cp}def
f-1079275818
f
GR
GS
[0 -0.78377 0.78305 0 17.01536 72.81208] CT
0.149 GC
N
/f1407147672{-0.681 -6.237 M
-1.806 -6.237 -2.462 -7.096 QT
-3.118 -7.956 -3.118 -9.128 QT
-3.118 -10.268 -2.524 -11.51 QT
-1.931 -12.753 -0.915 -13.573 QT
0.101 -14.393 1.273 -14.393 QT
1.804 -14.393 2.226 -14.104 QT
2.648 -13.815 2.898 -13.315 QT
3.101 -14.034 3.679 -14.034 QT
3.913 -14.034 4.069 -13.901 QT
4.226 -13.768 4.226 -13.534 QT
4.226 -13.487 4.218 -13.456 QT
4.21 -13.424 4.194 -13.393 QT
2.944 -8.362 L
2.819 -7.831 2.819 -7.487 QT
2.819 -6.706 3.335 -6.706 QT
3.898 -6.706 4.194 -7.424 QT
4.491 -8.143 4.694 -9.081 QT
4.726 -9.19 4.835 -9.19 QT
5.054 -9.19 L
5.132 -9.19 5.171 -9.128 QT
5.21 -9.065 5.21 -9.018 QT
4.898 -7.753 4.523 -6.995 QT
4.148 -6.237 3.304 -6.237 QT
2.694 -6.237 2.234 -6.596 QT
1.773 -6.956 1.648 -7.534 QT
0.491 -6.237 -0.681 -6.237 QT
cp
-0.665 -6.706 M
-0.009 -6.706 0.601 -7.198 QT
1.21 -7.69 1.648 -8.346 QT
1.663 -8.362 1.663 -8.393 QT
2.632 -12.315 L
2.648 -12.362 L
2.554 -13.003 2.194 -13.464 QT
1.835 -13.924 1.226 -13.924 QT
0.632 -13.924 0.109 -13.432 QT
-0.415 -12.94 -0.774 -12.253 QT
-1.134 -11.534 -1.454 -10.276 QT
-1.774 -9.018 -1.774 -8.331 QT
-1.774 -7.706 -1.509 -7.206 QT
-1.243 -6.706 -0.665 -6.706 QT
cp}def
f1407147672
f
GR
GS
[0 -0.78377 0.78305 0 17.01536 72.81208] CT
0.149 GC
N
/f994877924{6.853 -3.757 M
6.853 -4.21 L
8.478 -4.21 8.478 -4.632 QT
8.478 -11.444 L
7.807 -11.132 6.775 -11.132 QT
6.775 -11.585 L
8.369 -11.585 9.182 -12.413 QT
9.369 -12.413 L
9.416 -12.413 9.455 -12.382 QT
9.494 -12.351 9.494 -12.304 QT
9.494 -4.632 L
9.494 -4.21 11.119 -4.21 QT
11.119 -3.757 L
6.853 -3.757 L
cp}def
f994877924
f
GR
GS
[0 -0.78377 0.78305 0 17.01536 72.81208] CT
0.149 GC
N
/f1470583188{13.978 -1.94 M
13.822 -1.94 13.822 -2.096 QT
13.822 -2.174 13.853 -2.206 QT
16.931 -5.221 16.931 -10.94 QT
16.931 -16.659 13.884 -19.628 QT
13.822 -19.674 13.822 -19.784 QT
13.822 -19.846 13.868 -19.893 QT
13.915 -19.94 13.978 -19.94 QT
14.15 -19.94 L
14.197 -19.94 14.228 -19.909 QT
15.525 -18.893 16.384 -17.432 QT
17.243 -15.971 17.642 -14.315 QT
18.04 -12.659 18.04 -10.94 QT
18.04 -9.659 17.829 -8.424 QT
17.618 -7.19 17.15 -5.995 QT
16.681 -4.799 15.954 -3.784 QT
15.228 -2.768 14.228 -1.971 QT
14.197 -1.94 14.15 -1.94 QT
13.978 -1.94 L
cp}def
f1470583188
f
GR
GS
[0.78305 0 0 0.78377 0 -0.07875] CT
1 LJ
1.917 LW
N
82.137 133.121 M
84.363 142.842 L
86.588 130.287 L
88.813 118.826 L
91.037 107.278 L
93.262 94.349 L
95.487 85.39 L
97.713 77.051 L
99.938 65.719 L
102.162 57.88 L
104.387 51.991 L
106.613 44.816 L
108.838 37.066 L
111.063 31.05 L
113.287 26.822 L
115.512 22.829 L
117.738 21.632 L
119.963 21.942 L
122.188 23.38 L
124.412 24.449 L
126.638 26.718 L
128.863 27.258 L
131.087 27.708 L
133.313 28.423 L
135.538 28.597 L
137.762 29.363 L
139.988 31.016 L
142.213 32.397 L
144.438 33.53 L
146.662 36.52 L
148.887 38.437 L
151.113 39.829 L
153.337 41.165 L
155.563 43.081 L
157.788 44.721 L
160.012 47 L
162.238 49.28 L
164.462 52.264 L
166.688 54.982 L
168.913 57.098 L
171.137 58.238 L
173.363 58.736 L
175.588 59.235 L
177.813 60.099 L
180.037 60.642 L
182.262 61.59 L
184.488 63.136 L
186.712 65.55 L
188.938 64.858 L
191.163 65.022 L
193.387 65.096 L
195.613 65.307 L
197.837 66.519 L
200.063 68.404 L
202.287 69.844 L
204.513 70.143 L
206.738 70.814 L
208.963 71.707 L
211.188 73.699 L
213.412 75.721 L
215.637 80.429 L
217.862 83.961 L
220.088 85.504 L
222.313 87.455 L
224.538 89.187 L
226.762 88.83 L
228.988 89.232 L
231.212 88.434 L
233.438 87.497 L
235.662 86.678 L
237.888 85.542 L
240.113 84.719 L
242.338 85.657 L
244.563 86.122 L
246.787 85.811 L
249.012 85.773 L
251.237 87.124 L
253.463 87.497 L
255.688 87.372 L
257.913 89.505 L
260.138 92.595 L
262.362 92.595 L
264.587 91.366 L
266.813 93.454 L
269.038 93.953 L
271.263 94.869 L
273.488 95.461 L
275.712 98.415 L
277.938 99.543 L
280.163 100.964 L
282.387 101.432 L
284.612 102.4 L
286.837 100.733 L
289.063 100.657 L
291.288 100.733 L
293.513 101.197 L
295.737 100.657 L
297.962 102.649 L
300.188 100.354 L
302.413 100.056 L
304.638 99.688 L
306.863 100.204 L
309.087 100.505 L
311.313 100.279 L
313.538 99.616 L
315.762 100.581 L
317.987 101.67 L
320.212 103.156 L
322.438 106.971 L
324.663 109.105 L
326.888 109.105 L
S
GR
GS
[0.78305 0 0 0.78377 0 -0.07875] CT
0.251 0.251 1 RC
1 LJ
1.661 LW
N
82.137 118.92 M
84.363 109.199 L
86.588 102.494 L
88.813 97.501 L
91.037 89.372 L
93.262 80.193 L
95.487 73.267 L
97.713 65.086 L
99.938 56.177 L
102.162 50.173 L
104.387 44.616 L
106.613 39.526 L
108.838 34.979 L
111.063 30.984 L
113.287 28.033 L
115.512 25.187 L
117.738 23.016 L
119.963 22.088 L
122.188 22.161 L
124.412 22.509 L
126.638 23.83 L
128.863 25.734 L
131.087 27.565 L
133.313 29.93 L
135.538 31.616 L
137.762 33.564 L
139.988 34.706 L
142.213 35.967 L
144.438 35.624 L
146.662 36.545 L
148.887 37.57 L
151.113 39.791 L
153.337 41.659 L
155.563 44.803 L
157.788 47.054 L
160.012 49.454 L
162.238 51.27 L
164.462 52.974 L
166.688 55.038 L
168.913 57.38 L
171.137 58.453 L
173.363 59.932 L
175.588 61.607 L
177.813 62.729 L
180.037 63.107 L
182.262 64.224 L
184.488 64.848 L
186.712 65.705 L
188.938 67.627 L
191.163 70.275 L
193.387 72.23 L
195.613 70.503 L
197.837 70.162 L
200.063 69.55 L
202.287 68.62 L
204.513 68.602 L
206.738 71.619 L
208.963 73.245 L
211.188 75.309 L
213.412 77.431 L
215.637 79.462 L
217.862 79.635 L
220.088 80.888 L
222.313 81.229 L
224.538 82.546 L
226.762 82.055 L
228.988 82.185 L
231.212 82.023 L
233.438 81.894 L
235.662 79.233 L
237.888 78.205 L
240.113 79.433 L
242.338 79.927 L
244.563 81.135 L
246.787 84.304 L
249.012 85.034 L
251.237 85.944 L
253.463 84.776 L
255.688 85.522 L
257.913 86.334 L
260.138 89.146 L
262.362 89.281 L
264.587 93.007 L
266.813 93.768 L
269.038 94.103 L
271.263 94.272 L
273.488 96.226 L
275.712 96.412 L
277.938 95.736 L
280.163 96.664 L
282.387 98.235 L
284.612 97.567 L
286.837 95.979 L
289.063 98.855 L
291.288 100.675 L
293.513 103.421 L
295.737 107.372 L
297.962 114.645 L
300.188 114.645 L
302.413 114.218 L
304.638 112.984 L
306.863 111.943 L
309.087 112.327 L
311.313 112.327 L
313.538 112.719 L
315.762 113.388 L
317.987 112.984 L
320.212 109.538 L
322.438 106.662 L
324.663 103.051 L
326.888 100.523 L
S
GR
GS
[0.78305 0 0 0.78377 0 -0.07875] CT
1 0 0 RC
[10 6] 0 setdash
2 LJ
1.406 LW
N
82.137 135.557 M
84.363 122.64 L
86.588 100.229 L
88.813 93.123 L
91.037 83.742 L
93.262 77.454 L
95.487 70.791 L
97.713 65.031 L
99.938 56.69 L
102.162 49.16 L
104.387 41.666 L
106.613 35.087 L
108.838 29.145 L
111.063 24.07 L
113.287 20.882 L
115.512 18.517 L
117.738 16.565 L
119.963 16 L
122.188 16.863 L
124.412 17.945 L
126.638 19.717 L
128.863 22.559 L
131.087 25.518 L
133.313 28.393 L
135.538 30.816 L
137.762 33.2 L
139.988 36.185 L
142.213 38.285 L
144.438 39.97 L
146.662 43.077 L
148.887 46.316 L
151.113 48.641 L
153.337 51.846 L
155.563 55.554 L
157.788 57.058 L
160.012 59.221 L
162.238 61.23 L
164.462 64.014 L
166.688 66.099 L
168.913 68.286 L
171.137 69.6 L
173.363 70.566 L
175.588 71.19 L
177.813 72.576 L
180.037 74.385 L
182.262 74.993 L
184.488 75.13 L
186.712 76.188 L
188.938 75.641 L
191.163 75.759 L
193.387 76.431 L
195.613 77.866 L
197.837 78.286 L
200.063 77.403 L
202.287 76.529 L
204.513 76.02 L
206.738 74.743 L
208.963 74.363 L
211.188 76.188 L
213.412 78.688 L
215.637 81.542 L
217.862 85.515 L
220.088 86.886 L
222.313 87.565 L
224.538 86.847 L
226.762 84.54 L
228.988 83.238 L
231.212 84.259 L
233.438 85.04 L
235.662 84.932 L
237.888 87.203 L
240.113 89.828 L
242.338 89.828 L
244.563 89.076 L
246.787 90.282 L
249.012 87.525 L
251.237 88.35 L
253.463 89.783 L
255.688 93.123 L
257.913 94.977 L
260.138 101.882 L
262.362 100.816 L
264.587 103.671 L
266.813 105.805 L
269.038 110.59 L
271.263 114.81 L
273.488 123.744 L
275.712 123.116 L
277.938 122.708 L
280.163 122.708 L
282.387 122.708 L
284.612 123.323 L
286.837 123.744 L
289.063 123.744 L
291.288 123.744 L
293.513 123.533 L
295.737 122.506 L
297.962 121.335 L
300.188 120.958 L
302.413 120.587 L
304.638 120.223 L
306.863 119.865 L
309.087 118.487 L
311.313 115.673 L
313.538 109.791 L
315.762 107.964 L
317.987 107.055 L
320.212 102.921 L
322.438 97.446 L
324.663 94.639 L
326.888 85.589 L
S
GR
%%Trailer
%%Pages: 1
%%EOF
