%!PS-Adobe-3.0 EPSF-3.0
%%Creator: (MATLAB, The Mathworks, Inc. Version 9.10.0.1684407 \(R2021a\) Update 3. Operating System: Linux)
%%Title: /home/adoan/Code/PRoSA_PI-ESN_Git/pi-esn/Results/MFE_results/Figures/FIG4A.eps
%%CreationDate: 2021-07-21T18:41:06
%%Pages: (atend)
%%BoundingBox:     0     0   283   170
%%LanguageLevel: 3
%%EndComments
%%BeginProlog
%%BeginResource: procset (Apache XML Graphics Std ProcSet) 1.2 0
%%Version: 1.2 0
%%Copyright: (Copyright 2001-2003,2010 The Apache Software Foundation. License terms: http://www.apache.org/licenses/LICENSE-2.0)
/bd{bind def}bind def
/ld{load def}bd
/GR/grestore ld
/GS/gsave ld
/RM/rmoveto ld
/C/curveto ld
/t/show ld
/L/lineto ld
/ML/setmiterlimit ld
/CT/concat ld
/f/fill ld
/N/newpath ld
/S/stroke ld
/CC/setcmykcolor ld
/A/ashow ld
/cp/closepath ld
/RC/setrgbcolor ld
/LJ/setlinejoin ld
/GC/setgray ld
/LW/setlinewidth ld
/M/moveto ld
/re {4 2 roll M
1 index 0 rlineto
0 exch rlineto
neg 0 rlineto
cp } bd
/_ctm matrix def
/_tm matrix def
/BT { _ctm currentmatrix pop matrix _tm copy pop 0 0 moveto } bd
/ET { _ctm setmatrix } bd
/iTm { _ctm setmatrix _tm concat } bd
/Tm { _tm astore pop iTm 0 0 moveto } bd
/ux 0.0 def
/uy 0.0 def
/F {
  /Tp exch def
  /Tf exch def
  Tf findfont Tp scalefont setfont
  /cf Tf def  /cs Tp def
} bd
/ULS {currentpoint /uy exch def /ux exch def} bd
/ULE {
  /Tcx currentpoint pop def
  gsave
  newpath
  cf findfont cs scalefont dup
  /FontMatrix get 0 get /Ts exch def /FontInfo get dup
  /UnderlinePosition get Ts mul /To exch def
  /UnderlineThickness get Ts mul /Tt exch def
  ux uy To add moveto  Tcx uy To add lineto
  Tt setlinewidth stroke
  grestore
} bd
/OLE {
  /Tcx currentpoint pop def
  gsave
  newpath
  cf findfont cs scalefont dup
  /FontMatrix get 0 get /Ts exch def /FontInfo get dup
  /UnderlinePosition get Ts mul /To exch def
  /UnderlineThickness get Ts mul /Tt exch def
  ux uy To add cs add moveto Tcx uy To add cs add lineto
  Tt setlinewidth stroke
  grestore
} bd
/SOE {
  /Tcx currentpoint pop def
  gsave
  newpath
  cf findfont cs scalefont dup
  /FontMatrix get 0 get /Ts exch def /FontInfo get dup
  /UnderlinePosition get Ts mul /To exch def
  /UnderlineThickness get Ts mul /Tt exch def
  ux uy To add cs 10 mul 26 idiv add moveto Tcx uy To add cs 10 mul 26 idiv add lineto
  Tt setlinewidth stroke
  grestore
} bd
/QT {
/Y22 exch store
/X22 exch store
/Y21 exch store
/X21 exch store
currentpoint
/Y21 load 2 mul add 3 div exch
/X21 load 2 mul add 3 div exch
/X21 load 2 mul /X22 load add 3 div
/Y21 load 2 mul /Y22 load add 3 div
/X22 load /Y22 load curveto
} bd
/SSPD {
dup length /d exch dict def
{
/v exch def
/k exch def
currentpagedevice k known {
/cpdv currentpagedevice k get def
v cpdv ne {
/upd false def
/nullv v type /nulltype eq def
/nullcpdv cpdv type /nulltype eq def
nullv nullcpdv or
{
/upd true def
} {
/sametype v type cpdv type eq def
sametype {
v type /arraytype eq {
/vlen v length def
/cpdvlen cpdv length def
vlen cpdvlen eq {
0 1 vlen 1 sub {
/i exch def
/obj v i get def
/cpdobj cpdv i get def
obj cpdobj ne {
/upd true def
exit
} if
} for
} {
/upd true def
} ifelse
} {
v type /dicttype eq {
v {
/dv exch def
/dk exch def
/cpddv cpdv dk get def
dv cpddv ne {
/upd true def
exit
} if
} forall
} {
/upd true def
} ifelse
} ifelse
} if
} ifelse
upd true eq {
d k v put
} if
} if
} if
} forall
d length 0 gt {
d setpagedevice
} if
} bd
/RE { % /NewFontName [NewEncodingArray] /FontName RE -
  findfont dup length dict begin
  {
    1 index /FID ne
    {def} {pop pop} ifelse
  } forall
  /Encoding exch def
  /FontName 1 index def
  currentdict definefont pop
  end
} bind def
%%EndResource
%%BeginResource: procset (Apache XML Graphics EPS ProcSet) 1.0 0
%%Version: 1.0 0
%%Copyright: (Copyright 2002-2003 The Apache Software Foundation. License terms: http://www.apache.org/licenses/LICENSE-2.0)
/BeginEPSF { %def
/b4_Inc_state save def         % Save state for cleanup
/dict_count countdictstack def % Count objects on dict stack
/op_count count 1 sub def      % Count objects on operand stack
userdict begin                 % Push userdict on dict stack
/showpage { } def              % Redefine showpage, { } = null proc
0 setgray 0 setlinecap         % Prepare graphics state
1 setlinewidth 0 setlinejoin
10 setmiterlimit [ ] 0 setdash newpath
/languagelevel where           % If level not equal to 1 then
{pop languagelevel             % set strokeadjust and
1 ne                           % overprint to their defaults.
{false setstrokeadjust false setoverprint
} if
} if
} bd
/EndEPSF { %def
count op_count sub {pop} repeat            % Clean up stacks
countdictstack dict_count sub {end} repeat
b4_Inc_state restore
} bd
%%EndResource
%FOPBeginFontDict
%%IncludeResource: font Courier-Oblique
%%IncludeResource: font Courier-BoldOblique
%%IncludeResource: font Courier-Bold
%%IncludeResource: font ZapfDingbats
%%IncludeResource: font Symbol
%%IncludeResource: font Helvetica
%%IncludeResource: font Helvetica-Oblique
%%IncludeResource: font Helvetica-Bold
%%IncludeResource: font Helvetica-BoldOblique
%%IncludeResource: font Times-Roman
%%IncludeResource: font Times-Italic
%%IncludeResource: font Times-Bold
%%IncludeResource: font Times-BoldItalic
%%IncludeResource: font Courier
%FOPEndFontDict
%%BeginResource: encoding WinAnsiEncoding
/WinAnsiEncoding [
/.notdef /.notdef /.notdef /.notdef /.notdef
/.notdef /.notdef /.notdef /.notdef /.notdef
/.notdef /.notdef /.notdef /.notdef /.notdef
/.notdef /.notdef /.notdef /.notdef /.notdef
/.notdef /.notdef /.notdef /.notdef /.notdef
/.notdef /.notdef /.notdef /.notdef /.notdef
/.notdef /.notdef /space /exclam /quotedbl
/numbersign /dollar /percent /ampersand /quotesingle
/parenleft /parenright /asterisk /plus /comma
/hyphen /period /slash /zero /one
/two /three /four /five /six
/seven /eight /nine /colon /semicolon
/less /equal /greater /question /at
/A /B /C /D /E
/F /G /H /I /J
/K /L /M /N /O
/P /Q /R /S /T
/U /V /W /X /Y
/Z /bracketleft /backslash /bracketright /asciicircum
/underscore /quoteleft /a /b /c
/d /e /f /g /h
/i /j /k /l /m
/n /o /p /q /r
/s /t /u /v /w
/x /y /z /braceleft /bar
/braceright /asciitilde /bullet /Euro /bullet
/quotesinglbase /florin /quotedblbase /ellipsis /dagger
/daggerdbl /circumflex /perthousand /Scaron /guilsinglleft
/OE /bullet /Zcaron /bullet /bullet
/quoteleft /quoteright /quotedblleft /quotedblright /bullet
/endash /emdash /asciitilde /trademark /scaron
/guilsinglright /oe /bullet /zcaron /Ydieresis
/space /exclamdown /cent /sterling /currency
/yen /brokenbar /section /dieresis /copyright
/ordfeminine /guillemotleft /logicalnot /sfthyphen /registered
/macron /degree /plusminus /twosuperior /threesuperior
/acute /mu /paragraph /middot /cedilla
/onesuperior /ordmasculine /guillemotright /onequarter /onehalf
/threequarters /questiondown /Agrave /Aacute /Acircumflex
/Atilde /Adieresis /Aring /AE /Ccedilla
/Egrave /Eacute /Ecircumflex /Edieresis /Igrave
/Iacute /Icircumflex /Idieresis /Eth /Ntilde
/Ograve /Oacute /Ocircumflex /Otilde /Odieresis
/multiply /Oslash /Ugrave /Uacute /Ucircumflex
/Udieresis /Yacute /Thorn /germandbls /agrave
/aacute /acircumflex /atilde /adieresis /aring
/ae /ccedilla /egrave /eacute /ecircumflex
/edieresis /igrave /iacute /icircumflex /idieresis
/eth /ntilde /ograve /oacute /ocircumflex
/otilde /odieresis /divide /oslash /ugrave
/uacute /ucircumflex /udieresis /yacute /thorn
/ydieresis
] def
%%EndResource
%FOPBeginFontReencode
/Courier-Oblique findfont
dup length dict begin
  {1 index /FID ne {def} {pop pop} ifelse} forall
  /Encoding WinAnsiEncoding def
  currentdict
end
/Courier-Oblique exch definefont pop
/Courier-BoldOblique findfont
dup length dict begin
  {1 index /FID ne {def} {pop pop} ifelse} forall
  /Encoding WinAnsiEncoding def
  currentdict
end
/Courier-BoldOblique exch definefont pop
/Courier-Bold findfont
dup length dict begin
  {1 index /FID ne {def} {pop pop} ifelse} forall
  /Encoding WinAnsiEncoding def
  currentdict
end
/Courier-Bold exch definefont pop
/Helvetica findfont
dup length dict begin
  {1 index /FID ne {def} {pop pop} ifelse} forall
  /Encoding WinAnsiEncoding def
  currentdict
end
/Helvetica exch definefont pop
/Helvetica-Oblique findfont
dup length dict begin
  {1 index /FID ne {def} {pop pop} ifelse} forall
  /Encoding WinAnsiEncoding def
  currentdict
end
/Helvetica-Oblique exch definefont pop
/Helvetica-Bold findfont
dup length dict begin
  {1 index /FID ne {def} {pop pop} ifelse} forall
  /Encoding WinAnsiEncoding def
  currentdict
end
/Helvetica-Bold exch definefont pop
/Helvetica-BoldOblique findfont
dup length dict begin
  {1 index /FID ne {def} {pop pop} ifelse} forall
  /Encoding WinAnsiEncoding def
  currentdict
end
/Helvetica-BoldOblique exch definefont pop
/Times-Roman findfont
dup length dict begin
  {1 index /FID ne {def} {pop pop} ifelse} forall
  /Encoding WinAnsiEncoding def
  currentdict
end
/Times-Roman exch definefont pop
/Times-Italic findfont
dup length dict begin
  {1 index /FID ne {def} {pop pop} ifelse} forall
  /Encoding WinAnsiEncoding def
  currentdict
end
/Times-Italic exch definefont pop
/Times-Bold findfont
dup length dict begin
  {1 index /FID ne {def} {pop pop} ifelse} forall
  /Encoding WinAnsiEncoding def
  currentdict
end
/Times-Bold exch definefont pop
/Times-BoldItalic findfont
dup length dict begin
  {1 index /FID ne {def} {pop pop} ifelse} forall
  /Encoding WinAnsiEncoding def
  currentdict
end
/Times-BoldItalic exch definefont pop
/Courier findfont
dup length dict begin
  {1 index /FID ne {def} {pop pop} ifelse} forall
  /Encoding WinAnsiEncoding def
  currentdict
end
/Courier exch definefont pop
%FOPEndFontReencode
%%EndProlog
%%Page: 1 1
%%PageBoundingBox: 0 0 283 170
%%BeginPageSetup
[1 0 0 -1 0 170] CT
%%EndPageSetup
GS
[0.78305 0 0 0.78377 0 -0.07875] CT
1 GC
N
0 0 362 217 re
f
GR
GS
[0.78305 0 0 0.78377 0 -0.07875] CT
1 GC
N
0 0 362 217 re
f
GR
GS
[0.78305 0 0 0.78377 0 -0.07875] CT
1 GC
N
61 170 M
328 170 L
328 16 L
61 16 L
cp
f
GR
GS
[0.78305 0 0 0.78377 0 -0.07875] CT
0.149 GC
2 setlinecap
1 LJ
0.639 LW
N
61 170 M
328 170 L
S
GR
GS
[0.78305 0 0 0.78377 0 -0.07875] CT
0.149 GC
2 setlinecap
1 LJ
0.639 LW
N
61 16 M
328 16 L
S
GR
GS
[0.78305 0 0 0.78377 0 -0.07875] CT
0.149 GC
2 setlinecap
1 LJ
0.639 LW
N
61 170 M
61 167.33 L
S
GR
GS
[0.78305 0 0 0.78377 0 -0.07875] CT
0.149 GC
2 setlinecap
1 LJ
0.639 LW
N
127.75 170 M
127.75 167.33 L
S
GR
GS
[0.78305 0 0 0.78377 0 -0.07875] CT
0.149 GC
2 setlinecap
1 LJ
0.639 LW
N
194.5 170 M
194.5 167.33 L
S
GR
GS
[0.78305 0 0 0.78377 0 -0.07875] CT
0.149 GC
2 setlinecap
1 LJ
0.639 LW
N
261.25 170 M
261.25 167.33 L
S
GR
GS
[0.78305 0 0 0.78377 0 -0.07875] CT
0.149 GC
2 setlinecap
1 LJ
0.639 LW
N
328 170 M
328 167.33 L
S
GR
GS
[0.78305 0 0 0.78377 0 -0.07875] CT
0.149 GC
2 setlinecap
1 LJ
0.639 LW
N
61 16 M
61 18.67 L
S
GR
GS
[0.78305 0 0 0.78377 0 -0.07875] CT
0.149 GC
2 setlinecap
1 LJ
0.639 LW
N
127.75 16 M
127.75 18.67 L
S
GR
GS
[0.78305 0 0 0.78377 0 -0.07875] CT
0.149 GC
2 setlinecap
1 LJ
0.639 LW
N
194.5 16 M
194.5 18.67 L
S
GR
GS
[0.78305 0 0 0.78377 0 -0.07875] CT
0.149 GC
2 setlinecap
1 LJ
0.639 LW
N
261.25 16 M
261.25 18.67 L
S
GR
GS
[0.78305 0 0 0.78377 0 -0.07875] CT
0.149 GC
2 setlinecap
1 LJ
0.639 LW
N
328 16 M
328 18.67 L
S
GR
GS
[0.78305 0 0 0.78377 47.76613 137.56921] CT
0.149 GC
N
-0.083 13.208 M
-1.927 13.208 -2.583 11.692 QT
-3.24 10.177 -3.24 8.099 QT
-3.24 6.786 -3.005 5.638 QT
-2.771 4.489 -2.068 3.692 QT
-1.365 2.896 -0.083 2.896 QT
0.901 2.896 1.534 3.372 QT
2.167 3.849 2.495 4.614 QT
2.823 5.38 2.948 6.255 QT
3.073 7.13 3.073 8.099 QT
3.073 9.38 2.831 10.505 QT
2.589 11.63 1.893 12.419 QT
1.198 13.208 -0.083 13.208 QT
cp
-0.083 12.817 M
0.745 12.817 1.159 11.966 QT
1.573 11.114 1.667 10.067 QT
1.76 9.021 1.76 7.849 QT
1.76 6.724 1.667 5.771 QT
1.573 4.817 1.167 4.044 QT
0.76 3.271 -0.083 3.271 QT
-0.927 3.271 -1.341 4.052 QT
-1.755 4.833 -1.849 5.778 QT
-1.943 6.724 -1.943 7.849 QT
-1.943 8.692 -1.904 9.435 QT
-1.865 10.177 -1.685 10.958 QT
-1.505 11.739 -1.115 12.278 QT
-0.724 12.817 -0.083 12.817 QT
cp
f
GR
GS
[0.78305 0 0 0.78377 100.0348 137.56921] CT
0.149 GC
N
-9.88 13.208 M
-11.723 13.208 -12.38 11.692 QT
-13.036 10.177 -13.036 8.099 QT
-13.036 6.786 -12.802 5.638 QT
-12.567 4.489 -11.864 3.692 QT
-11.161 2.896 -9.88 2.896 QT
-8.895 2.896 -8.262 3.372 QT
-7.63 3.849 -7.302 4.614 QT
-6.973 5.38 -6.848 6.255 QT
-6.723 7.13 -6.723 8.099 QT
-6.723 9.38 -6.966 10.505 QT
-7.208 11.63 -7.903 12.419 QT
-8.598 13.208 -9.88 13.208 QT
cp
-9.88 12.817 M
-9.052 12.817 -8.637 11.966 QT
-8.223 11.114 -8.13 10.067 QT
-8.036 9.021 -8.036 7.849 QT
-8.036 6.724 -8.13 5.771 QT
-8.223 4.817 -8.63 4.044 QT
-9.036 3.271 -9.88 3.271 QT
-10.723 3.271 -11.137 4.052 QT
-11.552 4.833 -11.645 5.778 QT
-11.739 6.724 -11.739 7.849 QT
-11.739 8.692 -11.7 9.435 QT
-11.661 10.177 -11.481 10.958 QT
-11.302 11.739 -10.911 12.278 QT
-10.52 12.817 -9.88 12.817 QT
cp
f
GR
GS
[0.78305 0 0 0.78377 100.0348 137.56921] CT
0.149 GC
N
-4.697 12.052 M
-4.697 11.708 -4.447 11.474 QT
-4.197 11.239 -3.869 11.239 QT
-3.666 11.239 -3.471 11.349 QT
-3.275 11.458 -3.166 11.653 QT
-3.057 11.849 -3.057 12.052 QT
-3.057 12.38 -3.299 12.63 QT
-3.541 12.88 -3.869 12.88 QT
-4.197 12.88 -4.447 12.63 QT
-4.697 12.38 -4.697 12.052 QT
cp
f
GR
GS
[0.78305 0 0 0.78377 100.0348 137.56921] CT
0.149 GC
N
2.046 13.208 M
0.203 13.208 -0.454 11.692 QT
-1.11 10.177 -1.11 8.099 QT
-1.11 6.786 -0.876 5.638 QT
-0.641 4.489 0.062 3.692 QT
0.765 2.896 2.046 2.896 QT
3.031 2.896 3.663 3.372 QT
4.296 3.849 4.624 4.614 QT
4.953 5.38 5.078 6.255 QT
5.203 7.13 5.203 8.099 QT
5.203 9.38 4.96 10.505 QT
4.718 11.63 4.023 12.419 QT
3.328 13.208 2.046 13.208 QT
cp
2.046 12.817 M
2.874 12.817 3.288 11.966 QT
3.703 11.114 3.796 10.067 QT
3.89 9.021 3.89 7.849 QT
3.89 6.724 3.796 5.771 QT
3.703 4.817 3.296 4.044 QT
2.89 3.271 2.046 3.271 QT
1.203 3.271 0.788 4.052 QT
0.374 4.833 0.281 5.778 QT
0.187 6.724 0.187 7.849 QT
0.187 8.692 0.226 9.435 QT
0.265 10.177 0.445 10.958 QT
0.624 11.739 1.015 12.278 QT
1.406 12.817 2.046 12.817 QT
cp
f
GR
GS
[0.78305 0 0 0.78377 100.0348 137.56921] CT
0.149 GC
N
7.26 11.177 M
7.416 11.614 7.736 11.974 QT
8.057 12.333 8.494 12.536 QT
8.932 12.739 9.4 12.739 QT
10.479 12.739 10.893 11.896 QT
11.307 11.052 11.307 9.849 QT
11.307 9.333 11.283 8.974 QT
11.26 8.614 11.182 8.286 QT
11.041 7.755 10.697 7.364 QT
10.354 6.974 9.838 6.974 QT
9.338 6.974 8.979 7.122 QT
8.619 7.271 8.393 7.482 QT
8.166 7.692 7.986 7.919 QT
7.807 8.146 7.76 8.161 QT
7.604 8.161 L
7.557 8.161 7.502 8.114 QT
7.447 8.067 7.447 8.021 QT
7.447 3.005 L
7.447 2.974 7.494 2.935 QT
7.541 2.896 7.604 2.896 QT
7.635 2.896 L
8.65 3.38 9.791 3.38 QT
10.9 3.38 11.932 2.896 QT
11.979 2.896 L
12.025 2.896 12.072 2.927 QT
12.119 2.958 12.119 3.005 QT
12.119 3.146 L
12.119 3.224 12.088 3.224 QT
11.572 3.896 10.799 4.278 QT
10.025 4.661 9.197 4.661 QT
8.604 4.661 7.963 4.489 QT
7.963 7.333 L
8.463 6.927 8.854 6.755 QT
9.244 6.583 9.854 6.583 QT
10.682 6.583 11.338 7.06 QT
11.994 7.536 12.346 8.302 QT
12.697 9.067 12.697 9.864 QT
12.697 10.771 12.26 11.536 QT
11.822 12.302 11.057 12.755 QT
10.291 13.208 9.4 13.208 QT
8.666 13.208 8.041 12.825 QT
7.416 12.442 7.065 11.802 QT
6.713 11.161 6.713 10.427 QT
6.713 10.099 6.932 9.888 QT
7.15 9.677 7.479 9.677 QT
7.807 9.677 8.033 9.888 QT
8.26 10.099 8.26 10.427 QT
8.26 10.755 8.033 10.982 QT
7.807 11.208 7.479 11.208 QT
7.432 11.208 7.361 11.192 QT
7.291 11.177 7.26 11.177 QT
cp
f
GR
GS
[0.78305 0 0 0.78377 152.30348 137.56921] CT
0.149 GC
N
-6.046 13.208 M
-7.89 13.208 -8.546 11.692 QT
-9.203 10.177 -9.203 8.099 QT
-9.203 6.786 -8.968 5.638 QT
-8.734 4.489 -8.031 3.692 QT
-7.328 2.896 -6.046 2.896 QT
-5.062 2.896 -4.429 3.372 QT
-3.796 3.849 -3.468 4.614 QT
-3.14 5.38 -3.015 6.255 QT
-2.89 7.13 -2.89 8.099 QT
-2.89 9.38 -3.132 10.505 QT
-3.374 11.63 -4.07 12.419 QT
-4.765 13.208 -6.046 13.208 QT
cp
-6.046 12.817 M
-5.218 12.817 -4.804 11.966 QT
-4.39 11.114 -4.296 10.067 QT
-4.203 9.021 -4.203 7.849 QT
-4.203 6.724 -4.296 5.771 QT
-4.39 4.817 -4.796 4.044 QT
-5.203 3.271 -6.046 3.271 QT
-6.89 3.271 -7.304 4.052 QT
-7.718 4.833 -7.812 5.778 QT
-7.906 6.724 -7.906 7.849 QT
-7.906 8.692 -7.867 9.435 QT
-7.828 10.177 -7.648 10.958 QT
-7.468 11.739 -7.078 12.278 QT
-6.687 12.817 -6.046 12.817 QT
cp
f
GR
GS
[0.78305 0 0 0.78377 152.30348 137.56921] CT
0.149 GC
N
-0.864 12.052 M
-0.864 11.708 -0.614 11.474 QT
-0.364 11.239 -0.036 11.239 QT
0.167 11.239 0.363 11.349 QT
0.558 11.458 0.667 11.653 QT
0.777 11.849 0.777 12.052 QT
0.777 12.38 0.534 12.63 QT
0.292 12.88 -0.036 12.88 QT
-0.364 12.88 -0.614 12.63 QT
-0.864 12.38 -0.864 12.052 QT
cp
f
GR
GS
[0.78305 0 0 0.78377 152.30348 137.56921] CT
0.149 GC
N
3.52 12.88 M
3.52 12.349 L
5.395 12.349 5.395 11.88 QT
5.395 4.005 L
4.614 4.38 3.427 4.38 QT
3.427 3.849 L
5.27 3.849 6.208 2.896 QT
6.427 2.896 L
6.473 2.896 6.52 2.935 QT
6.567 2.974 6.567 3.021 QT
6.567 11.88 L
6.567 12.349 8.442 12.349 QT
8.442 12.88 L
3.52 12.88 L
cp
f
GR
GS
[0.78305 0 0 0.78377 204.57215 137.56921] CT
0.149 GC
N
/f1494302766{-9.88 13.208 M
-11.723 13.208 -12.38 11.692 QT
-13.036 10.177 -13.036 8.099 QT
-13.036 6.786 -12.802 5.638 QT
-12.567 4.489 -11.864 3.692 QT
-11.161 2.896 -9.88 2.896 QT
-8.895 2.896 -8.262 3.372 QT
-7.63 3.849 -7.302 4.614 QT
-6.973 5.38 -6.848 6.255 QT
-6.723 7.13 -6.723 8.099 QT
-6.723 9.38 -6.966 10.505 QT
-7.208 11.63 -7.903 12.419 QT
-8.598 13.208 -9.88 13.208 QT
cp
-9.88 12.817 M
-9.052 12.817 -8.637 11.966 QT
-8.223 11.114 -8.13 10.067 QT
-8.036 9.021 -8.036 7.849 QT
-8.036 6.724 -8.13 5.771 QT
-8.223 4.817 -8.63 4.044 QT
-9.036 3.271 -9.88 3.271 QT
-10.723 3.271 -11.137 4.052 QT
-11.552 4.833 -11.645 5.778 QT
-11.739 6.724 -11.739 7.849 QT
-11.739 8.692 -11.7 9.435 QT
-11.661 10.177 -11.481 10.958 QT
-11.302 11.739 -10.911 12.278 QT
-10.52 12.817 -9.88 12.817 QT
cp}def
f1494302766
f
GR
GS
[0.78305 0 0 0.78377 204.57215 137.56921] CT
0.149 GC
N
/f-340590743{-4.697 12.052 M
-4.697 11.708 -4.447 11.474 QT
-4.197 11.239 -3.869 11.239 QT
-3.666 11.239 -3.471 11.349 QT
-3.275 11.458 -3.166 11.653 QT
-3.057 11.849 -3.057 12.052 QT
-3.057 12.38 -3.299 12.63 QT
-3.541 12.88 -3.869 12.88 QT
-4.197 12.88 -4.447 12.63 QT
-4.697 12.38 -4.697 12.052 QT
cp}def
f-340590743
f
GR
GS
[0.78305 0 0 0.78377 204.57215 137.56921] CT
0.149 GC
N
/f825102765{-0.313 12.88 M
-0.313 12.349 L
1.562 12.349 1.562 11.88 QT
1.562 4.005 L
0.781 4.38 -0.407 4.38 QT
-0.407 3.849 L
1.437 3.849 2.374 2.896 QT
2.593 2.896 L
2.64 2.896 2.687 2.935 QT
2.734 2.974 2.734 3.021 QT
2.734 11.88 L
2.734 12.349 4.609 12.349 QT
4.609 12.88 L
-0.313 12.88 L
cp}def
f825102765
f
GR
GS
[0.78305 0 0 0.78377 204.57215 137.56921] CT
0.149 GC
N
/f697138800{7.26 11.177 M
7.416 11.614 7.736 11.974 QT
8.057 12.333 8.494 12.536 QT
8.932 12.739 9.4 12.739 QT
10.479 12.739 10.893 11.896 QT
11.307 11.052 11.307 9.849 QT
11.307 9.333 11.283 8.974 QT
11.26 8.614 11.182 8.286 QT
11.041 7.755 10.697 7.364 QT
10.354 6.974 9.838 6.974 QT
9.338 6.974 8.979 7.122 QT
8.619 7.271 8.393 7.482 QT
8.166 7.692 7.986 7.919 QT
7.807 8.146 7.76 8.161 QT
7.604 8.161 L
7.557 8.161 7.502 8.114 QT
7.447 8.067 7.447 8.021 QT
7.447 3.005 L
7.447 2.974 7.494 2.935 QT
7.541 2.896 7.604 2.896 QT
7.635 2.896 L
8.65 3.38 9.791 3.38 QT
10.9 3.38 11.932 2.896 QT
11.979 2.896 L
12.025 2.896 12.072 2.927 QT
12.119 2.958 12.119 3.005 QT
12.119 3.146 L
12.119 3.224 12.088 3.224 QT
11.572 3.896 10.799 4.278 QT
10.025 4.661 9.197 4.661 QT
8.604 4.661 7.963 4.489 QT
7.963 7.333 L
8.463 6.927 8.854 6.755 QT
9.244 6.583 9.854 6.583 QT
10.682 6.583 11.338 7.06 QT
11.994 7.536 12.346 8.302 QT
12.697 9.067 12.697 9.864 QT
12.697 10.771 12.26 11.536 QT
11.822 12.302 11.057 12.755 QT
10.291 13.208 9.4 13.208 QT
8.666 13.208 8.041 12.825 QT
7.416 12.442 7.065 11.802 QT
6.713 11.161 6.713 10.427 QT
6.713 10.099 6.932 9.888 QT
7.15 9.677 7.479 9.677 QT
7.807 9.677 8.033 9.888 QT
8.26 10.099 8.26 10.427 QT
8.26 10.755 8.033 10.982 QT
7.807 11.208 7.479 11.208 QT
7.432 11.208 7.361 11.192 QT
7.291 11.177 7.26 11.177 QT
cp}def
f697138800
f
GR
GS
[0.78305 0 0 0.78377 256.84083 137.56921] CT
0.149 GC
N
/f-1594609805{-6.046 13.208 M
-7.89 13.208 -8.546 11.692 QT
-9.203 10.177 -9.203 8.099 QT
-9.203 6.786 -8.968 5.638 QT
-8.734 4.489 -8.031 3.692 QT
-7.328 2.896 -6.046 2.896 QT
-5.062 2.896 -4.429 3.372 QT
-3.796 3.849 -3.468 4.614 QT
-3.14 5.38 -3.015 6.255 QT
-2.89 7.13 -2.89 8.099 QT
-2.89 9.38 -3.132 10.505 QT
-3.374 11.63 -4.07 12.419 QT
-4.765 13.208 -6.046 13.208 QT
cp
-6.046 12.817 M
-5.218 12.817 -4.804 11.966 QT
-4.39 11.114 -4.296 10.067 QT
-4.203 9.021 -4.203 7.849 QT
-4.203 6.724 -4.296 5.771 QT
-4.39 4.817 -4.796 4.044 QT
-5.203 3.271 -6.046 3.271 QT
-6.89 3.271 -7.304 4.052 QT
-7.718 4.833 -7.812 5.778 QT
-7.906 6.724 -7.906 7.849 QT
-7.906 8.692 -7.867 9.435 QT
-7.828 10.177 -7.648 10.958 QT
-7.468 11.739 -7.078 12.278 QT
-6.687 12.817 -6.046 12.817 QT
cp}def
f-1594609805
f
GR
GS
[0.78305 0 0 0.78377 256.84083 137.56921] CT
0.149 GC
N
/f920304901{-0.864 12.052 M
-0.864 11.708 -0.614 11.474 QT
-0.364 11.239 -0.036 11.239 QT
0.167 11.239 0.363 11.349 QT
0.558 11.458 0.667 11.653 QT
0.777 11.849 0.777 12.052 QT
0.777 12.38 0.534 12.63 QT
0.292 12.88 -0.036 12.88 QT
-0.364 12.88 -0.614 12.63 QT
-0.864 12.38 -0.864 12.052 QT
cp}def
f920304901
f
GR
GS
[0.78305 0 0 0.78377 256.84083 137.56921] CT
0.149 GC
N
/f1601504518{2.88 12.88 M
2.88 12.474 L
2.88 12.442 2.911 12.396 QT
5.239 9.817 L
5.77 9.239 6.098 8.857 QT
6.427 8.474 6.747 7.966 QT
7.067 7.458 7.255 6.935 QT
7.442 6.411 7.442 5.833 QT
7.442 5.208 7.216 4.646 QT
6.989 4.083 6.536 3.747 QT
6.083 3.411 5.442 3.411 QT
4.802 3.411 4.278 3.81 QT
3.755 4.208 3.536 4.817 QT
3.598 4.802 3.708 4.802 QT
4.036 4.802 4.278 5.028 QT
4.52 5.255 4.52 5.614 QT
4.52 5.958 4.278 6.2 QT
4.036 6.442 3.708 6.442 QT
3.348 6.442 3.114 6.2 QT
2.88 5.958 2.88 5.614 QT
2.88 5.052 3.091 4.56 QT
3.302 4.067 3.7 3.685 QT
4.098 3.302 4.598 3.099 QT
5.098 2.896 5.661 2.896 QT
6.52 2.896 7.262 3.255 QT
8.005 3.614 8.434 4.278 QT
8.864 4.942 8.864 5.833 QT
8.864 6.474 8.583 7.06 QT
8.302 7.646 7.856 8.13 QT
7.411 8.614 6.708 9.224 QT
6.005 9.833 5.786 10.036 QT
4.098 11.661 L
5.536 11.661 L
6.598 11.661 7.309 11.646 QT
8.02 11.63 8.067 11.583 QT
8.239 11.396 8.427 10.208 QT
8.864 10.208 L
8.442 12.88 L
2.88 12.88 L
cp}def
f1601504518
f
GR
GS
[0.78305 0 0 0.78377 152.30357 152.99213] CT
0.149 GC
N
/f1055746540{-3.985 14.698 M
-3.985 14.589 -3.969 14.542 QT
-1.344 4.136 L
-1.282 3.823 -1.266 3.652 QT
-1.266 3.37 -2.438 3.37 QT
-2.61 3.37 -2.61 3.12 QT
-2.61 3.089 -2.579 2.972 QT
-2.547 2.855 -2.501 2.792 QT
-2.454 2.73 -2.36 2.73 QT
0.062 2.542 L
0.109 2.542 L
0.109 2.558 0.171 2.589 QT
0.234 2.62 0.249 2.62 QT
0.281 2.714 0.281 2.761 QT
-1.61 10.292 L
-0.954 10.011 0.031 8.988 QT
1.015 7.964 1.578 7.519 QT
2.14 7.073 2.984 7.073 QT
3.484 7.073 3.835 7.417 QT
4.187 7.761 4.187 8.261 QT
4.187 8.573 4.054 8.839 QT
3.921 9.105 3.687 9.277 QT
3.453 9.448 3.124 9.448 QT
2.843 9.448 2.648 9.269 QT
2.453 9.089 2.453 8.792 QT
2.453 8.37 2.749 8.073 QT
3.046 7.777 3.484 7.777 QT
3.312 7.542 2.953 7.542 QT
2.406 7.542 1.913 7.847 QT
1.421 8.152 0.843 8.73 QT
0.265 9.308 -0.212 9.784 QT
-0.688 10.261 -1.094 10.511 QT
-0.032 10.636 0.757 11.066 QT
1.546 11.495 1.546 12.402 QT
1.546 12.589 1.468 12.87 QT
1.312 13.542 1.312 13.948 QT
1.312 14.761 1.859 14.761 QT
2.515 14.761 2.851 14.042 QT
3.187 13.323 3.406 12.386 QT
3.453 12.277 3.562 12.277 QT
3.765 12.277 L
3.843 12.277 3.89 12.323 QT
3.937 12.37 3.937 12.433 QT
3.937 12.448 3.921 12.48 QT
3.249 15.23 1.828 15.23 QT
1.328 15.23 0.929 14.995 QT
0.531 14.761 0.32 14.347 QT
0.109 13.933 0.109 13.433 QT
0.109 13.136 0.203 12.823 QT
0.249 12.62 0.249 12.433 QT
0.249 11.745 -0.368 11.378 QT
-0.985 11.011 -1.766 10.933 QT
-2.688 14.62 L
-2.751 14.886 -2.954 15.058 QT
-3.157 15.23 -3.422 15.23 QT
-3.657 15.23 -3.821 15.073 QT
-3.985 14.917 -3.985 14.698 QT
cp}def
f1055746540
f
GR
GS
[0.78305 0 0 0.78377 0 -0.07875] CT
0.149 GC
2 setlinecap
1 LJ
0.639 LW
N
61 170 M
61 16 L
S
GR
GS
[0.78305 0 0 0.78377 0 -0.07875] CT
0.149 GC
2 setlinecap
1 LJ
0.639 LW
N
328 170 M
328 16 L
S
GR
GS
[0.78305 0 0 0.78377 0 -0.07875] CT
0.149 GC
2 setlinecap
1 LJ
0.639 LW
N
61 170 M
63.67 170 L
S
GR
GS
[0.78305 0 0 0.78377 0 -0.07875] CT
0.149 GC
2 setlinecap
1 LJ
0.639 LW
N
61 118.667 M
63.67 118.667 L
S
GR
GS
[0.78305 0 0 0.78377 0 -0.07875] CT
0.149 GC
2 setlinecap
1 LJ
0.639 LW
N
61 67.333 M
63.67 67.333 L
S
GR
GS
[0.78305 0 0 0.78377 0 -0.07875] CT
0.149 GC
2 setlinecap
1 LJ
0.639 LW
N
61 16 M
63.67 16 L
S
GR
GS
[0.78305 0 0 0.78377 0 -0.07875] CT
0.149 GC
2 setlinecap
1 LJ
0.639 LW
N
328 170 M
325.33 170 L
S
GR
GS
[0.78305 0 0 0.78377 0 -0.07875] CT
0.149 GC
2 setlinecap
1 LJ
0.639 LW
N
328 118.667 M
325.33 118.667 L
S
GR
GS
[0.78305 0 0 0.78377 0 -0.07875] CT
0.149 GC
2 setlinecap
1 LJ
0.639 LW
N
328 67.333 M
325.33 67.333 L
S
GR
GS
[0.78305 0 0 0.78377 0 -0.07875] CT
0.149 GC
2 setlinecap
1 LJ
0.639 LW
N
328 16 M
325.33 16 L
S
GR
GS
[0.78305 0 0 0.78377 0 -0.07875] CT
0.149 GC
2 setlinecap
1 LJ
0.639 LW
N
61 170 M
62.335 170 L
S
GR
GS
[0.78305 0 0 0.78377 0 -0.07875] CT
0.149 GC
2 setlinecap
1 LJ
0.639 LW
N
61 154.547 M
62.335 154.547 L
S
GR
GS
[0.78305 0 0 0.78377 0 -0.07875] CT
0.149 GC
2 setlinecap
1 LJ
0.639 LW
N
61 145.508 M
62.335 145.508 L
S
GR
GS
[0.78305 0 0 0.78377 0 -0.07875] CT
0.149 GC
2 setlinecap
1 LJ
0.639 LW
N
61 139.094 M
62.335 139.094 L
S
GR
GS
[0.78305 0 0 0.78377 0 -0.07875] CT
0.149 GC
2 setlinecap
1 LJ
0.639 LW
N
61 134.12 M
62.335 134.12 L
S
GR
GS
[0.78305 0 0 0.78377 0 -0.07875] CT
0.149 GC
2 setlinecap
1 LJ
0.639 LW
N
61 130.055 M
62.335 130.055 L
S
GR
GS
[0.78305 0 0 0.78377 0 -0.07875] CT
0.149 GC
2 setlinecap
1 LJ
0.639 LW
N
61 126.618 M
62.335 126.618 L
S
GR
GS
[0.78305 0 0 0.78377 0 -0.07875] CT
0.149 GC
2 setlinecap
1 LJ
0.639 LW
N
61 123.641 M
62.335 123.641 L
S
GR
GS
[0.78305 0 0 0.78377 0 -0.07875] CT
0.149 GC
2 setlinecap
1 LJ
0.639 LW
N
61 121.016 M
62.335 121.016 L
S
GR
GS
[0.78305 0 0 0.78377 0 -0.07875] CT
0.149 GC
2 setlinecap
1 LJ
0.639 LW
N
61 118.667 M
62.335 118.667 L
S
GR
GS
[0.78305 0 0 0.78377 0 -0.07875] CT
0.149 GC
2 setlinecap
1 LJ
0.639 LW
N
61 103.214 M
62.335 103.214 L
S
GR
GS
[0.78305 0 0 0.78377 0 -0.07875] CT
0.149 GC
2 setlinecap
1 LJ
0.639 LW
N
61 94.174 M
62.335 94.174 L
S
GR
GS
[0.78305 0 0 0.78377 0 -0.07875] CT
0.149 GC
2 setlinecap
1 LJ
0.639 LW
N
61 87.761 M
62.335 87.761 L
S
GR
GS
[0.78305 0 0 0.78377 0 -0.07875] CT
0.149 GC
2 setlinecap
1 LJ
0.639 LW
N
61 82.786 M
62.335 82.786 L
S
GR
GS
[0.78305 0 0 0.78377 0 -0.07875] CT
0.149 GC
2 setlinecap
1 LJ
0.639 LW
N
61 78.722 M
62.335 78.722 L
S
GR
GS
[0.78305 0 0 0.78377 0 -0.07875] CT
0.149 GC
2 setlinecap
1 LJ
0.639 LW
N
61 75.285 M
62.335 75.285 L
S
GR
GS
[0.78305 0 0 0.78377 0 -0.07875] CT
0.149 GC
2 setlinecap
1 LJ
0.639 LW
N
61 72.308 M
62.335 72.308 L
S
GR
GS
[0.78305 0 0 0.78377 0 -0.07875] CT
0.149 GC
2 setlinecap
1 LJ
0.639 LW
N
61 69.682 M
62.335 69.682 L
S
GR
GS
[0.78305 0 0 0.78377 0 -0.07875] CT
0.149 GC
2 setlinecap
1 LJ
0.639 LW
N
61 67.333 M
62.335 67.333 L
S
GR
GS
[0.78305 0 0 0.78377 0 -0.07875] CT
0.149 GC
2 setlinecap
1 LJ
0.639 LW
N
61 51.88 M
62.335 51.88 L
S
GR
GS
[0.78305 0 0 0.78377 0 -0.07875] CT
0.149 GC
2 setlinecap
1 LJ
0.639 LW
N
61 42.841 M
62.335 42.841 L
S
GR
GS
[0.78305 0 0 0.78377 0 -0.07875] CT
0.149 GC
2 setlinecap
1 LJ
0.639 LW
N
61 36.428 M
62.335 36.428 L
S
GR
GS
[0.78305 0 0 0.78377 0 -0.07875] CT
0.149 GC
2 setlinecap
1 LJ
0.639 LW
N
61 31.453 M
62.335 31.453 L
S
GR
GS
[0.78305 0 0 0.78377 0 -0.07875] CT
0.149 GC
2 setlinecap
1 LJ
0.639 LW
N
61 27.388 M
62.335 27.388 L
S
GR
GS
[0.78305 0 0 0.78377 0 -0.07875] CT
0.149 GC
2 setlinecap
1 LJ
0.639 LW
N
61 23.952 M
62.335 23.952 L
S
GR
GS
[0.78305 0 0 0.78377 0 -0.07875] CT
0.149 GC
2 setlinecap
1 LJ
0.639 LW
N
61 20.975 M
62.335 20.975 L
S
GR
GS
[0.78305 0 0 0.78377 0 -0.07875] CT
0.149 GC
2 setlinecap
1 LJ
0.639 LW
N
61 18.349 M
62.335 18.349 L
S
GR
GS
[0.78305 0 0 0.78377 0 -0.07875] CT
0.149 GC
2 setlinecap
1 LJ
0.639 LW
N
61 16 M
62.335 16 L
S
GR
GS
[0.78305 0 0 0.78377 0 -0.07875] CT
0.149 GC
2 setlinecap
1 LJ
0.639 LW
N
328 170 M
326.665 170 L
S
GR
GS
[0.78305 0 0 0.78377 0 -0.07875] CT
0.149 GC
2 setlinecap
1 LJ
0.639 LW
N
328 154.547 M
326.665 154.547 L
S
GR
GS
[0.78305 0 0 0.78377 0 -0.07875] CT
0.149 GC
2 setlinecap
1 LJ
0.639 LW
N
328 145.508 M
326.665 145.508 L
S
GR
GS
[0.78305 0 0 0.78377 0 -0.07875] CT
0.149 GC
2 setlinecap
1 LJ
0.639 LW
N
328 139.094 M
326.665 139.094 L
S
GR
GS
[0.78305 0 0 0.78377 0 -0.07875] CT
0.149 GC
2 setlinecap
1 LJ
0.639 LW
N
328 134.12 M
326.665 134.12 L
S
GR
GS
[0.78305 0 0 0.78377 0 -0.07875] CT
0.149 GC
2 setlinecap
1 LJ
0.639 LW
N
328 130.055 M
326.665 130.055 L
S
GR
GS
[0.78305 0 0 0.78377 0 -0.07875] CT
0.149 GC
2 setlinecap
1 LJ
0.639 LW
N
328 126.618 M
326.665 126.618 L
S
GR
GS
[0.78305 0 0 0.78377 0 -0.07875] CT
0.149 GC
2 setlinecap
1 LJ
0.639 LW
N
328 123.641 M
326.665 123.641 L
S
GR
GS
[0.78305 0 0 0.78377 0 -0.07875] CT
0.149 GC
2 setlinecap
1 LJ
0.639 LW
N
328 121.016 M
326.665 121.016 L
S
GR
GS
[0.78305 0 0 0.78377 0 -0.07875] CT
0.149 GC
2 setlinecap
1 LJ
0.639 LW
N
328 118.667 M
326.665 118.667 L
S
GR
GS
[0.78305 0 0 0.78377 0 -0.07875] CT
0.149 GC
2 setlinecap
1 LJ
0.639 LW
N
328 103.214 M
326.665 103.214 L
S
GR
GS
[0.78305 0 0 0.78377 0 -0.07875] CT
0.149 GC
2 setlinecap
1 LJ
0.639 LW
N
328 94.174 M
326.665 94.174 L
S
GR
GS
[0.78305 0 0 0.78377 0 -0.07875] CT
0.149 GC
2 setlinecap
1 LJ
0.639 LW
N
328 87.761 M
326.665 87.761 L
S
GR
GS
[0.78305 0 0 0.78377 0 -0.07875] CT
0.149 GC
2 setlinecap
1 LJ
0.639 LW
N
328 82.786 M
326.665 82.786 L
S
GR
GS
[0.78305 0 0 0.78377 0 -0.07875] CT
0.149 GC
2 setlinecap
1 LJ
0.639 LW
N
328 78.722 M
326.665 78.722 L
S
GR
GS
[0.78305 0 0 0.78377 0 -0.07875] CT
0.149 GC
2 setlinecap
1 LJ
0.639 LW
N
328 75.285 M
326.665 75.285 L
S
GR
GS
[0.78305 0 0 0.78377 0 -0.07875] CT
0.149 GC
2 setlinecap
1 LJ
0.639 LW
N
328 72.308 M
326.665 72.308 L
S
GR
GS
[0.78305 0 0 0.78377 0 -0.07875] CT
0.149 GC
2 setlinecap
1 LJ
0.639 LW
N
328 69.682 M
326.665 69.682 L
S
GR
GS
[0.78305 0 0 0.78377 0 -0.07875] CT
0.149 GC
2 setlinecap
1 LJ
0.639 LW
N
328 67.333 M
326.665 67.333 L
S
GR
GS
[0.78305 0 0 0.78377 0 -0.07875] CT
0.149 GC
2 setlinecap
1 LJ
0.639 LW
N
328 51.88 M
326.665 51.88 L
S
GR
GS
[0.78305 0 0 0.78377 0 -0.07875] CT
0.149 GC
2 setlinecap
1 LJ
0.639 LW
N
328 42.841 M
326.665 42.841 L
S
GR
GS
[0.78305 0 0 0.78377 0 -0.07875] CT
0.149 GC
2 setlinecap
1 LJ
0.639 LW
N
328 36.428 M
326.665 36.428 L
S
GR
GS
[0.78305 0 0 0.78377 0 -0.07875] CT
0.149 GC
2 setlinecap
1 LJ
0.639 LW
N
328 31.453 M
326.665 31.453 L
S
GR
GS
[0.78305 0 0 0.78377 0 -0.07875] CT
0.149 GC
2 setlinecap
1 LJ
0.639 LW
N
328 27.388 M
326.665 27.388 L
S
GR
GS
[0.78305 0 0 0.78377 0 -0.07875] CT
0.149 GC
2 setlinecap
1 LJ
0.639 LW
N
328 23.952 M
326.665 23.952 L
S
GR
GS
[0.78305 0 0 0.78377 0 -0.07875] CT
0.149 GC
2 setlinecap
1 LJ
0.639 LW
N
328 20.975 M
326.665 20.975 L
S
GR
GS
[0.78305 0 0 0.78377 0 -0.07875] CT
0.149 GC
2 setlinecap
1 LJ
0.639 LW
N
328 18.349 M
326.665 18.349 L
S
GR
GS
[0.78305 0 0 0.78377 0 -0.07875] CT
0.149 GC
2 setlinecap
1 LJ
0.639 LW
N
328 16 M
326.665 16 L
S
GR
GS
[0.78305 0 0 0.78377 43.36364 133.16267] CT
0.149 GC
N
/f717694601{-28.424 3.68 M
-28.424 3.149 L
-26.549 3.149 -26.549 2.68 QT
-26.549 -5.195 L
-27.331 -4.82 -28.518 -4.82 QT
-28.518 -5.351 L
-26.674 -5.351 -25.737 -6.304 QT
-25.518 -6.304 L
-25.471 -6.304 -25.424 -6.265 QT
-25.377 -6.226 -25.377 -6.179 QT
-25.377 2.68 L
-25.377 3.149 -23.502 3.149 QT
-23.502 3.68 L
-28.424 3.68 L
cp}def
f717694601
f
GR
GS
[0.78305 0 0 0.78377 43.36364 133.16267] CT
0.149 GC
N
/f1176857014{-18.398 4.008 M
-20.242 4.008 -20.898 2.492 QT
-21.554 0.977 -21.554 -1.101 QT
-21.554 -2.414 -21.32 -3.562 QT
-21.086 -4.711 -20.383 -5.508 QT
-19.679 -6.304 -18.398 -6.304 QT
-17.414 -6.304 -16.781 -5.828 QT
-16.148 -5.351 -15.82 -4.586 QT
-15.492 -3.82 -15.367 -2.945 QT
-15.242 -2.07 -15.242 -1.101 QT
-15.242 0.18 -15.484 1.305 QT
-15.726 2.43 -16.422 3.219 QT
-17.117 4.008 -18.398 4.008 QT
cp
-18.398 3.617 M
-17.57 3.617 -17.156 2.766 QT
-16.742 1.914 -16.648 0.867 QT
-16.554 -0.179 -16.554 -1.351 QT
-16.554 -2.476 -16.648 -3.429 QT
-16.742 -4.383 -17.148 -5.156 QT
-17.554 -5.929 -18.398 -5.929 QT
-19.242 -5.929 -19.656 -5.148 QT
-20.07 -4.367 -20.164 -3.422 QT
-20.258 -2.476 -20.258 -1.351 QT
-20.258 -0.508 -20.219 0.235 QT
-20.179 0.977 -20 1.758 QT
-19.82 2.539 -19.429 3.078 QT
-19.039 3.617 -18.398 3.617 QT
cp}def
f1176857014
f
GR
GS
[0.78305 0 0 0.78377 43.36364 133.16267] CT
0.149 GC
N
/f833253645{-13.357 -4.416 M
-13.45 -4.416 -13.513 -4.486 QT
-13.575 -4.556 -13.575 -4.634 QT
-13.575 -4.713 -13.513 -4.783 QT
-13.45 -4.853 -13.357 -4.853 QT
-7.044 -4.853 L
-6.966 -4.853 -6.911 -4.783 QT
-6.857 -4.713 -6.857 -4.634 QT
-6.857 -4.556 -6.911 -4.486 QT
-6.966 -4.416 -7.044 -4.416 QT
-13.357 -4.416 L
cp}def
f833253645
f
GR
GS
[0.78305 0 0 0.78377 43.36364 133.16267] CT
0.149 GC
N
/f-2050852744{-5.118 -1.884 M
-5.118 -2.275 L
-3.743 -2.275 -3.743 -2.619 QT
-3.743 -8.4 L
-4.305 -8.119 -5.18 -8.119 QT
-5.18 -8.509 L
-3.836 -8.509 -3.149 -9.213 QT
-2.993 -9.213 L
-2.946 -9.213 -2.915 -9.181 QT
-2.883 -9.15 -2.883 -9.119 QT
-2.883 -2.619 L
-2.883 -2.275 -1.508 -2.275 QT
-1.508 -1.884 L
-5.118 -1.884 L
cp}def
f-2050852744
f
GR
GS
[0.78305 0 0 0.78377 43.36364 92.92898] CT
0.149 GC
N
/f-1406076787{-20.076 3.68 M
-20.076 3.149 L
-18.201 3.149 -18.201 2.68 QT
-18.201 -5.195 L
-18.982 -4.82 -20.17 -4.82 QT
-20.17 -5.351 L
-18.326 -5.351 -17.389 -6.304 QT
-17.17 -6.304 L
-17.123 -6.304 -17.076 -6.265 QT
-17.029 -6.226 -17.029 -6.179 QT
-17.029 2.68 L
-17.029 3.149 -15.154 3.149 QT
-15.154 3.68 L
-20.076 3.68 L
cp}def
f-1406076787
f
GR
GS
[0.78305 0 0 0.78377 43.36364 92.92898] CT
0.149 GC
N
/f179358800{-10.05 4.008 M
-11.894 4.008 -12.55 2.492 QT
-13.206 0.977 -13.206 -1.101 QT
-13.206 -2.414 -12.972 -3.562 QT
-12.738 -4.711 -12.034 -5.508 QT
-11.331 -6.304 -10.05 -6.304 QT
-9.066 -6.304 -8.433 -5.828 QT
-7.8 -5.351 -7.472 -4.586 QT
-7.144 -3.82 -7.019 -2.945 QT
-6.894 -2.07 -6.894 -1.101 QT
-6.894 0.18 -7.136 1.305 QT
-7.378 2.43 -8.073 3.219 QT
-8.769 4.008 -10.05 4.008 QT
cp
-10.05 3.617 M
-9.222 3.617 -8.808 2.766 QT
-8.394 1.914 -8.3 0.867 QT
-8.206 -0.179 -8.206 -1.351 QT
-8.206 -2.476 -8.3 -3.429 QT
-8.394 -4.383 -8.8 -5.156 QT
-9.206 -5.929 -10.05 -5.929 QT
-10.894 -5.929 -11.308 -5.148 QT
-11.722 -4.367 -11.816 -3.422 QT
-11.909 -2.476 -11.909 -1.351 QT
-11.909 -0.508 -11.87 0.235 QT
-11.831 0.977 -11.652 1.758 QT
-11.472 2.539 -11.081 3.078 QT
-10.691 3.617 -10.05 3.617 QT
cp}def
f179358800
f
GR
GS
[0.78305 0 0 0.78377 43.36364 92.92898] CT
0.149 GC
N
/f-179175654{-3.383 -1.65 M
-4.727 -1.65 -5.211 -2.759 QT
-5.696 -3.869 -5.696 -5.384 QT
-5.696 -6.353 -5.524 -7.197 QT
-5.352 -8.041 -4.836 -8.627 QT
-4.321 -9.213 -3.383 -9.213 QT
-2.665 -9.213 -2.196 -8.861 QT
-1.727 -8.509 -1.493 -7.947 QT
-1.258 -7.384 -1.165 -6.744 QT
-1.071 -6.103 -1.071 -5.384 QT
-1.071 -4.447 -1.251 -3.619 QT
-1.43 -2.791 -1.938 -2.22 QT
-2.446 -1.65 -3.383 -1.65 QT
cp
-3.383 -1.931 M
-2.774 -1.931 -2.469 -2.556 QT
-2.165 -3.181 -2.094 -3.947 QT
-2.024 -4.713 -2.024 -5.572 QT
-2.024 -6.4 -2.094 -7.095 QT
-2.165 -7.791 -2.461 -8.361 QT
-2.758 -8.931 -3.383 -8.931 QT
-4.008 -8.931 -4.305 -8.361 QT
-4.602 -7.791 -4.672 -7.095 QT
-4.743 -6.4 -4.743 -5.572 QT
-4.743 -4.963 -4.719 -4.416 QT
-4.696 -3.869 -4.563 -3.291 QT
-4.43 -2.713 -4.141 -2.322 QT
-3.852 -1.931 -3.383 -1.931 QT
cp}def
f-179175654
f
GR
GS
[0.78305 0 0 0.78377 43.36364 52.6953] CT
0.149 GC
N
f-1406076787
f
GR
GS
[0.78305 0 0 0.78377 43.36364 52.6953] CT
0.149 GC
N
f179358800
f
GR
GS
[0.78305 0 0 0.78377 43.36364 52.6953] CT
0.149 GC
N
f-2050852744
f
GR
GS
[0.78305 0 0 0.78377 43.36364 12.46162] CT
0.149 GC
N
f-1406076787
f
GR
GS
[0.78305 0 0 0.78377 43.36364 12.46162] CT
0.149 GC
N
f179358800
f
GR
GS
[0.78305 0 0 0.78377 43.36364 12.46162] CT
0.149 GC
N
/f1510640302{-5.586 -1.884 M
-5.586 -2.181 L
-5.586 -2.213 -5.571 -2.244 QT
-3.852 -4.134 L
-3.461 -4.556 -3.227 -4.838 QT
-2.993 -5.119 -2.751 -5.486 QT
-2.508 -5.853 -2.376 -6.244 QT
-2.243 -6.634 -2.243 -7.056 QT
-2.243 -7.509 -2.407 -7.923 QT
-2.571 -8.338 -2.899 -8.58 QT
-3.227 -8.822 -3.696 -8.822 QT
-4.18 -8.822 -4.563 -8.533 QT
-4.946 -8.244 -5.102 -7.791 QT
-5.055 -7.806 -4.977 -7.806 QT
-4.727 -7.806 -4.555 -7.642 QT
-4.383 -7.478 -4.383 -7.213 QT
-4.383 -6.963 -4.555 -6.783 QT
-4.727 -6.603 -4.977 -6.603 QT
-5.243 -6.603 -5.415 -6.783 QT
-5.586 -6.963 -5.586 -7.213 QT
-5.586 -7.619 -5.43 -7.986 QT
-5.274 -8.353 -4.985 -8.634 QT
-4.696 -8.916 -4.321 -9.064 QT
-3.946 -9.213 -3.54 -9.213 QT
-2.915 -9.213 -2.368 -8.947 QT
-1.821 -8.681 -1.508 -8.197 QT
-1.196 -7.713 -1.196 -7.056 QT
-1.196 -6.572 -1.407 -6.142 QT
-1.618 -5.713 -1.938 -5.361 QT
-2.258 -5.009 -2.774 -4.564 QT
-3.29 -4.119 -3.446 -3.978 QT
-4.696 -2.775 L
-3.633 -2.775 L
-2.852 -2.775 -2.329 -2.791 QT
-1.805 -2.806 -1.774 -2.838 QT
-1.649 -2.963 -1.508 -3.838 QT
-1.196 -3.838 L
-1.508 -1.884 L
-5.586 -1.884 L
cp}def
f1510640302
f
GR
GS
[0 -0.78377 0.78305 0 17.01536 72.81208] CT
0.149 GC
N
/f1699352464{-16.848 -2.956 M
-17.004 -2.956 -17.004 -3.174 QT
-16.942 -3.581 -16.77 -3.581 QT
-16.208 -3.581 -15.981 -3.682 QT
-15.754 -3.784 -15.645 -4.19 QT
-13.614 -12.299 L
-13.473 -12.628 -13.473 -13.159 QT
-13.473 -13.924 -14.004 -13.924 QT
-14.567 -13.924 -14.84 -13.253 QT
-15.114 -12.581 -15.364 -11.549 QT
-15.364 -11.44 -15.52 -11.44 QT
-15.723 -11.44 L
-15.77 -11.44 -15.825 -11.51 QT
-15.879 -11.581 -15.879 -11.628 QT
-15.676 -12.409 -15.497 -12.956 QT
-15.317 -13.503 -14.934 -13.948 QT
-14.551 -14.393 -13.989 -14.393 QT
-13.364 -14.393 -12.903 -14.049 QT
-12.442 -13.706 -12.301 -13.096 QT
-11.817 -13.674 -11.215 -14.034 QT
-10.614 -14.393 -9.989 -14.393 QT
-9.239 -14.393 -8.676 -13.987 QT
-8.114 -13.581 -7.833 -12.932 QT
-7.551 -12.284 -7.551 -11.518 QT
-7.551 -10.362 -8.145 -9.12 QT
-8.739 -7.878 -9.754 -7.057 QT
-10.77 -6.237 -11.926 -6.237 QT
-12.458 -6.237 -12.887 -6.534 QT
-13.317 -6.831 -13.551 -7.315 QT
-14.364 -4.112 L
-14.411 -3.862 -14.411 -3.815 QT
-14.411 -3.581 -13.223 -3.581 QT
-13.051 -3.581 -13.051 -3.346 QT
-13.114 -3.112 -13.153 -3.034 QT
-13.192 -2.956 -13.348 -2.956 QT
-16.848 -2.956 L
cp
-11.911 -6.706 M
-11.286 -6.706 -10.754 -7.221 QT
-10.223 -7.737 -9.879 -8.378 QT
-9.629 -8.862 -9.419 -9.565 QT
-9.208 -10.268 -9.051 -11.057 QT
-8.895 -11.846 -8.895 -12.315 QT
-8.895 -12.721 -9.004 -13.081 QT
-9.114 -13.44 -9.364 -13.682 QT
-9.614 -13.924 -10.02 -13.924 QT
-10.676 -13.924 -11.262 -13.456 QT
-11.848 -12.987 -12.333 -12.299 QT
-12.333 -12.237 L
-13.317 -8.253 L
-13.192 -7.612 -12.84 -7.159 QT
-12.489 -6.706 -11.911 -6.706 QT
cp}def
f1699352464
f
GR
GS
[0 -0.78377 0.78305 0 17.01536 72.81208] CT
0.149 GC
N
/f-356112921{-1.817 -1.971 M
-2.817 -2.768 -3.543 -3.792 QT
-4.27 -4.815 -4.731 -5.971 QT
-5.192 -7.128 -5.418 -8.393 QT
-5.645 -9.659 -5.645 -10.94 QT
-5.645 -12.237 -5.418 -13.503 QT
-5.192 -14.768 -4.723 -15.932 QT
-4.254 -17.096 -3.52 -18.12 QT
-2.785 -19.143 -1.817 -19.909 QT
-1.817 -19.94 -1.723 -19.94 QT
-1.551 -19.94 L
-1.504 -19.94 -1.457 -19.893 QT
-1.41 -19.846 -1.41 -19.784 QT
-1.41 -19.706 -1.457 -19.674 QT
-2.332 -18.799 -2.918 -17.815 QT
-3.504 -16.831 -3.856 -15.721 QT
-4.207 -14.612 -4.371 -13.424 QT
-4.535 -12.237 -4.535 -10.94 QT
-4.535 -5.221 -1.473 -2.253 QT
-1.41 -2.19 -1.41 -2.096 QT
-1.41 -2.049 -1.465 -1.995 QT
-1.52 -1.94 -1.551 -1.94 QT
-1.723 -1.94 L
-1.817 -1.94 -1.817 -1.971 QT
cp}def
f-356112921
f
GR
GS
[0 -0.78377 0.78305 0 17.01536 72.81208] CT
0.149 GC
N
/f-1205693960{0.515 -6.768 M
0.515 -6.878 0.531 -6.924 QT
3.156 -17.331 L
3.218 -17.643 3.234 -17.815 QT
3.234 -18.096 2.062 -18.096 QT
1.89 -18.096 1.89 -18.346 QT
1.89 -18.378 1.921 -18.495 QT
1.953 -18.612 2 -18.674 QT
2.046 -18.737 2.14 -18.737 QT
4.562 -18.924 L
4.609 -18.924 L
4.609 -18.909 4.671 -18.878 QT
4.734 -18.846 4.75 -18.846 QT
4.781 -18.753 4.781 -18.706 QT
2.89 -11.174 L
3.546 -11.456 4.531 -12.479 QT
5.515 -13.503 6.078 -13.948 QT
6.64 -14.393 7.484 -14.393 QT
7.984 -14.393 8.336 -14.049 QT
8.687 -13.706 8.687 -13.206 QT
8.687 -12.893 8.554 -12.628 QT
8.421 -12.362 8.187 -12.19 QT
7.953 -12.018 7.625 -12.018 QT
7.343 -12.018 7.148 -12.198 QT
6.953 -12.378 6.953 -12.674 QT
6.953 -13.096 7.25 -13.393 QT
7.546 -13.69 7.984 -13.69 QT
7.812 -13.924 7.453 -13.924 QT
6.906 -13.924 6.414 -13.62 QT
5.921 -13.315 5.343 -12.737 QT
4.765 -12.159 4.289 -11.682 QT
3.812 -11.206 3.406 -10.956 QT
4.468 -10.831 5.257 -10.401 QT
6.046 -9.971 6.046 -9.065 QT
6.046 -8.878 5.968 -8.596 QT
5.812 -7.924 5.812 -7.518 QT
5.812 -6.706 6.359 -6.706 QT
7.015 -6.706 7.351 -7.424 QT
7.687 -8.143 7.906 -9.081 QT
7.953 -9.19 8.062 -9.19 QT
8.265 -9.19 L
8.343 -9.19 8.39 -9.143 QT
8.437 -9.096 8.437 -9.034 QT
8.437 -9.018 8.421 -8.987 QT
7.75 -6.237 6.328 -6.237 QT
5.828 -6.237 5.429 -6.471 QT
5.031 -6.706 4.82 -7.12 QT
4.609 -7.534 4.609 -8.034 QT
4.609 -8.331 4.703 -8.643 QT
4.75 -8.846 4.75 -9.034 QT
4.75 -9.721 4.132 -10.089 QT
3.515 -10.456 2.734 -10.534 QT
1.812 -6.846 L
1.75 -6.581 1.546 -6.409 QT
1.343 -6.237 1.078 -6.237 QT
0.843 -6.237 0.679 -6.393 QT
0.515 -6.549 0.515 -6.768 QT
cp}def
f-1205693960
f
GR
GS
[0 -0.78377 0.78305 0 17.01536 72.81208] CT
0.149 GC
N
/f-1629387417{10.61 -1.94 M
10.454 -1.94 10.454 -2.096 QT
10.454 -2.174 10.485 -2.206 QT
13.563 -5.221 13.563 -10.94 QT
13.563 -16.659 10.516 -19.628 QT
10.454 -19.674 10.454 -19.784 QT
10.454 -19.846 10.501 -19.893 QT
10.548 -19.94 10.61 -19.94 QT
10.782 -19.94 L
10.829 -19.94 10.86 -19.909 QT
12.157 -18.893 13.016 -17.432 QT
13.876 -15.971 14.274 -14.315 QT
14.673 -12.659 14.673 -10.94 QT
14.673 -9.659 14.462 -8.424 QT
14.251 -7.19 13.782 -5.995 QT
13.313 -4.799 12.587 -3.784 QT
11.86 -2.768 10.86 -1.971 QT
10.829 -1.94 10.782 -1.94 QT
10.61 -1.94 L
cp}def
f-1629387417
f
GR
GS
[0.78305 0 0 0.78377 0 -0.07875] CT
1 LJ
1.917 LW
N
77.688 117.082 M
84.363 49.057 L
91.037 48.029 L
97.713 45.571 L
104.387 49.091 L
111.063 54.993 L
117.738 60.423 L
124.412 67.93 L
131.087 73.609 L
137.762 79.97 L
144.438 84.538 L
151.113 89.687 L
157.788 94.14 L
164.462 97.298 L
171.137 100.612 L
177.813 104.594 L
184.488 106.987 L
191.163 108.921 L
197.837 111.468 L
204.513 112.759 L
211.188 115.123 L
217.862 118.459 L
224.538 120.854 L
231.212 123.536 L
237.888 126.559 L
244.563 129.175 L
251.237 130.465 L
257.913 132.691 L
264.587 131.667 L
271.263 133.949 L
277.938 135.243 L
284.612 136.409 L
291.288 137.509 L
297.962 142.387 L
304.638 141.836 L
311.313 141.748 L
S
GR
GS
[0.78305 0 0 0.78377 0 -0.07875] CT
0.251 0.251 1 RC
1 LJ
1.661 LW
N
77.688 97.684 M
84.363 47.97 L
91.037 47.324 L
97.713 45.097 L
104.387 48.711 L
111.063 55.482 L
117.738 62.768 L
124.412 69.133 L
131.087 75.477 L
137.762 80.879 L
144.438 85.325 L
151.113 89.657 L
157.788 95.41 L
164.462 99.545 L
171.137 101.953 L
177.813 105.914 L
184.488 110.162 L
191.163 111.123 L
197.837 111.533 L
204.513 113.037 L
211.188 115.005 L
217.862 116.942 L
224.538 118.202 L
231.212 123.751 L
237.888 130.149 L
244.563 130.521 L
251.237 130.867 L
257.913 133.999 L
264.587 133.565 L
271.263 132.652 L
277.938 136.882 L
284.612 140.291 L
291.288 141.08 L
297.962 139.623 L
304.638 138.959 L
311.313 132.074 L
S
GR
GS
[0.78305 0 0 0.78377 0 -0.07875] CT
1 0 0 RC
[10 6] 0 setdash
2 LJ
1.406 LW
N
77.688 99.351 M
84.363 40.609 L
91.037 43.041 L
97.713 41.935 L
104.387 48.161 L
111.063 59.458 L
117.738 69.385 L
124.412 79.506 L
131.087 86.247 L
137.762 90.885 L
144.438 94.881 L
151.113 99.381 L
157.788 101.529 L
164.462 103.97 L
171.137 107.481 L
177.813 110.415 L
184.488 112.41 L
191.163 113.635 L
197.837 115.331 L
204.513 117.985 L
211.188 123.109 L
217.862 128.04 L
224.538 134.563 L
231.212 139.228 L
237.888 146.407 L
244.563 149.048 L
251.237 150.798 L
257.913 152.696 L
264.587 155.697 L
271.263 154.501 L
277.938 152.368 L
284.612 151.258 L
291.288 148.358 L
297.962 144.271 L
304.638 141.308 L
311.313 135.65 L
S
GR
%%Trailer
%%Pages: 1
%%EOF
