%!PS-Adobe-3.0 EPSF-3.0
%%Creator: (MATLAB, The Mathworks, Inc. Version 9.10.0.1684407 \(R2021a\) Update 3. Operating System: Linux)
%%Title: /home/adoan/Code/PRoSA_PI-ESN_Git/pi-esn/Results/MFE_results/Figures/FIG5A.eps
%%CreationDate: 2021-07-21T18:53:47
%%Pages: (atend)
%%BoundingBox:     0     0   198   198
%%LanguageLevel: 3
%%EndComments
%%BeginProlog
%%BeginResource: procset (Apache XML Graphics Std ProcSet) 1.2 0
%%Version: 1.2 0
%%Copyright: (Copyright 2001-2003,2010 The Apache Software Foundation. License terms: http://www.apache.org/licenses/LICENSE-2.0)
/bd{bind def}bind def
/ld{load def}bd
/GR/grestore ld
/GS/gsave ld
/RM/rmoveto ld
/C/curveto ld
/t/show ld
/L/lineto ld
/ML/setmiterlimit ld
/CT/concat ld
/f/fill ld
/N/newpath ld
/S/stroke ld
/CC/setcmykcolor ld
/A/ashow ld
/cp/closepath ld
/RC/setrgbcolor ld
/LJ/setlinejoin ld
/GC/setgray ld
/LW/setlinewidth ld
/M/moveto ld
/re {4 2 roll M
1 index 0 rlineto
0 exch rlineto
neg 0 rlineto
cp } bd
/_ctm matrix def
/_tm matrix def
/BT { _ctm currentmatrix pop matrix _tm copy pop 0 0 moveto } bd
/ET { _ctm setmatrix } bd
/iTm { _ctm setmatrix _tm concat } bd
/Tm { _tm astore pop iTm 0 0 moveto } bd
/ux 0.0 def
/uy 0.0 def
/F {
  /Tp exch def
  /Tf exch def
  Tf findfont Tp scalefont setfont
  /cf Tf def  /cs Tp def
} bd
/ULS {currentpoint /uy exch def /ux exch def} bd
/ULE {
  /Tcx currentpoint pop def
  gsave
  newpath
  cf findfont cs scalefont dup
  /FontMatrix get 0 get /Ts exch def /FontInfo get dup
  /UnderlinePosition get Ts mul /To exch def
  /UnderlineThickness get Ts mul /Tt exch def
  ux uy To add moveto  Tcx uy To add lineto
  Tt setlinewidth stroke
  grestore
} bd
/OLE {
  /Tcx currentpoint pop def
  gsave
  newpath
  cf findfont cs scalefont dup
  /FontMatrix get 0 get /Ts exch def /FontInfo get dup
  /UnderlinePosition get Ts mul /To exch def
  /UnderlineThickness get Ts mul /Tt exch def
  ux uy To add cs add moveto Tcx uy To add cs add lineto
  Tt setlinewidth stroke
  grestore
} bd
/SOE {
  /Tcx currentpoint pop def
  gsave
  newpath
  cf findfont cs scalefont dup
  /FontMatrix get 0 get /Ts exch def /FontInfo get dup
  /UnderlinePosition get Ts mul /To exch def
  /UnderlineThickness get Ts mul /Tt exch def
  ux uy To add cs 10 mul 26 idiv add moveto Tcx uy To add cs 10 mul 26 idiv add lineto
  Tt setlinewidth stroke
  grestore
} bd
/QT {
/Y22 exch store
/X22 exch store
/Y21 exch store
/X21 exch store
currentpoint
/Y21 load 2 mul add 3 div exch
/X21 load 2 mul add 3 div exch
/X21 load 2 mul /X22 load add 3 div
/Y21 load 2 mul /Y22 load add 3 div
/X22 load /Y22 load curveto
} bd
/SSPD {
dup length /d exch dict def
{
/v exch def
/k exch def
currentpagedevice k known {
/cpdv currentpagedevice k get def
v cpdv ne {
/upd false def
/nullv v type /nulltype eq def
/nullcpdv cpdv type /nulltype eq def
nullv nullcpdv or
{
/upd true def
} {
/sametype v type cpdv type eq def
sametype {
v type /arraytype eq {
/vlen v length def
/cpdvlen cpdv length def
vlen cpdvlen eq {
0 1 vlen 1 sub {
/i exch def
/obj v i get def
/cpdobj cpdv i get def
obj cpdobj ne {
/upd true def
exit
} if
} for
} {
/upd true def
} ifelse
} {
v type /dicttype eq {
v {
/dv exch def
/dk exch def
/cpddv cpdv dk get def
dv cpddv ne {
/upd true def
exit
} if
} forall
} {
/upd true def
} ifelse
} ifelse
} if
} ifelse
upd true eq {
d k v put
} if
} if
} if
} forall
d length 0 gt {
d setpagedevice
} if
} bd
/RE { % /NewFontName [NewEncodingArray] /FontName RE -
  findfont dup length dict begin
  {
    1 index /FID ne
    {def} {pop pop} ifelse
  } forall
  /Encoding exch def
  /FontName 1 index def
  currentdict definefont pop
  end
} bind def
%%EndResource
%%BeginResource: procset (Apache XML Graphics EPS ProcSet) 1.0 0
%%Version: 1.0 0
%%Copyright: (Copyright 2002-2003 The Apache Software Foundation. License terms: http://www.apache.org/licenses/LICENSE-2.0)
/BeginEPSF { %def
/b4_Inc_state save def         % Save state for cleanup
/dict_count countdictstack def % Count objects on dict stack
/op_count count 1 sub def      % Count objects on operand stack
userdict begin                 % Push userdict on dict stack
/showpage { } def              % Redefine showpage, { } = null proc
0 setgray 0 setlinecap         % Prepare graphics state
1 setlinewidth 0 setlinejoin
10 setmiterlimit [ ] 0 setdash newpath
/languagelevel where           % If level not equal to 1 then
{pop languagelevel             % set strokeadjust and
1 ne                           % overprint to their defaults.
{false setstrokeadjust false setoverprint
} if
} if
} bd
/EndEPSF { %def
count op_count sub {pop} repeat            % Clean up stacks
countdictstack dict_count sub {end} repeat
b4_Inc_state restore
} bd
%%EndResource
%FOPBeginFontDict
%%IncludeResource: font Courier-Oblique
%%IncludeResource: font Courier-BoldOblique
%%IncludeResource: font Courier-Bold
%%IncludeResource: font ZapfDingbats
%%IncludeResource: font Symbol
%%IncludeResource: font Helvetica
%%IncludeResource: font Helvetica-Oblique
%%IncludeResource: font Helvetica-Bold
%%IncludeResource: font Helvetica-BoldOblique
%%IncludeResource: font Times-Roman
%%IncludeResource: font Times-Italic
%%IncludeResource: font Times-Bold
%%IncludeResource: font Times-BoldItalic
%%IncludeResource: font Courier
%FOPEndFontDict
%%BeginResource: encoding WinAnsiEncoding
/WinAnsiEncoding [
/.notdef /.notdef /.notdef /.notdef /.notdef
/.notdef /.notdef /.notdef /.notdef /.notdef
/.notdef /.notdef /.notdef /.notdef /.notdef
/.notdef /.notdef /.notdef /.notdef /.notdef
/.notdef /.notdef /.notdef /.notdef /.notdef
/.notdef /.notdef /.notdef /.notdef /.notdef
/.notdef /.notdef /space /exclam /quotedbl
/numbersign /dollar /percent /ampersand /quotesingle
/parenleft /parenright /asterisk /plus /comma
/hyphen /period /slash /zero /one
/two /three /four /five /six
/seven /eight /nine /colon /semicolon
/less /equal /greater /question /at
/A /B /C /D /E
/F /G /H /I /J
/K /L /M /N /O
/P /Q /R /S /T
/U /V /W /X /Y
/Z /bracketleft /backslash /bracketright /asciicircum
/underscore /quoteleft /a /b /c
/d /e /f /g /h
/i /j /k /l /m
/n /o /p /q /r
/s /t /u /v /w
/x /y /z /braceleft /bar
/braceright /asciitilde /bullet /Euro /bullet
/quotesinglbase /florin /quotedblbase /ellipsis /dagger
/daggerdbl /circumflex /perthousand /Scaron /guilsinglleft
/OE /bullet /Zcaron /bullet /bullet
/quoteleft /quoteright /quotedblleft /quotedblright /bullet
/endash /emdash /asciitilde /trademark /scaron
/guilsinglright /oe /bullet /zcaron /Ydieresis
/space /exclamdown /cent /sterling /currency
/yen /brokenbar /section /dieresis /copyright
/ordfeminine /guillemotleft /logicalnot /sfthyphen /registered
/macron /degree /plusminus /twosuperior /threesuperior
/acute /mu /paragraph /middot /cedilla
/onesuperior /ordmasculine /guillemotright /onequarter /onehalf
/threequarters /questiondown /Agrave /Aacute /Acircumflex
/Atilde /Adieresis /Aring /AE /Ccedilla
/Egrave /Eacute /Ecircumflex /Edieresis /Igrave
/Iacute /Icircumflex /Idieresis /Eth /Ntilde
/Ograve /Oacute /Ocircumflex /Otilde /Odieresis
/multiply /Oslash /Ugrave /Uacute /Ucircumflex
/Udieresis /Yacute /Thorn /germandbls /agrave
/aacute /acircumflex /atilde /adieresis /aring
/ae /ccedilla /egrave /eacute /ecircumflex
/edieresis /igrave /iacute /icircumflex /idieresis
/eth /ntilde /ograve /oacute /ocircumflex
/otilde /odieresis /divide /oslash /ugrave
/uacute /ucircumflex /udieresis /yacute /thorn
/ydieresis
] def
%%EndResource
%FOPBeginFontReencode
/Courier-Oblique findfont
dup length dict begin
  {1 index /FID ne {def} {pop pop} ifelse} forall
  /Encoding WinAnsiEncoding def
  currentdict
end
/Courier-Oblique exch definefont pop
/Courier-BoldOblique findfont
dup length dict begin
  {1 index /FID ne {def} {pop pop} ifelse} forall
  /Encoding WinAnsiEncoding def
  currentdict
end
/Courier-BoldOblique exch definefont pop
/Courier-Bold findfont
dup length dict begin
  {1 index /FID ne {def} {pop pop} ifelse} forall
  /Encoding WinAnsiEncoding def
  currentdict
end
/Courier-Bold exch definefont pop
/Helvetica findfont
dup length dict begin
  {1 index /FID ne {def} {pop pop} ifelse} forall
  /Encoding WinAnsiEncoding def
  currentdict
end
/Helvetica exch definefont pop
/Helvetica-Oblique findfont
dup length dict begin
  {1 index /FID ne {def} {pop pop} ifelse} forall
  /Encoding WinAnsiEncoding def
  currentdict
end
/Helvetica-Oblique exch definefont pop
/Helvetica-Bold findfont
dup length dict begin
  {1 index /FID ne {def} {pop pop} ifelse} forall
  /Encoding WinAnsiEncoding def
  currentdict
end
/Helvetica-Bold exch definefont pop
/Helvetica-BoldOblique findfont
dup length dict begin
  {1 index /FID ne {def} {pop pop} ifelse} forall
  /Encoding WinAnsiEncoding def
  currentdict
end
/Helvetica-BoldOblique exch definefont pop
/Times-Roman findfont
dup length dict begin
  {1 index /FID ne {def} {pop pop} ifelse} forall
  /Encoding WinAnsiEncoding def
  currentdict
end
/Times-Roman exch definefont pop
/Times-Italic findfont
dup length dict begin
  {1 index /FID ne {def} {pop pop} ifelse} forall
  /Encoding WinAnsiEncoding def
  currentdict
end
/Times-Italic exch definefont pop
/Times-Bold findfont
dup length dict begin
  {1 index /FID ne {def} {pop pop} ifelse} forall
  /Encoding WinAnsiEncoding def
  currentdict
end
/Times-Bold exch definefont pop
/Times-BoldItalic findfont
dup length dict begin
  {1 index /FID ne {def} {pop pop} ifelse} forall
  /Encoding WinAnsiEncoding def
  currentdict
end
/Times-BoldItalic exch definefont pop
/Courier findfont
dup length dict begin
  {1 index /FID ne {def} {pop pop} ifelse} forall
  /Encoding WinAnsiEncoding def
  currentdict
end
/Courier exch definefont pop
%FOPEndFontReencode
%%EndProlog
%%Page: 1 1
%%PageBoundingBox: 0 0 198 198
%%BeginPageSetup
[1 0 0 -1 0 198] CT
%%EndPageSetup
GS
[0.7812 0 0 0.7812 0 -0.4252] CT
1 GC
N
0 0 254 254 re
f
GR
GS
[0.7812 0 0 0.7812 0 -0.4252] CT
1 GC
N
0 0 254 254 re
f
GR
GS
[0.7812 0 0 0.7812 0 -0.4252] CT
1 GC
N
56 207 M
230 207 L
230 19 L
56 19 L
cp
f
GR
GS
[0.7812 0 0 0.7812 0 -0.4252] CT
0.149 GC
2 setlinecap
1 LJ
0.639 LW
N
56 207 M
230 207 L
S
GR
GS
[0.7812 0 0 0.7812 0 -0.4252] CT
0.149 GC
2 setlinecap
1 LJ
0.639 LW
N
56 19 M
230 19 L
S
GR
GS
[0.7812 0 0 0.7812 0 -0.4252] CT
0.149 GC
2 setlinecap
1 LJ
0.639 LW
N
56 207 M
56 205.12 L
S
GR
GS
[0.7812 0 0 0.7812 0 -0.4252] CT
0.149 GC
2 setlinecap
1 LJ
0.639 LW
N
143 207 M
143 205.12 L
S
GR
GS
[0.7812 0 0 0.7812 0 -0.4252] CT
0.149 GC
2 setlinecap
1 LJ
0.639 LW
N
230 207 M
230 205.12 L
S
GR
GS
[0.7812 0 0 0.7812 0 -0.4252] CT
0.149 GC
2 setlinecap
1 LJ
0.639 LW
N
56 19 M
56 20.88 L
S
GR
GS
[0.7812 0 0 0.7812 0 -0.4252] CT
0.149 GC
2 setlinecap
1 LJ
0.639 LW
N
143 19 M
143 20.88 L
S
GR
GS
[0.7812 0 0 0.7812 0 -0.4252] CT
0.149 GC
2 setlinecap
1 LJ
0.639 LW
N
230 19 M
230 20.88 L
S
GR
GS
[0.7812 0 0 0.7812 43.74729 165.67562] CT
0.149 GC
N
-12.18 10.099 M
-12.18 9.177 L
-8.211 9.177 L
-8.211 10.099 L
-12.18 10.099 L
cp
f
GR
GS
[0.7812 0 0 0.7812 43.74729 165.67562] CT
0.149 GC
N
-3.491 13.208 M
-5.335 13.208 -5.991 11.692 QT
-6.647 10.177 -6.647 8.099 QT
-6.647 6.786 -6.413 5.638 QT
-6.178 4.489 -5.475 3.692 QT
-4.772 2.896 -3.491 2.896 QT
-2.506 2.896 -1.874 3.372 QT
-1.241 3.849 -0.913 4.614 QT
-0.585 5.38 -0.46 6.255 QT
-0.335 7.13 -0.335 8.099 QT
-0.335 9.38 -0.577 10.505 QT
-0.819 11.63 -1.514 12.419 QT
-2.21 13.208 -3.491 13.208 QT
cp
-3.491 12.817 M
-2.663 12.817 -2.249 11.966 QT
-1.835 11.114 -1.741 10.067 QT
-1.647 9.021 -1.647 7.849 QT
-1.647 6.724 -1.741 5.771 QT
-1.835 4.817 -2.241 4.044 QT
-2.647 3.271 -3.491 3.271 QT
-4.335 3.271 -4.749 4.052 QT
-5.163 4.833 -5.256 5.778 QT
-5.35 6.724 -5.35 7.849 QT
-5.35 8.692 -5.311 9.435 QT
-5.272 10.177 -5.092 10.958 QT
-4.913 11.739 -4.522 12.278 QT
-4.131 12.817 -3.491 12.817 QT
cp
f
GR
GS
[0.7812 0 0 0.7812 43.74729 165.67562] CT
0.149 GC
N
1.692 12.052 M
1.692 11.708 1.942 11.474 QT
2.192 11.239 2.52 11.239 QT
2.723 11.239 2.918 11.349 QT
3.113 11.458 3.223 11.653 QT
3.332 11.849 3.332 12.052 QT
3.332 12.38 3.09 12.63 QT
2.848 12.88 2.52 12.88 QT
2.192 12.88 1.942 12.63 QT
1.692 12.38 1.692 12.052 QT
cp
f
GR
GS
[0.7812 0 0 0.7812 43.74729 165.67562] CT
0.149 GC
N
5.982 11.177 M
6.138 11.614 6.459 11.974 QT
6.779 12.333 7.216 12.536 QT
7.654 12.739 8.123 12.739 QT
9.201 12.739 9.615 11.896 QT
10.029 11.052 10.029 9.849 QT
10.029 9.333 10.006 8.974 QT
9.982 8.614 9.904 8.286 QT
9.763 7.755 9.42 7.364 QT
9.076 6.974 8.56 6.974 QT
8.06 6.974 7.701 7.122 QT
7.341 7.271 7.115 7.482 QT
6.888 7.692 6.709 7.919 QT
6.529 8.146 6.482 8.161 QT
6.326 8.161 L
6.279 8.161 6.224 8.114 QT
6.17 8.067 6.17 8.021 QT
6.17 3.005 L
6.17 2.974 6.216 2.935 QT
6.263 2.896 6.326 2.896 QT
6.357 2.896 L
7.373 3.38 8.513 3.38 QT
9.623 3.38 10.654 2.896 QT
10.701 2.896 L
10.748 2.896 10.795 2.927 QT
10.841 2.958 10.841 3.005 QT
10.841 3.146 L
10.841 3.224 10.81 3.224 QT
10.295 3.896 9.521 4.278 QT
8.748 4.661 7.92 4.661 QT
7.326 4.661 6.685 4.489 QT
6.685 7.333 L
7.185 6.927 7.576 6.755 QT
7.966 6.583 8.576 6.583 QT
9.404 6.583 10.06 7.06 QT
10.716 7.536 11.068 8.302 QT
11.42 9.067 11.42 9.864 QT
11.42 10.771 10.982 11.536 QT
10.545 12.302 9.779 12.755 QT
9.013 13.208 8.123 13.208 QT
7.388 13.208 6.763 12.825 QT
6.138 12.442 5.787 11.802 QT
5.435 11.161 5.435 10.427 QT
5.435 10.099 5.654 9.888 QT
5.873 9.677 6.201 9.677 QT
6.529 9.677 6.756 9.888 QT
6.982 10.099 6.982 10.427 QT
6.982 10.755 6.756 10.982 QT
6.529 11.208 6.201 11.208 QT
6.154 11.208 6.084 11.192 QT
6.013 11.177 5.982 11.177 QT
cp
f
GR
GS
[0.7812 0 0 0.7812 111.71183 165.67562] CT
0.149 GC
N
-0.083 13.208 M
-1.927 13.208 -2.583 11.692 QT
-3.24 10.177 -3.24 8.099 QT
-3.24 6.786 -3.005 5.638 QT
-2.771 4.489 -2.068 3.692 QT
-1.365 2.896 -0.083 2.896 QT
0.901 2.896 1.534 3.372 QT
2.167 3.849 2.495 4.614 QT
2.823 5.38 2.948 6.255 QT
3.073 7.13 3.073 8.099 QT
3.073 9.38 2.831 10.505 QT
2.589 11.63 1.893 12.419 QT
1.198 13.208 -0.083 13.208 QT
cp
-0.083 12.817 M
0.745 12.817 1.159 11.966 QT
1.573 11.114 1.667 10.067 QT
1.76 9.021 1.76 7.849 QT
1.76 6.724 1.667 5.771 QT
1.573 4.817 1.167 4.044 QT
0.76 3.271 -0.083 3.271 QT
-0.927 3.271 -1.341 4.052 QT
-1.755 4.833 -1.849 5.778 QT
-1.943 6.724 -1.943 7.849 QT
-1.943 8.692 -1.904 9.435 QT
-1.865 10.177 -1.685 10.958 QT
-1.505 11.739 -1.115 12.278 QT
-0.724 12.817 -0.083 12.817 QT
cp
f
GR
GS
[0.7812 0 0 0.7812 179.67636 165.67562] CT
0.149 GC
N
-6.046 13.208 M
-7.89 13.208 -8.546 11.692 QT
-9.203 10.177 -9.203 8.099 QT
-9.203 6.786 -8.968 5.638 QT
-8.734 4.489 -8.031 3.692 QT
-7.328 2.896 -6.046 2.896 QT
-5.062 2.896 -4.429 3.372 QT
-3.796 3.849 -3.468 4.614 QT
-3.14 5.38 -3.015 6.255 QT
-2.89 7.13 -2.89 8.099 QT
-2.89 9.38 -3.132 10.505 QT
-3.374 11.63 -4.07 12.419 QT
-4.765 13.208 -6.046 13.208 QT
cp
-6.046 12.817 M
-5.218 12.817 -4.804 11.966 QT
-4.39 11.114 -4.296 10.067 QT
-4.203 9.021 -4.203 7.849 QT
-4.203 6.724 -4.296 5.771 QT
-4.39 4.817 -4.796 4.044 QT
-5.203 3.271 -6.046 3.271 QT
-6.89 3.271 -7.304 4.052 QT
-7.718 4.833 -7.812 5.778 QT
-7.906 6.724 -7.906 7.849 QT
-7.906 8.692 -7.867 9.435 QT
-7.828 10.177 -7.648 10.958 QT
-7.468 11.739 -7.078 12.278 QT
-6.687 12.817 -6.046 12.817 QT
cp
f
GR
GS
[0.7812 0 0 0.7812 179.67636 165.67562] CT
0.149 GC
N
-0.864 12.052 M
-0.864 11.708 -0.614 11.474 QT
-0.364 11.239 -0.036 11.239 QT
0.167 11.239 0.363 11.349 QT
0.558 11.458 0.667 11.653 QT
0.777 11.849 0.777 12.052 QT
0.777 12.38 0.534 12.63 QT
0.292 12.88 -0.036 12.88 QT
-0.364 12.88 -0.614 12.63 QT
-0.864 12.38 -0.864 12.052 QT
cp
f
GR
GS
[0.7812 0 0 0.7812 179.67636 165.67562] CT
0.149 GC
N
3.427 11.177 M
3.583 11.614 3.903 11.974 QT
4.223 12.333 4.661 12.536 QT
5.098 12.739 5.567 12.739 QT
6.645 12.739 7.059 11.896 QT
7.473 11.052 7.473 9.849 QT
7.473 9.333 7.45 8.974 QT
7.427 8.614 7.348 8.286 QT
7.208 7.755 6.864 7.364 QT
6.52 6.974 6.005 6.974 QT
5.505 6.974 5.145 7.122 QT
4.786 7.271 4.559 7.482 QT
4.333 7.692 4.153 7.919 QT
3.973 8.146 3.927 8.161 QT
3.77 8.161 L
3.723 8.161 3.669 8.114 QT
3.614 8.067 3.614 8.021 QT
3.614 3.005 L
3.614 2.974 3.661 2.935 QT
3.708 2.896 3.77 2.896 QT
3.802 2.896 L
4.817 3.38 5.958 3.38 QT
7.067 3.38 8.098 2.896 QT
8.145 2.896 L
8.192 2.896 8.239 2.927 QT
8.286 2.958 8.286 3.005 QT
8.286 3.146 L
8.286 3.224 8.255 3.224 QT
7.739 3.896 6.966 4.278 QT
6.192 4.661 5.364 4.661 QT
4.77 4.661 4.13 4.489 QT
4.13 7.333 L
4.63 6.927 5.02 6.755 QT
5.411 6.583 6.02 6.583 QT
6.848 6.583 7.505 7.06 QT
8.161 7.536 8.512 8.302 QT
8.864 9.067 8.864 9.864 QT
8.864 10.771 8.427 11.536 QT
7.989 12.302 7.223 12.755 QT
6.458 13.208 5.567 13.208 QT
4.833 13.208 4.208 12.825 QT
3.583 12.442 3.231 11.802 QT
2.88 11.161 2.88 10.427 QT
2.88 10.099 3.098 9.888 QT
3.317 9.677 3.645 9.677 QT
3.973 9.677 4.2 9.888 QT
4.427 10.099 4.427 10.427 QT
4.427 10.755 4.2 10.982 QT
3.973 11.208 3.645 11.208 QT
3.598 11.208 3.528 11.192 QT
3.458 11.177 3.427 11.177 QT
cp
f
GR
GS
[0.7812 0 0 0.7812 111.71189 181.23021] CT
0.149 GC
N
-5.12 4.462 10.241 0.716 re
f
GR
GS
[0.7812 0 0 0.7812 111.71189 181.23021] CT
0.149 GC
N
-3.214 13.073 M
-3.214 12.48 -3.058 11.863 QT
-2.902 11.245 -2.613 10.48 QT
-2.323 9.714 -2.12 9.152 QT
-1.87 8.495 -1.87 8.073 QT
-1.87 7.542 -2.277 7.542 QT
-2.98 7.542 -3.441 8.277 QT
-3.902 9.011 -4.12 9.917 QT
-4.167 10.027 -4.277 10.027 QT
-4.48 10.027 L
-4.636 10.027 -4.636 9.855 QT
-4.636 9.808 L
-4.339 8.73 -3.745 7.902 QT
-3.152 7.073 -2.23 7.073 QT
-1.589 7.073 -1.152 7.495 QT
-0.714 7.917 -0.714 8.573 QT
-0.714 8.902 -0.855 9.277 QT
-0.933 9.495 -1.214 10.23 QT
-1.495 10.964 -1.644 11.448 QT
-1.792 11.933 -1.894 12.402 QT
-1.995 12.87 -1.995 13.323 QT
-1.995 13.933 -1.738 14.347 QT
-1.48 14.761 -0.917 14.761 QT
0.239 14.761 1.114 13.323 QT
1.13 13.261 1.145 13.191 QT
1.161 13.12 1.161 13.073 QT
2.458 7.839 L
2.52 7.605 2.739 7.433 QT
2.958 7.261 3.208 7.261 QT
3.427 7.261 3.591 7.402 QT
3.755 7.542 3.755 7.777 QT
3.755 7.886 3.739 7.917 QT
2.442 13.105 L
2.317 13.636 2.317 13.98 QT
2.317 14.761 2.833 14.761 QT
3.411 14.761 3.7 14.042 QT
3.989 13.323 4.192 12.386 QT
4.223 12.277 4.333 12.277 QT
4.552 12.277 L
4.614 12.277 4.661 12.339 QT
4.708 12.402 4.708 12.448 QT
4.52 13.23 4.333 13.784 QT
4.145 14.339 3.762 14.784 QT
3.38 15.23 2.802 15.23 QT
2.223 15.23 1.77 14.917 QT
1.317 14.605 1.161 14.073 QT
0.755 14.589 0.208 14.909 QT
-0.339 15.23 -0.948 15.23 QT
-1.98 15.23 -2.597 14.659 QT
-3.214 14.089 -3.214 13.073 QT
cp
f
GR
GS
[0.7812 0 0 0.7812 0 -0.4252] CT
0.149 GC
2 setlinecap
1 LJ
0.639 LW
N
56 207 M
56 19 L
S
GR
GS
[0.7812 0 0 0.7812 0 -0.4252] CT
0.149 GC
2 setlinecap
1 LJ
0.639 LW
N
230 207 M
230 19 L
S
GR
GS
[0.7812 0 0 0.7812 0 -0.4252] CT
0.149 GC
2 setlinecap
1 LJ
0.639 LW
N
56 207 M
57.88 207 L
S
GR
GS
[0.7812 0 0 0.7812 0 -0.4252] CT
0.149 GC
2 setlinecap
1 LJ
0.639 LW
N
56 160 M
57.88 160 L
S
GR
GS
[0.7812 0 0 0.7812 0 -0.4252] CT
0.149 GC
2 setlinecap
1 LJ
0.639 LW
N
56 113 M
57.88 113 L
S
GR
GS
[0.7812 0 0 0.7812 0 -0.4252] CT
0.149 GC
2 setlinecap
1 LJ
0.639 LW
N
56 66 M
57.88 66 L
S
GR
GS
[0.7812 0 0 0.7812 0 -0.4252] CT
0.149 GC
2 setlinecap
1 LJ
0.639 LW
N
56 19 M
57.88 19 L
S
GR
GS
[0.7812 0 0 0.7812 0 -0.4252] CT
0.149 GC
2 setlinecap
1 LJ
0.639 LW
N
230 207 M
228.12 207 L
S
GR
GS
[0.7812 0 0 0.7812 0 -0.4252] CT
0.149 GC
2 setlinecap
1 LJ
0.639 LW
N
230 160 M
228.12 160 L
S
GR
GS
[0.7812 0 0 0.7812 0 -0.4252] CT
0.149 GC
2 setlinecap
1 LJ
0.639 LW
N
230 113 M
228.12 113 L
S
GR
GS
[0.7812 0 0 0.7812 0 -0.4252] CT
0.149 GC
2 setlinecap
1 LJ
0.639 LW
N
230 66 M
228.12 66 L
S
GR
GS
[0.7812 0 0 0.7812 0 -0.4252] CT
0.149 GC
2 setlinecap
1 LJ
0.639 LW
N
230 19 M
228.12 19 L
S
GR
GS
[0.7812 0 0 0.7812 39.3552 161.28353] CT
0.149 GC
N
-12.606 0.899 M
-12.606 -0.023 L
-8.637 -0.023 L
-8.637 0.899 L
-12.606 0.899 L
cp
f
GR
GS
[0.7812 0 0 0.7812 39.3552 161.28353] CT
0.149 GC
N
-6.276 3.68 M
-6.276 3.149 L
-4.401 3.149 -4.401 2.68 QT
-4.401 -5.195 L
-5.182 -4.82 -6.37 -4.82 QT
-6.37 -5.351 L
-4.526 -5.351 -3.589 -6.304 QT
-3.37 -6.304 L
-3.323 -6.304 -3.276 -6.265 QT
-3.229 -6.226 -3.229 -6.179 QT
-3.229 2.68 L
-3.229 3.149 -1.354 3.149 QT
-1.354 3.68 L
-6.276 3.68 L
cp
f
GR
GS
[0.7812 0 0 0.7812 39.3552 124.56705] CT
0.149 GC
N
-24.532 0.899 M
-24.532 -0.023 L
-20.563 -0.023 L
-20.563 0.899 L
-24.532 0.899 L
cp
f
GR
GS
[0.7812 0 0 0.7812 39.3552 124.56705] CT
0.149 GC
N
-15.843 4.008 M
-17.686 4.008 -18.343 2.492 QT
-18.999 0.977 -18.999 -1.101 QT
-18.999 -2.414 -18.765 -3.562 QT
-18.53 -4.711 -17.827 -5.508 QT
-17.124 -6.304 -15.843 -6.304 QT
-14.858 -6.304 -14.225 -5.828 QT
-13.593 -5.351 -13.265 -4.586 QT
-12.936 -3.82 -12.811 -2.945 QT
-12.686 -2.07 -12.686 -1.101 QT
-12.686 0.18 -12.929 1.305 QT
-13.171 2.43 -13.866 3.219 QT
-14.561 4.008 -15.843 4.008 QT
cp
-15.843 3.617 M
-15.015 3.617 -14.6 2.766 QT
-14.186 1.914 -14.093 0.867 QT
-13.999 -0.179 -13.999 -1.351 QT
-13.999 -2.476 -14.093 -3.429 QT
-14.186 -4.383 -14.593 -5.156 QT
-14.999 -5.929 -15.843 -5.929 QT
-16.686 -5.929 -17.1 -5.148 QT
-17.515 -4.367 -17.608 -3.422 QT
-17.702 -2.476 -17.702 -1.351 QT
-17.702 -0.508 -17.663 0.235 QT
-17.624 0.977 -17.444 1.758 QT
-17.265 2.539 -16.874 3.078 QT
-16.483 3.617 -15.843 3.617 QT
cp
f
GR
GS
[0.7812 0 0 0.7812 39.3552 124.56705] CT
0.149 GC
N
-10.66 2.852 M
-10.66 2.508 -10.41 2.274 QT
-10.16 2.039 -9.832 2.039 QT
-9.629 2.039 -9.434 2.149 QT
-9.238 2.258 -9.129 2.453 QT
-9.02 2.649 -9.02 2.852 QT
-9.02 3.18 -9.262 3.43 QT
-9.504 3.68 -9.832 3.68 QT
-10.16 3.68 -10.41 3.43 QT
-10.66 3.18 -10.66 2.852 QT
cp
f
GR
GS
[0.7812 0 0 0.7812 39.3552 124.56705] CT
0.149 GC
N
-6.37 1.977 M
-6.214 2.414 -5.893 2.774 QT
-5.573 3.133 -5.135 3.336 QT
-4.698 3.539 -4.229 3.539 QT
-3.151 3.539 -2.737 2.696 QT
-2.323 1.852 -2.323 0.649 QT
-2.323 0.133 -2.346 -0.226 QT
-2.37 -0.586 -2.448 -0.914 QT
-2.589 -1.445 -2.932 -1.836 QT
-3.276 -2.226 -3.792 -2.226 QT
-4.292 -2.226 -4.651 -2.078 QT
-5.01 -1.929 -5.237 -1.718 QT
-5.464 -1.508 -5.643 -1.281 QT
-5.823 -1.054 -5.87 -1.039 QT
-6.026 -1.039 L
-6.073 -1.039 -6.128 -1.086 QT
-6.182 -1.133 -6.182 -1.179 QT
-6.182 -6.195 L
-6.182 -6.226 -6.135 -6.265 QT
-6.089 -6.304 -6.026 -6.304 QT
-5.995 -6.304 L
-4.979 -5.82 -3.839 -5.82 QT
-2.729 -5.82 -1.698 -6.304 QT
-1.651 -6.304 L
-1.604 -6.304 -1.557 -6.273 QT
-1.51 -6.242 -1.51 -6.195 QT
-1.51 -6.054 L
-1.51 -5.976 -1.542 -5.976 QT
-2.057 -5.304 -2.831 -4.922 QT
-3.604 -4.539 -4.432 -4.539 QT
-5.026 -4.539 -5.667 -4.711 QT
-5.667 -1.867 L
-5.167 -2.273 -4.776 -2.445 QT
-4.385 -2.617 -3.776 -2.617 QT
-2.948 -2.617 -2.292 -2.14 QT
-1.635 -1.664 -1.284 -0.898 QT
-0.932 -0.133 -0.932 0.664 QT
-0.932 1.571 -1.37 2.336 QT
-1.807 3.102 -2.573 3.555 QT
-3.339 4.008 -4.229 4.008 QT
-4.964 4.008 -5.589 3.625 QT
-6.214 3.242 -6.565 2.602 QT
-6.917 1.961 -6.917 1.227 QT
-6.917 0.899 -6.698 0.688 QT
-6.479 0.477 -6.151 0.477 QT
-5.823 0.477 -5.596 0.688 QT
-5.37 0.899 -5.37 1.227 QT
-5.37 1.555 -5.596 1.782 QT
-5.823 2.008 -6.151 2.008 QT
-6.198 2.008 -6.268 1.992 QT
-6.339 1.977 -6.37 1.977 QT
cp
f
GR
GS
[0.7812 0 0 0.7812 39.3552 87.85058] CT
0.149 GC
N
-3.917 4.008 M
-5.76 4.008 -6.417 2.492 QT
-7.073 0.977 -7.073 -1.101 QT
-7.073 -2.414 -6.839 -3.562 QT
-6.604 -4.711 -5.901 -5.508 QT
-5.198 -6.304 -3.917 -6.304 QT
-2.932 -6.304 -2.3 -5.828 QT
-1.667 -5.351 -1.339 -4.586 QT
-1.01 -3.82 -0.885 -2.945 QT
-0.76 -2.07 -0.76 -1.101 QT
-0.76 0.18 -1.003 1.305 QT
-1.245 2.43 -1.94 3.219 QT
-2.635 4.008 -3.917 4.008 QT
cp
-3.917 3.617 M
-3.089 3.617 -2.675 2.766 QT
-2.26 1.914 -2.167 0.867 QT
-2.073 -0.179 -2.073 -1.351 QT
-2.073 -2.476 -2.167 -3.429 QT
-2.26 -4.383 -2.667 -5.156 QT
-3.073 -5.929 -3.917 -5.929 QT
-4.76 -5.929 -5.175 -5.148 QT
-5.589 -4.367 -5.682 -3.422 QT
-5.776 -2.476 -5.776 -1.351 QT
-5.776 -0.508 -5.737 0.235 QT
-5.698 0.977 -5.518 1.758 QT
-5.339 2.539 -4.948 3.078 QT
-4.557 3.617 -3.917 3.617 QT
cp
f
GR
GS
[0.7812 0 0 0.7812 39.3552 51.1341] CT
0.149 GC
N
/f-1716017318{-15.843 4.008 M
-17.686 4.008 -18.343 2.492 QT
-18.999 0.977 -18.999 -1.101 QT
-18.999 -2.414 -18.765 -3.562 QT
-18.53 -4.711 -17.827 -5.508 QT
-17.124 -6.304 -15.843 -6.304 QT
-14.858 -6.304 -14.225 -5.828 QT
-13.593 -5.351 -13.265 -4.586 QT
-12.936 -3.82 -12.811 -2.945 QT
-12.686 -2.07 -12.686 -1.101 QT
-12.686 0.18 -12.929 1.305 QT
-13.171 2.43 -13.866 3.219 QT
-14.561 4.008 -15.843 4.008 QT
cp
-15.843 3.617 M
-15.015 3.617 -14.6 2.766 QT
-14.186 1.914 -14.093 0.867 QT
-13.999 -0.179 -13.999 -1.351 QT
-13.999 -2.476 -14.093 -3.429 QT
-14.186 -4.383 -14.593 -5.156 QT
-14.999 -5.929 -15.843 -5.929 QT
-16.686 -5.929 -17.1 -5.148 QT
-17.515 -4.367 -17.608 -3.422 QT
-17.702 -2.476 -17.702 -1.351 QT
-17.702 -0.508 -17.663 0.235 QT
-17.624 0.977 -17.444 1.758 QT
-17.265 2.539 -16.874 3.078 QT
-16.483 3.617 -15.843 3.617 QT
cp}def
f-1716017318
f
GR
GS
[0.7812 0 0 0.7812 39.3552 51.1341] CT
0.149 GC
N
/f-606985051{-10.66 2.852 M
-10.66 2.508 -10.41 2.274 QT
-10.16 2.039 -9.832 2.039 QT
-9.629 2.039 -9.434 2.149 QT
-9.238 2.258 -9.129 2.453 QT
-9.02 2.649 -9.02 2.852 QT
-9.02 3.18 -9.262 3.43 QT
-9.504 3.68 -9.832 3.68 QT
-10.16 3.68 -10.41 3.43 QT
-10.66 3.18 -10.66 2.852 QT
cp}def
f-606985051
f
GR
GS
[0.7812 0 0 0.7812 39.3552 51.1341] CT
0.149 GC
N
/f-321985110{-6.37 1.977 M
-6.214 2.414 -5.893 2.774 QT
-5.573 3.133 -5.135 3.336 QT
-4.698 3.539 -4.229 3.539 QT
-3.151 3.539 -2.737 2.696 QT
-2.323 1.852 -2.323 0.649 QT
-2.323 0.133 -2.346 -0.226 QT
-2.37 -0.586 -2.448 -0.914 QT
-2.589 -1.445 -2.932 -1.836 QT
-3.276 -2.226 -3.792 -2.226 QT
-4.292 -2.226 -4.651 -2.078 QT
-5.01 -1.929 -5.237 -1.718 QT
-5.464 -1.508 -5.643 -1.281 QT
-5.823 -1.054 -5.87 -1.039 QT
-6.026 -1.039 L
-6.073 -1.039 -6.128 -1.086 QT
-6.182 -1.133 -6.182 -1.179 QT
-6.182 -6.195 L
-6.182 -6.226 -6.135 -6.265 QT
-6.089 -6.304 -6.026 -6.304 QT
-5.995 -6.304 L
-4.979 -5.82 -3.839 -5.82 QT
-2.729 -5.82 -1.698 -6.304 QT
-1.651 -6.304 L
-1.604 -6.304 -1.557 -6.273 QT
-1.51 -6.242 -1.51 -6.195 QT
-1.51 -6.054 L
-1.51 -5.976 -1.542 -5.976 QT
-2.057 -5.304 -2.831 -4.922 QT
-3.604 -4.539 -4.432 -4.539 QT
-5.026 -4.539 -5.667 -4.711 QT
-5.667 -1.867 L
-5.167 -2.273 -4.776 -2.445 QT
-4.385 -2.617 -3.776 -2.617 QT
-2.948 -2.617 -2.292 -2.14 QT
-1.635 -1.664 -1.284 -0.898 QT
-0.932 -0.133 -0.932 0.664 QT
-0.932 1.571 -1.37 2.336 QT
-1.807 3.102 -2.573 3.555 QT
-3.339 4.008 -4.229 4.008 QT
-4.964 4.008 -5.589 3.625 QT
-6.214 3.242 -6.565 2.602 QT
-6.917 1.961 -6.917 1.227 QT
-6.917 0.899 -6.698 0.688 QT
-6.479 0.477 -6.151 0.477 QT
-5.823 0.477 -5.596 0.688 QT
-5.37 0.899 -5.37 1.227 QT
-5.37 1.555 -5.596 1.782 QT
-5.823 2.008 -6.151 2.008 QT
-6.198 2.008 -6.268 1.992 QT
-6.339 1.977 -6.37 1.977 QT
cp}def
f-321985110
f
GR
GS
[0.7812 0 0 0.7812 39.3552 14.41763] CT
0.149 GC
N
/f-921695313{-6.276 3.68 M
-6.276 3.149 L
-4.401 3.149 -4.401 2.68 QT
-4.401 -5.195 L
-5.182 -4.82 -6.37 -4.82 QT
-6.37 -5.351 L
-4.526 -5.351 -3.589 -6.304 QT
-3.37 -6.304 L
-3.323 -6.304 -3.276 -6.265 QT
-3.229 -6.226 -3.229 -6.179 QT
-3.229 2.68 L
-3.229 3.149 -1.354 3.149 QT
-1.354 3.68 L
-6.276 3.68 L
cp}def
f-921695313
f
GR
GS
[0 -0.7812 0.7812 0 16.76979 87.85051] CT
0.149 GC
N
/f659928275{-3.191 -3.862 M
-2.816 -3.221 -1.878 -3.221 QT
-1.019 -3.221 -0.394 -3.815 QT
0.231 -4.409 0.614 -5.26 QT
0.997 -6.112 1.2 -6.987 QT
0.403 -6.237 -0.534 -6.237 QT
-1.237 -6.237 -1.737 -6.487 QT
-2.237 -6.737 -2.519 -7.221 QT
-2.8 -7.706 -2.8 -8.393 QT
-2.8 -8.987 -2.644 -9.604 QT
-2.487 -10.221 -2.198 -10.987 QT
-1.909 -11.753 -1.706 -12.315 QT
-1.456 -12.971 -1.456 -13.393 QT
-1.456 -13.924 -1.862 -13.924 QT
-2.566 -13.924 -3.027 -13.19 QT
-3.487 -12.456 -3.706 -11.549 QT
-3.753 -11.44 -3.862 -11.44 QT
-4.066 -11.44 L
-4.222 -11.44 -4.222 -11.612 QT
-4.222 -11.659 L
-3.925 -12.737 -3.331 -13.565 QT
-2.737 -14.393 -1.816 -14.393 QT
-1.175 -14.393 -0.737 -13.971 QT
-0.3 -13.549 -0.3 -12.893 QT
-0.3 -12.565 -0.441 -12.19 QT
-0.519 -11.971 -0.8 -11.237 QT
-1.081 -10.503 -1.23 -10.018 QT
-1.378 -9.534 -1.48 -9.065 QT
-1.581 -8.596 -1.581 -8.143 QT
-1.581 -7.534 -1.323 -7.12 QT
-1.066 -6.706 -0.519 -6.706 QT
0.606 -6.706 1.497 -8.081 QT
2.856 -13.628 L
2.919 -13.862 3.138 -14.034 QT
3.356 -14.206 3.606 -14.206 QT
3.825 -14.206 3.989 -14.065 QT
4.153 -13.924 4.153 -13.69 QT
4.153 -13.581 4.138 -13.549 QT
2.356 -6.393 L
2.122 -5.471 1.489 -4.628 QT
0.856 -3.784 -0.042 -3.268 QT
-0.941 -2.753 -1.909 -2.753 QT
-2.362 -2.753 -2.823 -2.932 QT
-3.284 -3.112 -3.566 -3.471 QT
-3.847 -3.831 -3.847 -4.315 QT
-3.847 -4.799 -3.558 -5.159 QT
-3.269 -5.518 -2.784 -5.518 QT
-2.487 -5.518 -2.292 -5.339 QT
-2.097 -5.159 -2.097 -4.878 QT
-2.097 -4.456 -2.402 -4.151 QT
-2.706 -3.846 -3.128 -3.846 QT
-3.144 -3.862 -3.159 -3.862 QT
-3.175 -3.862 -3.191 -3.862 QT
cp}def
f659928275
f
GR
GS
[0.7812 0 0 0.7812 0 -0.4252] CT
1 LJ
3.194 LW
N
68.67 207 M
71.638 197.6 L
80.022 188.2 L
92.369 178.8 L
106.602 169.4 L
120.459 160 L
131.964 150.6 L
139.831 141.2 L
143.717 131.8 L
144.262 122.4 L
142.911 113 L
141.565 103.6 L
142.122 94.2 L
146.028 84.8 L
153.92 75.4 L
165.452 66 L
179.337 56.6 L
193.595 47.2 L
205.961 37.8 L
214.357 28.4 L
217.33 19 L
S
GR
GS
[0.7812 0 0 0.7812 0 -0.4252] CT
0.251 0.251 1 RC
[8 8] 0 setdash
2 LJ
2.044 LW
N
86.694 207 M
89.686 197.6 L
98.087 188.2 L
110.296 178.8 L
124.032 169.4 L
136.816 160 L
146.503 150.6 L
151.735 141.2 L
152.213 131.8 L
148.746 122.4 L
143.05 113 L
137.352 103.6 L
133.878 94.2 L
134.345 84.8 L
139.562 75.4 L
149.235 66 L
162.003 56.6 L
175.724 47.2 L
187.923 37.8 L
196.317 28.4 L
199.306 19 L
S
GR
GS
[0.7812 0 0 0.7812 0 -0.4252] CT
1 0 0 RC
[10 6] 0 setdash
2 LJ
1.406 LW
N
82.68 207 M
85.653 197.6 L
94.012 188.2 L
106.2 178.8 L
119.994 169.4 L
132.979 160 L
143.061 150.6 L
148.904 141.2 L
150.2 131.8 L
147.712 122.4 L
143.083 113 L
138.451 103.6 L
135.951 94.2 L
137.228 84.8 L
143.048 75.4 L
153.104 66 L
166.064 56.6 L
179.835 47.2 L
192.004 37.8 L
200.351 28.4 L
203.32 19 L
S
GR
GS
[0.7812 0 0 0.7812 0 -0.4252] CT
0.251 0.251 1 RC
1 LJ
2.044 LW
N
69.831 207 M
72.8 197.6 L
81.182 188.2 L
93.518 178.8 L
107.72 169.4 L
121.515 160 L
132.915 150.6 L
140.632 141.2 L
144.324 131.8 L
144.638 122.4 L
143.034 113 L
141.429 103.6 L
141.738 94.2 L
145.422 84.8 L
153.13 75.4 L
164.519 66 L
178.303 56.6 L
192.496 47.2 L
204.824 37.8 L
213.202 28.4 L
216.169 19 L
S
GR
GS
[0.7812 0 0 0.7812 0 -0.4252] CT
1 0 0 RC
1 LJ
1.406 LW
N
74.544 207 M
77.508 197.6 L
85.863 188.2 L
98.117 178.8 L
112.135 169.4 L
125.596 160 L
136.479 150.6 L
143.481 141.2 L
146.274 131.8 L
145.552 122.4 L
142.841 113 L
140.138 103.6 L
139.438 94.2 L
142.267 84.8 L
149.313 75.4 L
160.245 66 L
173.755 56.6 L
187.818 47.2 L
200.107 37.8 L
208.485 28.4 L
211.456 19 L
S
GR
GS
[0.7812 0 0 0.7812 0 -0.4252] CT
1 LJ
3.194 LW
N
68.67 207 M
71.638 197.6 L
80.022 188.2 L
92.369 178.8 L
106.602 169.4 L
120.459 160 L
131.964 150.6 L
139.831 141.2 L
143.717 131.8 L
144.262 122.4 L
142.911 113 L
141.565 103.6 L
142.122 94.2 L
146.028 84.8 L
153.92 75.4 L
165.452 66 L
179.337 56.6 L
193.595 47.2 L
205.961 37.8 L
214.357 28.4 L
217.33 19 L
S
GR
GS
[0.7812 0 0 0.7812 0 -0.4252] CT
0.251 0.251 1 RC
[8 8] 0 setdash
2 LJ
2.044 LW
N
86.694 207 M
89.686 197.6 L
98.087 188.2 L
110.296 178.8 L
124.032 169.4 L
136.816 160 L
146.503 150.6 L
151.735 141.2 L
152.213 131.8 L
148.746 122.4 L
143.05 113 L
137.352 103.6 L
133.878 94.2 L
134.345 84.8 L
139.562 75.4 L
149.235 66 L
162.003 56.6 L
175.724 47.2 L
187.923 37.8 L
196.317 28.4 L
199.306 19 L
S
GR
GS
[0.7812 0 0 0.7812 0 -0.4252] CT
1 0 0 RC
[10 6] 0 setdash
2 LJ
1.406 LW
N
82.68 207 M
85.653 197.6 L
94.012 188.2 L
106.2 178.8 L
119.994 169.4 L
132.979 160 L
143.061 150.6 L
148.904 141.2 L
150.2 131.8 L
147.712 122.4 L
143.083 113 L
138.451 103.6 L
135.951 94.2 L
137.228 84.8 L
143.048 75.4 L
153.104 66 L
166.064 56.6 L
179.835 47.2 L
192.004 37.8 L
200.351 28.4 L
203.32 19 L
S
GR
GS
[0.7812 0 0 0.7812 0 -0.4252] CT
0.251 0.251 1 RC
1 LJ
2.044 LW
N
69.831 207 M
72.8 197.6 L
81.182 188.2 L
93.518 178.8 L
107.72 169.4 L
121.515 160 L
132.915 150.6 L
140.632 141.2 L
144.324 131.8 L
144.638 122.4 L
143.034 113 L
141.429 103.6 L
141.738 94.2 L
145.422 84.8 L
153.13 75.4 L
164.519 66 L
178.303 56.6 L
192.496 47.2 L
204.824 37.8 L
213.202 28.4 L
216.169 19 L
S
GR
GS
[0.7812 0 0 0.7812 0 -0.4252] CT
1 0 0 RC
1 LJ
1.406 LW
N
74.544 207 M
77.508 197.6 L
85.863 188.2 L
98.117 178.8 L
112.135 169.4 L
125.596 160 L
136.479 150.6 L
143.481 141.2 L
146.274 131.8 L
145.552 122.4 L
142.841 113 L
140.138 103.6 L
139.438 94.2 L
142.267 84.8 L
149.313 75.4 L
160.245 66 L
173.755 56.6 L
187.818 47.2 L
200.107 37.8 L
208.485 28.4 L
211.456 19 L
S
GR
%%Trailer
%%Pages: 1
%%EOF
