%!PS-Adobe-3.0 EPSF-3.0
%%Creator: (MATLAB, The Mathworks, Inc. Version 9.10.0.1684407 \(R2021a\) Update 3. Operating System: Linux)
%%Title: /home/adoan/Code/PRoSA_PI-ESN_Git/pi-esn/Results/MFE_results/Figures/FIG5B.eps
%%CreationDate: 2021-07-21T18:53:24
%%Pages: (atend)
%%BoundingBox:     0     0   198   198
%%LanguageLevel: 3
%%EndComments
%%BeginProlog
%%BeginResource: procset (Apache XML Graphics Std ProcSet) 1.2 0
%%Version: 1.2 0
%%Copyright: (Copyright 2001-2003,2010 The Apache Software Foundation. License terms: http://www.apache.org/licenses/LICENSE-2.0)
/bd{bind def}bind def
/ld{load def}bd
/GR/grestore ld
/GS/gsave ld
/RM/rmoveto ld
/C/curveto ld
/t/show ld
/L/lineto ld
/ML/setmiterlimit ld
/CT/concat ld
/f/fill ld
/N/newpath ld
/S/stroke ld
/CC/setcmykcolor ld
/A/ashow ld
/cp/closepath ld
/RC/setrgbcolor ld
/LJ/setlinejoin ld
/GC/setgray ld
/LW/setlinewidth ld
/M/moveto ld
/re {4 2 roll M
1 index 0 rlineto
0 exch rlineto
neg 0 rlineto
cp } bd
/_ctm matrix def
/_tm matrix def
/BT { _ctm currentmatrix pop matrix _tm copy pop 0 0 moveto } bd
/ET { _ctm setmatrix } bd
/iTm { _ctm setmatrix _tm concat } bd
/Tm { _tm astore pop iTm 0 0 moveto } bd
/ux 0.0 def
/uy 0.0 def
/F {
  /Tp exch def
  /Tf exch def
  Tf findfont Tp scalefont setfont
  /cf Tf def  /cs Tp def
} bd
/ULS {currentpoint /uy exch def /ux exch def} bd
/ULE {
  /Tcx currentpoint pop def
  gsave
  newpath
  cf findfont cs scalefont dup
  /FontMatrix get 0 get /Ts exch def /FontInfo get dup
  /UnderlinePosition get Ts mul /To exch def
  /UnderlineThickness get Ts mul /Tt exch def
  ux uy To add moveto  Tcx uy To add lineto
  Tt setlinewidth stroke
  grestore
} bd
/OLE {
  /Tcx currentpoint pop def
  gsave
  newpath
  cf findfont cs scalefont dup
  /FontMatrix get 0 get /Ts exch def /FontInfo get dup
  /UnderlinePosition get Ts mul /To exch def
  /UnderlineThickness get Ts mul /Tt exch def
  ux uy To add cs add moveto Tcx uy To add cs add lineto
  Tt setlinewidth stroke
  grestore
} bd
/SOE {
  /Tcx currentpoint pop def
  gsave
  newpath
  cf findfont cs scalefont dup
  /FontMatrix get 0 get /Ts exch def /FontInfo get dup
  /UnderlinePosition get Ts mul /To exch def
  /UnderlineThickness get Ts mul /Tt exch def
  ux uy To add cs 10 mul 26 idiv add moveto Tcx uy To add cs 10 mul 26 idiv add lineto
  Tt setlinewidth stroke
  grestore
} bd
/QT {
/Y22 exch store
/X22 exch store
/Y21 exch store
/X21 exch store
currentpoint
/Y21 load 2 mul add 3 div exch
/X21 load 2 mul add 3 div exch
/X21 load 2 mul /X22 load add 3 div
/Y21 load 2 mul /Y22 load add 3 div
/X22 load /Y22 load curveto
} bd
/SSPD {
dup length /d exch dict def
{
/v exch def
/k exch def
currentpagedevice k known {
/cpdv currentpagedevice k get def
v cpdv ne {
/upd false def
/nullv v type /nulltype eq def
/nullcpdv cpdv type /nulltype eq def
nullv nullcpdv or
{
/upd true def
} {
/sametype v type cpdv type eq def
sametype {
v type /arraytype eq {
/vlen v length def
/cpdvlen cpdv length def
vlen cpdvlen eq {
0 1 vlen 1 sub {
/i exch def
/obj v i get def
/cpdobj cpdv i get def
obj cpdobj ne {
/upd true def
exit
} if
} for
} {
/upd true def
} ifelse
} {
v type /dicttype eq {
v {
/dv exch def
/dk exch def
/cpddv cpdv dk get def
dv cpddv ne {
/upd true def
exit
} if
} forall
} {
/upd true def
} ifelse
} ifelse
} if
} ifelse
upd true eq {
d k v put
} if
} if
} if
} forall
d length 0 gt {
d setpagedevice
} if
} bd
/RE { % /NewFontName [NewEncodingArray] /FontName RE -
  findfont dup length dict begin
  {
    1 index /FID ne
    {def} {pop pop} ifelse
  } forall
  /Encoding exch def
  /FontName 1 index def
  currentdict definefont pop
  end
} bind def
%%EndResource
%%BeginResource: procset (Apache XML Graphics EPS ProcSet) 1.0 0
%%Version: 1.0 0
%%Copyright: (Copyright 2002-2003 The Apache Software Foundation. License terms: http://www.apache.org/licenses/LICENSE-2.0)
/BeginEPSF { %def
/b4_Inc_state save def         % Save state for cleanup
/dict_count countdictstack def % Count objects on dict stack
/op_count count 1 sub def      % Count objects on operand stack
userdict begin                 % Push userdict on dict stack
/showpage { } def              % Redefine showpage, { } = null proc
0 setgray 0 setlinecap         % Prepare graphics state
1 setlinewidth 0 setlinejoin
10 setmiterlimit [ ] 0 setdash newpath
/languagelevel where           % If level not equal to 1 then
{pop languagelevel             % set strokeadjust and
1 ne                           % overprint to their defaults.
{false setstrokeadjust false setoverprint
} if
} if
} bd
/EndEPSF { %def
count op_count sub {pop} repeat            % Clean up stacks
countdictstack dict_count sub {end} repeat
b4_Inc_state restore
} bd
%%EndResource
%FOPBeginFontDict
%%IncludeResource: font Courier-Oblique
%%IncludeResource: font Courier-BoldOblique
%%IncludeResource: font Courier-Bold
%%IncludeResource: font ZapfDingbats
%%IncludeResource: font Symbol
%%IncludeResource: font Helvetica
%%IncludeResource: font Helvetica-Oblique
%%IncludeResource: font Helvetica-Bold
%%IncludeResource: font Helvetica-BoldOblique
%%IncludeResource: font Times-Roman
%%IncludeResource: font Times-Italic
%%IncludeResource: font Times-Bold
%%IncludeResource: font Times-BoldItalic
%%IncludeResource: font Courier
%FOPEndFontDict
%%BeginResource: encoding WinAnsiEncoding
/WinAnsiEncoding [
/.notdef /.notdef /.notdef /.notdef /.notdef
/.notdef /.notdef /.notdef /.notdef /.notdef
/.notdef /.notdef /.notdef /.notdef /.notdef
/.notdef /.notdef /.notdef /.notdef /.notdef
/.notdef /.notdef /.notdef /.notdef /.notdef
/.notdef /.notdef /.notdef /.notdef /.notdef
/.notdef /.notdef /space /exclam /quotedbl
/numbersign /dollar /percent /ampersand /quotesingle
/parenleft /parenright /asterisk /plus /comma
/hyphen /period /slash /zero /one
/two /three /four /five /six
/seven /eight /nine /colon /semicolon
/less /equal /greater /question /at
/A /B /C /D /E
/F /G /H /I /J
/K /L /M /N /O
/P /Q /R /S /T
/U /V /W /X /Y
/Z /bracketleft /backslash /bracketright /asciicircum
/underscore /quoteleft /a /b /c
/d /e /f /g /h
/i /j /k /l /m
/n /o /p /q /r
/s /t /u /v /w
/x /y /z /braceleft /bar
/braceright /asciitilde /bullet /Euro /bullet
/quotesinglbase /florin /quotedblbase /ellipsis /dagger
/daggerdbl /circumflex /perthousand /Scaron /guilsinglleft
/OE /bullet /Zcaron /bullet /bullet
/quoteleft /quoteright /quotedblleft /quotedblright /bullet
/endash /emdash /asciitilde /trademark /scaron
/guilsinglright /oe /bullet /zcaron /Ydieresis
/space /exclamdown /cent /sterling /currency
/yen /brokenbar /section /dieresis /copyright
/ordfeminine /guillemotleft /logicalnot /sfthyphen /registered
/macron /degree /plusminus /twosuperior /threesuperior
/acute /mu /paragraph /middot /cedilla
/onesuperior /ordmasculine /guillemotright /onequarter /onehalf
/threequarters /questiondown /Agrave /Aacute /Acircumflex
/Atilde /Adieresis /Aring /AE /Ccedilla
/Egrave /Eacute /Ecircumflex /Edieresis /Igrave
/Iacute /Icircumflex /Idieresis /Eth /Ntilde
/Ograve /Oacute /Ocircumflex /Otilde /Odieresis
/multiply /Oslash /Ugrave /Uacute /Ucircumflex
/Udieresis /Yacute /Thorn /germandbls /agrave
/aacute /acircumflex /atilde /adieresis /aring
/ae /ccedilla /egrave /eacute /ecircumflex
/edieresis /igrave /iacute /icircumflex /idieresis
/eth /ntilde /ograve /oacute /ocircumflex
/otilde /odieresis /divide /oslash /ugrave
/uacute /ucircumflex /udieresis /yacute /thorn
/ydieresis
] def
%%EndResource
%FOPBeginFontReencode
/Courier-Oblique findfont
dup length dict begin
  {1 index /FID ne {def} {pop pop} ifelse} forall
  /Encoding WinAnsiEncoding def
  currentdict
end
/Courier-Oblique exch definefont pop
/Courier-BoldOblique findfont
dup length dict begin
  {1 index /FID ne {def} {pop pop} ifelse} forall
  /Encoding WinAnsiEncoding def
  currentdict
end
/Courier-BoldOblique exch definefont pop
/Courier-Bold findfont
dup length dict begin
  {1 index /FID ne {def} {pop pop} ifelse} forall
  /Encoding WinAnsiEncoding def
  currentdict
end
/Courier-Bold exch definefont pop
/Helvetica findfont
dup length dict begin
  {1 index /FID ne {def} {pop pop} ifelse} forall
  /Encoding WinAnsiEncoding def
  currentdict
end
/Helvetica exch definefont pop
/Helvetica-Oblique findfont
dup length dict begin
  {1 index /FID ne {def} {pop pop} ifelse} forall
  /Encoding WinAnsiEncoding def
  currentdict
end
/Helvetica-Oblique exch definefont pop
/Helvetica-Bold findfont
dup length dict begin
  {1 index /FID ne {def} {pop pop} ifelse} forall
  /Encoding WinAnsiEncoding def
  currentdict
end
/Helvetica-Bold exch definefont pop
/Helvetica-BoldOblique findfont
dup length dict begin
  {1 index /FID ne {def} {pop pop} ifelse} forall
  /Encoding WinAnsiEncoding def
  currentdict
end
/Helvetica-BoldOblique exch definefont pop
/Times-Roman findfont
dup length dict begin
  {1 index /FID ne {def} {pop pop} ifelse} forall
  /Encoding WinAnsiEncoding def
  currentdict
end
/Times-Roman exch definefont pop
/Times-Italic findfont
dup length dict begin
  {1 index /FID ne {def} {pop pop} ifelse} forall
  /Encoding WinAnsiEncoding def
  currentdict
end
/Times-Italic exch definefont pop
/Times-Bold findfont
dup length dict begin
  {1 index /FID ne {def} {pop pop} ifelse} forall
  /Encoding WinAnsiEncoding def
  currentdict
end
/Times-Bold exch definefont pop
/Times-BoldItalic findfont
dup length dict begin
  {1 index /FID ne {def} {pop pop} ifelse} forall
  /Encoding WinAnsiEncoding def
  currentdict
end
/Times-BoldItalic exch definefont pop
/Courier findfont
dup length dict begin
  {1 index /FID ne {def} {pop pop} ifelse} forall
  /Encoding WinAnsiEncoding def
  currentdict
end
/Courier exch definefont pop
%FOPEndFontReencode
%%EndProlog
%%Page: 1 1
%%PageBoundingBox: 0 0 198 198
%%BeginPageSetup
[1 0 0 -1 0 198] CT
%%EndPageSetup
GS
[0.7812 0 0 0.7812 0 -0.4252] CT
1 GC
N
0 0 254 254 re
f
GR
GS
[0.7812 0 0 0.7812 0 -0.4252] CT
1 GC
N
0 0 254 254 re
f
GR
GS
[0.7812 0 0 0.7812 0 -0.4252] CT
1 GC
N
56 206 M
230 206 L
230 19 L
56 19 L
cp
f
GR
GS
[0.7812 0 0 0.7812 0 -0.4252] CT
0.149 GC
2 setlinecap
1 LJ
0.639 LW
N
56 206 M
230 206 L
S
GR
GS
[0.7812 0 0 0.7812 0 -0.4252] CT
0.149 GC
2 setlinecap
1 LJ
0.639 LW
N
56 19 M
230 19 L
S
GR
GS
[0.7812 0 0 0.7812 0 -0.4252] CT
0.149 GC
2 setlinecap
1 LJ
0.639 LW
N
56 206 M
56 204.136 L
S
GR
GS
[0.7812 0 0 0.7812 0 -0.4252] CT
0.149 GC
2 setlinecap
1 LJ
0.639 LW
N
135.091 206 M
135.091 204.136 L
S
GR
GS
[0.7812 0 0 0.7812 0 -0.4252] CT
0.149 GC
2 setlinecap
1 LJ
0.639 LW
N
214.182 206 M
214.182 204.136 L
S
GR
GS
[0.7812 0 0 0.7812 0 -0.4252] CT
0.149 GC
2 setlinecap
1 LJ
0.639 LW
N
56 19 M
56 20.864 L
S
GR
GS
[0.7812 0 0 0.7812 0 -0.4252] CT
0.149 GC
2 setlinecap
1 LJ
0.639 LW
N
135.091 19 M
135.091 20.864 L
S
GR
GS
[0.7812 0 0 0.7812 0 -0.4252] CT
0.149 GC
2 setlinecap
1 LJ
0.639 LW
N
214.182 19 M
214.182 20.864 L
S
GR
GS
[0.7812 0 0 0.7812 43.74729 164.89441] CT
0.149 GC
N
-0.083 13.208 M
-1.927 13.208 -2.583 11.692 QT
-3.24 10.177 -3.24 8.099 QT
-3.24 6.786 -3.005 5.638 QT
-2.771 4.489 -2.068 3.692 QT
-1.365 2.896 -0.083 2.896 QT
0.901 2.896 1.534 3.372 QT
2.167 3.849 2.495 4.614 QT
2.823 5.38 2.948 6.255 QT
3.073 7.13 3.073 8.099 QT
3.073 9.38 2.831 10.505 QT
2.589 11.63 1.893 12.419 QT
1.198 13.208 -0.083 13.208 QT
cp
-0.083 12.817 M
0.745 12.817 1.159 11.966 QT
1.573 11.114 1.667 10.067 QT
1.76 9.021 1.76 7.849 QT
1.76 6.724 1.667 5.771 QT
1.573 4.817 1.167 4.044 QT
0.76 3.271 -0.083 3.271 QT
-0.927 3.271 -1.341 4.052 QT
-1.755 4.833 -1.849 5.778 QT
-1.943 6.724 -1.943 7.849 QT
-1.943 8.692 -1.904 9.435 QT
-1.865 10.177 -1.685 10.958 QT
-1.505 11.739 -1.115 12.278 QT
-0.724 12.817 -0.083 12.817 QT
cp
f
GR
GS
[0.7812 0 0 0.7812 105.53323 164.89441] CT
0.149 GC
N
-6.046 13.208 M
-7.89 13.208 -8.546 11.692 QT
-9.203 10.177 -9.203 8.099 QT
-9.203 6.786 -8.968 5.638 QT
-8.734 4.489 -8.031 3.692 QT
-7.328 2.896 -6.046 2.896 QT
-5.062 2.896 -4.429 3.372 QT
-3.796 3.849 -3.468 4.614 QT
-3.14 5.38 -3.015 6.255 QT
-2.89 7.13 -2.89 8.099 QT
-2.89 9.38 -3.132 10.505 QT
-3.374 11.63 -4.07 12.419 QT
-4.765 13.208 -6.046 13.208 QT
cp
-6.046 12.817 M
-5.218 12.817 -4.804 11.966 QT
-4.39 11.114 -4.296 10.067 QT
-4.203 9.021 -4.203 7.849 QT
-4.203 6.724 -4.296 5.771 QT
-4.39 4.817 -4.796 4.044 QT
-5.203 3.271 -6.046 3.271 QT
-6.89 3.271 -7.304 4.052 QT
-7.718 4.833 -7.812 5.778 QT
-7.906 6.724 -7.906 7.849 QT
-7.906 8.692 -7.867 9.435 QT
-7.828 10.177 -7.648 10.958 QT
-7.468 11.739 -7.078 12.278 QT
-6.687 12.817 -6.046 12.817 QT
cp
f
GR
GS
[0.7812 0 0 0.7812 105.53323 164.89441] CT
0.149 GC
N
-0.864 12.052 M
-0.864 11.708 -0.614 11.474 QT
-0.364 11.239 -0.036 11.239 QT
0.167 11.239 0.363 11.349 QT
0.558 11.458 0.667 11.653 QT
0.777 11.849 0.777 12.052 QT
0.777 12.38 0.534 12.63 QT
0.292 12.88 -0.036 12.88 QT
-0.364 12.88 -0.614 12.63 QT
-0.864 12.38 -0.864 12.052 QT
cp
f
GR
GS
[0.7812 0 0 0.7812 105.53323 164.89441] CT
0.149 GC
N
3.52 12.88 M
3.52 12.349 L
5.395 12.349 5.395 11.88 QT
5.395 4.005 L
4.614 4.38 3.427 4.38 QT
3.427 3.849 L
5.27 3.849 6.208 2.896 QT
6.427 2.896 L
6.473 2.896 6.52 2.935 QT
6.567 2.974 6.567 3.021 QT
6.567 11.88 L
6.567 12.349 8.442 12.349 QT
8.442 12.88 L
3.52 12.88 L
cp
f
GR
GS
[0.7812 0 0 0.7812 167.31918 164.89441] CT
0.149 GC
N
/f-1594609805{-6.046 13.208 M
-7.89 13.208 -8.546 11.692 QT
-9.203 10.177 -9.203 8.099 QT
-9.203 6.786 -8.968 5.638 QT
-8.734 4.489 -8.031 3.692 QT
-7.328 2.896 -6.046 2.896 QT
-5.062 2.896 -4.429 3.372 QT
-3.796 3.849 -3.468 4.614 QT
-3.14 5.38 -3.015 6.255 QT
-2.89 7.13 -2.89 8.099 QT
-2.89 9.38 -3.132 10.505 QT
-3.374 11.63 -4.07 12.419 QT
-4.765 13.208 -6.046 13.208 QT
cp
-6.046 12.817 M
-5.218 12.817 -4.804 11.966 QT
-4.39 11.114 -4.296 10.067 QT
-4.203 9.021 -4.203 7.849 QT
-4.203 6.724 -4.296 5.771 QT
-4.39 4.817 -4.796 4.044 QT
-5.203 3.271 -6.046 3.271 QT
-6.89 3.271 -7.304 4.052 QT
-7.718 4.833 -7.812 5.778 QT
-7.906 6.724 -7.906 7.849 QT
-7.906 8.692 -7.867 9.435 QT
-7.828 10.177 -7.648 10.958 QT
-7.468 11.739 -7.078 12.278 QT
-6.687 12.817 -6.046 12.817 QT
cp}def
f-1594609805
f
GR
GS
[0.7812 0 0 0.7812 167.31918 164.89441] CT
0.149 GC
N
/f920304901{-0.864 12.052 M
-0.864 11.708 -0.614 11.474 QT
-0.364 11.239 -0.036 11.239 QT
0.167 11.239 0.363 11.349 QT
0.558 11.458 0.667 11.653 QT
0.777 11.849 0.777 12.052 QT
0.777 12.38 0.534 12.63 QT
0.292 12.88 -0.036 12.88 QT
-0.364 12.88 -0.614 12.63 QT
-0.864 12.38 -0.864 12.052 QT
cp}def
f920304901
f
GR
GS
[0.7812 0 0 0.7812 167.31918 164.89441] CT
0.149 GC
N
/f1601504518{2.88 12.88 M
2.88 12.474 L
2.88 12.442 2.911 12.396 QT
5.239 9.817 L
5.77 9.239 6.098 8.857 QT
6.427 8.474 6.747 7.966 QT
7.067 7.458 7.255 6.935 QT
7.442 6.411 7.442 5.833 QT
7.442 5.208 7.216 4.646 QT
6.989 4.083 6.536 3.747 QT
6.083 3.411 5.442 3.411 QT
4.802 3.411 4.278 3.81 QT
3.755 4.208 3.536 4.817 QT
3.598 4.802 3.708 4.802 QT
4.036 4.802 4.278 5.028 QT
4.52 5.255 4.52 5.614 QT
4.52 5.958 4.278 6.2 QT
4.036 6.442 3.708 6.442 QT
3.348 6.442 3.114 6.2 QT
2.88 5.958 2.88 5.614 QT
2.88 5.052 3.091 4.56 QT
3.302 4.067 3.7 3.685 QT
4.098 3.302 4.598 3.099 QT
5.098 2.896 5.661 2.896 QT
6.52 2.896 7.262 3.255 QT
8.005 3.614 8.434 4.278 QT
8.864 4.942 8.864 5.833 QT
8.864 6.474 8.583 7.06 QT
8.302 7.646 7.856 8.13 QT
7.411 8.614 6.708 9.224 QT
6.005 9.833 5.786 10.036 QT
4.098 11.661 L
5.536 11.661 L
6.598 11.661 7.309 11.646 QT
8.02 11.63 8.067 11.583 QT
8.239 11.396 8.427 10.208 QT
8.864 10.208 L
8.442 12.88 L
2.88 12.88 L
cp}def
f1601504518
f
GR
GS
[0.7812 0 0 0.7812 111.71189 179.83283] CT
0.149 GC
N
-8.698 0.716 17.396 0.716 re
f
GR
GS
[0.7812 0 0 0.7812 111.71189 179.83283] CT
0.149 GC
N
/f287886276{-6.792 14.862 M
-6.792 14.268 -6.636 13.651 QT
-6.479 13.034 -6.19 12.268 QT
-5.901 11.503 -5.698 10.94 QT
-5.448 10.284 -5.448 9.862 QT
-5.448 9.331 -5.854 9.331 QT
-6.557 9.331 -7.018 10.065 QT
-7.479 10.8 -7.698 11.706 QT
-7.745 11.815 -7.854 11.815 QT
-8.057 11.815 L
-8.214 11.815 -8.214 11.643 QT
-8.214 11.597 L
-7.917 10.518 -7.323 9.69 QT
-6.729 8.862 -5.807 8.862 QT
-5.167 8.862 -4.729 9.284 QT
-4.292 9.706 -4.292 10.362 QT
-4.292 10.69 -4.432 11.065 QT
-4.511 11.284 -4.792 12.018 QT
-5.073 12.753 -5.222 13.237 QT
-5.37 13.722 -5.472 14.19 QT
-5.573 14.659 -5.573 15.112 QT
-5.573 15.722 -5.315 16.136 QT
-5.057 16.55 -4.495 16.55 QT
-3.339 16.55 -2.464 15.112 QT
-2.448 15.05 -2.432 14.979 QT
-2.417 14.909 -2.417 14.862 QT
-1.12 9.628 L
-1.057 9.393 -0.839 9.222 QT
-0.62 9.05 -0.37 9.05 QT
-0.151 9.05 0.013 9.19 QT
0.177 9.331 0.177 9.565 QT
0.177 9.675 0.161 9.706 QT
-1.136 14.893 L
-1.261 15.425 -1.261 15.768 QT
-1.261 16.55 -0.745 16.55 QT
-0.167 16.55 0.122 15.831 QT
0.411 15.112 0.614 14.175 QT
0.646 14.065 0.755 14.065 QT
0.974 14.065 L
1.036 14.065 1.083 14.128 QT
1.13 14.19 1.13 14.237 QT
0.943 15.018 0.755 15.573 QT
0.568 16.128 0.185 16.573 QT
-0.198 17.018 -0.776 17.018 QT
-1.354 17.018 -1.807 16.706 QT
-2.261 16.393 -2.417 15.862 QT
-2.823 16.378 -3.37 16.698 QT
-3.917 17.018 -4.526 17.018 QT
-5.557 17.018 -6.175 16.448 QT
-6.792 15.878 -6.792 14.862 QT
cp}def
f287886276
f
GR
GS
[0.7812 0 0 0.7812 111.71189 179.83283] CT
0.149 GC
N
/f758854338{2.183 11.647 M
2.183 11.304 L
2.183 11.272 2.214 11.226 QT
4.23 8.991 L
4.699 8.491 4.98 8.155 QT
5.261 7.819 5.543 7.382 QT
5.824 6.944 5.988 6.491 QT
6.152 6.038 6.152 5.538 QT
6.152 5.007 5.949 4.515 QT
5.746 4.022 5.355 3.733 QT
4.964 3.444 4.418 3.444 QT
3.855 3.444 3.402 3.788 QT
2.949 4.132 2.761 4.663 QT
2.824 4.647 2.902 4.647 QT
3.199 4.647 3.402 4.843 QT
3.605 5.038 3.605 5.351 QT
3.605 5.647 3.402 5.858 QT
3.199 6.069 2.902 6.069 QT
2.605 6.069 2.394 5.858 QT
2.183 5.647 2.183 5.351 QT
2.183 4.866 2.371 4.437 QT
2.558 4.007 2.902 3.679 QT
3.246 3.351 3.683 3.171 QT
4.121 2.991 4.605 2.991 QT
5.355 2.991 5.996 3.304 QT
6.636 3.616 7.011 4.194 QT
7.386 4.772 7.386 5.538 QT
7.386 6.101 7.136 6.608 QT
6.886 7.116 6.503 7.53 QT
6.121 7.944 5.511 8.476 QT
4.902 9.007 4.714 9.179 QT
3.246 10.601 L
4.496 10.601 L
5.418 10.601 6.035 10.585 QT
6.652 10.569 6.683 10.522 QT
6.839 10.366 6.996 9.335 QT
7.386 9.335 L
7.011 11.647 L
2.183 11.647 L
cp}def
f758854338
f
GR
GS
[0.7812 0 0 0.7812 0 -0.4252] CT
0.149 GC
2 setlinecap
1 LJ
0.639 LW
N
56 206 M
56 19 L
S
GR
GS
[0.7812 0 0 0.7812 0 -0.4252] CT
0.149 GC
2 setlinecap
1 LJ
0.639 LW
N
230 206 M
230 19 L
S
GR
GS
[0.7812 0 0 0.7812 0 -0.4252] CT
0.149 GC
2 setlinecap
1 LJ
0.639 LW
N
56 206 M
57.864 206 L
S
GR
GS
[0.7812 0 0 0.7812 0 -0.4252] CT
0.149 GC
2 setlinecap
1 LJ
0.639 LW
N
56 159.25 M
57.864 159.25 L
S
GR
GS
[0.7812 0 0 0.7812 0 -0.4252] CT
0.149 GC
2 setlinecap
1 LJ
0.639 LW
N
56 112.5 M
57.864 112.5 L
S
GR
GS
[0.7812 0 0 0.7812 0 -0.4252] CT
0.149 GC
2 setlinecap
1 LJ
0.639 LW
N
56 65.75 M
57.864 65.75 L
S
GR
GS
[0.7812 0 0 0.7812 0 -0.4252] CT
0.149 GC
2 setlinecap
1 LJ
0.639 LW
N
56 19 M
57.864 19 L
S
GR
GS
[0.7812 0 0 0.7812 0 -0.4252] CT
0.149 GC
2 setlinecap
1 LJ
0.639 LW
N
230 206 M
228.136 206 L
S
GR
GS
[0.7812 0 0 0.7812 0 -0.4252] CT
0.149 GC
2 setlinecap
1 LJ
0.639 LW
N
230 159.25 M
228.136 159.25 L
S
GR
GS
[0.7812 0 0 0.7812 0 -0.4252] CT
0.149 GC
2 setlinecap
1 LJ
0.639 LW
N
230 112.5 M
228.136 112.5 L
S
GR
GS
[0.7812 0 0 0.7812 0 -0.4252] CT
0.149 GC
2 setlinecap
1 LJ
0.639 LW
N
230 65.75 M
228.136 65.75 L
S
GR
GS
[0.7812 0 0 0.7812 0 -0.4252] CT
0.149 GC
2 setlinecap
1 LJ
0.639 LW
N
230 19 M
228.136 19 L
S
GR
GS
[0.7812 0 0 0.7812 39.3552 160.50232] CT
0.149 GC
N
/f1696974982{-12.606 0.899 M
-12.606 -0.023 L
-8.637 -0.023 L
-8.637 0.899 L
-12.606 0.899 L
cp}def
f1696974982
f
GR
GS
[0.7812 0 0 0.7812 39.3552 160.50232] CT
0.149 GC
N
/f-921695313{-6.276 3.68 M
-6.276 3.149 L
-4.401 3.149 -4.401 2.68 QT
-4.401 -5.195 L
-5.182 -4.82 -6.37 -4.82 QT
-6.37 -5.351 L
-4.526 -5.351 -3.589 -6.304 QT
-3.37 -6.304 L
-3.323 -6.304 -3.276 -6.265 QT
-3.229 -6.226 -3.229 -6.179 QT
-3.229 2.68 L
-3.229 3.149 -1.354 3.149 QT
-1.354 3.68 L
-6.276 3.68 L
cp}def
f-921695313
f
GR
GS
[0.7812 0 0 0.7812 39.3552 123.98115] CT
0.149 GC
N
/f-975976711{-24.532 0.899 M
-24.532 -0.023 L
-20.563 -0.023 L
-20.563 0.899 L
-24.532 0.899 L
cp}def
f-975976711
f
GR
GS
[0.7812 0 0 0.7812 39.3552 123.98115] CT
0.149 GC
N
/f-1716017318{-15.843 4.008 M
-17.686 4.008 -18.343 2.492 QT
-18.999 0.977 -18.999 -1.101 QT
-18.999 -2.414 -18.765 -3.562 QT
-18.53 -4.711 -17.827 -5.508 QT
-17.124 -6.304 -15.843 -6.304 QT
-14.858 -6.304 -14.225 -5.828 QT
-13.593 -5.351 -13.265 -4.586 QT
-12.936 -3.82 -12.811 -2.945 QT
-12.686 -2.07 -12.686 -1.101 QT
-12.686 0.18 -12.929 1.305 QT
-13.171 2.43 -13.866 3.219 QT
-14.561 4.008 -15.843 4.008 QT
cp
-15.843 3.617 M
-15.015 3.617 -14.6 2.766 QT
-14.186 1.914 -14.093 0.867 QT
-13.999 -0.179 -13.999 -1.351 QT
-13.999 -2.476 -14.093 -3.429 QT
-14.186 -4.383 -14.593 -5.156 QT
-14.999 -5.929 -15.843 -5.929 QT
-16.686 -5.929 -17.1 -5.148 QT
-17.515 -4.367 -17.608 -3.422 QT
-17.702 -2.476 -17.702 -1.351 QT
-17.702 -0.508 -17.663 0.235 QT
-17.624 0.977 -17.444 1.758 QT
-17.265 2.539 -16.874 3.078 QT
-16.483 3.617 -15.843 3.617 QT
cp}def
f-1716017318
f
GR
GS
[0.7812 0 0 0.7812 39.3552 123.98115] CT
0.149 GC
N
/f-606985051{-10.66 2.852 M
-10.66 2.508 -10.41 2.274 QT
-10.16 2.039 -9.832 2.039 QT
-9.629 2.039 -9.434 2.149 QT
-9.238 2.258 -9.129 2.453 QT
-9.02 2.649 -9.02 2.852 QT
-9.02 3.18 -9.262 3.43 QT
-9.504 3.68 -9.832 3.68 QT
-10.16 3.68 -10.41 3.43 QT
-10.66 3.18 -10.66 2.852 QT
cp}def
f-606985051
f
GR
GS
[0.7812 0 0 0.7812 39.3552 123.98115] CT
0.149 GC
N
/f-321985110{-6.37 1.977 M
-6.214 2.414 -5.893 2.774 QT
-5.573 3.133 -5.135 3.336 QT
-4.698 3.539 -4.229 3.539 QT
-3.151 3.539 -2.737 2.696 QT
-2.323 1.852 -2.323 0.649 QT
-2.323 0.133 -2.346 -0.226 QT
-2.37 -0.586 -2.448 -0.914 QT
-2.589 -1.445 -2.932 -1.836 QT
-3.276 -2.226 -3.792 -2.226 QT
-4.292 -2.226 -4.651 -2.078 QT
-5.01 -1.929 -5.237 -1.718 QT
-5.464 -1.508 -5.643 -1.281 QT
-5.823 -1.054 -5.87 -1.039 QT
-6.026 -1.039 L
-6.073 -1.039 -6.128 -1.086 QT
-6.182 -1.133 -6.182 -1.179 QT
-6.182 -6.195 L
-6.182 -6.226 -6.135 -6.265 QT
-6.089 -6.304 -6.026 -6.304 QT
-5.995 -6.304 L
-4.979 -5.82 -3.839 -5.82 QT
-2.729 -5.82 -1.698 -6.304 QT
-1.651 -6.304 L
-1.604 -6.304 -1.557 -6.273 QT
-1.51 -6.242 -1.51 -6.195 QT
-1.51 -6.054 L
-1.51 -5.976 -1.542 -5.976 QT
-2.057 -5.304 -2.831 -4.922 QT
-3.604 -4.539 -4.432 -4.539 QT
-5.026 -4.539 -5.667 -4.711 QT
-5.667 -1.867 L
-5.167 -2.273 -4.776 -2.445 QT
-4.385 -2.617 -3.776 -2.617 QT
-2.948 -2.617 -2.292 -2.14 QT
-1.635 -1.664 -1.284 -0.898 QT
-0.932 -0.133 -0.932 0.664 QT
-0.932 1.571 -1.37 2.336 QT
-1.807 3.102 -2.573 3.555 QT
-3.339 4.008 -4.229 4.008 QT
-4.964 4.008 -5.589 3.625 QT
-6.214 3.242 -6.565 2.602 QT
-6.917 1.961 -6.917 1.227 QT
-6.917 0.899 -6.698 0.688 QT
-6.479 0.477 -6.151 0.477 QT
-5.823 0.477 -5.596 0.688 QT
-5.37 0.899 -5.37 1.227 QT
-5.37 1.555 -5.596 1.782 QT
-5.823 2.008 -6.151 2.008 QT
-6.198 2.008 -6.268 1.992 QT
-6.339 1.977 -6.37 1.977 QT
cp}def
f-321985110
f
GR
GS
[0.7812 0 0 0.7812 39.3552 87.45998] CT
0.149 GC
N
/f1704323170{-3.917 4.008 M
-5.76 4.008 -6.417 2.492 QT
-7.073 0.977 -7.073 -1.101 QT
-7.073 -2.414 -6.839 -3.562 QT
-6.604 -4.711 -5.901 -5.508 QT
-5.198 -6.304 -3.917 -6.304 QT
-2.932 -6.304 -2.3 -5.828 QT
-1.667 -5.351 -1.339 -4.586 QT
-1.01 -3.82 -0.885 -2.945 QT
-0.76 -2.07 -0.76 -1.101 QT
-0.76 0.18 -1.003 1.305 QT
-1.245 2.43 -1.94 3.219 QT
-2.635 4.008 -3.917 4.008 QT
cp
-3.917 3.617 M
-3.089 3.617 -2.675 2.766 QT
-2.26 1.914 -2.167 0.867 QT
-2.073 -0.179 -2.073 -1.351 QT
-2.073 -2.476 -2.167 -3.429 QT
-2.26 -4.383 -2.667 -5.156 QT
-3.073 -5.929 -3.917 -5.929 QT
-4.76 -5.929 -5.175 -5.148 QT
-5.589 -4.367 -5.682 -3.422 QT
-5.776 -2.476 -5.776 -1.351 QT
-5.776 -0.508 -5.737 0.235 QT
-5.698 0.977 -5.518 1.758 QT
-5.339 2.539 -4.948 3.078 QT
-4.557 3.617 -3.917 3.617 QT
cp}def
f1704323170
f
GR
GS
[0.7812 0 0 0.7812 39.3552 50.9388] CT
0.149 GC
N
f-1716017318
f
GR
GS
[0.7812 0 0 0.7812 39.3552 50.9388] CT
0.149 GC
N
f-606985051
f
GR
GS
[0.7812 0 0 0.7812 39.3552 50.9388] CT
0.149 GC
N
f-321985110
f
GR
GS
[0.7812 0 0 0.7812 39.3552 14.41763] CT
0.149 GC
N
f-921695313
f
GR
GS
[0 -0.7812 0.7812 0 16.76979 87.4599] CT
0.149 GC
N
/f659928275{-3.191 -3.862 M
-2.816 -3.221 -1.878 -3.221 QT
-1.019 -3.221 -0.394 -3.815 QT
0.231 -4.409 0.614 -5.26 QT
0.997 -6.112 1.2 -6.987 QT
0.403 -6.237 -0.534 -6.237 QT
-1.237 -6.237 -1.737 -6.487 QT
-2.237 -6.737 -2.519 -7.221 QT
-2.8 -7.706 -2.8 -8.393 QT
-2.8 -8.987 -2.644 -9.604 QT
-2.487 -10.221 -2.198 -10.987 QT
-1.909 -11.753 -1.706 -12.315 QT
-1.456 -12.971 -1.456 -13.393 QT
-1.456 -13.924 -1.862 -13.924 QT
-2.566 -13.924 -3.027 -13.19 QT
-3.487 -12.456 -3.706 -11.549 QT
-3.753 -11.44 -3.862 -11.44 QT
-4.066 -11.44 L
-4.222 -11.44 -4.222 -11.612 QT
-4.222 -11.659 L
-3.925 -12.737 -3.331 -13.565 QT
-2.737 -14.393 -1.816 -14.393 QT
-1.175 -14.393 -0.737 -13.971 QT
-0.3 -13.549 -0.3 -12.893 QT
-0.3 -12.565 -0.441 -12.19 QT
-0.519 -11.971 -0.8 -11.237 QT
-1.081 -10.503 -1.23 -10.018 QT
-1.378 -9.534 -1.48 -9.065 QT
-1.581 -8.596 -1.581 -8.143 QT
-1.581 -7.534 -1.323 -7.12 QT
-1.066 -6.706 -0.519 -6.706 QT
0.606 -6.706 1.497 -8.081 QT
2.856 -13.628 L
2.919 -13.862 3.138 -14.034 QT
3.356 -14.206 3.606 -14.206 QT
3.825 -14.206 3.989 -14.065 QT
4.153 -13.924 4.153 -13.69 QT
4.153 -13.581 4.138 -13.549 QT
2.356 -6.393 L
2.122 -5.471 1.489 -4.628 QT
0.856 -3.784 -0.042 -3.268 QT
-0.941 -2.753 -1.909 -2.753 QT
-2.362 -2.753 -2.823 -2.932 QT
-3.284 -3.112 -3.566 -3.471 QT
-3.847 -3.831 -3.847 -4.315 QT
-3.847 -4.799 -3.558 -5.159 QT
-3.269 -5.518 -2.784 -5.518 QT
-2.487 -5.518 -2.292 -5.339 QT
-2.097 -5.159 -2.097 -4.878 QT
-2.097 -4.456 -2.402 -4.151 QT
-2.706 -3.846 -3.128 -3.846 QT
-3.144 -3.862 -3.159 -3.862 QT
-3.175 -3.862 -3.191 -3.862 QT
cp}def
f659928275
f
GR
GS
[0.7812 0 0 0.7812 0 -0.4252] CT
1 LJ
3.194 LW
N
215.295 206 M
203.922 196.65 L
174.718 187.3 L
139.448 177.95 L
109.919 168.6 L
92.006 159.25 L
84.301 149.9 L
81.494 140.55 L
79.251 131.2 L
76.755 121.85 L
75.56 112.5 L
76.682 103.15 L
79.11 93.8 L
81.296 84.45 L
84.069 75.1 L
91.77 65.75 L
109.715 56.4 L
139.304 47.05 L
174.642 37.7 L
203.902 28.35 L
215.295 19 L
S
GR
GS
[0.7812 0 0 0.7812 0 -0.4252] CT
0.251 0.251 1 RC
[8 8] 0 setdash
2 LJ
2.044 LW
N
140.752 206 M
132.148 196.65 L
110.573 187.3 L
86.037 177.95 L
68.161 168.6 L
60.93 159.25 L
61.79 149.9 L
65.095 140.55 L
66.732 131.2 L
66.319 121.85 L
65.778 112.5 L
66.266 103.15 L
66.647 93.8 L
65.012 84.45 L
61.737 75.1 L
60.918 65.75 L
68.18 56.4 L
86.066 47.05 L
110.594 37.7 L
132.154 28.35 L
140.752 19 L
S
GR
GS
[0.7812 0 0 0.7812 0 -0.4252] CT
1 0 0 RC
[10 6] 0 setdash
2 LJ
1.406 LW
N
156.881 206 M
147.674 196.65 L
124.439 187.3 L
97.581 177.95 L
77.225 168.6 L
67.812 159.25 L
67.064 149.9 L
69.393 140.55 L
70.563 131.2 L
69.981 121.85 L
69.394 112.5 L
69.895 103.15 L
70.43 93.8 L
69.273 84.45 L
67.004 75.1 L
67.825 65.75 L
77.291 56.4 L
97.656 47.05 L
124.489 37.7 L
147.689 28.35 L
156.881 19 L
S
GR
GS
[0.7812 0 0 0.7812 0 -0.4252] CT
0.251 0.251 1 RC
1 LJ
2.044 LW
N
218.47 206 M
207.294 196.65 L
178.552 187.3 L
143.693 177.95 L
114.158 168.6 L
95.579 159.25 L
86.545 149.9 L
81.999 140.55 L
78.038 131.2 L
74.312 121.85 L
72.726 112.5 L
74.416 103.15 L
78.227 93.8 L
82.237 84.45 L
86.792 75.1 L
95.799 65.75 L
114.325 56.4 L
143.8 47.05 L
178.603 37.7 L
207.307 28.35 L
218.47 19 L
S
GR
GS
[0.7812 0 0 0.7812 0 -0.4252] CT
1 0 0 RC
1 LJ
1.406 LW
N
189.768 206 M
179.363 196.65 L
152.844 187.3 L
121.408 177.95 L
96.148 168.6 L
82.313 159.25 L
78.085 149.9 L
77.979 140.55 L
77.637 131.2 L
76.275 121.85 L
75.474 112.5 L
76.247 103.15 L
77.561 93.8 L
77.832 84.45 L
77.862 75.1 L
82.041 65.75 L
95.88 56.4 L
121.2 47.05 L
152.729 37.7 L
179.331 28.35 L
189.768 19 L
S
GR
GS
[0.7812 0 0 0.7812 0 -0.4252] CT
1 LJ
3.194 LW
N
215.295 206 M
203.922 196.65 L
174.718 187.3 L
139.448 177.95 L
109.919 168.6 L
92.006 159.25 L
84.301 149.9 L
81.494 140.55 L
79.251 131.2 L
76.755 121.85 L
75.56 112.5 L
76.682 103.15 L
79.11 93.8 L
81.296 84.45 L
84.069 75.1 L
91.77 65.75 L
109.715 56.4 L
139.304 47.05 L
174.642 37.7 L
203.902 28.35 L
215.295 19 L
S
GR
GS
[0.7812 0 0 0.7812 0 -0.4252] CT
0.251 0.251 1 RC
[8 8] 0 setdash
2 LJ
2.044 LW
N
140.752 206 M
132.148 196.65 L
110.573 187.3 L
86.037 177.95 L
68.161 168.6 L
60.93 159.25 L
61.79 149.9 L
65.095 140.55 L
66.732 131.2 L
66.319 121.85 L
65.778 112.5 L
66.266 103.15 L
66.647 93.8 L
65.012 84.45 L
61.737 75.1 L
60.918 65.75 L
68.18 56.4 L
86.066 47.05 L
110.594 37.7 L
132.154 28.35 L
140.752 19 L
S
GR
GS
[0.7812 0 0 0.7812 0 -0.4252] CT
1 0 0 RC
[10 6] 0 setdash
2 LJ
1.406 LW
N
156.881 206 M
147.674 196.65 L
124.439 187.3 L
97.581 177.95 L
77.225 168.6 L
67.812 159.25 L
67.064 149.9 L
69.393 140.55 L
70.563 131.2 L
69.981 121.85 L
69.394 112.5 L
69.895 103.15 L
70.43 93.8 L
69.273 84.45 L
67.004 75.1 L
67.825 65.75 L
77.291 56.4 L
97.656 47.05 L
124.489 37.7 L
147.689 28.35 L
156.881 19 L
S
GR
GS
[0.7812 0 0 0.7812 0 -0.4252] CT
0.251 0.251 1 RC
1 LJ
2.044 LW
N
218.47 206 M
207.294 196.65 L
178.552 187.3 L
143.693 177.95 L
114.158 168.6 L
95.579 159.25 L
86.545 149.9 L
81.999 140.55 L
78.038 131.2 L
74.312 121.85 L
72.726 112.5 L
74.416 103.15 L
78.227 93.8 L
82.237 84.45 L
86.792 75.1 L
95.799 65.75 L
114.325 56.4 L
143.8 47.05 L
178.603 37.7 L
207.307 28.35 L
218.47 19 L
S
GR
GS
[0.7812 0 0 0.7812 0 -0.4252] CT
1 0 0 RC
1 LJ
1.406 LW
N
189.768 206 M
179.363 196.65 L
152.844 187.3 L
121.408 177.95 L
96.148 168.6 L
82.313 159.25 L
78.085 149.9 L
77.979 140.55 L
77.637 131.2 L
76.275 121.85 L
75.474 112.5 L
76.247 103.15 L
77.561 93.8 L
77.832 84.45 L
77.862 75.1 L
82.041 65.75 L
95.88 56.4 L
121.2 47.05 L
152.729 37.7 L
179.331 28.35 L
189.768 19 L
S
GR
%%Trailer
%%Pages: 1
%%EOF
