%!PS-Adobe-3.0 EPSF-3.0
%%Creator: (MATLAB, The Mathworks, Inc. Version 9.10.0.1684407 \(R2021a\) Update 3. Operating System: Linux)
%%Title: /home/adoan/Code/PRoSA_PI-ESN_Git/pi-esn/Results/MFE_results/Figures/FIG6C.eps
%%CreationDate: 2021-07-21T18:54:27
%%Pages: (atend)
%%BoundingBox:     0     0   283   170
%%LanguageLevel: 3
%%EndComments
%%BeginProlog
%%BeginResource: procset (Apache XML Graphics Std ProcSet) 1.2 0
%%Version: 1.2 0
%%Copyright: (Copyright 2001-2003,2010 The Apache Software Foundation. License terms: http://www.apache.org/licenses/LICENSE-2.0)
/bd{bind def}bind def
/ld{load def}bd
/GR/grestore ld
/GS/gsave ld
/RM/rmoveto ld
/C/curveto ld
/t/show ld
/L/lineto ld
/ML/setmiterlimit ld
/CT/concat ld
/f/fill ld
/N/newpath ld
/S/stroke ld
/CC/setcmykcolor ld
/A/ashow ld
/cp/closepath ld
/RC/setrgbcolor ld
/LJ/setlinejoin ld
/GC/setgray ld
/LW/setlinewidth ld
/M/moveto ld
/re {4 2 roll M
1 index 0 rlineto
0 exch rlineto
neg 0 rlineto
cp } bd
/_ctm matrix def
/_tm matrix def
/BT { _ctm currentmatrix pop matrix _tm copy pop 0 0 moveto } bd
/ET { _ctm setmatrix } bd
/iTm { _ctm setmatrix _tm concat } bd
/Tm { _tm astore pop iTm 0 0 moveto } bd
/ux 0.0 def
/uy 0.0 def
/F {
  /Tp exch def
  /Tf exch def
  Tf findfont Tp scalefont setfont
  /cf Tf def  /cs Tp def
} bd
/ULS {currentpoint /uy exch def /ux exch def} bd
/ULE {
  /Tcx currentpoint pop def
  gsave
  newpath
  cf findfont cs scalefont dup
  /FontMatrix get 0 get /Ts exch def /FontInfo get dup
  /UnderlinePosition get Ts mul /To exch def
  /UnderlineThickness get Ts mul /Tt exch def
  ux uy To add moveto  Tcx uy To add lineto
  Tt setlinewidth stroke
  grestore
} bd
/OLE {
  /Tcx currentpoint pop def
  gsave
  newpath
  cf findfont cs scalefont dup
  /FontMatrix get 0 get /Ts exch def /FontInfo get dup
  /UnderlinePosition get Ts mul /To exch def
  /UnderlineThickness get Ts mul /Tt exch def
  ux uy To add cs add moveto Tcx uy To add cs add lineto
  Tt setlinewidth stroke
  grestore
} bd
/SOE {
  /Tcx currentpoint pop def
  gsave
  newpath
  cf findfont cs scalefont dup
  /FontMatrix get 0 get /Ts exch def /FontInfo get dup
  /UnderlinePosition get Ts mul /To exch def
  /UnderlineThickness get Ts mul /Tt exch def
  ux uy To add cs 10 mul 26 idiv add moveto Tcx uy To add cs 10 mul 26 idiv add lineto
  Tt setlinewidth stroke
  grestore
} bd
/QT {
/Y22 exch store
/X22 exch store
/Y21 exch store
/X21 exch store
currentpoint
/Y21 load 2 mul add 3 div exch
/X21 load 2 mul add 3 div exch
/X21 load 2 mul /X22 load add 3 div
/Y21 load 2 mul /Y22 load add 3 div
/X22 load /Y22 load curveto
} bd
/SSPD {
dup length /d exch dict def
{
/v exch def
/k exch def
currentpagedevice k known {
/cpdv currentpagedevice k get def
v cpdv ne {
/upd false def
/nullv v type /nulltype eq def
/nullcpdv cpdv type /nulltype eq def
nullv nullcpdv or
{
/upd true def
} {
/sametype v type cpdv type eq def
sametype {
v type /arraytype eq {
/vlen v length def
/cpdvlen cpdv length def
vlen cpdvlen eq {
0 1 vlen 1 sub {
/i exch def
/obj v i get def
/cpdobj cpdv i get def
obj cpdobj ne {
/upd true def
exit
} if
} for
} {
/upd true def
} ifelse
} {
v type /dicttype eq {
v {
/dv exch def
/dk exch def
/cpddv cpdv dk get def
dv cpddv ne {
/upd true def
exit
} if
} forall
} {
/upd true def
} ifelse
} ifelse
} if
} ifelse
upd true eq {
d k v put
} if
} if
} if
} forall
d length 0 gt {
d setpagedevice
} if
} bd
/RE { % /NewFontName [NewEncodingArray] /FontName RE -
  findfont dup length dict begin
  {
    1 index /FID ne
    {def} {pop pop} ifelse
  } forall
  /Encoding exch def
  /FontName 1 index def
  currentdict definefont pop
  end
} bind def
%%EndResource
%%BeginResource: procset (Apache XML Graphics EPS ProcSet) 1.0 0
%%Version: 1.0 0
%%Copyright: (Copyright 2002-2003 The Apache Software Foundation. License terms: http://www.apache.org/licenses/LICENSE-2.0)
/BeginEPSF { %def
/b4_Inc_state save def         % Save state for cleanup
/dict_count countdictstack def % Count objects on dict stack
/op_count count 1 sub def      % Count objects on operand stack
userdict begin                 % Push userdict on dict stack
/showpage { } def              % Redefine showpage, { } = null proc
0 setgray 0 setlinecap         % Prepare graphics state
1 setlinewidth 0 setlinejoin
10 setmiterlimit [ ] 0 setdash newpath
/languagelevel where           % If level not equal to 1 then
{pop languagelevel             % set strokeadjust and
1 ne                           % overprint to their defaults.
{false setstrokeadjust false setoverprint
} if
} if
} bd
/EndEPSF { %def
count op_count sub {pop} repeat            % Clean up stacks
countdictstack dict_count sub {end} repeat
b4_Inc_state restore
} bd
%%EndResource
%FOPBeginFontDict
%%IncludeResource: font Courier-Oblique
%%IncludeResource: font Courier-BoldOblique
%%IncludeResource: font Courier-Bold
%%IncludeResource: font ZapfDingbats
%%IncludeResource: font Symbol
%%IncludeResource: font Helvetica
%%IncludeResource: font Helvetica-Oblique
%%IncludeResource: font Helvetica-Bold
%%IncludeResource: font Helvetica-BoldOblique
%%IncludeResource: font Times-Roman
%%IncludeResource: font Times-Italic
%%IncludeResource: font Times-Bold
%%IncludeResource: font Times-BoldItalic
%%IncludeResource: font Courier
%FOPEndFontDict
%%BeginResource: encoding WinAnsiEncoding
/WinAnsiEncoding [
/.notdef /.notdef /.notdef /.notdef /.notdef
/.notdef /.notdef /.notdef /.notdef /.notdef
/.notdef /.notdef /.notdef /.notdef /.notdef
/.notdef /.notdef /.notdef /.notdef /.notdef
/.notdef /.notdef /.notdef /.notdef /.notdef
/.notdef /.notdef /.notdef /.notdef /.notdef
/.notdef /.notdef /space /exclam /quotedbl
/numbersign /dollar /percent /ampersand /quotesingle
/parenleft /parenright /asterisk /plus /comma
/hyphen /period /slash /zero /one
/two /three /four /five /six
/seven /eight /nine /colon /semicolon
/less /equal /greater /question /at
/A /B /C /D /E
/F /G /H /I /J
/K /L /M /N /O
/P /Q /R /S /T
/U /V /W /X /Y
/Z /bracketleft /backslash /bracketright /asciicircum
/underscore /quoteleft /a /b /c
/d /e /f /g /h
/i /j /k /l /m
/n /o /p /q /r
/s /t /u /v /w
/x /y /z /braceleft /bar
/braceright /asciitilde /bullet /Euro /bullet
/quotesinglbase /florin /quotedblbase /ellipsis /dagger
/daggerdbl /circumflex /perthousand /Scaron /guilsinglleft
/OE /bullet /Zcaron /bullet /bullet
/quoteleft /quoteright /quotedblleft /quotedblright /bullet
/endash /emdash /asciitilde /trademark /scaron
/guilsinglright /oe /bullet /zcaron /Ydieresis
/space /exclamdown /cent /sterling /currency
/yen /brokenbar /section /dieresis /copyright
/ordfeminine /guillemotleft /logicalnot /sfthyphen /registered
/macron /degree /plusminus /twosuperior /threesuperior
/acute /mu /paragraph /middot /cedilla
/onesuperior /ordmasculine /guillemotright /onequarter /onehalf
/threequarters /questiondown /Agrave /Aacute /Acircumflex
/Atilde /Adieresis /Aring /AE /Ccedilla
/Egrave /Eacute /Ecircumflex /Edieresis /Igrave
/Iacute /Icircumflex /Idieresis /Eth /Ntilde
/Ograve /Oacute /Ocircumflex /Otilde /Odieresis
/multiply /Oslash /Ugrave /Uacute /Ucircumflex
/Udieresis /Yacute /Thorn /germandbls /agrave
/aacute /acircumflex /atilde /adieresis /aring
/ae /ccedilla /egrave /eacute /ecircumflex
/edieresis /igrave /iacute /icircumflex /idieresis
/eth /ntilde /ograve /oacute /ocircumflex
/otilde /odieresis /divide /oslash /ugrave
/uacute /ucircumflex /udieresis /yacute /thorn
/ydieresis
] def
%%EndResource
%FOPBeginFontReencode
/Courier-Oblique findfont
dup length dict begin
  {1 index /FID ne {def} {pop pop} ifelse} forall
  /Encoding WinAnsiEncoding def
  currentdict
end
/Courier-Oblique exch definefont pop
/Courier-BoldOblique findfont
dup length dict begin
  {1 index /FID ne {def} {pop pop} ifelse} forall
  /Encoding WinAnsiEncoding def
  currentdict
end
/Courier-BoldOblique exch definefont pop
/Courier-Bold findfont
dup length dict begin
  {1 index /FID ne {def} {pop pop} ifelse} forall
  /Encoding WinAnsiEncoding def
  currentdict
end
/Courier-Bold exch definefont pop
/Helvetica findfont
dup length dict begin
  {1 index /FID ne {def} {pop pop} ifelse} forall
  /Encoding WinAnsiEncoding def
  currentdict
end
/Helvetica exch definefont pop
/Helvetica-Oblique findfont
dup length dict begin
  {1 index /FID ne {def} {pop pop} ifelse} forall
  /Encoding WinAnsiEncoding def
  currentdict
end
/Helvetica-Oblique exch definefont pop
/Helvetica-Bold findfont
dup length dict begin
  {1 index /FID ne {def} {pop pop} ifelse} forall
  /Encoding WinAnsiEncoding def
  currentdict
end
/Helvetica-Bold exch definefont pop
/Helvetica-BoldOblique findfont
dup length dict begin
  {1 index /FID ne {def} {pop pop} ifelse} forall
  /Encoding WinAnsiEncoding def
  currentdict
end
/Helvetica-BoldOblique exch definefont pop
/Times-Roman findfont
dup length dict begin
  {1 index /FID ne {def} {pop pop} ifelse} forall
  /Encoding WinAnsiEncoding def
  currentdict
end
/Times-Roman exch definefont pop
/Times-Italic findfont
dup length dict begin
  {1 index /FID ne {def} {pop pop} ifelse} forall
  /Encoding WinAnsiEncoding def
  currentdict
end
/Times-Italic exch definefont pop
/Times-Bold findfont
dup length dict begin
  {1 index /FID ne {def} {pop pop} ifelse} forall
  /Encoding WinAnsiEncoding def
  currentdict
end
/Times-Bold exch definefont pop
/Times-BoldItalic findfont
dup length dict begin
  {1 index /FID ne {def} {pop pop} ifelse} forall
  /Encoding WinAnsiEncoding def
  currentdict
end
/Times-BoldItalic exch definefont pop
/Courier findfont
dup length dict begin
  {1 index /FID ne {def} {pop pop} ifelse} forall
  /Encoding WinAnsiEncoding def
  currentdict
end
/Courier exch definefont pop
%FOPEndFontReencode
%%EndProlog
%%Page: 1 1
%%PageBoundingBox: 0 0 283 170
%%BeginPageSetup
[1 0 0 -1 0 170] CT
%%EndPageSetup
GS
[0.78305 0 0 0.78377 0 -0.07875] CT
1 GC
N
0 0 362 217 re
f
GR
GS
[0.78305 0 0 0.78377 0 -0.07875] CT
1 GC
N
0 0 362 217 re
f
GR
GS
[0.78305 0 0 0.78377 0 -0.07875] CT
1 GC
N
47 172 M
328 172 L
328 16 L
47 16 L
cp
f
GR
GS
[0.78305 0 0 0.78377 0 -0.07875] CT
0.149 GC
2 setlinecap
1 LJ
0.639 LW
N
47 172 M
328 172 L
S
GR
GS
[0.78305 0 0 0.78377 0 -0.07875] CT
0.149 GC
2 setlinecap
1 LJ
0.639 LW
N
47 16 M
328 16 L
S
GR
GS
[0.78305 0 0 0.78377 0 -0.07875] CT
0.149 GC
2 setlinecap
1 LJ
0.639 LW
N
47 172 M
47 169.19 L
S
GR
GS
[0.78305 0 0 0.78377 0 -0.07875] CT
0.149 GC
2 setlinecap
1 LJ
0.639 LW
N
127.286 172 M
127.286 169.19 L
S
GR
GS
[0.78305 0 0 0.78377 0 -0.07875] CT
0.149 GC
2 setlinecap
1 LJ
0.639 LW
N
207.571 172 M
207.571 169.19 L
S
GR
GS
[0.78305 0 0 0.78377 0 -0.07875] CT
0.149 GC
2 setlinecap
1 LJ
0.639 LW
N
287.857 172 M
287.857 169.19 L
S
GR
GS
[0.78305 0 0 0.78377 0 -0.07875] CT
0.149 GC
2 setlinecap
1 LJ
0.639 LW
N
47 16 M
47 18.81 L
S
GR
GS
[0.78305 0 0 0.78377 0 -0.07875] CT
0.149 GC
2 setlinecap
1 LJ
0.639 LW
N
127.286 16 M
127.286 18.81 L
S
GR
GS
[0.78305 0 0 0.78377 0 -0.07875] CT
0.149 GC
2 setlinecap
1 LJ
0.639 LW
N
207.571 16 M
207.571 18.81 L
S
GR
GS
[0.78305 0 0 0.78377 0 -0.07875] CT
0.149 GC
2 setlinecap
1 LJ
0.639 LW
N
287.857 16 M
287.857 18.81 L
S
GR
GS
[0.78305 0 0 0.78377 36.80341 139.13676] CT
0.149 GC
N
-0.083 13.208 M
-1.927 13.208 -2.583 11.692 QT
-3.24 10.177 -3.24 8.099 QT
-3.24 6.786 -3.005 5.638 QT
-2.771 4.489 -2.068 3.692 QT
-1.365 2.896 -0.083 2.896 QT
0.901 2.896 1.534 3.372 QT
2.167 3.849 2.495 4.614 QT
2.823 5.38 2.948 6.255 QT
3.073 7.13 3.073 8.099 QT
3.073 9.38 2.831 10.505 QT
2.589 11.63 1.893 12.419 QT
1.198 13.208 -0.083 13.208 QT
cp
-0.083 12.817 M
0.745 12.817 1.159 11.966 QT
1.573 11.114 1.667 10.067 QT
1.76 9.021 1.76 7.849 QT
1.76 6.724 1.667 5.771 QT
1.573 4.817 1.167 4.044 QT
0.76 3.271 -0.083 3.271 QT
-0.927 3.271 -1.341 4.052 QT
-1.755 4.833 -1.849 5.778 QT
-1.943 6.724 -1.943 7.849 QT
-1.943 8.692 -1.904 9.435 QT
-1.865 10.177 -1.685 10.958 QT
-1.505 11.739 -1.115 12.278 QT
-0.724 12.817 -0.083 12.817 QT
cp
f
GR
GS
[0.78305 0 0 0.78377 99.67124 139.13676] CT
0.149 GC
N
-3.083 12.88 M
-3.083 12.474 L
-3.083 12.442 -3.052 12.396 QT
-0.724 9.817 L
-0.193 9.239 0.135 8.857 QT
0.464 8.474 0.784 7.966 QT
1.104 7.458 1.292 6.935 QT
1.479 6.411 1.479 5.833 QT
1.479 5.208 1.253 4.646 QT
1.026 4.083 0.573 3.747 QT
0.12 3.411 -0.521 3.411 QT
-1.161 3.411 -1.685 3.81 QT
-2.208 4.208 -2.427 4.817 QT
-2.365 4.802 -2.255 4.802 QT
-1.927 4.802 -1.685 5.028 QT
-1.443 5.255 -1.443 5.614 QT
-1.443 5.958 -1.685 6.2 QT
-1.927 6.442 -2.255 6.442 QT
-2.615 6.442 -2.849 6.2 QT
-3.083 5.958 -3.083 5.614 QT
-3.083 5.052 -2.872 4.56 QT
-2.661 4.067 -2.263 3.685 QT
-1.865 3.302 -1.365 3.099 QT
-0.865 2.896 -0.302 2.896 QT
0.557 2.896 1.299 3.255 QT
2.042 3.614 2.471 4.278 QT
2.901 4.942 2.901 5.833 QT
2.901 6.474 2.62 7.06 QT
2.339 7.646 1.893 8.13 QT
1.448 8.614 0.745 9.224 QT
0.042 9.833 -0.177 10.036 QT
-1.865 11.661 L
-0.427 11.661 L
0.635 11.661 1.346 11.646 QT
2.057 11.63 2.104 11.583 QT
2.276 11.396 2.464 10.208 QT
2.901 10.208 L
2.479 12.88 L
-3.083 12.88 L
cp
f
GR
GS
[0.78305 0 0 0.78377 162.53907 139.13676] CT
0.149 GC
N
-3.411 10.411 M
-3.411 9.88 L
1.214 2.958 L
1.276 2.896 1.37 2.896 QT
1.589 2.896 L
1.76 2.896 1.76 3.052 QT
1.76 9.88 L
3.229 9.88 L
3.229 10.411 L
1.76 10.411 L
1.76 11.88 L
1.76 12.177 2.198 12.263 QT
2.635 12.349 3.214 12.349 QT
3.214 12.88 L
-0.911 12.88 L
-0.911 12.349 L
-0.333 12.349 0.104 12.263 QT
0.542 12.177 0.542 11.88 QT
0.542 10.411 L
-3.411 10.411 L
cp
-2.911 9.88 M
0.635 9.88 L
0.635 4.567 L
-2.911 9.88 L
cp
f
GR
GS
[0.78305 0 0 0.78377 225.40691 139.13676] CT
0.149 GC
N
-0.083 13.208 M
-1.021 13.208 -1.638 12.716 QT
-2.255 12.224 -2.599 11.435 QT
-2.943 10.646 -3.076 9.778 QT
-3.208 8.911 -3.208 8.036 QT
-3.208 6.849 -2.747 5.653 QT
-2.286 4.458 -1.388 3.677 QT
-0.49 2.896 0.745 2.896 QT
1.26 2.896 1.706 3.083 QT
2.151 3.271 2.401 3.653 QT
2.651 4.036 2.651 4.567 QT
2.651 4.88 2.44 5.083 QT
2.229 5.286 1.917 5.286 QT
1.635 5.286 1.424 5.075 QT
1.214 4.864 1.214 4.567 QT
1.214 4.271 1.424 4.06 QT
1.635 3.849 1.917 3.849 QT
2.01 3.849 L
1.807 3.583 1.464 3.45 QT
1.12 3.317 0.745 3.317 QT
0.292 3.317 -0.091 3.521 QT
-0.474 3.724 -0.786 4.06 QT
-1.099 4.396 -1.302 4.802 QT
-1.505 5.208 -1.615 5.724 QT
-1.724 6.239 -1.755 6.692 QT
-1.786 7.146 -1.786 7.833 QT
-1.521 7.224 -1.036 6.833 QT
-0.552 6.442 0.042 6.442 QT
0.714 6.442 1.26 6.716 QT
1.807 6.989 2.206 7.466 QT
2.604 7.942 2.815 8.56 QT
3.026 9.177 3.026 9.802 QT
3.026 10.677 2.635 11.474 QT
2.245 12.271 1.534 12.739 QT
0.823 13.208 -0.083 13.208 QT
cp
-0.083 12.739 M
0.495 12.739 0.846 12.474 QT
1.198 12.208 1.362 11.771 QT
1.526 11.333 1.565 10.888 QT
1.604 10.442 1.604 9.802 QT
1.604 8.958 1.526 8.357 QT
1.448 7.755 1.089 7.294 QT
0.729 6.833 -0.005 6.833 QT
-0.615 6.833 -1.005 7.247 QT
-1.396 7.661 -1.576 8.286 QT
-1.755 8.911 -1.755 9.489 QT
-1.755 9.692 -1.74 9.786 QT
-1.74 9.817 -1.747 9.825 QT
-1.755 9.833 -1.755 9.864 QT
-1.755 10.505 -1.622 11.161 QT
-1.49 11.817 -1.122 12.278 QT
-0.755 12.739 -0.083 12.739 QT
cp
f
GR
GS
[0.78305 0 0 0.78377 146.82223 154.13643] CT
0.149 GC
N
-18.326 12.793 M
-18.326 12.543 -18.264 12.324 QT
-17.045 7.434 L
-18.826 7.434 L
-18.998 7.434 -18.998 7.215 QT
-18.936 6.84 -18.78 6.84 QT
-16.889 6.84 L
-16.217 4.059 L
-16.139 3.84 -15.944 3.684 QT
-15.748 3.527 -15.498 3.527 QT
-15.28 3.527 -15.131 3.652 QT
-14.983 3.777 -14.983 3.996 QT
-14.983 4.043 -14.99 4.074 QT
-14.998 4.105 -15.014 4.137 QT
-15.686 6.84 L
-13.936 6.84 L
-13.764 6.84 -13.764 7.059 QT
-13.764 7.105 -13.795 7.207 QT
-13.826 7.309 -13.865 7.371 QT
-13.905 7.434 -13.983 7.434 QT
-15.842 7.434 L
-17.061 12.355 L
-17.186 12.824 -17.186 13.184 QT
-17.186 13.918 -16.686 13.918 QT
-15.936 13.918 -15.358 13.215 QT
-14.78 12.512 -14.483 11.668 QT
-14.405 11.574 -14.342 11.574 QT
-14.139 11.574 L
-14.076 11.574 -14.03 11.621 QT
-13.983 11.668 -13.983 11.715 QT
-13.983 11.746 -13.998 11.762 QT
-14.373 12.793 -15.092 13.574 QT
-15.811 14.355 -16.733 14.355 QT
-17.405 14.355 -17.865 13.918 QT
-18.326 13.48 -18.326 12.793 QT
cp
f
GR
GS
[0.78305 0 0 0.78377 146.82223 154.13643] CT
0.149 GC
N
-12.423 13.871 M
-12.423 13.621 -12.189 13.402 QT
-7.408 8.715 L
-9.095 3.98 L
-9.298 3.449 -9.517 3.129 QT
-9.736 2.809 -10.158 2.809 QT
-10.345 2.809 -10.345 2.59 QT
-10.329 2.496 -10.259 2.434 QT
-10.189 2.371 -10.079 2.371 QT
-8.298 2.371 -7.923 3.434 QT
-4.47 13.059 L
-4.251 13.793 -4.017 14.027 QT
-3.939 14.152 -3.939 14.199 QT
-3.939 14.355 -4.064 14.355 QT
-4.986 14.355 L
-5.408 14.23 -5.658 13.621 QT
-7.22 9.277 L
-11.329 14.105 L
-11.626 14.387 -11.876 14.387 QT
-12.079 14.387 -12.251 14.238 QT
-12.423 14.09 -12.423 13.871 QT
cp
f
GR
GS
[0.78305 0 0 0.78377 146.82223 154.13643] CT
0.149 GC
N
-3.084 16.698 M
-3.084 16.276 L
-2.678 16.276 -2.412 16.214 QT
-2.147 16.151 -2.147 15.901 QT
-2.147 12.62 L
-2.147 12.292 -2.24 12.151 QT
-2.334 12.01 -2.522 11.979 QT
-2.709 11.948 -3.084 11.948 QT
-3.084 11.526 L
-1.35 11.401 L
-1.35 12.573 L
-1.1 12.057 -0.631 11.729 QT
-0.162 11.401 0.4 11.401 QT
1.775 11.401 2.025 12.526 QT
2.26 12.01 2.72 11.706 QT
3.181 11.401 3.728 11.401 QT
4.275 11.401 4.65 11.573 QT
5.025 11.745 5.213 12.104 QT
5.4 12.464 5.4 13.01 QT
5.4 15.901 L
5.4 16.151 5.666 16.214 QT
5.931 16.276 6.338 16.276 QT
6.338 16.698 L
3.588 16.698 L
3.588 16.276 L
3.994 16.276 4.26 16.214 QT
4.525 16.151 4.525 15.901 QT
4.525 13.042 L
4.525 12.448 4.353 12.073 QT
4.181 11.698 3.666 11.698 QT
2.963 11.698 2.517 12.26 QT
2.072 12.823 2.072 13.526 QT
2.072 15.901 L
2.072 16.151 2.33 16.214 QT
2.588 16.276 3.01 16.276 QT
3.01 16.698 L
0.26 16.698 L
0.26 16.276 L
0.666 16.276 0.931 16.214 QT
1.197 16.151 1.197 15.901 QT
1.197 13.042 L
1.197 12.464 1.025 12.081 QT
0.853 11.698 0.322 11.698 QT
-0.365 11.698 -0.819 12.26 QT
-1.272 12.823 -1.272 13.526 QT
-1.272 15.901 L
-1.272 16.151 -1.006 16.214 QT
-0.74 16.276 -0.334 16.276 QT
-0.334 16.698 L
-3.084 16.698 L
cp
f
GR
GS
[0.78305 0 0 0.78377 146.82223 154.13643] CT
0.149 GC
N
6.88 15.526 M
6.88 14.807 7.442 14.354 QT
8.005 13.901 8.794 13.721 QT
9.583 13.542 10.286 13.542 QT
10.286 13.042 L
10.286 12.698 10.137 12.378 QT
9.989 12.057 9.7 11.846 QT
9.411 11.635 9.067 11.635 QT
8.27 11.635 7.848 11.995 QT
8.083 11.995 8.231 12.167 QT
8.38 12.339 8.38 12.573 QT
8.38 12.807 8.208 12.979 QT
8.036 13.151 7.802 13.151 QT
7.567 13.151 7.395 12.979 QT
7.223 12.807 7.223 12.573 QT
7.223 11.932 7.794 11.628 QT
8.364 11.323 9.067 11.323 QT
9.552 11.323 10.044 11.526 QT
10.536 11.729 10.848 12.12 QT
11.161 12.51 11.161 13.026 QT
11.161 15.729 L
11.161 15.964 11.262 16.159 QT
11.364 16.354 11.567 16.354 QT
11.77 16.354 11.864 16.151 QT
11.958 15.948 11.958 15.729 QT
11.958 14.964 L
12.317 14.964 L
12.317 15.729 L
12.317 15.995 12.177 16.237 QT
12.036 16.479 11.794 16.628 QT
11.552 16.776 11.286 16.776 QT
10.927 16.776 10.677 16.503 QT
10.427 16.229 10.395 15.854 QT
10.177 16.292 9.739 16.565 QT
9.302 16.839 8.817 16.839 QT
8.348 16.839 7.911 16.698 QT
7.473 16.557 7.177 16.268 QT
6.88 15.979 6.88 15.526 QT
cp
7.848 15.526 M
7.848 15.948 8.161 16.229 QT
8.473 16.51 8.895 16.51 QT
9.286 16.51 9.598 16.323 QT
9.911 16.135 10.098 15.799 QT
10.286 15.464 10.286 15.089 QT
10.286 13.839 L
9.739 13.839 9.169 14.018 QT
8.598 14.198 8.223 14.581 QT
7.848 14.964 7.848 15.526 QT
cp
f
GR
GS
[0.78305 0 0 0.78377 146.82223 154.13643] CT
0.149 GC
N
12.439 16.698 M
12.439 16.276 L
12.908 16.276 13.306 16.096 QT
13.705 15.917 13.986 15.573 QT
15.08 14.182 L
13.658 12.339 L
13.455 12.073 13.205 12.01 QT
12.955 11.948 12.502 11.948 QT
12.502 11.526 L
15.002 11.526 L
15.002 11.948 L
14.846 11.948 14.705 12.018 QT
14.564 12.089 14.564 12.214 QT
14.564 12.26 14.596 12.339 QT
15.564 13.573 L
16.283 12.651 L
16.424 12.479 16.424 12.307 QT
16.424 12.151 16.33 12.049 QT
16.236 11.948 16.08 11.948 QT
16.08 11.526 L
18.283 11.526 L
18.283 11.948 L
17.83 11.948 17.424 12.128 QT
17.017 12.307 16.736 12.651 QT
15.783 13.87 L
17.314 15.901 L
17.549 16.151 17.791 16.214 QT
18.033 16.276 18.486 16.276 QT
18.486 16.698 L
16.002 16.698 L
16.002 16.276 L
16.142 16.276 16.275 16.206 QT
16.408 16.135 16.408 15.995 QT
16.408 15.948 16.377 15.901 QT
15.299 14.464 L
14.439 15.573 L
14.299 15.714 14.299 15.917 QT
14.299 16.057 14.4 16.167 QT
14.502 16.276 14.642 16.276 QT
14.642 16.698 L
12.439 16.698 L
cp
f
GR
GS
[0.78305 0 0 0.78377 0 -0.07875] CT
0.149 GC
2 setlinecap
1 LJ
0.639 LW
N
47 172 M
47 16 L
S
GR
GS
[0.78305 0 0 0.78377 0 -0.07875] CT
0.149 GC
2 setlinecap
1 LJ
0.639 LW
N
328 172 M
328 16 L
S
GR
GS
[0.78305 0 0 0.78377 0 -0.07875] CT
0.149 GC
2 setlinecap
1 LJ
0.639 LW
N
47 172 M
49.81 172 L
S
GR
GS
[0.78305 0 0 0.78377 0 -0.07875] CT
0.149 GC
2 setlinecap
1 LJ
0.639 LW
N
47 140.8 M
49.81 140.8 L
S
GR
GS
[0.78305 0 0 0.78377 0 -0.07875] CT
0.149 GC
2 setlinecap
1 LJ
0.639 LW
N
47 109.6 M
49.81 109.6 L
S
GR
GS
[0.78305 0 0 0.78377 0 -0.07875] CT
0.149 GC
2 setlinecap
1 LJ
0.639 LW
N
47 78.4 M
49.81 78.4 L
S
GR
GS
[0.78305 0 0 0.78377 0 -0.07875] CT
0.149 GC
2 setlinecap
1 LJ
0.639 LW
N
47 47.2 M
49.81 47.2 L
S
GR
GS
[0.78305 0 0 0.78377 0 -0.07875] CT
0.149 GC
2 setlinecap
1 LJ
0.639 LW
N
328 172 M
325.19 172 L
S
GR
GS
[0.78305 0 0 0.78377 0 -0.07875] CT
0.149 GC
2 setlinecap
1 LJ
0.639 LW
N
328 140.8 M
325.19 140.8 L
S
GR
GS
[0.78305 0 0 0.78377 0 -0.07875] CT
0.149 GC
2 setlinecap
1 LJ
0.639 LW
N
328 109.6 M
325.19 109.6 L
S
GR
GS
[0.78305 0 0 0.78377 0 -0.07875] CT
0.149 GC
2 setlinecap
1 LJ
0.639 LW
N
328 78.4 M
325.19 78.4 L
S
GR
GS
[0.78305 0 0 0.78377 0 -0.07875] CT
0.149 GC
2 setlinecap
1 LJ
0.639 LW
N
328 47.2 M
325.19 47.2 L
S
GR
GS
[0.78305 0 0 0.78377 32.40092 134.73021] CT
0.149 GC
N
-24.532 0.899 M
-24.532 -0.023 L
-20.563 -0.023 L
-20.563 0.899 L
-24.532 0.899 L
cp
f
GR
GS
[0.78305 0 0 0.78377 32.40092 134.73021] CT
0.149 GC
N
-15.843 4.008 M
-17.686 4.008 -18.343 2.492 QT
-18.999 0.977 -18.999 -1.101 QT
-18.999 -2.414 -18.765 -3.562 QT
-18.53 -4.711 -17.827 -5.508 QT
-17.124 -6.304 -15.843 -6.304 QT
-14.858 -6.304 -14.225 -5.828 QT
-13.593 -5.351 -13.265 -4.586 QT
-12.936 -3.82 -12.811 -2.945 QT
-12.686 -2.07 -12.686 -1.101 QT
-12.686 0.18 -12.929 1.305 QT
-13.171 2.43 -13.866 3.219 QT
-14.561 4.008 -15.843 4.008 QT
cp
-15.843 3.617 M
-15.015 3.617 -14.6 2.766 QT
-14.186 1.914 -14.093 0.867 QT
-13.999 -0.179 -13.999 -1.351 QT
-13.999 -2.476 -14.093 -3.429 QT
-14.186 -4.383 -14.593 -5.156 QT
-14.999 -5.929 -15.843 -5.929 QT
-16.686 -5.929 -17.1 -5.148 QT
-17.515 -4.367 -17.608 -3.422 QT
-17.702 -2.476 -17.702 -1.351 QT
-17.702 -0.508 -17.663 0.235 QT
-17.624 0.977 -17.444 1.758 QT
-17.265 2.539 -16.874 3.078 QT
-16.483 3.617 -15.843 3.617 QT
cp
f
GR
GS
[0.78305 0 0 0.78377 32.40092 134.73021] CT
0.149 GC
N
-10.66 2.852 M
-10.66 2.508 -10.41 2.274 QT
-10.16 2.039 -9.832 2.039 QT
-9.629 2.039 -9.434 2.149 QT
-9.238 2.258 -9.129 2.453 QT
-9.02 2.649 -9.02 2.852 QT
-9.02 3.18 -9.262 3.43 QT
-9.504 3.68 -9.832 3.68 QT
-10.16 3.68 -10.41 3.43 QT
-10.66 3.18 -10.66 2.852 QT
cp
f
GR
GS
[0.78305 0 0 0.78377 32.40092 134.73021] CT
0.149 GC
N
-6.245 2.524 M
-5.885 3.039 -5.292 3.289 QT
-4.698 3.539 -4.026 3.539 QT
-3.151 3.539 -2.784 2.789 QT
-2.417 2.039 -2.417 1.102 QT
-2.417 0.68 -2.495 0.25 QT
-2.573 -0.179 -2.753 -0.539 QT
-2.932 -0.898 -3.253 -1.125 QT
-3.573 -1.351 -4.026 -1.351 QT
-5.026 -1.351 L
-5.167 -1.351 -5.167 -1.476 QT
-5.167 -1.617 L
-5.167 -1.726 -5.026 -1.726 QT
-4.198 -1.804 L
-3.682 -1.804 -3.331 -2.195 QT
-2.979 -2.586 -2.815 -3.156 QT
-2.651 -3.726 -2.651 -4.242 QT
-2.651 -4.961 -2.987 -5.422 QT
-3.323 -5.883 -4.026 -5.883 QT
-4.589 -5.883 -5.112 -5.664 QT
-5.635 -5.445 -5.932 -5.008 QT
-5.901 -5.008 -5.885 -5.015 QT
-5.87 -5.023 -5.839 -5.023 QT
-5.495 -5.023 -5.268 -4.789 QT
-5.042 -4.554 -5.042 -4.226 QT
-5.042 -3.898 -5.268 -3.664 QT
-5.495 -3.429 -5.839 -3.429 QT
-6.167 -3.429 -6.401 -3.664 QT
-6.635 -3.898 -6.635 -4.226 QT
-6.635 -4.867 -6.245 -5.343 QT
-5.854 -5.82 -5.245 -6.062 QT
-4.635 -6.304 -4.026 -6.304 QT
-3.557 -6.304 -3.057 -6.172 QT
-2.557 -6.039 -2.143 -5.789 QT
-1.729 -5.539 -1.471 -5.14 QT
-1.214 -4.742 -1.214 -4.242 QT
-1.214 -3.601 -1.495 -3.07 QT
-1.776 -2.539 -2.268 -2.148 QT
-2.76 -1.758 -3.339 -1.57 QT
-2.698 -1.445 -2.112 -1.078 QT
-1.526 -0.711 -1.167 -0.14 QT
-0.807 0.43 -0.807 1.086 QT
-0.807 1.914 -1.26 2.586 QT
-1.714 3.258 -2.456 3.633 QT
-3.198 4.008 -4.026 4.008 QT
-4.729 4.008 -5.432 3.742 QT
-6.135 3.477 -6.589 2.938 QT
-7.042 2.399 -7.042 1.664 QT
-7.042 1.289 -6.792 1.039 QT
-6.542 0.789 -6.167 0.789 QT
-5.917 0.789 -5.721 0.899 QT
-5.526 1.008 -5.409 1.219 QT
-5.292 1.43 -5.292 1.664 QT
-5.292 2.024 -5.55 2.274 QT
-5.807 2.524 -6.167 2.524 QT
-6.245 2.524 L
cp
f
GR
GS
[0.78305 0 0 0.78377 32.40092 110.2765] CT
0.149 GC
N
/f-975976711{-24.532 0.899 M
-24.532 -0.023 L
-20.563 -0.023 L
-20.563 0.899 L
-24.532 0.899 L
cp}def
f-975976711
f
GR
GS
[0.78305 0 0 0.78377 32.40092 110.2765] CT
0.149 GC
N
/f-1716017318{-15.843 4.008 M
-17.686 4.008 -18.343 2.492 QT
-18.999 0.977 -18.999 -1.101 QT
-18.999 -2.414 -18.765 -3.562 QT
-18.53 -4.711 -17.827 -5.508 QT
-17.124 -6.304 -15.843 -6.304 QT
-14.858 -6.304 -14.225 -5.828 QT
-13.593 -5.351 -13.265 -4.586 QT
-12.936 -3.82 -12.811 -2.945 QT
-12.686 -2.07 -12.686 -1.101 QT
-12.686 0.18 -12.929 1.305 QT
-13.171 2.43 -13.866 3.219 QT
-14.561 4.008 -15.843 4.008 QT
cp
-15.843 3.617 M
-15.015 3.617 -14.6 2.766 QT
-14.186 1.914 -14.093 0.867 QT
-13.999 -0.179 -13.999 -1.351 QT
-13.999 -2.476 -14.093 -3.429 QT
-14.186 -4.383 -14.593 -5.156 QT
-14.999 -5.929 -15.843 -5.929 QT
-16.686 -5.929 -17.1 -5.148 QT
-17.515 -4.367 -17.608 -3.422 QT
-17.702 -2.476 -17.702 -1.351 QT
-17.702 -0.508 -17.663 0.235 QT
-17.624 0.977 -17.444 1.758 QT
-17.265 2.539 -16.874 3.078 QT
-16.483 3.617 -15.843 3.617 QT
cp}def
f-1716017318
f
GR
GS
[0.78305 0 0 0.78377 32.40092 110.2765] CT
0.149 GC
N
/f-606985051{-10.66 2.852 M
-10.66 2.508 -10.41 2.274 QT
-10.16 2.039 -9.832 2.039 QT
-9.629 2.039 -9.434 2.149 QT
-9.238 2.258 -9.129 2.453 QT
-9.02 2.649 -9.02 2.852 QT
-9.02 3.18 -9.262 3.43 QT
-9.504 3.68 -9.832 3.68 QT
-10.16 3.68 -10.41 3.43 QT
-10.66 3.18 -10.66 2.852 QT
cp}def
f-606985051
f
GR
GS
[0.78305 0 0 0.78377 32.40092 110.2765] CT
0.149 GC
N
/f274154036{-6.917 3.68 M
-6.917 3.274 L
-6.917 3.242 -6.885 3.196 QT
-4.557 0.617 L
-4.026 0.039 -3.698 -0.343 QT
-3.37 -0.726 -3.05 -1.234 QT
-2.729 -1.742 -2.542 -2.265 QT
-2.354 -2.789 -2.354 -3.367 QT
-2.354 -3.992 -2.581 -4.554 QT
-2.807 -5.117 -3.26 -5.453 QT
-3.714 -5.789 -4.354 -5.789 QT
-4.995 -5.789 -5.518 -5.39 QT
-6.042 -4.992 -6.26 -4.383 QT
-6.198 -4.398 -6.089 -4.398 QT
-5.76 -4.398 -5.518 -4.172 QT
-5.276 -3.945 -5.276 -3.586 QT
-5.276 -3.242 -5.518 -3 QT
-5.76 -2.758 -6.089 -2.758 QT
-6.448 -2.758 -6.682 -3 QT
-6.917 -3.242 -6.917 -3.586 QT
-6.917 -4.148 -6.706 -4.64 QT
-6.495 -5.133 -6.096 -5.515 QT
-5.698 -5.898 -5.198 -6.101 QT
-4.698 -6.304 -4.135 -6.304 QT
-3.276 -6.304 -2.534 -5.945 QT
-1.792 -5.586 -1.362 -4.922 QT
-0.932 -4.258 -0.932 -3.367 QT
-0.932 -2.726 -1.214 -2.14 QT
-1.495 -1.554 -1.94 -1.07 QT
-2.385 -0.586 -3.089 0.024 QT
-3.792 0.633 -4.01 0.836 QT
-5.698 2.461 L
-4.26 2.461 L
-3.198 2.461 -2.487 2.446 QT
-1.776 2.43 -1.729 2.383 QT
-1.557 2.196 -1.37 1.008 QT
-0.932 1.008 L
-1.354 3.68 L
-6.917 3.68 L
cp}def
f274154036
f
GR
GS
[0.78305 0 0 0.78377 32.40092 85.82277] CT
0.149 GC
N
f-975976711
f
GR
GS
[0.78305 0 0 0.78377 32.40092 85.82277] CT
0.149 GC
N
f-1716017318
f
GR
GS
[0.78305 0 0 0.78377 32.40092 85.82277] CT
0.149 GC
N
f-606985051
f
GR
GS
[0.78305 0 0 0.78377 32.40092 85.82277] CT
0.149 GC
N
/f-921695313{-6.276 3.68 M
-6.276 3.149 L
-4.401 3.149 -4.401 2.68 QT
-4.401 -5.195 L
-5.182 -4.82 -6.37 -4.82 QT
-6.37 -5.351 L
-4.526 -5.351 -3.589 -6.304 QT
-3.37 -6.304 L
-3.323 -6.304 -3.276 -6.265 QT
-3.229 -6.226 -3.229 -6.179 QT
-3.229 2.68 L
-3.229 3.149 -1.354 3.149 QT
-1.354 3.68 L
-6.276 3.68 L
cp}def
f-921695313
f
GR
GS
[0.78305 0 0 0.78377 32.40092 61.36906] CT
0.149 GC
N
/f1704323170{-3.917 4.008 M
-5.76 4.008 -6.417 2.492 QT
-7.073 0.977 -7.073 -1.101 QT
-7.073 -2.414 -6.839 -3.562 QT
-6.604 -4.711 -5.901 -5.508 QT
-5.198 -6.304 -3.917 -6.304 QT
-2.932 -6.304 -2.3 -5.828 QT
-1.667 -5.351 -1.339 -4.586 QT
-1.01 -3.82 -0.885 -2.945 QT
-0.76 -2.07 -0.76 -1.101 QT
-0.76 0.18 -1.003 1.305 QT
-1.245 2.43 -1.94 3.219 QT
-2.635 4.008 -3.917 4.008 QT
cp
-3.917 3.617 M
-3.089 3.617 -2.675 2.766 QT
-2.26 1.914 -2.167 0.867 QT
-2.073 -0.179 -2.073 -1.351 QT
-2.073 -2.476 -2.167 -3.429 QT
-2.26 -4.383 -2.667 -5.156 QT
-3.073 -5.929 -3.917 -5.929 QT
-4.76 -5.929 -5.175 -5.148 QT
-5.589 -4.367 -5.682 -3.422 QT
-5.776 -2.476 -5.776 -1.351 QT
-5.776 -0.508 -5.737 0.235 QT
-5.698 0.977 -5.518 1.758 QT
-5.339 2.539 -4.948 3.078 QT
-4.557 3.617 -3.917 3.617 QT
cp}def
f1704323170
f
GR
GS
[0.78305 0 0 0.78377 32.40092 36.91534] CT
0.149 GC
N
f-1716017318
f
GR
GS
[0.78305 0 0 0.78377 32.40092 36.91534] CT
0.149 GC
N
f-606985051
f
GR
GS
[0.78305 0 0 0.78377 32.40092 36.91534] CT
0.149 GC
N
f-921695313
f
GR
GS
[0.78305 0 0 0.78377 0 -0.07875] CT
0 0 1 RC
1 LJ
1.917 LW
N
47 83.544 M
47.245 83.595 L
47.49 83.648 L
47.734 83.701 L
47.979 83.756 L
48.224 83.811 L
48.469 83.867 L
48.713 83.924 L
48.958 83.981 L
49.203 84.039 L
49.448 84.097 L
49.693 84.156 L
49.937 84.215 L
50.182 84.274 L
50.427 84.334 L
50.672 84.393 L
50.916 84.452 L
51.161 84.511 L
51.406 84.57 L
51.651 84.628 L
51.895 84.686 L
52.14 84.743 L
52.385 84.8 L
52.63 84.855 L
52.875 84.911 L
53.119 84.965 L
53.364 85.018 L
53.609 85.07 L
53.854 85.121 L
54.098 85.171 L
54.343 85.219 L
54.588 85.266 L
54.833 85.311 L
55.078 85.355 L
55.322 85.397 L
55.567 85.438 L
55.812 85.476 L
56.057 85.513 L
56.301 85.548 L
56.546 85.581 L
56.791 85.612 L
57.036 85.641 L
57.28 85.668 L
57.525 85.692 L
57.77 85.714 L
58.015 85.734 L
58.26 85.752 L
58.504 85.767 L
58.749 85.78 L
58.994 85.791 L
59.239 85.799 L
59.483 85.804 L
59.728 85.807 L
59.973 85.808 L
60.218 85.806 L
60.463 85.801 L
60.707 85.794 L
60.952 85.785 L
61.197 85.773 L
61.442 85.758 L
61.686 85.741 L
61.931 85.721 L
62.176 85.699 L
62.421 85.674 L
62.666 85.647 L
62.91 85.617 L
63.155 85.585 L
63.4 85.551 L
63.645 85.515 L
63.889 85.476 L
64.134 85.434 L
64.379 85.391 L
64.624 85.346 L
64.868 85.298 L
65.113 85.249 L
65.358 85.197 L
65.603 85.144 L
65.848 85.088 L
66.092 85.031 L
66.337 84.973 L
66.582 84.912 L
66.827 84.85 L
67.071 84.787 L
67.316 84.722 L
67.561 84.656 L
67.806 84.589 L
68.051 84.52 L
68.295 84.451 L
68.54 84.38 L
68.785 84.308 L
69.03 84.236 L
69.274 84.163 L
69.519 84.089 L
69.764 84.015 L
70.009 83.94 L
70.253 83.865 L
70.498 83.79 L
70.743 83.714 L
70.988 83.639 L
71.233 83.563 L
71.477 83.487 L
71.722 83.412 L
71.967 83.337 L
72.212 83.262 L
72.456 83.187 L
72.701 83.113 L
72.946 83.04 L
73.191 82.967 L
73.436 82.894 L
73.68 82.823 L
73.925 82.752 L
74.17 82.683 L
74.415 82.614 L
74.659 82.546 L
74.904 82.479 L
75.149 82.414 L
75.394 82.349 L
75.639 82.286 L
75.883 82.224 L
76.128 82.163 L
76.373 82.104 L
76.618 82.046 L
76.862 81.989 L
77.107 81.934 L
77.352 81.88 L
77.597 81.828 L
77.841 81.777 L
78.086 81.727 L
78.331 81.679 L
78.576 81.633 L
78.821 81.588 L
79.065 81.544 L
79.31 81.501 L
79.555 81.46 L
79.8 81.421 L
80.044 81.382 L
80.289 81.345 L
80.534 81.31 L
80.779 81.275 L
81.024 81.242 L
81.268 81.21 L
81.513 81.179 L
81.758 81.149 L
82.003 81.12 L
82.247 81.093 L
82.492 81.066 L
82.737 81.04 L
82.982 81.015 L
83.226 80.991 L
83.471 80.967 L
83.716 80.944 L
83.961 80.922 L
84.206 80.901 L
84.45 80.88 L
84.695 80.86 L
84.94 80.841 L
85.185 80.821 L
85.429 80.803 L
85.674 80.784 L
85.919 80.767 L
86.164 80.749 L
86.409 80.732 L
86.653 80.715 L
86.898 80.699 L
87.143 80.682 L
87.388 80.667 L
87.632 80.651 L
87.877 80.635 L
88.122 80.62 L
88.367 80.605 L
88.611 80.591 L
88.856 80.576 L
89.101 80.562 L
89.346 80.548 L
89.591 80.534 L
89.835 80.521 L
90.08 80.507 L
90.325 80.494 L
90.57 80.482 L
90.814 80.469 L
91.059 80.457 L
91.304 80.445 L
91.549 80.433 L
91.794 80.422 L
92.038 80.411 L
92.283 80.401 L
92.528 80.39 L
92.773 80.381 L
93.017 80.371 L
93.262 80.363 L
93.507 80.354 L
93.752 80.347 L
93.997 80.339 L
94.241 80.333 L
94.486 80.327 L
94.731 80.321 L
94.976 80.317 L
95.22 80.313 L
95.465 80.31 L
95.71 80.307 L
95.955 80.306 L
96.199 80.305 L
96.444 80.306 L
96.689 80.307 L
96.934 80.309 L
97.179 80.312 L
97.423 80.316 L
97.668 80.321 L
97.913 80.327 L
98.158 80.334 L
98.402 80.343 L
98.647 80.352 L
98.892 80.362 L
99.137 80.374 L
99.382 80.386 L
99.626 80.4 L
99.871 80.415 L
100.116 80.43 L
100.361 80.447 L
100.605 80.465 L
100.85 80.484 L
101.095 80.504 L
101.34 80.525 L
101.584 80.547 L
101.829 80.569 L
102.074 80.593 L
102.319 80.617 L
102.564 80.643 L
102.808 80.669 L
103.053 80.696 L
103.298 80.723 L
103.543 80.751 L
103.787 80.78 L
104.032 80.809 L
104.277 80.839 L
104.522 80.869 L
104.767 80.9 L
105.011 80.931 L
105.256 80.962 L
105.501 80.994 L
105.746 81.025 L
105.99 81.057 L
106.235 81.09 L
106.48 81.122 L
106.725 81.154 L
106.97 81.186 L
107.214 81.218 L
107.459 81.251 L
107.704 81.283 L
107.949 81.315 L
108.193 81.346 L
108.438 81.378 L
108.683 81.409 L
108.928 81.44 L
109.172 81.471 L
109.417 81.501 L
109.662 81.532 L
109.907 81.561 L
110.152 81.591 L
110.396 81.62 L
110.641 81.649 L
110.886 81.677 L
111.131 81.705 L
111.375 81.733 L
111.62 81.76 L
111.865 81.787 L
112.11 81.814 L
112.355 81.84 L
112.599 81.865 L
112.844 81.891 L
113.089 81.916 L
113.334 81.94 L
113.578 81.965 L
113.823 81.988 L
114.068 82.012 L
114.313 82.035 L
114.557 82.058 L
114.802 82.08 L
115.047 82.103 L
115.292 82.124 L
115.537 82.146 L
115.781 82.167 L
116.026 82.188 L
116.271 82.208 L
116.516 82.228 L
116.76 82.248 L
117.005 82.267 L
117.25 82.286 L
117.495 82.305 L
117.74 82.323 L
117.984 82.34 L
118.229 82.358 L
118.474 82.374 L
118.719 82.391 L
118.963 82.406 L
119.208 82.421 L
119.453 82.436 L
119.698 82.45 L
119.943 82.463 L
120.187 82.476 L
120.432 82.488 L
120.677 82.499 L
120.922 82.509 L
121.166 82.519 L
121.411 82.528 L
121.656 82.535 L
121.901 82.542 L
122.145 82.549 L
122.39 82.554 L
122.635 82.558 L
122.88 82.561 L
123.125 82.563 L
123.369 82.564 L
123.614 82.564 L
123.859 82.563 L
124.104 82.561 L
124.348 82.558 L
124.593 82.554 L
124.838 82.548 L
125.083 82.542 L
125.328 82.534 L
125.572 82.525 L
125.817 82.516 L
126.062 82.505 L
126.307 82.493 L
126.551 82.48 L
126.796 82.466 L
127.041 82.45 L
127.286 82.434 L
127.53 82.417 L
127.775 82.399 L
128.02 82.38 L
128.265 82.36 L
128.51 82.339 L
128.754 82.318 L
128.999 82.295 L
129.244 82.272 L
129.489 82.248 L
129.733 82.223 L
129.978 82.198 L
130.223 82.172 L
130.468 82.145 L
130.713 82.118 L
130.957 82.09 L
131.202 82.062 L
131.447 82.034 L
131.692 82.005 L
131.936 81.976 L
132.181 81.947 L
132.426 81.917 L
132.671 81.888 L
132.916 81.858 L
133.16 81.829 L
133.405 81.8 L
133.65 81.771 L
133.895 81.742 L
134.139 81.713 L
134.384 81.685 L
134.629 81.658 L
134.874 81.631 L
135.118 81.605 L
135.363 81.579 L
135.608 81.554 L
135.853 81.53 L
136.098 81.507 L
136.342 81.485 L
136.587 81.464 L
136.832 81.443 L
137.077 81.424 L
137.321 81.406 L
137.566 81.389 L
137.811 81.373 L
138.056 81.358 L
138.301 81.343 L
138.545 81.33 L
138.79 81.317 L
139.035 81.306 L
139.28 81.294 L
139.524 81.284 L
139.769 81.274 L
140.014 81.264 L
140.259 81.254 L
140.503 81.244 L
140.748 81.234 L
140.993 81.223 L
141.238 81.212 L
141.483 81.2 L
141.727 81.187 L
141.972 81.172 L
142.217 81.156 L
142.462 81.138 L
142.706 81.118 L
142.951 81.095 L
143.196 81.07 L
143.441 81.042 L
143.686 81.011 L
143.93 80.976 L
144.175 80.937 L
144.42 80.895 L
144.665 80.848 L
144.909 80.797 L
145.154 80.741 L
145.399 80.68 L
145.644 80.614 L
145.889 80.543 L
146.133 80.467 L
146.378 80.386 L
146.623 80.299 L
146.868 80.207 L
147.112 80.109 L
147.357 80.007 L
147.602 79.9 L
147.847 79.788 L
148.091 79.671 L
148.336 79.55 L
148.581 79.426 L
148.826 79.298 L
149.071 79.166 L
149.315 79.033 L
149.56 78.897 L
149.805 78.76 L
150.05 78.621 L
150.294 78.482 L
150.539 78.343 L
150.784 78.204 L
151.029 78.067 L
151.274 77.931 L
151.518 77.797 L
151.763 77.666 L
152.008 77.538 L
152.253 77.414 L
152.497 77.294 L
152.742 77.179 L
152.987 77.07 L
153.232 76.967 L
153.476 76.87 L
153.721 76.781 L
153.966 76.699 L
154.211 76.625 L
154.456 76.56 L
154.7 76.505 L
154.945 76.46 L
155.19 76.425 L
155.435 76.401 L
155.679 76.388 L
155.924 76.387 L
156.169 76.398 L
156.414 76.422 L
156.659 76.458 L
156.903 76.507 L
157.148 76.569 L
157.393 76.643 L
157.638 76.731 L
157.882 76.831 L
158.127 76.943 L
158.372 77.068 L
158.617 77.204 L
158.861 77.352 L
159.106 77.51 L
159.351 77.679 L
159.596 77.857 L
159.841 78.044 L
160.085 78.239 L
160.33 78.442 L
160.575 78.65 L
160.82 78.864 L
161.064 79.083 L
161.309 79.305 L
161.554 79.529 L
161.799 79.754 L
162.044 79.98 L
162.288 80.205 L
162.533 80.428 L
162.778 80.649 L
163.023 80.865 L
163.267 81.077 L
163.512 81.284 L
163.757 81.483 L
164.002 81.676 L
164.247 81.86 L
164.491 82.036 L
164.736 82.202 L
164.981 82.358 L
165.226 82.504 L
165.47 82.64 L
165.715 82.764 L
165.96 82.877 L
166.205 82.978 L
166.449 83.068 L
166.694 83.146 L
166.939 83.213 L
167.184 83.268 L
167.429 83.313 L
167.673 83.346 L
167.918 83.37 L
168.163 83.382 L
168.408 83.386 L
168.652 83.379 L
168.897 83.365 L
169.142 83.341 L
169.387 83.31 L
169.632 83.272 L
169.876 83.227 L
170.121 83.176 L
170.366 83.12 L
170.611 83.058 L
170.855 82.992 L
171.1 82.922 L
171.345 82.849 L
171.59 82.773 L
171.834 82.694 L
172.079 82.614 L
172.324 82.533 L
172.569 82.45 L
172.814 82.367 L
173.058 82.284 L
173.303 82.202 L
173.548 82.12 L
173.793 82.039 L
174.037 81.96 L
174.282 81.882 L
174.527 81.807 L
174.772 81.734 L
175.017 81.664 L
175.261 81.597 L
175.506 81.532 L
175.751 81.471 L
175.996 81.413 L
176.24 81.359 L
176.485 81.309 L
176.73 81.262 L
176.975 81.218 L
177.22 81.179 L
177.464 81.143 L
177.709 81.111 L
177.954 81.083 L
178.199 81.059 L
178.443 81.038 L
178.688 81.022 L
178.933 81.008 L
179.178 80.998 L
179.422 80.992 L
179.667 80.989 L
179.912 80.989 L
180.157 80.992 L
180.402 80.999 L
180.646 81.008 L
180.891 81.019 L
181.136 81.034 L
181.381 81.05 L
181.625 81.069 L
181.87 81.09 L
182.115 81.113 L
182.36 81.138 L
182.605 81.164 L
182.849 81.192 L
183.094 81.222 L
183.339 81.252 L
183.584 81.283 L
183.828 81.316 L
184.073 81.349 L
184.318 81.382 L
184.563 81.416 L
184.807 81.45 L
185.052 81.485 L
185.297 81.519 L
185.542 81.553 L
185.787 81.587 L
186.031 81.62 L
186.276 81.653 L
186.521 81.685 L
186.766 81.716 L
187.01 81.747 L
187.255 81.776 L
187.5 81.805 L
187.745 81.832 L
187.99 81.858 L
188.234 81.883 L
188.479 81.906 L
188.724 81.928 L
188.969 81.949 L
189.213 81.968 L
189.458 81.986 L
189.703 82.002 L
189.948 82.017 L
190.193 82.03 L
190.437 82.042 L
190.682 82.053 L
190.927 82.062 L
191.172 82.07 L
191.416 82.077 L
191.661 82.083 L
191.906 82.088 L
192.151 82.091 L
192.395 82.094 L
192.64 82.095 L
192.885 82.096 L
193.13 82.096 L
193.375 82.095 L
193.619 82.094 L
193.864 82.092 L
194.109 82.089 L
194.354 82.087 L
194.598 82.083 L
194.843 82.08 L
195.088 82.076 L
195.333 82.073 L
195.578 82.069 L
195.822 82.066 L
196.067 82.062 L
196.312 82.059 L
196.557 82.057 L
196.801 82.055 L
197.046 82.054 L
197.291 82.054 L
197.536 82.055 L
197.78 82.057 L
198.025 82.06 L
198.27 82.065 L
198.515 82.072 L
198.76 82.08 L
199.004 82.091 L
199.249 82.103 L
199.494 82.118 L
199.739 82.135 L
199.983 82.154 L
200.228 82.175 L
200.473 82.197 L
200.718 82.222 L
200.963 82.247 L
201.207 82.274 L
201.452 82.301 L
201.697 82.328 L
201.942 82.353 L
202.186 82.377 L
202.431 82.399 L
202.676 82.416 L
202.921 82.428 L
203.166 82.434 L
203.41 82.433 L
203.655 82.422 L
203.9 82.4 L
204.145 82.366 L
204.389 82.318 L
204.634 82.254 L
204.879 82.173 L
205.124 82.072 L
205.368 81.95 L
205.613 81.805 L
205.858 81.635 L
206.103 81.438 L
206.348 81.212 L
206.592 80.957 L
206.837 80.67 L
207.082 80.35 L
207.327 79.996 L
207.571 79.607 L
207.816 79.182 L
208.061 78.721 L
208.306 78.225 L
208.551 77.693 L
208.795 77.127 L
209.04 76.527 L
209.285 75.895 L
209.53 75.235 L
209.774 74.547 L
210.019 73.836 L
210.264 73.103 L
210.509 72.354 L
210.753 71.592 L
210.998 70.821 L
211.243 70.046 L
211.488 69.269 L
211.733 68.495 L
211.977 67.729 L
212.222 66.974 L
212.467 66.234 L
212.712 65.512 L
212.956 64.811 L
213.201 64.133 L
213.446 63.482 L
213.691 62.859 L
213.936 62.266 L
214.18 61.705 L
214.425 61.177 L
214.67 60.682 L
214.915 60.223 L
215.159 59.8 L
215.404 59.412 L
215.649 59.06 L
215.894 58.743 L
216.139 58.462 L
216.383 58.215 L
216.628 58.002 L
216.873 57.821 L
217.118 57.672 L
217.362 57.553 L
217.607 57.463 L
217.852 57.4 L
218.097 57.363 L
218.341 57.351 L
218.586 57.361 L
218.831 57.393 L
219.076 57.444 L
219.321 57.512 L
219.565 57.597 L
219.81 57.697 L
220.055 57.809 L
220.3 57.934 L
220.544 58.069 L
220.789 58.215 L
221.034 58.37 L
221.279 58.535 L
221.524 58.71 L
221.768 58.896 L
222.013 59.094 L
222.258 59.306 L
222.503 59.534 L
222.747 59.781 L
222.992 60.05 L
223.237 60.345 L
223.482 60.667 L
223.726 61.022 L
223.971 61.413 L
224.216 61.843 L
224.461 62.316 L
224.706 62.835 L
224.95 63.402 L
225.195 64.021 L
225.44 64.692 L
225.685 65.417 L
225.929 66.197 L
226.174 67.032 L
226.419 67.922 L
226.664 68.865 L
226.909 69.861 L
227.153 70.906 L
227.398 71.999 L
227.643 73.136 L
227.888 74.314 L
228.132 75.529 L
228.377 76.777 L
228.622 78.053 L
228.867 79.353 L
229.111 80.673 L
229.356 82.007 L
229.601 83.35 L
229.846 84.698 L
230.091 86.047 L
230.335 87.39 L
230.58 88.725 L
230.825 90.046 L
231.07 91.349 L
231.314 92.631 L
231.559 93.887 L
231.804 95.115 L
232.049 96.31 L
232.294 97.469 L
232.538 98.59 L
232.783 99.67 L
233.028 100.707 L
233.273 101.699 L
233.517 102.643 L
233.762 103.539 L
234.007 104.385 L
234.252 105.182 L
234.497 105.928 L
234.741 106.624 L
234.986 107.271 L
235.231 107.871 L
235.476 108.425 L
235.72 108.935 L
235.965 109.404 L
236.21 109.837 L
236.455 110.236 L
236.699 110.607 L
236.944 110.955 L
237.189 111.285 L
237.434 111.603 L
237.679 111.915 L
237.923 112.227 L
238.168 112.547 L
238.413 112.881 L
238.658 113.235 L
238.902 113.616 L
239.147 114.029 L
239.392 114.48 L
239.637 114.975 L
239.882 115.516 L
240.126 116.109 L
240.371 116.754 L
240.616 117.454 L
240.861 118.21 L
241.105 119.02 L
241.35 119.883 L
241.595 120.796 L
241.84 121.754 L
242.084 122.754 L
242.329 123.788 L
242.574 124.85 L
242.819 125.933 L
243.064 127.028 L
243.308 128.127 L
243.553 129.221 L
243.798 130.301 L
244.043 131.36 L
244.287 132.388 L
244.532 133.378 L
244.777 134.322 L
245.022 135.213 L
245.267 136.046 L
245.511 136.815 L
245.756 137.516 L
246.001 138.144 L
246.246 138.697 L
246.49 139.174 L
246.735 139.573 L
246.98 139.895 L
247.225 140.14 L
247.469 140.31 L
247.714 140.409 L
247.959 140.44 L
248.204 140.406 L
248.449 140.314 L
248.693 140.168 L
248.938 139.973 L
249.183 139.736 L
249.428 139.462 L
249.672 139.155 L
249.917 138.82 L
250.162 138.461 L
250.407 138.081 L
250.652 137.682 L
250.896 137.266 L
251.141 136.834 L
251.386 136.385 L
251.631 135.919 L
251.875 135.437 L
252.12 134.935 L
252.365 134.414 L
252.61 133.871 L
252.855 133.306 L
253.099 132.718 L
253.344 132.106 L
253.589 131.469 L
253.834 130.807 L
254.078 130.121 L
254.323 129.411 L
254.568 128.678 L
254.813 127.923 L
255.057 127.147 L
255.302 126.352 L
255.547 125.54 L
255.792 124.714 L
256.037 123.875 L
256.281 123.027 L
256.526 122.171 L
256.771 121.311 L
257.016 120.45 L
257.26 119.589 L
257.505 118.733 L
257.75 117.884 L
257.995 117.045 L
258.24 116.218 L
258.484 115.406 L
258.729 114.61 L
258.974 113.834 L
259.219 113.078 L
259.463 112.343 L
259.708 111.631 L
259.953 110.943 L
260.198 110.278 L
260.443 109.637 L
260.687 109.02 L
260.932 108.428 L
261.177 107.859 L
261.422 107.313 L
261.666 106.791 L
261.911 106.292 L
262.156 105.815 L
262.401 105.36 L
262.645 104.927 L
262.89 104.516 L
263.135 104.125 L
263.38 103.756 L
263.625 103.406 L
263.869 103.077 L
264.114 102.766 L
264.359 102.475 L
264.604 102.202 L
264.848 101.947 L
265.093 101.71 L
265.338 101.489 L
265.583 101.285 L
265.828 101.098 L
266.072 100.926 L
266.317 100.77 L
266.562 100.629 L
266.807 100.503 L
267.051 100.392 L
267.296 100.295 L
267.541 100.213 L
267.786 100.143 L
268.03 100.088 L
268.275 100.045 L
268.52 100.015 L
268.765 99.998 L
269.01 99.992 L
269.254 99.998 L
269.499 100.015 L
269.744 100.042 L
269.989 100.079 L
270.233 100.126 L
270.478 100.181 L
270.723 100.244 L
270.968 100.314 L
271.213 100.391 L
271.457 100.473 L
271.702 100.561 L
271.947 100.652 L
272.192 100.746 L
272.436 100.843 L
272.681 100.941 L
272.926 101.039 L
273.171 101.137 L
273.415 101.233 L
273.66 101.326 L
273.905 101.417 L
274.15 101.503 L
274.395 101.583 L
274.639 101.659 L
274.884 101.727 L
275.129 101.788 L
275.374 101.842 L
275.618 101.887 L
275.863 101.923 L
276.108 101.949 L
276.353 101.966 L
276.598 101.973 L
276.842 101.97 L
277.087 101.956 L
277.332 101.932 L
277.577 101.898 L
277.821 101.853 L
278.066 101.798 L
278.311 101.733 L
278.556 101.659 L
278.801 101.574 L
279.045 101.481 L
279.29 101.378 L
279.535 101.267 L
279.78 101.147 L
280.024 101.02 L
280.269 100.885 L
280.514 100.743 L
280.759 100.595 L
281.003 100.441 L
281.248 100.28 L
281.493 100.115 L
281.738 99.945 L
281.983 99.77 L
282.227 99.591 L
282.472 99.408 L
282.717 99.222 L
282.962 99.033 L
283.206 98.841 L
283.451 98.648 L
283.696 98.452 L
283.941 98.255 L
284.186 98.056 L
284.43 97.857 L
284.675 97.657 L
284.92 97.457 L
285.165 97.258 L
285.409 97.058 L
285.654 96.859 L
285.899 96.661 L
286.144 96.464 L
286.388 96.269 L
286.633 96.075 L
286.878 95.883 L
287.123 95.694 L
287.368 95.507 L
287.612 95.323 L
287.857 95.142 L
288.102 94.965 L
288.347 94.791 L
288.591 94.621 L
288.836 94.455 L
289.081 94.293 L
289.326 94.137 L
289.571 93.985 L
289.815 93.838 L
290.06 93.697 L
290.305 93.561 L
290.55 93.432 L
290.794 93.308 L
291.039 93.191 L
291.284 93.081 L
291.529 92.978 L
291.774 92.881 L
292.018 92.792 L
292.263 92.71 L
292.508 92.636 L
292.753 92.569 L
292.997 92.51 L
293.242 92.46 L
293.487 92.417 L
293.732 92.383 L
293.976 92.357 L
294.221 92.34 L
294.466 92.331 L
294.711 92.331 L
294.956 92.339 L
295.2 92.357 L
295.445 92.382 L
295.69 92.417 L
295.935 92.46 L
296.179 92.512 L
296.424 92.573 L
296.669 92.642 L
296.914 92.719 L
297.159 92.805 L
297.403 92.899 L
297.648 93.002 L
297.893 93.112 L
298.138 93.23 L
298.382 93.356 L
298.627 93.489 L
298.872 93.63 L
299.117 93.777 L
299.362 93.932 L
299.606 94.092 L
299.851 94.259 L
300.096 94.432 L
300.341 94.611 L
300.585 94.794 L
300.83 94.983 L
301.075 95.176 L
301.32 95.373 L
301.564 95.574 L
301.809 95.779 L
302.054 95.986 L
302.299 96.196 L
302.544 96.408 L
302.788 96.621 L
303.033 96.836 L
303.278 97.052 L
303.523 97.268 L
303.767 97.484 L
304.012 97.699 L
304.257 97.913 L
304.502 98.126 L
304.747 98.337 L
304.991 98.546 L
305.236 98.752 L
305.481 98.955 L
305.726 99.154 L
305.97 99.349 L
306.215 99.541 L
306.46 99.727 L
306.705 99.908 L
306.949 100.084 L
307.194 100.255 L
307.439 100.419 L
307.684 100.578 L
307.929 100.729 L
308.173 100.874 L
308.418 101.013 L
308.663 101.144 L
308.908 101.267 L
309.152 101.384 L
309.397 101.492 L
309.642 101.593 L
309.887 101.687 L
310.132 101.772 L
310.376 101.849 L
310.621 101.918 L
310.866 101.979 L
311.111 102.032 L
311.355 102.077 L
311.6 102.114 L
311.845 102.142 L
312.09 102.163 L
312.335 102.175 L
312.579 102.179 L
312.824 102.175 L
313.069 102.163 L
313.314 102.144 L
313.558 102.116 L
313.803 102.08 L
314.048 102.037 L
314.293 101.986 L
314.537 101.927 L
314.782 101.861 L
315.027 101.787 L
315.272 101.706 L
315.517 101.618 L
315.761 101.522 L
316.006 101.419 L
316.251 101.309 L
316.496 101.192 L
316.74 101.068 L
316.985 100.937 L
317.23 100.799 L
317.475 100.655 L
317.72 100.505 L
317.964 100.348 L
318.209 100.185 L
318.454 100.015 L
318.699 99.84 L
318.943 99.659 L
319.188 99.473 L
319.433 99.281 L
319.678 99.083 L
319.922 98.881 L
320.167 98.674 L
320.412 98.461 L
320.657 98.245 L
320.902 98.024 L
321.146 97.799 L
321.391 97.57 L
321.636 97.338 L
321.881 97.102 L
322.125 96.863 L
322.37 96.622 L
322.615 96.377 L
322.86 96.131 L
323.105 95.882 L
323.349 95.631 L
323.594 95.379 L
323.839 95.126 L
324.084 94.871 L
324.328 94.616 L
324.573 94.36 L
324.818 94.105 L
325.063 93.849 L
325.307 93.594 L
325.552 93.339 L
325.797 93.085 L
326.042 92.833 L
326.287 92.581 L
326.531 92.332 L
326.776 92.084 L
327.021 91.839 L
327.266 91.596 L
327.51 91.356 L
327.755 91.119 L
328 90.884 L
328.034 90.853 L
S
GR
GS
[0.78305 0 0 0.78377 0 -0.07875] CT
1 LJ
2.172 LW
N
47 83.544 M
47.245 83.595 L
47.49 83.648 L
47.734 83.701 L
47.979 83.756 L
48.224 83.811 L
48.469 83.867 L
48.713 83.924 L
48.958 83.982 L
49.203 84.04 L
49.448 84.098 L
49.693 84.157 L
49.937 84.216 L
50.182 84.275 L
50.427 84.334 L
50.672 84.393 L
50.916 84.452 L
51.161 84.511 L
51.406 84.57 L
51.651 84.628 L
51.895 84.686 L
52.14 84.743 L
52.385 84.8 L
52.63 84.856 L
52.875 84.911 L
53.119 84.965 L
53.364 85.018 L
53.609 85.07 L
53.854 85.121 L
54.098 85.17 L
54.343 85.219 L
54.588 85.266 L
54.833 85.311 L
55.078 85.355 L
55.322 85.397 L
55.567 85.437 L
55.812 85.476 L
56.057 85.513 L
56.301 85.547 L
56.546 85.58 L
56.791 85.611 L
57.036 85.64 L
57.28 85.667 L
57.525 85.691 L
57.77 85.713 L
58.015 85.733 L
58.26 85.751 L
58.504 85.766 L
58.749 85.779 L
58.994 85.789 L
59.239 85.797 L
59.483 85.803 L
59.728 85.806 L
59.973 85.806 L
60.218 85.804 L
60.463 85.8 L
60.707 85.792 L
60.952 85.783 L
61.197 85.771 L
61.442 85.756 L
61.686 85.739 L
61.931 85.719 L
62.176 85.697 L
62.421 85.672 L
62.666 85.645 L
62.91 85.616 L
63.155 85.584 L
63.4 85.549 L
63.645 85.513 L
63.889 85.474 L
64.134 85.433 L
64.379 85.39 L
64.624 85.344 L
64.868 85.297 L
65.113 85.248 L
65.358 85.196 L
65.603 85.143 L
65.848 85.088 L
66.092 85.031 L
66.337 84.972 L
66.582 84.912 L
66.827 84.85 L
67.071 84.787 L
67.316 84.722 L
67.561 84.656 L
67.806 84.589 L
68.051 84.52 L
68.295 84.451 L
68.54 84.38 L
68.785 84.309 L
69.03 84.237 L
69.274 84.164 L
69.519 84.09 L
69.764 84.016 L
70.009 83.941 L
70.253 83.866 L
70.498 83.791 L
70.743 83.716 L
70.988 83.64 L
71.233 83.564 L
71.477 83.489 L
71.722 83.413 L
71.967 83.338 L
72.212 83.263 L
72.456 83.189 L
72.701 83.115 L
72.946 83.041 L
73.191 82.968 L
73.436 82.896 L
73.68 82.825 L
73.925 82.754 L
74.17 82.684 L
74.415 82.615 L
74.659 82.548 L
74.904 82.481 L
75.149 82.415 L
75.394 82.351 L
75.639 82.288 L
75.883 82.226 L
76.128 82.165 L
76.373 82.105 L
76.618 82.047 L
76.862 81.991 L
77.107 81.935 L
77.352 81.881 L
77.597 81.829 L
77.841 81.778 L
78.086 81.728 L
78.331 81.68 L
78.576 81.634 L
78.821 81.588 L
79.065 81.544 L
79.31 81.502 L
79.555 81.461 L
79.8 81.421 L
80.044 81.383 L
80.289 81.346 L
80.534 81.31 L
80.779 81.276 L
81.024 81.242 L
81.268 81.21 L
81.513 81.179 L
81.758 81.15 L
82.003 81.121 L
82.247 81.093 L
82.492 81.066 L
82.737 81.04 L
82.982 81.015 L
83.226 80.991 L
83.471 80.968 L
83.716 80.945 L
83.961 80.924 L
84.206 80.902 L
84.45 80.882 L
84.695 80.862 L
84.94 80.842 L
85.185 80.823 L
85.429 80.805 L
85.674 80.787 L
85.919 80.769 L
86.164 80.752 L
86.409 80.735 L
86.653 80.718 L
86.898 80.702 L
87.143 80.686 L
87.388 80.67 L
87.632 80.654 L
87.877 80.639 L
88.122 80.624 L
88.367 80.609 L
88.611 80.594 L
88.856 80.58 L
89.101 80.566 L
89.346 80.552 L
89.591 80.538 L
89.835 80.524 L
90.08 80.511 L
90.325 80.498 L
90.57 80.485 L
90.814 80.473 L
91.059 80.46 L
91.304 80.448 L
91.549 80.437 L
91.794 80.425 L
92.038 80.414 L
92.283 80.404 L
92.528 80.394 L
92.773 80.384 L
93.017 80.374 L
93.262 80.366 L
93.507 80.357 L
93.752 80.35 L
93.997 80.342 L
94.241 80.336 L
94.486 80.33 L
94.731 80.325 L
94.976 80.32 L
95.22 80.316 L
95.465 80.313 L
95.71 80.311 L
95.955 80.31 L
96.199 80.309 L
96.444 80.31 L
96.689 80.311 L
96.934 80.313 L
97.179 80.317 L
97.423 80.321 L
97.668 80.326 L
97.913 80.333 L
98.158 80.34 L
98.402 80.349 L
98.647 80.358 L
98.892 80.369 L
99.137 80.381 L
99.382 80.394 L
99.626 80.407 L
99.871 80.423 L
100.116 80.439 L
100.361 80.456 L
100.605 80.474 L
100.85 80.493 L
101.095 80.514 L
101.34 80.535 L
101.584 80.557 L
101.829 80.58 L
102.074 80.604 L
102.319 80.629 L
102.564 80.655 L
102.808 80.681 L
103.053 80.708 L
103.298 80.736 L
103.543 80.764 L
103.787 80.793 L
104.032 80.823 L
104.277 80.853 L
104.522 80.884 L
104.767 80.915 L
105.011 80.946 L
105.256 80.977 L
105.501 81.009 L
105.746 81.041 L
105.99 81.073 L
106.235 81.105 L
106.48 81.138 L
106.725 81.17 L
106.97 81.202 L
107.214 81.235 L
107.459 81.267 L
107.704 81.299 L
107.949 81.331 L
108.193 81.363 L
108.438 81.394 L
108.683 81.426 L
108.928 81.457 L
109.172 81.487 L
109.417 81.518 L
109.662 81.548 L
109.907 81.578 L
110.152 81.607 L
110.396 81.636 L
110.641 81.665 L
110.886 81.694 L
111.131 81.722 L
111.375 81.749 L
111.62 81.777 L
111.865 81.804 L
112.11 81.83 L
112.355 81.856 L
112.599 81.882 L
112.844 81.908 L
113.089 81.933 L
113.334 81.958 L
113.578 81.982 L
113.823 82.006 L
114.068 82.03 L
114.313 82.054 L
114.557 82.077 L
114.802 82.1 L
115.047 82.122 L
115.292 82.144 L
115.537 82.166 L
115.781 82.188 L
116.026 82.209 L
116.271 82.229 L
116.516 82.25 L
116.76 82.27 L
117.005 82.29 L
117.25 82.309 L
117.495 82.328 L
117.74 82.346 L
117.984 82.364 L
118.229 82.382 L
118.474 82.399 L
118.719 82.415 L
118.963 82.431 L
119.208 82.447 L
119.453 82.461 L
119.698 82.475 L
119.943 82.489 L
120.187 82.502 L
120.432 82.514 L
120.677 82.525 L
120.922 82.535 L
121.166 82.545 L
121.411 82.553 L
121.656 82.561 L
121.901 82.568 L
122.145 82.574 L
122.39 82.579 L
122.635 82.583 L
122.88 82.586 L
123.125 82.588 L
123.369 82.589 L
123.614 82.589 L
123.859 82.587 L
124.104 82.585 L
124.348 82.581 L
124.593 82.577 L
124.838 82.571 L
125.083 82.564 L
125.328 82.557 L
125.572 82.548 L
125.817 82.538 L
126.062 82.526 L
126.307 82.514 L
126.551 82.501 L
126.796 82.487 L
127.041 82.471 L
127.286 82.455 L
127.53 82.437 L
127.775 82.419 L
128.02 82.4 L
128.265 82.38 L
128.51 82.359 L
128.754 82.337 L
128.999 82.314 L
129.244 82.291 L
129.489 82.266 L
129.733 82.241 L
129.978 82.216 L
130.223 82.19 L
130.468 82.163 L
130.713 82.135 L
130.957 82.107 L
131.202 82.079 L
131.447 82.05 L
131.692 82.021 L
131.936 81.992 L
132.181 81.962 L
132.426 81.933 L
132.671 81.903 L
132.916 81.873 L
133.16 81.843 L
133.405 81.814 L
133.65 81.784 L
133.895 81.755 L
134.139 81.726 L
134.384 81.698 L
134.629 81.67 L
134.874 81.643 L
135.118 81.616 L
135.363 81.59 L
135.608 81.565 L
135.853 81.541 L
136.098 81.517 L
136.342 81.495 L
136.587 81.473 L
136.832 81.453 L
137.077 81.433 L
137.321 81.415 L
137.566 81.397 L
137.811 81.381 L
138.056 81.366 L
138.301 81.351 L
138.545 81.338 L
138.79 81.325 L
139.035 81.313 L
139.28 81.302 L
139.524 81.292 L
139.769 81.281 L
140.014 81.271 L
140.259 81.262 L
140.503 81.252 L
140.748 81.242 L
140.993 81.231 L
141.238 81.22 L
141.483 81.208 L
141.727 81.194 L
141.972 81.18 L
142.217 81.163 L
142.462 81.145 L
142.706 81.124 L
142.951 81.101 L
143.196 81.076 L
143.441 81.047 L
143.686 81.015 L
143.93 80.979 L
144.175 80.939 L
144.42 80.896 L
144.665 80.848 L
144.909 80.795 L
145.154 80.738 L
145.399 80.676 L
145.644 80.608 L
145.889 80.535 L
146.133 80.457 L
146.378 80.374 L
146.623 80.285 L
146.868 80.191 L
147.112 80.092 L
147.357 79.988 L
147.602 79.878 L
147.847 79.764 L
148.091 79.645 L
148.336 79.522 L
148.581 79.396 L
148.826 79.266 L
149.071 79.132 L
149.315 78.996 L
149.56 78.859 L
149.805 78.719 L
150.05 78.578 L
150.294 78.437 L
150.539 78.296 L
150.784 78.155 L
151.029 78.015 L
151.274 77.877 L
151.518 77.741 L
151.763 77.608 L
152.008 77.479 L
152.253 77.353 L
152.497 77.231 L
152.742 77.115 L
152.987 77.004 L
153.232 76.9 L
153.476 76.802 L
153.721 76.712 L
153.966 76.629 L
154.211 76.555 L
154.456 76.49 L
154.7 76.435 L
154.945 76.389 L
155.19 76.354 L
155.435 76.33 L
155.679 76.318 L
155.924 76.317 L
156.169 76.329 L
156.414 76.353 L
156.659 76.39 L
156.903 76.439 L
157.148 76.501 L
157.393 76.576 L
157.638 76.664 L
157.882 76.765 L
158.127 76.878 L
158.372 77.003 L
158.617 77.139 L
158.861 77.287 L
159.106 77.446 L
159.351 77.615 L
159.596 77.793 L
159.841 77.98 L
160.085 78.175 L
160.33 78.377 L
160.575 78.585 L
160.82 78.798 L
161.064 79.016 L
161.309 79.236 L
161.554 79.459 L
161.799 79.683 L
162.044 79.906 L
162.288 80.129 L
162.533 80.35 L
162.778 80.567 L
163.023 80.781 L
163.267 80.99 L
163.512 81.192 L
163.757 81.388 L
164.002 81.577 L
164.247 81.757 L
164.491 81.928 L
164.736 82.09 L
164.981 82.242 L
165.226 82.383 L
165.47 82.514 L
165.715 82.633 L
165.96 82.741 L
166.205 82.838 L
166.449 82.923 L
166.694 82.996 L
166.939 83.059 L
167.184 83.11 L
167.429 83.15 L
167.673 83.179 L
167.918 83.198 L
168.163 83.207 L
168.408 83.207 L
168.652 83.197 L
168.897 83.179 L
169.142 83.153 L
169.387 83.12 L
169.632 83.079 L
169.876 83.032 L
170.121 82.979 L
170.366 82.921 L
170.611 82.858 L
170.855 82.791 L
171.1 82.72 L
171.345 82.647 L
171.59 82.57 L
171.834 82.492 L
172.079 82.412 L
172.324 82.331 L
172.569 82.249 L
172.814 82.167 L
173.058 82.085 L
173.303 82.003 L
173.548 81.923 L
173.793 81.844 L
174.037 81.766 L
174.282 81.691 L
174.527 81.617 L
174.772 81.546 L
175.017 81.478 L
175.261 81.412 L
175.506 81.35 L
175.751 81.291 L
175.996 81.235 L
176.24 81.182 L
176.485 81.134 L
176.73 81.088 L
176.975 81.047 L
177.22 81.009 L
177.464 80.975 L
177.709 80.944 L
177.954 80.917 L
178.199 80.894 L
178.443 80.874 L
178.688 80.857 L
178.933 80.844 L
179.178 80.835 L
179.422 80.828 L
179.667 80.825 L
179.912 80.824 L
180.157 80.826 L
180.402 80.831 L
180.646 80.839 L
180.891 80.849 L
181.136 80.862 L
181.381 80.876 L
181.625 80.893 L
181.87 80.911 L
182.115 80.931 L
182.36 80.953 L
182.605 80.977 L
182.849 81.001 L
183.094 81.027 L
183.339 81.054 L
183.584 81.082 L
183.828 81.11 L
184.073 81.14 L
184.318 81.169 L
184.563 81.199 L
184.807 81.23 L
185.052 81.26 L
185.297 81.29 L
185.542 81.32 L
185.787 81.35 L
186.031 81.38 L
186.276 81.409 L
186.521 81.437 L
186.766 81.465 L
187.01 81.492 L
187.255 81.518 L
187.5 81.543 L
187.745 81.567 L
187.99 81.59 L
188.234 81.612 L
188.479 81.632 L
188.724 81.652 L
188.969 81.67 L
189.213 81.687 L
189.458 81.702 L
189.703 81.717 L
189.948 81.73 L
190.193 81.742 L
190.437 81.752 L
190.682 81.762 L
190.927 81.77 L
191.172 81.778 L
191.416 81.784 L
191.661 81.789 L
191.906 81.793 L
192.151 81.797 L
192.395 81.799 L
192.64 81.801 L
192.885 81.802 L
193.13 81.803 L
193.375 81.803 L
193.619 81.803 L
193.864 81.802 L
194.109 81.801 L
194.354 81.799 L
194.598 81.798 L
194.843 81.796 L
195.088 81.794 L
195.333 81.792 L
195.578 81.79 L
195.822 81.789 L
196.067 81.787 L
196.312 81.786 L
196.557 81.785 L
196.801 81.785 L
197.046 81.785 L
197.291 81.786 L
197.536 81.787 L
197.78 81.79 L
198.025 81.794 L
198.27 81.798 L
198.515 81.804 L
198.76 81.812 L
199.004 81.821 L
199.249 81.831 L
199.494 81.843 L
199.739 81.857 L
199.983 81.873 L
200.228 81.89 L
200.473 81.909 L
200.718 81.929 L
200.963 81.951 L
201.207 81.974 L
201.452 81.997 L
201.697 82.02 L
201.942 82.043 L
202.186 82.065 L
202.431 82.086 L
202.676 82.104 L
202.921 82.118 L
203.166 82.128 L
203.41 82.132 L
203.655 82.129 L
203.9 82.118 L
204.145 82.097 L
204.389 82.064 L
204.634 82.019 L
204.879 81.959 L
205.124 81.882 L
205.368 81.787 L
205.613 81.672 L
205.858 81.535 L
206.103 81.374 L
206.348 81.187 L
206.592 80.972 L
206.837 80.728 L
207.082 80.453 L
207.327 80.145 L
207.571 79.804 L
207.816 79.428 L
208.061 79.016 L
208.306 78.568 L
208.551 78.083 L
208.795 77.563 L
209.04 77.007 L
209.285 76.418 L
209.53 75.796 L
209.774 75.144 L
210.019 74.465 L
210.264 73.762 L
210.509 73.038 L
210.753 72.296 L
210.998 71.543 L
211.243 70.78 L
211.488 70.013 L
211.733 69.247 L
211.977 68.485 L
212.222 67.732 L
212.467 66.992 L
212.712 66.268 L
212.956 65.564 L
213.201 64.885 L
213.446 64.231 L
213.691 63.608 L
213.936 63.016 L
214.18 62.458 L
214.425 61.937 L
214.67 61.452 L
214.915 61.007 L
215.159 60.601 L
215.404 60.236 L
215.649 59.911 L
215.894 59.627 L
216.139 59.384 L
216.383 59.181 L
216.628 59.017 L
216.873 58.892 L
217.118 58.805 L
217.362 58.753 L
217.607 58.737 L
217.852 58.753 L
218.097 58.802 L
218.341 58.88 L
218.586 58.986 L
218.831 59.118 L
219.076 59.275 L
219.321 59.455 L
219.565 59.657 L
219.81 59.878 L
220.055 60.119 L
220.3 60.377 L
220.544 60.653 L
220.789 60.946 L
221.034 61.257 L
221.279 61.586 L
221.524 61.934 L
221.768 62.302 L
222.013 62.692 L
222.258 63.106 L
222.503 63.546 L
222.747 64.014 L
222.992 64.512 L
223.237 65.043 L
223.482 65.609 L
223.726 66.21 L
223.971 66.85 L
224.216 67.528 L
224.461 68.245 L
224.706 69.003 L
224.95 69.799 L
225.195 70.635 L
225.44 71.507 L
225.685 72.416 L
225.929 73.359 L
226.174 74.334 L
226.419 75.338 L
226.664 76.368 L
226.909 77.423 L
227.153 78.498 L
227.398 79.59 L
227.643 80.697 L
227.888 81.816 L
228.132 82.943 L
228.377 84.075 L
228.622 85.21 L
228.867 86.345 L
229.111 87.477 L
229.356 88.605 L
229.601 89.726 L
229.846 90.838 L
230.091 91.939 L
230.335 93.029 L
230.58 94.107 L
230.825 95.171 L
231.07 96.22 L
231.314 97.256 L
231.559 98.277 L
231.804 99.285 L
232.049 100.279 L
232.294 101.26 L
232.538 102.231 L
232.783 103.191 L
233.028 104.143 L
233.273 105.089 L
233.517 106.031 L
233.762 106.97 L
234.007 107.91 L
234.252 108.853 L
234.497 109.802 L
234.741 110.759 L
234.986 111.727 L
235.231 112.708 L
235.476 113.705 L
235.72 114.721 L
235.965 115.756 L
236.21 116.814 L
236.455 117.894 L
236.699 118.998 L
236.944 120.125 L
237.189 121.276 L
237.434 122.449 L
237.679 123.642 L
237.923 124.854 L
238.168 126.079 L
238.413 127.315 L
238.658 128.558 L
238.902 129.8 L
239.147 131.038 L
239.392 132.264 L
239.637 133.473 L
239.882 134.658 L
240.126 135.811 L
240.371 136.928 L
240.616 138 L
240.861 139.024 L
241.105 139.993 L
241.35 140.903 L
241.595 141.75 L
241.84 142.53 L
242.084 143.242 L
242.329 143.884 L
242.574 144.454 L
242.819 144.954 L
243.064 145.382 L
243.308 145.74 L
243.553 146.029 L
243.798 146.253 L
244.043 146.411 L
244.287 146.508 L
244.532 146.545 L
244.777 146.525 L
245.022 146.449 L
245.267 146.32 L
245.511 146.139 L
245.756 145.908 L
246.001 145.627 L
246.246 145.297 L
246.49 144.918 L
246.735 144.488 L
246.98 144.009 L
247.225 143.478 L
247.469 142.896 L
247.714 142.259 L
247.959 141.569 L
248.204 140.823 L
248.449 140.02 L
248.693 139.161 L
248.938 138.245 L
249.183 137.272 L
249.428 136.243 L
249.672 135.158 L
249.917 134.019 L
250.162 132.827 L
250.407 131.585 L
250.652 130.294 L
250.896 128.959 L
251.141 127.582 L
251.386 126.166 L
251.631 124.715 L
251.875 123.233 L
252.12 121.724 L
252.365 120.193 L
252.61 118.642 L
252.855 117.077 L
253.099 115.501 L
253.344 113.919 L
253.589 112.334 L
253.834 110.75 L
254.078 109.171 L
254.323 107.598 L
254.568 106.036 L
254.813 104.488 L
255.057 102.954 L
255.302 101.438 L
255.547 99.94 L
255.792 98.464 L
256.037 97.008 L
256.281 95.576 L
256.526 94.166 L
256.771 92.78 L
257.016 91.418 L
257.26 90.08 L
257.505 88.766 L
257.75 87.475 L
257.995 86.208 L
258.24 84.964 L
258.484 83.742 L
258.729 82.543 L
258.974 81.365 L
259.219 80.208 L
259.463 79.071 L
259.708 77.955 L
259.953 76.858 L
260.198 75.78 L
260.443 74.72 L
260.687 73.679 L
260.932 72.655 L
261.177 71.649 L
261.422 70.66 L
261.666 69.689 L
261.911 68.733 L
262.156 67.795 L
262.401 66.873 L
262.645 65.967 L
262.89 65.078 L
263.135 64.206 L
263.38 63.35 L
263.625 62.51 L
263.869 61.687 L
264.114 60.881 L
264.359 60.092 L
264.604 59.319 L
264.848 58.564 L
265.093 57.826 L
265.338 57.105 L
265.583 56.402 L
265.828 55.716 L
266.072 55.048 L
266.317 54.397 L
266.562 53.765 L
266.807 53.151 L
267.051 52.555 L
267.296 51.977 L
267.541 51.418 L
267.786 50.877 L
268.03 50.355 L
268.275 49.851 L
268.52 49.365 L
268.765 48.899 L
269.01 48.45 L
269.254 48.02 L
269.499 47.609 L
269.744 47.215 L
269.989 46.84 L
270.233 46.482 L
270.478 46.141 L
270.723 45.817 L
270.968 45.509 L
271.213 45.217 L
271.457 44.94 L
271.702 44.676 L
271.947 44.426 L
272.192 44.189 L
272.436 43.962 L
272.681 43.746 L
272.926 43.539 L
273.171 43.339 L
273.415 43.146 L
273.66 42.957 L
273.905 42.773 L
274.15 42.59 L
274.395 42.408 L
274.639 42.226 L
274.884 42.042 L
275.129 41.855 L
275.374 41.663 L
275.618 41.466 L
275.863 41.262 L
276.108 41.052 L
276.353 40.833 L
276.598 40.605 L
276.842 40.369 L
277.087 40.123 L
277.332 39.868 L
277.577 39.604 L
277.821 39.331 L
278.066 39.049 L
278.311 38.76 L
278.556 38.464 L
278.801 38.163 L
279.045 37.856 L
279.29 37.547 L
279.535 37.236 L
279.78 36.926 L
280.024 36.617 L
280.269 36.312 L
280.514 36.013 L
280.759 35.722 L
281.003 35.442 L
281.248 35.174 L
281.493 34.92 L
281.738 34.684 L
281.983 34.466 L
282.227 34.27 L
282.472 34.097 L
282.717 33.95 L
282.962 33.829 L
283.206 33.738 L
283.451 33.677 L
283.696 33.648 L
283.941 33.652 L
284.186 33.69 L
284.43 33.762 L
284.675 33.869 L
284.92 34.012 L
285.165 34.191 L
285.409 34.404 L
285.654 34.652 L
285.899 34.933 L
286.144 35.248 L
286.388 35.593 L
286.633 35.969 L
286.878 36.373 L
287.123 36.804 L
287.368 37.259 L
287.612 37.737 L
287.857 38.236 L
288.102 38.752 L
288.347 39.284 L
288.591 39.83 L
288.836 40.387 L
289.081 40.952 L
289.326 41.524 L
289.571 42.101 L
289.815 42.679 L
290.06 43.258 L
290.305 43.835 L
290.55 44.408 L
290.794 44.976 L
291.039 45.537 L
291.284 46.09 L
291.529 46.633 L
291.774 47.166 L
292.018 47.688 L
292.263 48.197 L
292.508 48.694 L
292.753 49.177 L
292.997 49.647 L
293.242 50.103 L
293.487 50.545 L
293.732 50.973 L
293.976 51.388 L
294.221 51.79 L
294.466 52.179 L
294.711 52.556 L
294.956 52.921 L
295.2 53.274 L
295.445 53.617 L
295.69 53.95 L
295.935 54.274 L
296.179 54.59 L
296.424 54.897 L
296.669 55.198 L
296.914 55.493 L
297.159 55.783 L
297.403 56.068 L
297.648 56.349 L
297.893 56.627 L
298.138 56.903 L
298.382 57.176 L
298.627 57.449 L
298.872 57.721 L
299.117 57.992 L
299.362 58.264 L
299.606 58.536 L
299.851 58.81 L
300.096 59.085 L
300.341 59.362 L
300.585 59.64 L
300.83 59.921 L
301.075 60.204 L
301.32 60.489 L
301.564 60.777 L
301.809 61.067 L
302.054 61.36 L
302.299 61.655 L
302.544 61.953 L
302.788 62.254 L
303.033 62.557 L
303.278 62.863 L
303.523 63.171 L
303.767 63.482 L
304.012 63.795 L
304.257 64.11 L
304.502 64.428 L
304.747 64.748 L
304.991 65.07 L
305.236 65.393 L
305.481 65.719 L
305.726 66.047 L
305.97 66.377 L
306.215 66.708 L
306.46 67.041 L
306.705 67.375 L
306.949 67.711 L
307.194 68.049 L
307.439 68.387 L
307.684 68.726 L
307.929 69.067 L
308.173 69.408 L
308.418 69.749 L
308.663 70.091 L
308.908 70.433 L
309.152 70.774 L
309.397 71.115 L
309.642 71.455 L
309.887 71.794 L
310.132 72.131 L
310.376 72.466 L
310.621 72.799 L
310.866 73.13 L
311.111 73.457 L
311.355 73.78 L
311.6 74.1 L
311.845 74.415 L
312.09 74.724 L
312.335 75.029 L
312.579 75.327 L
312.824 75.619 L
313.069 75.903 L
313.314 76.18 L
313.558 76.448 L
313.803 76.708 L
314.048 76.958 L
314.293 77.198 L
314.537 77.428 L
314.782 77.646 L
315.027 77.853 L
315.272 78.048 L
315.517 78.229 L
315.761 78.397 L
316.006 78.551 L
316.251 78.69 L
316.496 78.815 L
316.74 78.923 L
316.985 79.015 L
317.23 79.09 L
317.475 79.148 L
317.72 79.188 L
317.964 79.209 L
318.209 79.211 L
318.454 79.194 L
318.699 79.157 L
318.943 79.1 L
319.188 79.022 L
319.433 78.922 L
319.678 78.801 L
319.922 78.658 L
320.167 78.494 L
320.412 78.306 L
320.657 78.096 L
320.902 77.863 L
321.146 77.607 L
321.391 77.329 L
321.636 77.027 L
321.881 76.702 L
322.125 76.354 L
322.37 75.984 L
322.615 75.591 L
322.86 75.177 L
323.105 74.74 L
323.349 74.283 L
323.594 73.805 L
323.839 73.307 L
324.084 72.79 L
324.328 72.255 L
324.573 71.703 L
324.818 71.135 L
325.063 70.552 L
325.307 69.955 L
325.552 69.346 L
325.797 68.725 L
326.042 68.096 L
326.287 67.458 L
326.531 66.814 L
326.776 66.166 L
327.021 65.515 L
327.266 64.863 L
327.51 64.211 L
327.755 63.562 L
328 62.918 L
328.034 62.83 L
S
GR
GS
[0.78305 0 0 0.78377 0 -0.07875] CT
1 0 0 RC
[10 6] 0 setdash
2 LJ
1.789 LW
N
47 83.544 M
47.245 83.595 L
47.49 83.647 L
47.734 83.7 L
47.979 83.754 L
48.224 83.809 L
48.469 83.864 L
48.713 83.921 L
48.958 83.977 L
49.203 84.035 L
49.448 84.093 L
49.693 84.151 L
49.937 84.209 L
50.182 84.268 L
50.427 84.327 L
50.672 84.386 L
50.916 84.444 L
51.161 84.503 L
51.406 84.561 L
51.651 84.619 L
51.895 84.676 L
52.14 84.733 L
52.385 84.79 L
52.63 84.845 L
52.875 84.9 L
53.119 84.953 L
53.364 85.006 L
53.609 85.058 L
53.854 85.109 L
54.098 85.158 L
54.343 85.206 L
54.588 85.253 L
54.833 85.298 L
55.078 85.341 L
55.322 85.383 L
55.567 85.424 L
55.812 85.462 L
56.057 85.499 L
56.301 85.534 L
56.546 85.566 L
56.791 85.597 L
57.036 85.626 L
57.28 85.653 L
57.525 85.677 L
57.77 85.7 L
58.015 85.72 L
58.26 85.737 L
58.504 85.753 L
58.749 85.766 L
58.994 85.777 L
59.239 85.785 L
59.483 85.791 L
59.728 85.794 L
59.973 85.795 L
60.218 85.793 L
60.463 85.789 L
60.707 85.783 L
60.952 85.774 L
61.197 85.762 L
61.442 85.748 L
61.686 85.731 L
61.931 85.712 L
62.176 85.691 L
62.421 85.667 L
62.666 85.64 L
62.91 85.612 L
63.155 85.58 L
63.4 85.547 L
63.645 85.511 L
63.889 85.473 L
64.134 85.433 L
64.379 85.391 L
64.624 85.346 L
64.868 85.3 L
65.113 85.251 L
65.358 85.201 L
65.603 85.149 L
65.848 85.094 L
66.092 85.039 L
66.337 84.981 L
66.582 84.922 L
66.827 84.861 L
67.071 84.799 L
67.316 84.735 L
67.561 84.671 L
67.806 84.604 L
68.051 84.537 L
68.295 84.469 L
68.54 84.4 L
68.785 84.329 L
69.03 84.258 L
69.274 84.187 L
69.519 84.114 L
69.764 84.041 L
70.009 83.968 L
70.253 83.894 L
70.498 83.82 L
70.743 83.746 L
70.988 83.671 L
71.233 83.597 L
71.477 83.523 L
71.722 83.449 L
71.967 83.375 L
72.212 83.301 L
72.456 83.228 L
72.701 83.155 L
72.946 83.083 L
73.191 83.011 L
73.436 82.94 L
73.68 82.87 L
73.925 82.8 L
74.17 82.732 L
74.415 82.664 L
74.659 82.598 L
74.904 82.532 L
75.149 82.468 L
75.394 82.405 L
75.639 82.343 L
75.883 82.282 L
76.128 82.223 L
76.373 82.165 L
76.618 82.108 L
76.862 82.052 L
77.107 81.998 L
77.352 81.946 L
77.597 81.895 L
77.841 81.845 L
78.086 81.797 L
78.331 81.75 L
78.576 81.704 L
78.821 81.66 L
79.065 81.618 L
79.31 81.577 L
79.555 81.537 L
79.8 81.498 L
80.044 81.461 L
80.289 81.426 L
80.534 81.391 L
80.779 81.358 L
81.024 81.326 L
81.268 81.295 L
81.513 81.265 L
81.758 81.237 L
82.003 81.209 L
82.247 81.183 L
82.492 81.157 L
82.737 81.132 L
82.982 81.108 L
83.226 81.085 L
83.471 81.063 L
83.716 81.042 L
83.961 81.021 L
84.206 81.001 L
84.45 80.981 L
84.695 80.962 L
84.94 80.943 L
85.185 80.925 L
85.429 80.908 L
85.674 80.89 L
85.919 80.874 L
86.164 80.857 L
86.409 80.841 L
86.653 80.825 L
86.898 80.809 L
87.143 80.794 L
87.388 80.779 L
87.632 80.764 L
87.877 80.75 L
88.122 80.735 L
88.367 80.721 L
88.611 80.707 L
88.856 80.694 L
89.101 80.68 L
89.346 80.667 L
89.591 80.654 L
89.835 80.641 L
90.08 80.628 L
90.325 80.616 L
90.57 80.604 L
90.814 80.592 L
91.059 80.581 L
91.304 80.569 L
91.549 80.559 L
91.794 80.548 L
92.038 80.538 L
92.283 80.528 L
92.528 80.519 L
92.773 80.51 L
93.017 80.502 L
93.262 80.494 L
93.507 80.487 L
93.752 80.48 L
93.997 80.474 L
94.241 80.468 L
94.486 80.464 L
94.731 80.46 L
94.976 80.456 L
95.22 80.454 L
95.465 80.452 L
95.71 80.452 L
95.955 80.452 L
96.199 80.453 L
96.444 80.455 L
96.689 80.458 L
96.934 80.463 L
97.179 80.468 L
97.423 80.474 L
97.668 80.482 L
97.913 80.49 L
98.158 80.5 L
98.402 80.511 L
98.647 80.523 L
98.892 80.536 L
99.137 80.55 L
99.382 80.565 L
99.626 80.582 L
99.871 80.6 L
100.116 80.619 L
100.361 80.639 L
100.605 80.66 L
100.85 80.682 L
101.095 80.705 L
101.34 80.729 L
101.584 80.754 L
101.829 80.78 L
102.074 80.807 L
102.319 80.835 L
102.564 80.864 L
102.808 80.893 L
103.053 80.923 L
103.298 80.954 L
103.543 80.986 L
103.787 81.018 L
104.032 81.05 L
104.277 81.083 L
104.522 81.117 L
104.767 81.151 L
105.011 81.185 L
105.256 81.22 L
105.501 81.255 L
105.746 81.29 L
105.99 81.325 L
106.235 81.36 L
106.48 81.395 L
106.725 81.43 L
106.97 81.466 L
107.214 81.501 L
107.459 81.536 L
107.704 81.571 L
107.949 81.606 L
108.193 81.64 L
108.438 81.675 L
108.683 81.709 L
108.928 81.743 L
109.172 81.777 L
109.417 81.81 L
109.662 81.843 L
109.907 81.876 L
110.152 81.908 L
110.396 81.94 L
110.641 81.972 L
110.886 82.003 L
111.131 82.034 L
111.375 82.064 L
111.62 82.095 L
111.865 82.124 L
112.11 82.154 L
112.355 82.183 L
112.599 82.212 L
112.844 82.241 L
113.089 82.269 L
113.334 82.296 L
113.578 82.324 L
113.823 82.351 L
114.068 82.378 L
114.313 82.405 L
114.557 82.431 L
114.802 82.457 L
115.047 82.482 L
115.292 82.508 L
115.537 82.533 L
115.781 82.557 L
116.026 82.581 L
116.271 82.605 L
116.516 82.629 L
116.76 82.652 L
117.005 82.675 L
117.25 82.697 L
117.495 82.719 L
117.74 82.741 L
117.984 82.761 L
118.229 82.782 L
118.474 82.802 L
118.719 82.821 L
118.963 82.84 L
119.208 82.858 L
119.453 82.875 L
119.698 82.892 L
119.943 82.907 L
120.187 82.922 L
120.432 82.936 L
120.677 82.95 L
120.922 82.962 L
121.166 82.973 L
121.411 82.984 L
121.656 82.993 L
121.901 83.001 L
122.145 83.008 L
122.39 83.014 L
122.635 83.019 L
122.88 83.022 L
123.125 83.024 L
123.369 83.025 L
123.614 83.025 L
123.859 83.023 L
124.104 83.02 L
124.348 83.016 L
124.593 83.01 L
124.838 83.003 L
125.083 82.995 L
125.328 82.985 L
125.572 82.973 L
125.817 82.961 L
126.062 82.946 L
126.307 82.931 L
126.551 82.914 L
126.796 82.896 L
127.041 82.876 L
127.286 82.855 L
127.53 82.833 L
127.775 82.809 L
128.02 82.784 L
128.265 82.758 L
128.51 82.73 L
128.754 82.701 L
128.999 82.671 L
129.244 82.64 L
129.489 82.608 L
129.733 82.574 L
129.978 82.54 L
130.223 82.505 L
130.468 82.468 L
130.713 82.431 L
130.957 82.393 L
131.202 82.354 L
131.447 82.315 L
131.692 82.274 L
131.936 82.234 L
132.181 82.193 L
132.426 82.152 L
132.671 82.11 L
132.916 82.069 L
133.16 82.027 L
133.405 81.986 L
133.65 81.944 L
133.895 81.904 L
134.139 81.863 L
134.384 81.824 L
134.629 81.785 L
134.874 81.747 L
135.118 81.709 L
135.363 81.673 L
135.608 81.639 L
135.853 81.605 L
136.098 81.573 L
136.342 81.542 L
136.587 81.513 L
136.832 81.485 L
137.077 81.459 L
137.321 81.434 L
137.566 81.411 L
137.811 81.39 L
138.056 81.37 L
138.301 81.352 L
138.545 81.335 L
138.79 81.319 L
139.035 81.305 L
139.28 81.291 L
139.524 81.279 L
139.769 81.267 L
140.014 81.256 L
140.259 81.245 L
140.503 81.234 L
140.748 81.223 L
140.993 81.212 L
141.238 81.2 L
141.483 81.187 L
141.727 81.173 L
141.972 81.157 L
142.217 81.14 L
142.462 81.12 L
142.706 81.098 L
142.951 81.073 L
143.196 81.045 L
143.441 81.014 L
143.686 80.979 L
143.93 80.941 L
144.175 80.898 L
144.42 80.85 L
144.665 80.798 L
144.909 80.741 L
145.154 80.679 L
145.399 80.612 L
145.644 80.539 L
145.889 80.461 L
146.133 80.377 L
146.378 80.287 L
146.623 80.193 L
146.868 80.092 L
147.112 79.987 L
147.357 79.876 L
147.602 79.761 L
147.847 79.641 L
148.091 79.516 L
148.336 79.388 L
148.581 79.255 L
148.826 79.12 L
149.071 78.982 L
149.315 78.841 L
149.56 78.698 L
149.805 78.554 L
150.05 78.409 L
150.294 78.264 L
150.539 78.119 L
150.784 77.974 L
151.029 77.83 L
151.274 77.687 L
151.518 77.547 L
151.763 77.409 L
152.008 77.274 L
152.253 77.142 L
152.497 77.014 L
152.742 76.89 L
152.987 76.771 L
153.232 76.658 L
153.476 76.55 L
153.721 76.448 L
153.966 76.353 L
154.211 76.265 L
154.456 76.185 L
154.7 76.112 L
154.945 76.048 L
155.19 75.993 L
155.435 75.946 L
155.679 75.91 L
155.924 75.882 L
156.169 75.865 L
156.414 75.858 L
156.659 75.861 L
156.903 75.874 L
157.148 75.898 L
157.393 75.931 L
157.638 75.975 L
157.882 76.028 L
158.127 76.092 L
158.372 76.164 L
158.617 76.245 L
158.861 76.335 L
159.106 76.433 L
159.351 76.538 L
159.596 76.65 L
159.841 76.769 L
160.085 76.893 L
160.33 77.022 L
160.575 77.156 L
160.82 77.292 L
161.064 77.432 L
161.309 77.573 L
161.554 77.716 L
161.799 77.858 L
162.044 78.001 L
162.288 78.142 L
162.533 78.281 L
162.778 78.417 L
163.023 78.55 L
163.267 78.679 L
163.512 78.804 L
163.757 78.923 L
164.002 79.037 L
164.247 79.144 L
164.491 79.245 L
164.736 79.34 L
164.981 79.427 L
165.226 79.508 L
165.47 79.581 L
165.715 79.646 L
165.96 79.705 L
166.205 79.756 L
166.449 79.8 L
166.694 79.837 L
166.939 79.868 L
167.184 79.892 L
167.429 79.91 L
167.673 79.923 L
167.918 79.931 L
168.163 79.934 L
168.408 79.933 L
168.652 79.928 L
168.897 79.919 L
169.142 79.908 L
169.387 79.894 L
169.632 79.878 L
169.876 79.86 L
170.121 79.841 L
170.366 79.821 L
170.611 79.8 L
170.855 79.779 L
171.1 79.757 L
171.345 79.734 L
171.59 79.712 L
171.834 79.69 L
172.079 79.667 L
172.324 79.645 L
172.569 79.623 L
172.814 79.601 L
173.058 79.58 L
173.303 79.558 L
173.548 79.536 L
173.793 79.514 L
174.037 79.493 L
174.282 79.47 L
174.527 79.448 L
174.772 79.425 L
175.017 79.401 L
175.261 79.375 L
175.506 79.349 L
175.751 79.321 L
175.996 79.292 L
176.24 79.26 L
176.485 79.226 L
176.73 79.189 L
176.975 79.149 L
177.22 79.105 L
177.464 79.058 L
177.709 79.007 L
177.954 78.952 L
178.199 78.893 L
178.443 78.829 L
178.688 78.76 L
178.933 78.686 L
179.178 78.607 L
179.422 78.523 L
179.667 78.434 L
179.912 78.34 L
180.157 78.241 L
180.402 78.137 L
180.646 78.027 L
180.891 77.914 L
181.136 77.795 L
181.381 77.673 L
181.625 77.547 L
181.87 77.417 L
182.115 77.283 L
182.36 77.147 L
182.605 77.009 L
182.849 76.868 L
183.094 76.726 L
183.339 76.582 L
183.584 76.438 L
183.828 76.294 L
184.073 76.15 L
184.318 76.006 L
184.563 75.864 L
184.807 75.724 L
185.052 75.585 L
185.297 75.449 L
185.542 75.316 L
185.787 75.186 L
186.031 75.06 L
186.276 74.937 L
186.521 74.818 L
186.766 74.704 L
187.01 74.594 L
187.255 74.488 L
187.5 74.387 L
187.745 74.291 L
187.99 74.2 L
188.234 74.113 L
188.479 74.031 L
188.724 73.953 L
188.969 73.88 L
189.213 73.811 L
189.458 73.746 L
189.703 73.685 L
189.948 73.629 L
190.193 73.575 L
190.437 73.526 L
190.682 73.48 L
190.927 73.437 L
191.172 73.397 L
191.416 73.36 L
191.661 73.325 L
191.906 73.294 L
192.151 73.265 L
192.395 73.238 L
192.64 73.213 L
192.885 73.191 L
193.13 73.171 L
193.375 73.153 L
193.619 73.136 L
193.864 73.122 L
194.109 73.109 L
194.354 73.099 L
194.598 73.09 L
194.843 73.082 L
195.088 73.076 L
195.333 73.071 L
195.578 73.068 L
195.822 73.066 L
196.067 73.065 L
196.312 73.064 L
196.557 73.065 L
196.801 73.066 L
197.046 73.068 L
197.291 73.069 L
197.536 73.071 L
197.78 73.073 L
198.025 73.075 L
198.27 73.076 L
198.515 73.076 L
198.76 73.076 L
199.004 73.074 L
199.249 73.072 L
199.494 73.068 L
199.739 73.063 L
199.983 73.056 L
200.228 73.048 L
200.473 73.038 L
200.718 73.026 L
200.963 73.012 L
201.207 72.996 L
201.452 72.979 L
201.697 72.959 L
201.942 72.938 L
202.186 72.915 L
202.431 72.89 L
202.676 72.864 L
202.921 72.836 L
203.166 72.806 L
203.41 72.776 L
203.655 72.744 L
203.9 72.711 L
204.145 72.677 L
204.389 72.643 L
204.634 72.609 L
204.879 72.574 L
205.124 72.54 L
205.368 72.506 L
205.613 72.473 L
205.858 72.44 L
206.103 72.409 L
206.348 72.379 L
206.592 72.351 L
206.837 72.325 L
207.082 72.302 L
207.327 72.28 L
207.571 72.262 L
207.816 72.247 L
208.061 72.236 L
208.306 72.228 L
208.551 72.225 L
208.795 72.225 L
209.04 72.231 L
209.285 72.241 L
209.53 72.256 L
209.774 72.277 L
210.019 72.303 L
210.264 72.335 L
210.509 72.373 L
210.753 72.417 L
210.998 72.467 L
211.243 72.523 L
211.488 72.585 L
211.733 72.653 L
211.977 72.726 L
212.222 72.805 L
212.467 72.889 L
212.712 72.978 L
212.956 73.071 L
213.201 73.167 L
213.446 73.266 L
213.691 73.367 L
213.936 73.468 L
214.18 73.57 L
214.425 73.67 L
214.67 73.768 L
214.915 73.864 L
215.159 73.955 L
215.404 74.041 L
215.649 74.121 L
215.894 74.193 L
216.139 74.258 L
216.383 74.314 L
216.628 74.361 L
216.873 74.397 L
217.118 74.422 L
217.362 74.435 L
217.607 74.436 L
217.852 74.424 L
218.097 74.398 L
218.341 74.356 L
218.586 74.299 L
218.831 74.225 L
219.076 74.133 L
219.321 74.021 L
219.565 73.89 L
219.81 73.737 L
220.055 73.561 L
220.3 73.362 L
220.544 73.138 L
220.789 72.889 L
221.034 72.613 L
221.279 72.311 L
221.524 71.981 L
221.768 71.624 L
222.013 71.238 L
222.258 70.825 L
222.503 70.385 L
222.747 69.918 L
222.992 69.425 L
223.237 68.908 L
223.482 68.367 L
223.726 67.804 L
223.971 67.221 L
224.216 66.621 L
224.461 66.005 L
224.706 65.376 L
224.95 64.736 L
225.195 64.088 L
225.44 63.435 L
225.685 62.78 L
225.929 62.125 L
226.174 61.473 L
226.419 60.827 L
226.664 60.188 L
226.909 59.56 L
227.153 58.944 L
227.398 58.342 L
227.643 57.755 L
227.888 57.185 L
228.132 56.632 L
228.377 56.096 L
228.622 55.578 L
228.867 55.077 L
229.111 54.593 L
229.356 54.124 L
229.601 53.669 L
229.846 53.227 L
230.091 52.795 L
230.335 52.372 L
230.58 51.955 L
230.825 51.542 L
231.07 51.131 L
231.314 50.718 L
231.559 50.302 L
231.804 49.879 L
232.049 49.447 L
232.294 49.005 L
232.538 48.548 L
232.783 48.076 L
233.028 47.586 L
233.273 47.076 L
233.517 46.544 L
233.762 45.988 L
234.007 45.406 L
234.252 44.797 L
234.497 44.161 L
234.741 43.494 L
234.986 42.798 L
235.231 42.071 L
235.476 41.313 L
235.72 40.525 L
235.965 39.707 L
236.21 38.862 L
236.455 37.991 L
236.699 37.097 L
236.944 36.184 L
237.189 35.256 L
237.434 34.319 L
237.679 33.378 L
237.923 32.441 L
238.168 31.514 L
238.413 30.607 L
238.658 29.727 L
238.902 28.885 L
239.147 28.09 L
239.392 27.351 L
239.637 26.679 L
239.882 26.081 L
240.126 25.567 L
240.371 25.144 L
240.616 24.819 L
240.861 24.596 L
241.105 24.479 L
241.35 24.47 L
241.595 24.568 L
241.84 24.772 L
242.084 25.077 L
242.329 25.477 L
242.574 25.965 L
242.819 26.53 L
243.064 27.164 L
243.308 27.852 L
243.553 28.583 L
243.798 29.344 L
244.043 30.12 L
244.287 30.9 L
244.532 31.669 L
244.777 32.418 L
245.022 33.135 L
245.267 33.812 L
245.511 34.442 L
245.756 35.02 L
246.001 35.542 L
246.246 36.008 L
246.49 36.419 L
246.735 36.775 L
246.98 37.083 L
247.225 37.345 L
247.469 37.57 L
247.714 37.765 L
247.959 37.937 L
248.204 38.095 L
248.449 38.247 L
248.693 38.401 L
248.938 38.567 L
249.183 38.75 L
249.428 38.958 L
249.672 39.197 L
249.917 39.471 L
250.162 39.787 L
250.407 40.145 L
250.652 40.55 L
250.896 41.001 L
251.141 41.5 L
251.386 42.047 L
251.631 42.64 L
251.875 43.278 L
252.12 43.96 L
252.365 44.682 L
252.61 45.443 L
252.855 46.239 L
253.099 47.067 L
253.344 47.926 L
253.589 48.811 L
253.834 49.72 L
254.078 50.65 L
254.323 51.597 L
254.568 52.559 L
254.813 53.532 L
255.057 54.514 L
255.302 55.501 L
255.547 56.49 L
255.792 57.478 L
256.037 58.462 L
256.281 59.439 L
256.526 60.404 L
256.771 61.355 L
257.016 62.288 L
257.26 63.2 L
257.505 64.088 L
257.75 64.948 L
257.995 65.777 L
258.24 66.573 L
258.484 67.334 L
258.729 68.056 L
258.974 68.739 L
259.219 69.38 L
259.463 69.979 L
259.708 70.535 L
259.953 71.047 L
260.198 71.515 L
260.443 71.938 L
260.687 72.319 L
260.932 72.656 L
261.177 72.951 L
261.422 73.205 L
261.666 73.421 L
261.911 73.6 L
262.156 73.745 L
262.401 73.859 L
262.645 73.943 L
262.89 74.003 L
263.135 74.041 L
263.38 74.062 L
263.625 74.068 L
263.869 74.065 L
264.114 74.055 L
264.359 74.042 L
264.604 74.03 L
264.848 74.023 L
265.093 74.023 L
265.338 74.033 L
265.583 74.055 L
265.828 74.091 L
266.072 74.142 L
266.317 74.208 L
266.562 74.292 L
266.807 74.391 L
267.051 74.506 L
267.296 74.636 L
267.541 74.781 L
267.786 74.939 L
268.03 75.11 L
268.275 75.294 L
268.52 75.491 L
268.765 75.701 L
269.01 75.925 L
269.254 76.165 L
269.499 76.423 L
269.744 76.701 L
269.989 77.003 L
270.233 77.332 L
270.478 77.691 L
270.723 78.085 L
270.968 78.516 L
271.213 78.99 L
271.457 79.509 L
271.702 80.077 L
271.947 80.698 L
272.192 81.374 L
272.436 82.107 L
272.681 82.899 L
272.926 83.752 L
273.171 84.666 L
273.415 85.641 L
273.66 86.677 L
273.905 87.772 L
274.15 88.924 L
274.395 90.131 L
274.639 91.387 L
274.884 92.69 L
275.129 94.033 L
275.374 95.411 L
275.618 96.817 L
275.863 98.244 L
276.108 99.683 L
276.353 101.128 L
276.598 102.569 L
276.842 103.998 L
277.087 105.406 L
277.332 106.785 L
277.577 108.127 L
277.821 109.424 L
278.066 110.669 L
278.311 111.856 L
278.556 112.978 L
278.801 114.032 L
279.045 115.012 L
279.29 115.916 L
279.535 116.74 L
279.78 117.483 L
280.024 118.143 L
280.269 118.719 L
280.514 119.212 L
280.759 119.622 L
281.003 119.949 L
281.248 120.195 L
281.493 120.361 L
281.738 120.449 L
281.983 120.461 L
282.227 120.398 L
282.472 120.264 L
282.717 120.059 L
282.962 119.786 L
283.206 119.447 L
283.451 119.045 L
283.696 118.58 L
283.941 118.056 L
284.186 117.474 L
284.43 116.835 L
284.675 116.142 L
284.92 115.396 L
285.165 114.598 L
285.409 113.751 L
285.654 112.854 L
285.899 111.91 L
286.144 110.919 L
286.388 109.884 L
286.633 108.804 L
286.878 107.681 L
287.123 106.517 L
287.368 105.312 L
287.612 104.068 L
287.857 102.787 L
288.102 101.469 L
288.347 100.118 L
288.591 98.734 L
288.836 97.319 L
289.081 95.877 L
289.326 94.408 L
289.571 92.915 L
289.815 91.401 L
290.06 89.868 L
290.305 88.319 L
290.55 86.756 L
290.794 85.182 L
291.039 83.601 L
291.284 82.013 L
291.529 80.423 L
291.774 78.833 L
292.018 77.246 L
292.263 75.664 L
292.508 74.089 L
292.753 72.524 L
292.997 70.972 L
293.242 69.435 L
293.487 67.915 L
293.732 66.413 L
293.976 64.933 L
294.221 63.475 L
294.466 62.041 L
294.711 60.634 L
294.956 59.254 L
295.2 57.903 L
295.445 56.583 L
295.69 55.293 L
295.935 54.036 L
296.179 52.813 L
296.424 51.623 L
296.669 50.468 L
296.914 49.349 L
297.159 48.266 L
297.403 47.22 L
297.648 46.211 L
297.893 45.24 L
298.138 44.306 L
298.382 43.41 L
298.627 42.553 L
298.872 41.735 L
299.117 40.956 L
299.362 40.216 L
299.606 39.515 L
299.851 38.853 L
300.096 38.231 L
300.341 37.649 L
300.585 37.107 L
300.83 36.605 L
301.075 36.143 L
301.32 35.722 L
301.564 35.341 L
301.809 35.001 L
302.054 34.702 L
302.299 34.444 L
302.544 34.227 L
302.788 34.051 L
303.033 33.916 L
303.278 33.822 L
303.523 33.769 L
303.767 33.757 L
304.012 33.786 L
304.257 33.854 L
304.502 33.963 L
304.747 34.11 L
304.991 34.296 L
305.236 34.52 L
305.481 34.781 L
305.726 35.078 L
305.97 35.41 L
306.215 35.776 L
306.46 36.175 L
306.705 36.605 L
306.949 37.065 L
307.194 37.553 L
307.439 38.069 L
307.684 38.61 L
307.929 39.175 L
308.173 39.762 L
308.418 40.37 L
308.663 40.998 L
308.908 41.644 L
309.152 42.305 L
309.397 42.982 L
309.642 43.672 L
309.887 44.374 L
310.132 45.087 L
310.376 45.81 L
310.621 46.541 L
310.866 47.28 L
311.111 48.025 L
311.355 48.775 L
311.6 49.53 L
311.845 50.289 L
312.09 51.051 L
312.335 51.816 L
312.579 52.582 L
312.824 53.35 L
313.069 54.119 L
313.314 54.888 L
313.558 55.656 L
313.803 56.425 L
314.048 57.193 L
314.293 57.959 L
314.537 58.725 L
314.782 59.488 L
315.027 60.25 L
315.272 61.011 L
315.517 61.769 L
315.761 62.524 L
316.006 63.278 L
316.251 64.028 L
316.496 64.776 L
316.74 65.521 L
316.985 66.263 L
317.23 67.002 L
317.475 67.738 L
317.72 68.47 L
317.964 69.198 L
318.209 69.922 L
318.454 70.643 L
318.699 71.359 L
318.943 72.071 L
319.188 72.778 L
319.433 73.481 L
319.678 74.178 L
319.922 74.871 L
320.167 75.558 L
320.412 76.239 L
320.657 76.915 L
320.902 77.585 L
321.146 78.248 L
321.391 78.906 L
321.636 79.556 L
321.881 80.2 L
322.125 80.837 L
322.37 81.466 L
322.615 82.088 L
322.86 82.702 L
323.105 83.309 L
323.349 83.907 L
323.594 84.498 L
323.839 85.08 L
324.084 85.653 L
324.328 86.218 L
324.573 86.774 L
324.818 87.322 L
325.063 87.86 L
325.307 88.39 L
325.552 88.91 L
325.797 89.422 L
326.042 89.924 L
326.287 90.418 L
326.531 90.902 L
326.776 91.377 L
327.021 91.844 L
327.266 92.301 L
327.51 92.749 L
327.755 93.189 L
328 93.621 L
328.034 93.678 L
S
GR
%%Trailer
%%Pages: 1
%%EOF
