%!PS-Adobe-3.0 EPSF-3.0
%%Creator: (MATLAB, The Mathworks, Inc. Version 9.10.0.1684407 \(R2021a\) Update 3. Operating System: Linux)
%%Title: /home/adoan/Code/PRoSA_PI-ESN_Git/pi-esn/Results/MFE_results/Figures/FIG6A.eps
%%CreationDate: 2021-07-21T18:55:07
%%Pages: (atend)
%%BoundingBox:     0     0   283   170
%%LanguageLevel: 3
%%EndComments
%%BeginProlog
%%BeginResource: procset (Apache XML Graphics Std ProcSet) 1.2 0
%%Version: 1.2 0
%%Copyright: (Copyright 2001-2003,2010 The Apache Software Foundation. License terms: http://www.apache.org/licenses/LICENSE-2.0)
/bd{bind def}bind def
/ld{load def}bd
/GR/grestore ld
/GS/gsave ld
/RM/rmoveto ld
/C/curveto ld
/t/show ld
/L/lineto ld
/ML/setmiterlimit ld
/CT/concat ld
/f/fill ld
/N/newpath ld
/S/stroke ld
/CC/setcmykcolor ld
/A/ashow ld
/cp/closepath ld
/RC/setrgbcolor ld
/LJ/setlinejoin ld
/GC/setgray ld
/LW/setlinewidth ld
/M/moveto ld
/re {4 2 roll M
1 index 0 rlineto
0 exch rlineto
neg 0 rlineto
cp } bd
/_ctm matrix def
/_tm matrix def
/BT { _ctm currentmatrix pop matrix _tm copy pop 0 0 moveto } bd
/ET { _ctm setmatrix } bd
/iTm { _ctm setmatrix _tm concat } bd
/Tm { _tm astore pop iTm 0 0 moveto } bd
/ux 0.0 def
/uy 0.0 def
/F {
  /Tp exch def
  /Tf exch def
  Tf findfont Tp scalefont setfont
  /cf Tf def  /cs Tp def
} bd
/ULS {currentpoint /uy exch def /ux exch def} bd
/ULE {
  /Tcx currentpoint pop def
  gsave
  newpath
  cf findfont cs scalefont dup
  /FontMatrix get 0 get /Ts exch def /FontInfo get dup
  /UnderlinePosition get Ts mul /To exch def
  /UnderlineThickness get Ts mul /Tt exch def
  ux uy To add moveto  Tcx uy To add lineto
  Tt setlinewidth stroke
  grestore
} bd
/OLE {
  /Tcx currentpoint pop def
  gsave
  newpath
  cf findfont cs scalefont dup
  /FontMatrix get 0 get /Ts exch def /FontInfo get dup
  /UnderlinePosition get Ts mul /To exch def
  /UnderlineThickness get Ts mul /Tt exch def
  ux uy To add cs add moveto Tcx uy To add cs add lineto
  Tt setlinewidth stroke
  grestore
} bd
/SOE {
  /Tcx currentpoint pop def
  gsave
  newpath
  cf findfont cs scalefont dup
  /FontMatrix get 0 get /Ts exch def /FontInfo get dup
  /UnderlinePosition get Ts mul /To exch def
  /UnderlineThickness get Ts mul /Tt exch def
  ux uy To add cs 10 mul 26 idiv add moveto Tcx uy To add cs 10 mul 26 idiv add lineto
  Tt setlinewidth stroke
  grestore
} bd
/QT {
/Y22 exch store
/X22 exch store
/Y21 exch store
/X21 exch store
currentpoint
/Y21 load 2 mul add 3 div exch
/X21 load 2 mul add 3 div exch
/X21 load 2 mul /X22 load add 3 div
/Y21 load 2 mul /Y22 load add 3 div
/X22 load /Y22 load curveto
} bd
/SSPD {
dup length /d exch dict def
{
/v exch def
/k exch def
currentpagedevice k known {
/cpdv currentpagedevice k get def
v cpdv ne {
/upd false def
/nullv v type /nulltype eq def
/nullcpdv cpdv type /nulltype eq def
nullv nullcpdv or
{
/upd true def
} {
/sametype v type cpdv type eq def
sametype {
v type /arraytype eq {
/vlen v length def
/cpdvlen cpdv length def
vlen cpdvlen eq {
0 1 vlen 1 sub {
/i exch def
/obj v i get def
/cpdobj cpdv i get def
obj cpdobj ne {
/upd true def
exit
} if
} for
} {
/upd true def
} ifelse
} {
v type /dicttype eq {
v {
/dv exch def
/dk exch def
/cpddv cpdv dk get def
dv cpddv ne {
/upd true def
exit
} if
} forall
} {
/upd true def
} ifelse
} ifelse
} if
} ifelse
upd true eq {
d k v put
} if
} if
} if
} forall
d length 0 gt {
d setpagedevice
} if
} bd
/RE { % /NewFontName [NewEncodingArray] /FontName RE -
  findfont dup length dict begin
  {
    1 index /FID ne
    {def} {pop pop} ifelse
  } forall
  /Encoding exch def
  /FontName 1 index def
  currentdict definefont pop
  end
} bind def
%%EndResource
%%BeginResource: procset (Apache XML Graphics EPS ProcSet) 1.0 0
%%Version: 1.0 0
%%Copyright: (Copyright 2002-2003 The Apache Software Foundation. License terms: http://www.apache.org/licenses/LICENSE-2.0)
/BeginEPSF { %def
/b4_Inc_state save def         % Save state for cleanup
/dict_count countdictstack def % Count objects on dict stack
/op_count count 1 sub def      % Count objects on operand stack
userdict begin                 % Push userdict on dict stack
/showpage { } def              % Redefine showpage, { } = null proc
0 setgray 0 setlinecap         % Prepare graphics state
1 setlinewidth 0 setlinejoin
10 setmiterlimit [ ] 0 setdash newpath
/languagelevel where           % If level not equal to 1 then
{pop languagelevel             % set strokeadjust and
1 ne                           % overprint to their defaults.
{false setstrokeadjust false setoverprint
} if
} if
} bd
/EndEPSF { %def
count op_count sub {pop} repeat            % Clean up stacks
countdictstack dict_count sub {end} repeat
b4_Inc_state restore
} bd
%%EndResource
%FOPBeginFontDict
%%IncludeResource: font Courier-Oblique
%%IncludeResource: font Courier-BoldOblique
%%IncludeResource: font Courier-Bold
%%IncludeResource: font ZapfDingbats
%%IncludeResource: font Symbol
%%IncludeResource: font Helvetica
%%IncludeResource: font Helvetica-Oblique
%%IncludeResource: font Helvetica-Bold
%%IncludeResource: font Helvetica-BoldOblique
%%IncludeResource: font Times-Roman
%%IncludeResource: font Times-Italic
%%IncludeResource: font Times-Bold
%%IncludeResource: font Times-BoldItalic
%%IncludeResource: font Courier
%FOPEndFontDict
%%BeginResource: encoding WinAnsiEncoding
/WinAnsiEncoding [
/.notdef /.notdef /.notdef /.notdef /.notdef
/.notdef /.notdef /.notdef /.notdef /.notdef
/.notdef /.notdef /.notdef /.notdef /.notdef
/.notdef /.notdef /.notdef /.notdef /.notdef
/.notdef /.notdef /.notdef /.notdef /.notdef
/.notdef /.notdef /.notdef /.notdef /.notdef
/.notdef /.notdef /space /exclam /quotedbl
/numbersign /dollar /percent /ampersand /quotesingle
/parenleft /parenright /asterisk /plus /comma
/hyphen /period /slash /zero /one
/two /three /four /five /six
/seven /eight /nine /colon /semicolon
/less /equal /greater /question /at
/A /B /C /D /E
/F /G /H /I /J
/K /L /M /N /O
/P /Q /R /S /T
/U /V /W /X /Y
/Z /bracketleft /backslash /bracketright /asciicircum
/underscore /quoteleft /a /b /c
/d /e /f /g /h
/i /j /k /l /m
/n /o /p /q /r
/s /t /u /v /w
/x /y /z /braceleft /bar
/braceright /asciitilde /bullet /Euro /bullet
/quotesinglbase /florin /quotedblbase /ellipsis /dagger
/daggerdbl /circumflex /perthousand /Scaron /guilsinglleft
/OE /bullet /Zcaron /bullet /bullet
/quoteleft /quoteright /quotedblleft /quotedblright /bullet
/endash /emdash /asciitilde /trademark /scaron
/guilsinglright /oe /bullet /zcaron /Ydieresis
/space /exclamdown /cent /sterling /currency
/yen /brokenbar /section /dieresis /copyright
/ordfeminine /guillemotleft /logicalnot /sfthyphen /registered
/macron /degree /plusminus /twosuperior /threesuperior
/acute /mu /paragraph /middot /cedilla
/onesuperior /ordmasculine /guillemotright /onequarter /onehalf
/threequarters /questiondown /Agrave /Aacute /Acircumflex
/Atilde /Adieresis /Aring /AE /Ccedilla
/Egrave /Eacute /Ecircumflex /Edieresis /Igrave
/Iacute /Icircumflex /Idieresis /Eth /Ntilde
/Ograve /Oacute /Ocircumflex /Otilde /Odieresis
/multiply /Oslash /Ugrave /Uacute /Ucircumflex
/Udieresis /Yacute /Thorn /germandbls /agrave
/aacute /acircumflex /atilde /adieresis /aring
/ae /ccedilla /egrave /eacute /ecircumflex
/edieresis /igrave /iacute /icircumflex /idieresis
/eth /ntilde /ograve /oacute /ocircumflex
/otilde /odieresis /divide /oslash /ugrave
/uacute /ucircumflex /udieresis /yacute /thorn
/ydieresis
] def
%%EndResource
%FOPBeginFontReencode
/Courier-Oblique findfont
dup length dict begin
  {1 index /FID ne {def} {pop pop} ifelse} forall
  /Encoding WinAnsiEncoding def
  currentdict
end
/Courier-Oblique exch definefont pop
/Courier-BoldOblique findfont
dup length dict begin
  {1 index /FID ne {def} {pop pop} ifelse} forall
  /Encoding WinAnsiEncoding def
  currentdict
end
/Courier-BoldOblique exch definefont pop
/Courier-Bold findfont
dup length dict begin
  {1 index /FID ne {def} {pop pop} ifelse} forall
  /Encoding WinAnsiEncoding def
  currentdict
end
/Courier-Bold exch definefont pop
/Helvetica findfont
dup length dict begin
  {1 index /FID ne {def} {pop pop} ifelse} forall
  /Encoding WinAnsiEncoding def
  currentdict
end
/Helvetica exch definefont pop
/Helvetica-Oblique findfont
dup length dict begin
  {1 index /FID ne {def} {pop pop} ifelse} forall
  /Encoding WinAnsiEncoding def
  currentdict
end
/Helvetica-Oblique exch definefont pop
/Helvetica-Bold findfont
dup length dict begin
  {1 index /FID ne {def} {pop pop} ifelse} forall
  /Encoding WinAnsiEncoding def
  currentdict
end
/Helvetica-Bold exch definefont pop
/Helvetica-BoldOblique findfont
dup length dict begin
  {1 index /FID ne {def} {pop pop} ifelse} forall
  /Encoding WinAnsiEncoding def
  currentdict
end
/Helvetica-BoldOblique exch definefont pop
/Times-Roman findfont
dup length dict begin
  {1 index /FID ne {def} {pop pop} ifelse} forall
  /Encoding WinAnsiEncoding def
  currentdict
end
/Times-Roman exch definefont pop
/Times-Italic findfont
dup length dict begin
  {1 index /FID ne {def} {pop pop} ifelse} forall
  /Encoding WinAnsiEncoding def
  currentdict
end
/Times-Italic exch definefont pop
/Times-Bold findfont
dup length dict begin
  {1 index /FID ne {def} {pop pop} ifelse} forall
  /Encoding WinAnsiEncoding def
  currentdict
end
/Times-Bold exch definefont pop
/Times-BoldItalic findfont
dup length dict begin
  {1 index /FID ne {def} {pop pop} ifelse} forall
  /Encoding WinAnsiEncoding def
  currentdict
end
/Times-BoldItalic exch definefont pop
/Courier findfont
dup length dict begin
  {1 index /FID ne {def} {pop pop} ifelse} forall
  /Encoding WinAnsiEncoding def
  currentdict
end
/Courier exch definefont pop
%FOPEndFontReencode
%%EndProlog
%%Page: 1 1
%%PageBoundingBox: 0 0 283 170
%%BeginPageSetup
[1 0 0 -1 0 170] CT
%%EndPageSetup
GS
[0.78305 0 0 0.78377 0 -0.07875] CT
1 GC
N
0 0 362 217 re
f
GR
GS
[0.78305 0 0 0.78377 0 -0.07875] CT
1 GC
N
0 0 362 217 re
f
GR
GS
[0.78305 0 0 0.78377 0 -0.07875] CT
1 GC
N
47 172 M
328 172 L
328 16 L
47 16 L
cp
f
GR
GS
[0.78305 0 0 0.78377 0 -0.07875] CT
0.149 GC
2 setlinecap
1 LJ
0.639 LW
N
47 172 M
328 172 L
S
GR
GS
[0.78305 0 0 0.78377 0 -0.07875] CT
0.149 GC
2 setlinecap
1 LJ
0.639 LW
N
47 16 M
328 16 L
S
GR
GS
[0.78305 0 0 0.78377 0 -0.07875] CT
0.149 GC
2 setlinecap
1 LJ
0.639 LW
N
47 172 M
47 169.19 L
S
GR
GS
[0.78305 0 0 0.78377 0 -0.07875] CT
0.149 GC
2 setlinecap
1 LJ
0.639 LW
N
127.286 172 M
127.286 169.19 L
S
GR
GS
[0.78305 0 0 0.78377 0 -0.07875] CT
0.149 GC
2 setlinecap
1 LJ
0.639 LW
N
207.571 172 M
207.571 169.19 L
S
GR
GS
[0.78305 0 0 0.78377 0 -0.07875] CT
0.149 GC
2 setlinecap
1 LJ
0.639 LW
N
287.857 172 M
287.857 169.19 L
S
GR
GS
[0.78305 0 0 0.78377 0 -0.07875] CT
0.149 GC
2 setlinecap
1 LJ
0.639 LW
N
47 16 M
47 18.81 L
S
GR
GS
[0.78305 0 0 0.78377 0 -0.07875] CT
0.149 GC
2 setlinecap
1 LJ
0.639 LW
N
127.286 16 M
127.286 18.81 L
S
GR
GS
[0.78305 0 0 0.78377 0 -0.07875] CT
0.149 GC
2 setlinecap
1 LJ
0.639 LW
N
207.571 16 M
207.571 18.81 L
S
GR
GS
[0.78305 0 0 0.78377 0 -0.07875] CT
0.149 GC
2 setlinecap
1 LJ
0.639 LW
N
287.857 16 M
287.857 18.81 L
S
GR
GS
[0.78305 0 0 0.78377 36.80341 139.13676] CT
0.149 GC
N
-0.083 13.208 M
-1.927 13.208 -2.583 11.692 QT
-3.24 10.177 -3.24 8.099 QT
-3.24 6.786 -3.005 5.638 QT
-2.771 4.489 -2.068 3.692 QT
-1.365 2.896 -0.083 2.896 QT
0.901 2.896 1.534 3.372 QT
2.167 3.849 2.495 4.614 QT
2.823 5.38 2.948 6.255 QT
3.073 7.13 3.073 8.099 QT
3.073 9.38 2.831 10.505 QT
2.589 11.63 1.893 12.419 QT
1.198 13.208 -0.083 13.208 QT
cp
-0.083 12.817 M
0.745 12.817 1.159 11.966 QT
1.573 11.114 1.667 10.067 QT
1.76 9.021 1.76 7.849 QT
1.76 6.724 1.667 5.771 QT
1.573 4.817 1.167 4.044 QT
0.76 3.271 -0.083 3.271 QT
-0.927 3.271 -1.341 4.052 QT
-1.755 4.833 -1.849 5.778 QT
-1.943 6.724 -1.943 7.849 QT
-1.943 8.692 -1.904 9.435 QT
-1.865 10.177 -1.685 10.958 QT
-1.505 11.739 -1.115 12.278 QT
-0.724 12.817 -0.083 12.817 QT
cp
f
GR
GS
[0.78305 0 0 0.78377 99.67124 139.13676] CT
0.149 GC
N
-3.083 12.88 M
-3.083 12.474 L
-3.083 12.442 -3.052 12.396 QT
-0.724 9.817 L
-0.193 9.239 0.135 8.857 QT
0.464 8.474 0.784 7.966 QT
1.104 7.458 1.292 6.935 QT
1.479 6.411 1.479 5.833 QT
1.479 5.208 1.253 4.646 QT
1.026 4.083 0.573 3.747 QT
0.12 3.411 -0.521 3.411 QT
-1.161 3.411 -1.685 3.81 QT
-2.208 4.208 -2.427 4.817 QT
-2.365 4.802 -2.255 4.802 QT
-1.927 4.802 -1.685 5.028 QT
-1.443 5.255 -1.443 5.614 QT
-1.443 5.958 -1.685 6.2 QT
-1.927 6.442 -2.255 6.442 QT
-2.615 6.442 -2.849 6.2 QT
-3.083 5.958 -3.083 5.614 QT
-3.083 5.052 -2.872 4.56 QT
-2.661 4.067 -2.263 3.685 QT
-1.865 3.302 -1.365 3.099 QT
-0.865 2.896 -0.302 2.896 QT
0.557 2.896 1.299 3.255 QT
2.042 3.614 2.471 4.278 QT
2.901 4.942 2.901 5.833 QT
2.901 6.474 2.62 7.06 QT
2.339 7.646 1.893 8.13 QT
1.448 8.614 0.745 9.224 QT
0.042 9.833 -0.177 10.036 QT
-1.865 11.661 L
-0.427 11.661 L
0.635 11.661 1.346 11.646 QT
2.057 11.63 2.104 11.583 QT
2.276 11.396 2.464 10.208 QT
2.901 10.208 L
2.479 12.88 L
-3.083 12.88 L
cp
f
GR
GS
[0.78305 0 0 0.78377 162.53907 139.13676] CT
0.149 GC
N
-3.411 10.411 M
-3.411 9.88 L
1.214 2.958 L
1.276 2.896 1.37 2.896 QT
1.589 2.896 L
1.76 2.896 1.76 3.052 QT
1.76 9.88 L
3.229 9.88 L
3.229 10.411 L
1.76 10.411 L
1.76 11.88 L
1.76 12.177 2.198 12.263 QT
2.635 12.349 3.214 12.349 QT
3.214 12.88 L
-0.911 12.88 L
-0.911 12.349 L
-0.333 12.349 0.104 12.263 QT
0.542 12.177 0.542 11.88 QT
0.542 10.411 L
-3.411 10.411 L
cp
-2.911 9.88 M
0.635 9.88 L
0.635 4.567 L
-2.911 9.88 L
cp
f
GR
GS
[0.78305 0 0 0.78377 225.40691 139.13676] CT
0.149 GC
N
-0.083 13.208 M
-1.021 13.208 -1.638 12.716 QT
-2.255 12.224 -2.599 11.435 QT
-2.943 10.646 -3.076 9.778 QT
-3.208 8.911 -3.208 8.036 QT
-3.208 6.849 -2.747 5.653 QT
-2.286 4.458 -1.388 3.677 QT
-0.49 2.896 0.745 2.896 QT
1.26 2.896 1.706 3.083 QT
2.151 3.271 2.401 3.653 QT
2.651 4.036 2.651 4.567 QT
2.651 4.88 2.44 5.083 QT
2.229 5.286 1.917 5.286 QT
1.635 5.286 1.424 5.075 QT
1.214 4.864 1.214 4.567 QT
1.214 4.271 1.424 4.06 QT
1.635 3.849 1.917 3.849 QT
2.01 3.849 L
1.807 3.583 1.464 3.45 QT
1.12 3.317 0.745 3.317 QT
0.292 3.317 -0.091 3.521 QT
-0.474 3.724 -0.786 4.06 QT
-1.099 4.396 -1.302 4.802 QT
-1.505 5.208 -1.615 5.724 QT
-1.724 6.239 -1.755 6.692 QT
-1.786 7.146 -1.786 7.833 QT
-1.521 7.224 -1.036 6.833 QT
-0.552 6.442 0.042 6.442 QT
0.714 6.442 1.26 6.716 QT
1.807 6.989 2.206 7.466 QT
2.604 7.942 2.815 8.56 QT
3.026 9.177 3.026 9.802 QT
3.026 10.677 2.635 11.474 QT
2.245 12.271 1.534 12.739 QT
0.823 13.208 -0.083 13.208 QT
cp
-0.083 12.739 M
0.495 12.739 0.846 12.474 QT
1.198 12.208 1.362 11.771 QT
1.526 11.333 1.565 10.888 QT
1.604 10.442 1.604 9.802 QT
1.604 8.958 1.526 8.357 QT
1.448 7.755 1.089 7.294 QT
0.729 6.833 -0.005 6.833 QT
-0.615 6.833 -1.005 7.247 QT
-1.396 7.661 -1.576 8.286 QT
-1.755 8.911 -1.755 9.489 QT
-1.755 9.692 -1.74 9.786 QT
-1.74 9.817 -1.747 9.825 QT
-1.755 9.833 -1.755 9.864 QT
-1.755 10.505 -1.622 11.161 QT
-1.49 11.817 -1.122 12.278 QT
-0.755 12.739 -0.083 12.739 QT
cp
f
GR
GS
[0.78305 0 0 0.78377 146.82223 154.13643] CT
0.149 GC
N
-18.326 12.793 M
-18.326 12.543 -18.264 12.324 QT
-17.045 7.434 L
-18.826 7.434 L
-18.998 7.434 -18.998 7.215 QT
-18.936 6.84 -18.78 6.84 QT
-16.889 6.84 L
-16.217 4.059 L
-16.139 3.84 -15.944 3.684 QT
-15.748 3.527 -15.498 3.527 QT
-15.28 3.527 -15.131 3.652 QT
-14.983 3.777 -14.983 3.996 QT
-14.983 4.043 -14.99 4.074 QT
-14.998 4.105 -15.014 4.137 QT
-15.686 6.84 L
-13.936 6.84 L
-13.764 6.84 -13.764 7.059 QT
-13.764 7.105 -13.795 7.207 QT
-13.826 7.309 -13.865 7.371 QT
-13.905 7.434 -13.983 7.434 QT
-15.842 7.434 L
-17.061 12.355 L
-17.186 12.824 -17.186 13.184 QT
-17.186 13.918 -16.686 13.918 QT
-15.936 13.918 -15.358 13.215 QT
-14.78 12.512 -14.483 11.668 QT
-14.405 11.574 -14.342 11.574 QT
-14.139 11.574 L
-14.076 11.574 -14.03 11.621 QT
-13.983 11.668 -13.983 11.715 QT
-13.983 11.746 -13.998 11.762 QT
-14.373 12.793 -15.092 13.574 QT
-15.811 14.355 -16.733 14.355 QT
-17.405 14.355 -17.865 13.918 QT
-18.326 13.48 -18.326 12.793 QT
cp
f
GR
GS
[0.78305 0 0 0.78377 146.82223 154.13643] CT
0.149 GC
N
-12.423 13.871 M
-12.423 13.621 -12.189 13.402 QT
-7.408 8.715 L
-9.095 3.98 L
-9.298 3.449 -9.517 3.129 QT
-9.736 2.809 -10.158 2.809 QT
-10.345 2.809 -10.345 2.59 QT
-10.329 2.496 -10.259 2.434 QT
-10.189 2.371 -10.079 2.371 QT
-8.298 2.371 -7.923 3.434 QT
-4.47 13.059 L
-4.251 13.793 -4.017 14.027 QT
-3.939 14.152 -3.939 14.199 QT
-3.939 14.355 -4.064 14.355 QT
-4.986 14.355 L
-5.408 14.23 -5.658 13.621 QT
-7.22 9.277 L
-11.329 14.105 L
-11.626 14.387 -11.876 14.387 QT
-12.079 14.387 -12.251 14.238 QT
-12.423 14.09 -12.423 13.871 QT
cp
f
GR
GS
[0.78305 0 0 0.78377 146.82223 154.13643] CT
0.149 GC
N
-3.084 16.698 M
-3.084 16.276 L
-2.678 16.276 -2.412 16.214 QT
-2.147 16.151 -2.147 15.901 QT
-2.147 12.62 L
-2.147 12.292 -2.24 12.151 QT
-2.334 12.01 -2.522 11.979 QT
-2.709 11.948 -3.084 11.948 QT
-3.084 11.526 L
-1.35 11.401 L
-1.35 12.573 L
-1.1 12.057 -0.631 11.729 QT
-0.162 11.401 0.4 11.401 QT
1.775 11.401 2.025 12.526 QT
2.26 12.01 2.72 11.706 QT
3.181 11.401 3.728 11.401 QT
4.275 11.401 4.65 11.573 QT
5.025 11.745 5.213 12.104 QT
5.4 12.464 5.4 13.01 QT
5.4 15.901 L
5.4 16.151 5.666 16.214 QT
5.931 16.276 6.338 16.276 QT
6.338 16.698 L
3.588 16.698 L
3.588 16.276 L
3.994 16.276 4.26 16.214 QT
4.525 16.151 4.525 15.901 QT
4.525 13.042 L
4.525 12.448 4.353 12.073 QT
4.181 11.698 3.666 11.698 QT
2.963 11.698 2.517 12.26 QT
2.072 12.823 2.072 13.526 QT
2.072 15.901 L
2.072 16.151 2.33 16.214 QT
2.588 16.276 3.01 16.276 QT
3.01 16.698 L
0.26 16.698 L
0.26 16.276 L
0.666 16.276 0.931 16.214 QT
1.197 16.151 1.197 15.901 QT
1.197 13.042 L
1.197 12.464 1.025 12.081 QT
0.853 11.698 0.322 11.698 QT
-0.365 11.698 -0.819 12.26 QT
-1.272 12.823 -1.272 13.526 QT
-1.272 15.901 L
-1.272 16.151 -1.006 16.214 QT
-0.74 16.276 -0.334 16.276 QT
-0.334 16.698 L
-3.084 16.698 L
cp
f
GR
GS
[0.78305 0 0 0.78377 146.82223 154.13643] CT
0.149 GC
N
6.88 15.526 M
6.88 14.807 7.442 14.354 QT
8.005 13.901 8.794 13.721 QT
9.583 13.542 10.286 13.542 QT
10.286 13.042 L
10.286 12.698 10.137 12.378 QT
9.989 12.057 9.7 11.846 QT
9.411 11.635 9.067 11.635 QT
8.27 11.635 7.848 11.995 QT
8.083 11.995 8.231 12.167 QT
8.38 12.339 8.38 12.573 QT
8.38 12.807 8.208 12.979 QT
8.036 13.151 7.802 13.151 QT
7.567 13.151 7.395 12.979 QT
7.223 12.807 7.223 12.573 QT
7.223 11.932 7.794 11.628 QT
8.364 11.323 9.067 11.323 QT
9.552 11.323 10.044 11.526 QT
10.536 11.729 10.848 12.12 QT
11.161 12.51 11.161 13.026 QT
11.161 15.729 L
11.161 15.964 11.262 16.159 QT
11.364 16.354 11.567 16.354 QT
11.77 16.354 11.864 16.151 QT
11.958 15.948 11.958 15.729 QT
11.958 14.964 L
12.317 14.964 L
12.317 15.729 L
12.317 15.995 12.177 16.237 QT
12.036 16.479 11.794 16.628 QT
11.552 16.776 11.286 16.776 QT
10.927 16.776 10.677 16.503 QT
10.427 16.229 10.395 15.854 QT
10.177 16.292 9.739 16.565 QT
9.302 16.839 8.817 16.839 QT
8.348 16.839 7.911 16.698 QT
7.473 16.557 7.177 16.268 QT
6.88 15.979 6.88 15.526 QT
cp
7.848 15.526 M
7.848 15.948 8.161 16.229 QT
8.473 16.51 8.895 16.51 QT
9.286 16.51 9.598 16.323 QT
9.911 16.135 10.098 15.799 QT
10.286 15.464 10.286 15.089 QT
10.286 13.839 L
9.739 13.839 9.169 14.018 QT
8.598 14.198 8.223 14.581 QT
7.848 14.964 7.848 15.526 QT
cp
f
GR
GS
[0.78305 0 0 0.78377 146.82223 154.13643] CT
0.149 GC
N
12.439 16.698 M
12.439 16.276 L
12.908 16.276 13.306 16.096 QT
13.705 15.917 13.986 15.573 QT
15.08 14.182 L
13.658 12.339 L
13.455 12.073 13.205 12.01 QT
12.955 11.948 12.502 11.948 QT
12.502 11.526 L
15.002 11.526 L
15.002 11.948 L
14.846 11.948 14.705 12.018 QT
14.564 12.089 14.564 12.214 QT
14.564 12.26 14.596 12.339 QT
15.564 13.573 L
16.283 12.651 L
16.424 12.479 16.424 12.307 QT
16.424 12.151 16.33 12.049 QT
16.236 11.948 16.08 11.948 QT
16.08 11.526 L
18.283 11.526 L
18.283 11.948 L
17.83 11.948 17.424 12.128 QT
17.017 12.307 16.736 12.651 QT
15.783 13.87 L
17.314 15.901 L
17.549 16.151 17.791 16.214 QT
18.033 16.276 18.486 16.276 QT
18.486 16.698 L
16.002 16.698 L
16.002 16.276 L
16.142 16.276 16.275 16.206 QT
16.408 16.135 16.408 15.995 QT
16.408 15.948 16.377 15.901 QT
15.299 14.464 L
14.439 15.573 L
14.299 15.714 14.299 15.917 QT
14.299 16.057 14.4 16.167 QT
14.502 16.276 14.642 16.276 QT
14.642 16.698 L
12.439 16.698 L
cp
f
GR
GS
[0.78305 0 0 0.78377 0 -0.07875] CT
0.149 GC
2 setlinecap
1 LJ
0.639 LW
N
47 172 M
47 16 L
S
GR
GS
[0.78305 0 0 0.78377 0 -0.07875] CT
0.149 GC
2 setlinecap
1 LJ
0.639 LW
N
328 172 M
328 16 L
S
GR
GS
[0.78305 0 0 0.78377 0 -0.07875] CT
0.149 GC
2 setlinecap
1 LJ
0.639 LW
N
47 172 M
49.81 172 L
S
GR
GS
[0.78305 0 0 0.78377 0 -0.07875] CT
0.149 GC
2 setlinecap
1 LJ
0.639 LW
N
47 120 M
49.81 120 L
S
GR
GS
[0.78305 0 0 0.78377 0 -0.07875] CT
0.149 GC
2 setlinecap
1 LJ
0.639 LW
N
47 68 M
49.81 68 L
S
GR
GS
[0.78305 0 0 0.78377 0 -0.07875] CT
0.149 GC
2 setlinecap
1 LJ
0.639 LW
N
47 16 M
49.81 16 L
S
GR
GS
[0.78305 0 0 0.78377 0 -0.07875] CT
0.149 GC
2 setlinecap
1 LJ
0.639 LW
N
328 172 M
325.19 172 L
S
GR
GS
[0.78305 0 0 0.78377 0 -0.07875] CT
0.149 GC
2 setlinecap
1 LJ
0.639 LW
N
328 120 M
325.19 120 L
S
GR
GS
[0.78305 0 0 0.78377 0 -0.07875] CT
0.149 GC
2 setlinecap
1 LJ
0.639 LW
N
328 68 M
325.19 68 L
S
GR
GS
[0.78305 0 0 0.78377 0 -0.07875] CT
0.149 GC
2 setlinecap
1 LJ
0.639 LW
N
328 16 M
325.19 16 L
S
GR
GS
[0.78305 0 0 0.78377 32.40092 134.73021] CT
0.149 GC
N
-3.917 4.008 M
-5.76 4.008 -6.417 2.492 QT
-7.073 0.977 -7.073 -1.101 QT
-7.073 -2.414 -6.839 -3.562 QT
-6.604 -4.711 -5.901 -5.508 QT
-5.198 -6.304 -3.917 -6.304 QT
-2.932 -6.304 -2.3 -5.828 QT
-1.667 -5.351 -1.339 -4.586 QT
-1.01 -3.82 -0.885 -2.945 QT
-0.76 -2.07 -0.76 -1.101 QT
-0.76 0.18 -1.003 1.305 QT
-1.245 2.43 -1.94 3.219 QT
-2.635 4.008 -3.917 4.008 QT
cp
-3.917 3.617 M
-3.089 3.617 -2.675 2.766 QT
-2.26 1.914 -2.167 0.867 QT
-2.073 -0.179 -2.073 -1.351 QT
-2.073 -2.476 -2.167 -3.429 QT
-2.26 -4.383 -2.667 -5.156 QT
-3.073 -5.929 -3.917 -5.929 QT
-4.76 -5.929 -5.175 -5.148 QT
-5.589 -4.367 -5.682 -3.422 QT
-5.776 -2.476 -5.776 -1.351 QT
-5.776 -0.508 -5.737 0.235 QT
-5.698 0.977 -5.518 1.758 QT
-5.339 2.539 -4.948 3.078 QT
-4.557 3.617 -3.917 3.617 QT
cp
f
GR
GS
[0.78305 0 0 0.78377 32.40092 93.97401] CT
0.149 GC
N
-15.843 4.008 M
-17.686 4.008 -18.343 2.492 QT
-18.999 0.977 -18.999 -1.101 QT
-18.999 -2.414 -18.765 -3.562 QT
-18.53 -4.711 -17.827 -5.508 QT
-17.124 -6.304 -15.843 -6.304 QT
-14.858 -6.304 -14.225 -5.828 QT
-13.593 -5.351 -13.265 -4.586 QT
-12.936 -3.82 -12.811 -2.945 QT
-12.686 -2.07 -12.686 -1.101 QT
-12.686 0.18 -12.929 1.305 QT
-13.171 2.43 -13.866 3.219 QT
-14.561 4.008 -15.843 4.008 QT
cp
-15.843 3.617 M
-15.015 3.617 -14.6 2.766 QT
-14.186 1.914 -14.093 0.867 QT
-13.999 -0.179 -13.999 -1.351 QT
-13.999 -2.476 -14.093 -3.429 QT
-14.186 -4.383 -14.593 -5.156 QT
-14.999 -5.929 -15.843 -5.929 QT
-16.686 -5.929 -17.1 -5.148 QT
-17.515 -4.367 -17.608 -3.422 QT
-17.702 -2.476 -17.702 -1.351 QT
-17.702 -0.508 -17.663 0.235 QT
-17.624 0.977 -17.444 1.758 QT
-17.265 2.539 -16.874 3.078 QT
-16.483 3.617 -15.843 3.617 QT
cp
f
GR
GS
[0.78305 0 0 0.78377 32.40092 93.97401] CT
0.149 GC
N
-10.66 2.852 M
-10.66 2.508 -10.41 2.274 QT
-10.16 2.039 -9.832 2.039 QT
-9.629 2.039 -9.434 2.149 QT
-9.238 2.258 -9.129 2.453 QT
-9.02 2.649 -9.02 2.852 QT
-9.02 3.18 -9.262 3.43 QT
-9.504 3.68 -9.832 3.68 QT
-10.16 3.68 -10.41 3.43 QT
-10.66 3.18 -10.66 2.852 QT
cp
f
GR
GS
[0.78305 0 0 0.78377 32.40092 93.97401] CT
0.149 GC
N
-6.917 3.68 M
-6.917 3.274 L
-6.917 3.242 -6.885 3.196 QT
-4.557 0.617 L
-4.026 0.039 -3.698 -0.343 QT
-3.37 -0.726 -3.05 -1.234 QT
-2.729 -1.742 -2.542 -2.265 QT
-2.354 -2.789 -2.354 -3.367 QT
-2.354 -3.992 -2.581 -4.554 QT
-2.807 -5.117 -3.26 -5.453 QT
-3.714 -5.789 -4.354 -5.789 QT
-4.995 -5.789 -5.518 -5.39 QT
-6.042 -4.992 -6.26 -4.383 QT
-6.198 -4.398 -6.089 -4.398 QT
-5.76 -4.398 -5.518 -4.172 QT
-5.276 -3.945 -5.276 -3.586 QT
-5.276 -3.242 -5.518 -3 QT
-5.76 -2.758 -6.089 -2.758 QT
-6.448 -2.758 -6.682 -3 QT
-6.917 -3.242 -6.917 -3.586 QT
-6.917 -4.148 -6.706 -4.64 QT
-6.495 -5.133 -6.096 -5.515 QT
-5.698 -5.898 -5.198 -6.101 QT
-4.698 -6.304 -4.135 -6.304 QT
-3.276 -6.304 -2.534 -5.945 QT
-1.792 -5.586 -1.362 -4.922 QT
-0.932 -4.258 -0.932 -3.367 QT
-0.932 -2.726 -1.214 -2.14 QT
-1.495 -1.554 -1.94 -1.07 QT
-2.385 -0.586 -3.089 0.024 QT
-3.792 0.633 -4.01 0.836 QT
-5.698 2.461 L
-4.26 2.461 L
-3.198 2.461 -2.487 2.446 QT
-1.776 2.43 -1.729 2.383 QT
-1.557 2.196 -1.37 1.008 QT
-0.932 1.008 L
-1.354 3.68 L
-6.917 3.68 L
cp
f
GR
GS
[0.78305 0 0 0.78377 32.40092 53.21782] CT
0.149 GC
N
/f-1716017318{-15.843 4.008 M
-17.686 4.008 -18.343 2.492 QT
-18.999 0.977 -18.999 -1.101 QT
-18.999 -2.414 -18.765 -3.562 QT
-18.53 -4.711 -17.827 -5.508 QT
-17.124 -6.304 -15.843 -6.304 QT
-14.858 -6.304 -14.225 -5.828 QT
-13.593 -5.351 -13.265 -4.586 QT
-12.936 -3.82 -12.811 -2.945 QT
-12.686 -2.07 -12.686 -1.101 QT
-12.686 0.18 -12.929 1.305 QT
-13.171 2.43 -13.866 3.219 QT
-14.561 4.008 -15.843 4.008 QT
cp
-15.843 3.617 M
-15.015 3.617 -14.6 2.766 QT
-14.186 1.914 -14.093 0.867 QT
-13.999 -0.179 -13.999 -1.351 QT
-13.999 -2.476 -14.093 -3.429 QT
-14.186 -4.383 -14.593 -5.156 QT
-14.999 -5.929 -15.843 -5.929 QT
-16.686 -5.929 -17.1 -5.148 QT
-17.515 -4.367 -17.608 -3.422 QT
-17.702 -2.476 -17.702 -1.351 QT
-17.702 -0.508 -17.663 0.235 QT
-17.624 0.977 -17.444 1.758 QT
-17.265 2.539 -16.874 3.078 QT
-16.483 3.617 -15.843 3.617 QT
cp}def
f-1716017318
f
GR
GS
[0.78305 0 0 0.78377 32.40092 53.21782] CT
0.149 GC
N
/f-606985051{-10.66 2.852 M
-10.66 2.508 -10.41 2.274 QT
-10.16 2.039 -9.832 2.039 QT
-9.629 2.039 -9.434 2.149 QT
-9.238 2.258 -9.129 2.453 QT
-9.02 2.649 -9.02 2.852 QT
-9.02 3.18 -9.262 3.43 QT
-9.504 3.68 -9.832 3.68 QT
-10.16 3.68 -10.41 3.43 QT
-10.66 3.18 -10.66 2.852 QT
cp}def
f-606985051
f
GR
GS
[0.78305 0 0 0.78377 32.40092 53.21782] CT
0.149 GC
N
/f-376320310{-7.245 1.211 M
-7.245 0.68 L
-2.62 -6.242 L
-2.557 -6.304 -2.464 -6.304 QT
-2.245 -6.304 L
-2.073 -6.304 -2.073 -6.148 QT
-2.073 0.68 L
-0.604 0.68 L
-0.604 1.211 L
-2.073 1.211 L
-2.073 2.68 L
-2.073 2.977 -1.635 3.063 QT
-1.198 3.149 -0.62 3.149 QT
-0.62 3.68 L
-4.745 3.68 L
-4.745 3.149 L
-4.167 3.149 -3.729 3.063 QT
-3.292 2.977 -3.292 2.68 QT
-3.292 1.211 L
-7.245 1.211 L
cp
-6.745 0.68 M
-3.198 0.68 L
-3.198 -4.633 L
-6.745 0.68 L
cp}def
f-376320310
f
GR
GS
[0.78305 0 0 0.78377 32.40092 12.46161] CT
0.149 GC
N
f-1716017318
f
GR
GS
[0.78305 0 0 0.78377 32.40092 12.46161] CT
0.149 GC
N
f-606985051
f
GR
GS
[0.78305 0 0 0.78377 32.40092 12.46161] CT
0.149 GC
N
/f-33945120{-3.917 4.008 M
-4.854 4.008 -5.471 3.516 QT
-6.089 3.024 -6.432 2.235 QT
-6.776 1.446 -6.909 0.578 QT
-7.042 -0.289 -7.042 -1.164 QT
-7.042 -2.351 -6.581 -3.547 QT
-6.12 -4.742 -5.221 -5.523 QT
-4.323 -6.304 -3.089 -6.304 QT
-2.573 -6.304 -2.128 -6.117 QT
-1.682 -5.929 -1.432 -5.547 QT
-1.182 -5.164 -1.182 -4.633 QT
-1.182 -4.32 -1.393 -4.117 QT
-1.604 -3.914 -1.917 -3.914 QT
-2.198 -3.914 -2.409 -4.125 QT
-2.62 -4.336 -2.62 -4.633 QT
-2.62 -4.929 -2.409 -5.14 QT
-2.198 -5.351 -1.917 -5.351 QT
-1.823 -5.351 L
-2.026 -5.617 -2.37 -5.75 QT
-2.714 -5.883 -3.089 -5.883 QT
-3.542 -5.883 -3.925 -5.679 QT
-4.307 -5.476 -4.62 -5.14 QT
-4.932 -4.804 -5.135 -4.398 QT
-5.339 -3.992 -5.448 -3.476 QT
-5.557 -2.961 -5.589 -2.508 QT
-5.62 -2.054 -5.62 -1.367 QT
-5.354 -1.976 -4.87 -2.367 QT
-4.385 -2.758 -3.792 -2.758 QT
-3.12 -2.758 -2.573 -2.484 QT
-2.026 -2.211 -1.628 -1.734 QT
-1.229 -1.258 -1.018 -0.64 QT
-0.807 -0.023 -0.807 0.602 QT
-0.807 1.477 -1.198 2.274 QT
-1.589 3.071 -2.3 3.539 QT
-3.01 4.008 -3.917 4.008 QT
cp
-3.917 3.539 M
-3.339 3.539 -2.987 3.274 QT
-2.635 3.008 -2.471 2.571 QT
-2.307 2.133 -2.268 1.688 QT
-2.229 1.242 -2.229 0.602 QT
-2.229 -0.242 -2.307 -0.843 QT
-2.385 -1.445 -2.745 -1.906 QT
-3.104 -2.367 -3.839 -2.367 QT
-4.448 -2.367 -4.839 -1.953 QT
-5.229 -1.539 -5.409 -0.914 QT
-5.589 -0.289 -5.589 0.289 QT
-5.589 0.492 -5.573 0.586 QT
-5.573 0.617 -5.581 0.625 QT
-5.589 0.633 -5.589 0.664 QT
-5.589 1.305 -5.456 1.961 QT
-5.323 2.617 -4.956 3.078 QT
-4.589 3.539 -3.917 3.539 QT
cp}def
f-33945120
f
GR
GS
[0.78305 0 0 0.78377 0 -0.07875] CT
0 0 1 RC
1 LJ
1.917 LW
N
47 128.205 M
47.245 128.116 L
47.49 128.027 L
47.734 127.937 L
47.979 127.848 L
48.224 127.759 L
48.469 127.669 L
48.713 127.58 L
48.958 127.491 L
49.203 127.402 L
49.448 127.313 L
49.693 127.224 L
49.937 127.135 L
50.182 127.047 L
50.427 126.958 L
50.672 126.87 L
50.916 126.782 L
51.161 126.694 L
51.406 126.607 L
51.651 126.519 L
51.895 126.432 L
52.14 126.345 L
52.385 126.259 L
52.63 126.173 L
52.875 126.087 L
53.119 126.001 L
53.364 125.916 L
53.609 125.831 L
53.854 125.746 L
54.098 125.661 L
54.343 125.577 L
54.588 125.494 L
54.833 125.41 L
55.078 125.327 L
55.322 125.244 L
55.567 125.162 L
55.812 125.08 L
56.057 124.998 L
56.301 124.916 L
56.546 124.834 L
56.791 124.753 L
57.036 124.672 L
57.28 124.591 L
57.525 124.51 L
57.77 124.43 L
58.015 124.349 L
58.26 124.269 L
58.504 124.188 L
58.749 124.107 L
58.994 124.027 L
59.239 123.946 L
59.483 123.865 L
59.728 123.784 L
59.973 123.702 L
60.218 123.621 L
60.463 123.538 L
60.707 123.456 L
60.952 123.373 L
61.197 123.29 L
61.442 123.206 L
61.686 123.121 L
61.931 123.036 L
62.176 122.95 L
62.421 122.863 L
62.666 122.775 L
62.91 122.687 L
63.155 122.597 L
63.4 122.507 L
63.645 122.415 L
63.889 122.323 L
64.134 122.229 L
64.379 122.134 L
64.624 122.038 L
64.868 121.94 L
65.113 121.841 L
65.358 121.741 L
65.603 121.639 L
65.848 121.535 L
66.092 121.43 L
66.337 121.323 L
66.582 121.215 L
66.827 121.105 L
67.071 120.993 L
67.316 120.88 L
67.561 120.764 L
67.806 120.647 L
68.051 120.528 L
68.295 120.407 L
68.54 120.284 L
68.785 120.159 L
69.03 120.032 L
69.274 119.903 L
69.519 119.772 L
69.764 119.639 L
70.009 119.504 L
70.253 119.367 L
70.498 119.228 L
70.743 119.086 L
70.988 118.943 L
71.233 118.797 L
71.477 118.65 L
71.722 118.5 L
71.967 118.349 L
72.212 118.195 L
72.456 118.039 L
72.701 117.881 L
72.946 117.722 L
73.191 117.56 L
73.436 117.397 L
73.68 117.231 L
73.925 117.064 L
74.17 116.895 L
74.415 116.724 L
74.659 116.551 L
74.904 116.377 L
75.149 116.201 L
75.394 116.023 L
75.639 115.844 L
75.883 115.664 L
76.128 115.481 L
76.373 115.298 L
76.618 115.113 L
76.862 114.927 L
77.107 114.74 L
77.352 114.552 L
77.597 114.363 L
77.841 114.172 L
78.086 113.981 L
78.331 113.789 L
78.576 113.596 L
78.821 113.402 L
79.065 113.208 L
79.31 113.013 L
79.555 112.818 L
79.8 112.622 L
80.044 112.426 L
80.289 112.23 L
80.534 112.033 L
80.779 111.836 L
81.024 111.639 L
81.268 111.441 L
81.513 111.244 L
81.758 111.047 L
82.003 110.849 L
82.247 110.652 L
82.492 110.455 L
82.737 110.258 L
82.982 110.061 L
83.226 109.864 L
83.471 109.667 L
83.716 109.471 L
83.961 109.274 L
84.206 109.078 L
84.45 108.882 L
84.695 108.686 L
84.94 108.49 L
85.185 108.294 L
85.429 108.098 L
85.674 107.902 L
85.919 107.707 L
86.164 107.511 L
86.409 107.315 L
86.653 107.119 L
86.898 106.923 L
87.143 106.727 L
87.388 106.531 L
87.632 106.334 L
87.877 106.137 L
88.122 105.94 L
88.367 105.743 L
88.611 105.545 L
88.856 105.347 L
89.101 105.149 L
89.346 104.95 L
89.591 104.751 L
89.835 104.552 L
90.08 104.353 L
90.325 104.153 L
90.57 103.953 L
90.814 103.753 L
91.059 103.553 L
91.304 103.353 L
91.549 103.152 L
91.794 102.952 L
92.038 102.751 L
92.283 102.551 L
92.528 102.35 L
92.773 102.15 L
93.017 101.95 L
93.262 101.75 L
93.507 101.55 L
93.752 101.35 L
93.997 101.151 L
94.241 100.952 L
94.486 100.754 L
94.731 100.555 L
94.976 100.357 L
95.22 100.16 L
95.465 99.963 L
95.71 99.766 L
95.955 99.569 L
96.199 99.373 L
96.444 99.177 L
96.689 98.981 L
96.934 98.786 L
97.179 98.591 L
97.423 98.396 L
97.668 98.201 L
97.913 98.006 L
98.158 97.811 L
98.402 97.616 L
98.647 97.422 L
98.892 97.227 L
99.137 97.032 L
99.382 96.837 L
99.626 96.642 L
99.871 96.446 L
100.116 96.25 L
100.361 96.054 L
100.605 95.858 L
100.85 95.661 L
101.095 95.463 L
101.34 95.265 L
101.584 95.067 L
101.829 94.868 L
102.074 94.668 L
102.319 94.468 L
102.564 94.267 L
102.808 94.065 L
103.053 93.863 L
103.298 93.66 L
103.543 93.456 L
103.787 93.251 L
104.032 93.046 L
104.277 92.84 L
104.522 92.633 L
104.767 92.425 L
105.011 92.217 L
105.256 92.007 L
105.501 91.797 L
105.746 91.587 L
105.99 91.375 L
106.235 91.163 L
106.48 90.951 L
106.725 90.737 L
106.97 90.524 L
107.214 90.309 L
107.459 90.094 L
107.704 89.879 L
107.949 89.663 L
108.193 89.447 L
108.438 89.23 L
108.683 89.014 L
108.928 88.797 L
109.172 88.58 L
109.417 88.363 L
109.662 88.146 L
109.907 87.928 L
110.152 87.711 L
110.396 87.495 L
110.641 87.278 L
110.886 87.062 L
111.131 86.846 L
111.375 86.631 L
111.62 86.416 L
111.865 86.202 L
112.11 85.989 L
112.355 85.776 L
112.599 85.564 L
112.844 85.353 L
113.089 85.143 L
113.334 84.935 L
113.578 84.727 L
113.823 84.521 L
114.068 84.315 L
114.313 84.111 L
114.557 83.909 L
114.802 83.708 L
115.047 83.509 L
115.292 83.311 L
115.537 83.115 L
115.781 82.92 L
116.026 82.727 L
116.271 82.536 L
116.516 82.347 L
116.76 82.16 L
117.005 81.975 L
117.25 81.792 L
117.495 81.611 L
117.74 81.432 L
117.984 81.255 L
118.229 81.08 L
118.474 80.908 L
118.719 80.737 L
118.963 80.569 L
119.208 80.404 L
119.453 80.24 L
119.698 80.08 L
119.943 79.921 L
120.187 79.765 L
120.432 79.611 L
120.677 79.46 L
120.922 79.312 L
121.166 79.166 L
121.411 79.022 L
121.656 78.882 L
121.901 78.744 L
122.145 78.608 L
122.39 78.475 L
122.635 78.345 L
122.88 78.218 L
123.125 78.094 L
123.369 77.972 L
123.614 77.853 L
123.859 77.737 L
124.104 77.624 L
124.348 77.513 L
124.593 77.406 L
124.838 77.302 L
125.083 77.2 L
125.328 77.102 L
125.572 77.006 L
125.817 76.914 L
126.062 76.824 L
126.307 76.738 L
126.551 76.654 L
126.796 76.574 L
127.041 76.497 L
127.286 76.422 L
127.53 76.351 L
127.775 76.283 L
128.02 76.217 L
128.265 76.155 L
128.51 76.095 L
128.754 76.038 L
128.999 75.984 L
129.244 75.933 L
129.489 75.885 L
129.733 75.839 L
129.978 75.795 L
130.223 75.754 L
130.468 75.715 L
130.713 75.678 L
130.957 75.643 L
131.202 75.61 L
131.447 75.579 L
131.692 75.549 L
131.936 75.521 L
132.181 75.493 L
132.426 75.467 L
132.671 75.441 L
132.916 75.416 L
133.16 75.39 L
133.405 75.365 L
133.65 75.34 L
133.895 75.314 L
134.139 75.288 L
134.384 75.26 L
134.629 75.231 L
134.874 75.201 L
135.118 75.169 L
135.363 75.136 L
135.608 75.1 L
135.853 75.061 L
136.098 75.021 L
136.342 74.977 L
136.587 74.931 L
136.832 74.881 L
137.077 74.829 L
137.321 74.773 L
137.566 74.713 L
137.811 74.651 L
138.056 74.585 L
138.301 74.515 L
138.545 74.442 L
138.79 74.366 L
139.035 74.286 L
139.28 74.203 L
139.524 74.117 L
139.769 74.028 L
140.014 73.937 L
140.259 73.842 L
140.503 73.745 L
140.748 73.647 L
140.993 73.546 L
141.238 73.444 L
141.483 73.34 L
141.727 73.236 L
141.972 73.131 L
142.217 73.026 L
142.462 72.922 L
142.706 72.818 L
142.951 72.715 L
143.196 72.614 L
143.441 72.514 L
143.686 72.418 L
143.93 72.324 L
144.175 72.233 L
144.42 72.146 L
144.665 72.063 L
144.909 71.984 L
145.154 71.91 L
145.399 71.841 L
145.644 71.777 L
145.889 71.719 L
146.133 71.666 L
146.378 71.619 L
146.623 71.578 L
146.868 71.542 L
147.112 71.512 L
147.357 71.487 L
147.602 71.468 L
147.847 71.453 L
148.091 71.443 L
148.336 71.437 L
148.581 71.435 L
148.826 71.436 L
149.071 71.44 L
149.315 71.447 L
149.56 71.456 L
149.805 71.467 L
150.05 71.479 L
150.294 71.492 L
150.539 71.506 L
150.784 71.52 L
151.029 71.535 L
151.274 71.551 L
151.518 71.567 L
151.763 71.584 L
152.008 71.601 L
152.253 71.619 L
152.497 71.639 L
152.742 71.659 L
152.987 71.68 L
153.232 71.703 L
153.476 71.727 L
153.721 71.753 L
153.966 71.781 L
154.211 71.81 L
154.456 71.841 L
154.7 71.873 L
154.945 71.906 L
155.19 71.94 L
155.435 71.975 L
155.679 72.01 L
155.924 72.044 L
156.169 72.077 L
156.414 72.108 L
156.659 72.137 L
156.903 72.163 L
157.148 72.185 L
157.393 72.203 L
157.638 72.216 L
157.882 72.222 L
158.127 72.223 L
158.372 72.215 L
158.617 72.2 L
158.861 72.177 L
159.106 72.143 L
159.351 72.101 L
159.596 72.048 L
159.841 71.984 L
160.085 71.909 L
160.33 71.822 L
160.575 71.724 L
160.82 71.614 L
161.064 71.491 L
161.309 71.357 L
161.554 71.21 L
161.799 71.05 L
162.044 70.879 L
162.288 70.695 L
162.533 70.499 L
162.778 70.292 L
163.023 70.073 L
163.267 69.844 L
163.512 69.604 L
163.757 69.354 L
164.002 69.095 L
164.247 68.826 L
164.491 68.55 L
164.736 68.265 L
164.981 67.974 L
165.226 67.677 L
165.47 67.374 L
165.715 67.066 L
165.96 66.754 L
166.205 66.439 L
166.449 66.121 L
166.694 65.801 L
166.939 65.479 L
167.184 65.157 L
167.429 64.835 L
167.673 64.514 L
167.918 64.193 L
168.163 63.874 L
168.408 63.558 L
168.652 63.243 L
168.897 62.931 L
169.142 62.622 L
169.387 62.316 L
169.632 62.014 L
169.876 61.715 L
170.121 61.42 L
170.366 61.129 L
170.611 60.842 L
170.855 60.559 L
171.1 60.279 L
171.345 60.004 L
171.59 59.732 L
171.834 59.465 L
172.079 59.201 L
172.324 58.942 L
172.569 58.687 L
172.814 58.437 L
173.058 58.191 L
173.303 57.949 L
173.548 57.713 L
173.793 57.481 L
174.037 57.255 L
174.282 57.035 L
174.527 56.82 L
174.772 56.611 L
175.017 56.408 L
175.261 56.212 L
175.506 56.023 L
175.751 55.84 L
175.996 55.664 L
176.24 55.496 L
176.485 55.334 L
176.73 55.18 L
176.975 55.033 L
177.22 54.893 L
177.464 54.761 L
177.709 54.636 L
177.954 54.517 L
178.199 54.406 L
178.443 54.301 L
178.688 54.202 L
178.933 54.11 L
179.178 54.023 L
179.422 53.943 L
179.667 53.867 L
179.912 53.797 L
180.157 53.731 L
180.402 53.67 L
180.646 53.613 L
180.891 53.559 L
181.136 53.51 L
181.381 53.463 L
181.625 53.42 L
181.87 53.38 L
182.115 53.342 L
182.36 53.307 L
182.605 53.274 L
182.849 53.243 L
183.094 53.213 L
183.339 53.186 L
183.584 53.16 L
183.828 53.136 L
184.073 53.114 L
184.318 53.093 L
184.563 53.073 L
184.807 53.054 L
185.052 53.037 L
185.297 53.022 L
185.542 53.007 L
185.787 52.994 L
186.031 52.982 L
186.276 52.972 L
186.521 52.962 L
186.766 52.954 L
187.01 52.948 L
187.255 52.942 L
187.5 52.939 L
187.745 52.936 L
187.99 52.935 L
188.234 52.936 L
188.479 52.938 L
188.724 52.942 L
188.969 52.947 L
189.213 52.954 L
189.458 52.963 L
189.703 52.974 L
189.948 52.987 L
190.193 53.001 L
190.437 53.018 L
190.682 53.038 L
190.927 53.059 L
191.172 53.084 L
191.416 53.11 L
191.661 53.14 L
191.906 53.172 L
192.151 53.208 L
192.395 53.246 L
192.64 53.288 L
192.885 53.333 L
193.13 53.381 L
193.375 53.433 L
193.619 53.489 L
193.864 53.548 L
194.109 53.611 L
194.354 53.678 L
194.598 53.748 L
194.843 53.822 L
195.088 53.9 L
195.333 53.981 L
195.578 54.065 L
195.822 54.152 L
196.067 54.242 L
196.312 54.335 L
196.557 54.429 L
196.801 54.525 L
197.046 54.621 L
197.291 54.718 L
197.536 54.815 L
197.78 54.911 L
198.025 55.005 L
198.27 55.096 L
198.515 55.184 L
198.76 55.269 L
199.004 55.348 L
199.249 55.422 L
199.494 55.489 L
199.739 55.549 L
199.983 55.601 L
200.228 55.645 L
200.473 55.679 L
200.718 55.705 L
200.963 55.72 L
201.207 55.726 L
201.452 55.722 L
201.697 55.709 L
201.942 55.687 L
202.186 55.655 L
202.431 55.616 L
202.676 55.57 L
202.921 55.518 L
203.166 55.46 L
203.41 55.4 L
203.655 55.338 L
203.9 55.275 L
204.145 55.215 L
204.389 55.158 L
204.634 55.107 L
204.879 55.064 L
205.124 55.031 L
205.368 55.011 L
205.613 55.005 L
205.858 55.016 L
206.103 55.047 L
206.348 55.1 L
206.592 55.176 L
206.837 55.278 L
207.082 55.408 L
207.327 55.567 L
207.571 55.757 L
207.816 55.978 L
208.061 56.233 L
208.306 56.521 L
208.551 56.842 L
208.795 57.197 L
209.04 57.584 L
209.285 58.005 L
209.53 58.457 L
209.774 58.939 L
210.019 59.452 L
210.264 59.994 L
210.509 60.565 L
210.753 61.164 L
210.998 61.793 L
211.243 62.451 L
211.488 63.139 L
211.733 63.86 L
211.977 64.614 L
212.222 65.404 L
212.467 66.231 L
212.712 67.097 L
212.956 68.003 L
213.201 68.951 L
213.446 69.941 L
213.691 70.974 L
213.936 72.049 L
214.18 73.165 L
214.425 74.321 L
214.67 75.515 L
214.915 76.743 L
215.159 78.004 L
215.404 79.293 L
215.649 80.605 L
215.894 81.938 L
216.139 83.284 L
216.383 84.641 L
216.628 86.001 L
216.873 87.359 L
217.118 88.709 L
217.362 90.045 L
217.607 91.362 L
217.852 92.653 L
218.097 93.912 L
218.341 95.133 L
218.586 96.31 L
218.831 97.438 L
219.076 98.51 L
219.321 99.522 L
219.565 100.469 L
219.81 101.345 L
220.055 102.147 L
220.3 102.871 L
220.544 103.515 L
220.789 104.075 L
221.034 104.55 L
221.279 104.94 L
221.524 105.244 L
221.768 105.462 L
222.013 105.597 L
222.258 105.652 L
222.503 105.628 L
222.747 105.531 L
222.992 105.365 L
223.237 105.136 L
223.482 104.849 L
223.726 104.511 L
223.971 104.127 L
224.216 103.705 L
224.461 103.251 L
224.706 102.771 L
224.95 102.272 L
225.195 101.76 L
225.44 101.24 L
225.685 100.717 L
225.929 100.197 L
226.174 99.682 L
226.419 99.179 L
226.664 98.688 L
226.909 98.215 L
227.153 97.761 L
227.398 97.329 L
227.643 96.92 L
227.888 96.538 L
228.132 96.182 L
228.377 95.856 L
228.622 95.56 L
228.867 95.296 L
229.111 95.064 L
229.356 94.868 L
229.601 94.707 L
229.846 94.584 L
230.091 94.5 L
230.335 94.457 L
230.58 94.457 L
230.825 94.502 L
231.07 94.595 L
231.314 94.739 L
231.559 94.936 L
231.804 95.191 L
232.049 95.505 L
232.294 95.883 L
232.538 96.328 L
232.783 96.843 L
233.028 97.433 L
233.273 98.101 L
233.517 98.85 L
233.762 99.682 L
234.007 100.601 L
234.252 101.607 L
234.497 102.703 L
234.741 103.889 L
234.986 105.165 L
235.231 106.53 L
235.476 107.982 L
235.72 109.518 L
235.965 111.133 L
236.21 112.824 L
236.455 114.584 L
236.699 116.405 L
236.944 118.28 L
237.189 120.199 L
237.434 122.152 L
237.679 124.127 L
237.923 126.113 L
238.168 128.096 L
238.413 130.063 L
238.658 132 L
238.902 133.892 L
239.147 135.726 L
239.392 137.487 L
239.637 139.16 L
239.882 140.731 L
240.126 142.187 L
240.371 143.514 L
240.616 144.702 L
240.861 145.739 L
241.105 146.616 L
241.35 147.323 L
241.595 147.855 L
241.84 148.205 L
242.084 148.369 L
242.329 148.346 L
242.574 148.133 L
242.819 147.732 L
243.064 147.145 L
243.308 146.375 L
243.553 145.429 L
243.798 144.314 L
244.043 143.039 L
244.287 141.613 L
244.532 140.051 L
244.777 138.367 L
245.022 136.576 L
245.267 134.697 L
245.511 132.75 L
245.756 130.755 L
246.001 128.735 L
246.246 126.711 L
246.49 124.708 L
246.735 122.749 L
246.98 120.856 L
247.225 119.051 L
247.469 117.355 L
247.714 115.788 L
247.959 114.365 L
248.204 113.103 L
248.449 112.014 L
248.693 111.108 L
248.938 110.392 L
249.183 109.872 L
249.428 109.549 L
249.672 109.424 L
249.917 109.493 L
250.162 109.752 L
250.407 110.194 L
250.652 110.809 L
250.896 111.589 L
251.141 112.519 L
251.386 113.587 L
251.631 114.779 L
251.875 116.077 L
252.12 117.466 L
252.365 118.928 L
252.61 120.446 L
252.855 122.002 L
253.099 123.579 L
253.344 125.16 L
253.589 126.729 L
253.834 128.27 L
254.078 129.77 L
254.323 131.214 L
254.568 132.591 L
254.813 133.89 L
255.057 135.102 L
255.302 136.218 L
255.547 137.232 L
255.792 138.138 L
256.037 138.932 L
256.281 139.612 L
256.526 140.176 L
256.771 140.625 L
257.016 140.96 L
257.26 141.183 L
257.505 141.297 L
257.75 141.307 L
257.995 141.217 L
258.24 141.032 L
258.484 140.758 L
258.729 140.401 L
258.974 139.967 L
259.219 139.463 L
259.463 138.895 L
259.708 138.268 L
259.953 137.59 L
260.198 136.865 L
260.443 136.102 L
260.687 135.303 L
260.932 134.477 L
261.177 133.627 L
261.422 132.76 L
261.666 131.879 L
261.911 130.991 L
262.156 130.099 L
262.401 129.208 L
262.645 128.322 L
262.89 127.444 L
263.135 126.578 L
263.38 125.728 L
263.625 124.896 L
263.869 124.086 L
264.114 123.299 L
264.359 122.537 L
264.604 121.803 L
264.848 121.099 L
265.093 120.425 L
265.338 119.783 L
265.583 119.175 L
265.828 118.601 L
266.072 118.061 L
266.317 117.557 L
266.562 117.09 L
266.807 116.659 L
267.051 116.265 L
267.296 115.909 L
267.541 115.591 L
267.786 115.311 L
268.03 115.069 L
268.275 114.865 L
268.52 114.7 L
268.765 114.573 L
269.01 114.485 L
269.254 114.434 L
269.499 114.422 L
269.744 114.447 L
269.989 114.509 L
270.233 114.608 L
270.478 114.744 L
270.723 114.916 L
270.968 115.123 L
271.213 115.365 L
271.457 115.641 L
271.702 115.95 L
271.947 116.291 L
272.192 116.664 L
272.436 117.068 L
272.681 117.501 L
272.926 117.963 L
273.171 118.451 L
273.415 118.966 L
273.66 119.506 L
273.905 120.069 L
274.15 120.653 L
274.395 121.257 L
274.639 121.88 L
274.884 122.518 L
275.129 123.171 L
275.374 123.837 L
275.618 124.512 L
275.863 125.196 L
276.108 125.885 L
276.353 126.578 L
276.598 127.272 L
276.842 127.965 L
277.087 128.654 L
277.332 129.338 L
277.577 130.013 L
277.821 130.678 L
278.066 131.331 L
278.311 131.969 L
278.556 132.59 L
278.801 133.193 L
279.045 133.775 L
279.29 134.336 L
279.535 134.873 L
279.78 135.386 L
280.024 135.873 L
280.269 136.332 L
280.514 136.764 L
280.759 137.167 L
281.003 137.541 L
281.248 137.886 L
281.493 138.2 L
281.738 138.485 L
281.983 138.74 L
282.227 138.965 L
282.472 139.16 L
282.717 139.327 L
282.962 139.465 L
283.206 139.575 L
283.451 139.657 L
283.696 139.713 L
283.941 139.743 L
284.186 139.749 L
284.43 139.73 L
284.675 139.687 L
284.92 139.623 L
285.165 139.537 L
285.409 139.431 L
285.654 139.306 L
285.899 139.161 L
286.144 139 L
286.388 138.822 L
286.633 138.628 L
286.878 138.42 L
287.123 138.198 L
287.368 137.962 L
287.612 137.715 L
287.857 137.457 L
288.102 137.189 L
288.347 136.911 L
288.591 136.625 L
288.836 136.331 L
289.081 136.03 L
289.326 135.722 L
289.571 135.409 L
289.815 135.092 L
290.06 134.77 L
290.305 134.445 L
290.55 134.118 L
290.794 133.788 L
291.039 133.458 L
291.284 133.126 L
291.529 132.795 L
291.774 132.465 L
292.018 132.136 L
292.263 131.809 L
292.508 131.484 L
292.753 131.163 L
292.997 130.846 L
293.242 130.533 L
293.487 130.225 L
293.732 129.922 L
293.976 129.626 L
294.221 129.337 L
294.466 129.055 L
294.711 128.78 L
294.956 128.514 L
295.2 128.257 L
295.445 128.009 L
295.69 127.771 L
295.935 127.543 L
296.179 127.326 L
296.424 127.119 L
296.669 126.924 L
296.914 126.741 L
297.159 126.57 L
297.403 126.412 L
297.648 126.266 L
297.893 126.134 L
298.138 126.015 L
298.382 125.909 L
298.627 125.818 L
298.872 125.74 L
299.117 125.677 L
299.362 125.629 L
299.606 125.595 L
299.851 125.576 L
300.096 125.572 L
300.341 125.583 L
300.585 125.61 L
300.83 125.651 L
301.075 125.708 L
301.32 125.78 L
301.564 125.868 L
301.809 125.971 L
302.054 126.089 L
302.299 126.222 L
302.544 126.371 L
302.788 126.534 L
303.033 126.713 L
303.278 126.906 L
303.523 127.114 L
303.767 127.337 L
304.012 127.573 L
304.257 127.823 L
304.502 128.087 L
304.747 128.364 L
304.991 128.654 L
305.236 128.956 L
305.481 129.269 L
305.726 129.594 L
305.97 129.93 L
306.215 130.275 L
306.46 130.63 L
306.705 130.994 L
306.949 131.365 L
307.194 131.744 L
307.439 132.129 L
307.684 132.519 L
307.929 132.914 L
308.173 133.312 L
308.418 133.713 L
308.663 134.115 L
308.908 134.518 L
309.152 134.921 L
309.397 135.322 L
309.642 135.72 L
309.887 136.115 L
310.132 136.505 L
310.376 136.89 L
310.621 137.267 L
310.866 137.637 L
311.111 137.998 L
311.355 138.35 L
311.6 138.69 L
311.845 139.02 L
312.09 139.336 L
312.335 139.64 L
312.579 139.929 L
312.824 140.204 L
313.069 140.463 L
313.314 140.706 L
313.558 140.933 L
313.803 141.142 L
314.048 141.334 L
314.293 141.508 L
314.537 141.664 L
314.782 141.801 L
315.027 141.92 L
315.272 142.02 L
315.517 142.101 L
315.761 142.163 L
316.006 142.206 L
316.251 142.231 L
316.496 142.237 L
316.74 142.224 L
316.985 142.194 L
317.23 142.145 L
317.475 142.08 L
317.72 141.997 L
317.964 141.897 L
318.209 141.782 L
318.454 141.65 L
318.699 141.504 L
318.943 141.343 L
319.188 141.168 L
319.433 140.979 L
319.678 140.778 L
319.922 140.565 L
320.167 140.34 L
320.412 140.104 L
320.657 139.858 L
320.902 139.602 L
321.146 139.338 L
321.391 139.066 L
321.636 138.786 L
321.881 138.499 L
322.125 138.207 L
322.37 137.909 L
322.615 137.606 L
322.86 137.3 L
323.105 136.99 L
323.349 136.677 L
323.594 136.362 L
323.839 136.046 L
324.084 135.729 L
324.328 135.412 L
324.573 135.095 L
324.818 134.78 L
325.063 134.466 L
325.307 134.154 L
325.552 133.845 L
325.797 133.539 L
326.042 133.237 L
326.287 132.939 L
326.531 132.646 L
326.776 132.358 L
327.021 132.076 L
327.266 131.8 L
327.51 131.53 L
327.755 131.268 L
328 131.012 L
328.034 130.978 L
S
GR
GS
[0.78305 0 0 0.78377 0 -0.07875] CT
1 LJ
2.172 LW
N
47 128.205 M
47.245 128.116 L
47.49 128.027 L
47.734 127.937 L
47.979 127.848 L
48.224 127.758 L
48.469 127.669 L
48.713 127.58 L
48.958 127.491 L
49.203 127.402 L
49.448 127.313 L
49.693 127.224 L
49.937 127.135 L
50.182 127.046 L
50.427 126.958 L
50.672 126.87 L
50.916 126.782 L
51.161 126.694 L
51.406 126.606 L
51.651 126.519 L
51.895 126.432 L
52.14 126.345 L
52.385 126.258 L
52.63 126.172 L
52.875 126.086 L
53.119 126 L
53.364 125.914 L
53.609 125.829 L
53.854 125.744 L
54.098 125.66 L
54.343 125.576 L
54.588 125.492 L
54.833 125.408 L
55.078 125.325 L
55.322 125.242 L
55.567 125.159 L
55.812 125.077 L
56.057 124.995 L
56.301 124.913 L
56.546 124.831 L
56.791 124.749 L
57.036 124.668 L
57.28 124.587 L
57.525 124.506 L
57.77 124.425 L
58.015 124.344 L
58.26 124.263 L
58.504 124.182 L
58.749 124.101 L
58.994 124.02 L
59.239 123.939 L
59.483 123.858 L
59.728 123.776 L
59.973 123.695 L
60.218 123.613 L
60.463 123.53 L
60.707 123.447 L
60.952 123.364 L
61.197 123.28 L
61.442 123.196 L
61.686 123.111 L
61.931 123.025 L
62.176 122.939 L
62.421 122.852 L
62.666 122.764 L
62.91 122.675 L
63.155 122.585 L
63.4 122.494 L
63.645 122.403 L
63.889 122.31 L
64.134 122.216 L
64.379 122.12 L
64.624 122.024 L
64.868 121.926 L
65.113 121.826 L
65.358 121.726 L
65.603 121.623 L
65.848 121.52 L
66.092 121.414 L
66.337 121.307 L
66.582 121.199 L
66.827 121.089 L
67.071 120.977 L
67.316 120.863 L
67.561 120.747 L
67.806 120.63 L
68.051 120.51 L
68.295 120.389 L
68.54 120.266 L
68.785 120.141 L
69.03 120.014 L
69.274 119.884 L
69.519 119.753 L
69.764 119.62 L
70.009 119.485 L
70.253 119.348 L
70.498 119.208 L
70.743 119.067 L
70.988 118.923 L
71.233 118.778 L
71.477 118.63 L
71.722 118.48 L
71.967 118.329 L
72.212 118.175 L
72.456 118.019 L
72.701 117.861 L
72.946 117.701 L
73.191 117.54 L
73.436 117.376 L
73.68 117.211 L
73.925 117.043 L
74.17 116.874 L
74.415 116.703 L
74.659 116.53 L
74.904 116.356 L
75.149 116.18 L
75.394 116.002 L
75.639 115.823 L
75.883 115.643 L
76.128 115.46 L
76.373 115.277 L
76.618 115.092 L
76.862 114.906 L
77.107 114.719 L
77.352 114.531 L
77.597 114.341 L
77.841 114.151 L
78.086 113.96 L
78.331 113.767 L
78.576 113.574 L
78.821 113.381 L
79.065 113.186 L
79.31 112.992 L
79.555 112.796 L
79.8 112.6 L
80.044 112.404 L
80.289 112.207 L
80.534 112.01 L
80.779 111.813 L
81.024 111.616 L
81.268 111.419 L
81.513 111.221 L
81.758 111.024 L
82.003 110.826 L
82.247 110.629 L
82.492 110.431 L
82.737 110.234 L
82.982 110.037 L
83.226 109.84 L
83.471 109.643 L
83.716 109.446 L
83.961 109.25 L
84.206 109.054 L
84.45 108.857 L
84.695 108.661 L
84.94 108.465 L
85.185 108.269 L
85.429 108.073 L
85.674 107.877 L
85.919 107.682 L
86.164 107.486 L
86.409 107.29 L
86.653 107.094 L
86.898 106.898 L
87.143 106.702 L
87.388 106.506 L
87.632 106.309 L
87.877 106.112 L
88.122 105.915 L
88.367 105.718 L
88.611 105.521 L
88.856 105.323 L
89.101 105.125 L
89.346 104.926 L
89.591 104.728 L
89.835 104.529 L
90.08 104.329 L
90.325 104.13 L
90.57 103.93 L
90.814 103.73 L
91.059 103.53 L
91.304 103.329 L
91.549 103.129 L
91.794 102.928 L
92.038 102.728 L
92.283 102.527 L
92.528 102.326 L
92.773 102.126 L
93.017 101.925 L
93.262 101.725 L
93.507 101.525 L
93.752 101.325 L
93.997 101.125 L
94.241 100.926 L
94.486 100.727 L
94.731 100.528 L
94.976 100.329 L
95.22 100.131 L
95.465 99.933 L
95.71 99.735 L
95.955 99.538 L
96.199 99.341 L
96.444 99.145 L
96.689 98.948 L
96.934 98.752 L
97.179 98.557 L
97.423 98.361 L
97.668 98.166 L
97.913 97.97 L
98.158 97.775 L
98.402 97.58 L
98.647 97.385 L
98.892 97.189 L
99.137 96.994 L
99.382 96.799 L
99.626 96.603 L
99.871 96.407 L
100.116 96.211 L
100.361 96.014 L
100.605 95.817 L
100.85 95.62 L
101.095 95.422 L
101.34 95.224 L
101.584 95.025 L
101.829 94.825 L
102.074 94.625 L
102.319 94.424 L
102.564 94.222 L
102.808 94.02 L
103.053 93.817 L
103.298 93.613 L
103.543 93.408 L
103.787 93.203 L
104.032 92.997 L
104.277 92.79 L
104.522 92.582 L
104.767 92.373 L
105.011 92.164 L
105.256 91.953 L
105.501 91.742 L
105.746 91.531 L
105.99 91.318 L
106.235 91.105 L
106.48 90.891 L
106.725 90.677 L
106.97 90.462 L
107.214 90.246 L
107.459 90.03 L
107.704 89.814 L
107.949 89.597 L
108.193 89.38 L
108.438 89.162 L
108.683 88.945 L
108.928 88.727 L
109.172 88.509 L
109.417 88.291 L
109.662 88.073 L
109.907 87.855 L
110.152 87.638 L
110.396 87.42 L
110.641 87.203 L
110.886 86.986 L
111.131 86.77 L
111.375 86.554 L
111.62 86.339 L
111.865 86.124 L
112.11 85.911 L
112.355 85.698 L
112.599 85.486 L
112.844 85.274 L
113.089 85.064 L
113.334 84.855 L
113.578 84.647 L
113.823 84.44 L
114.068 84.235 L
114.313 84.031 L
114.557 83.828 L
114.802 83.627 L
115.047 83.427 L
115.292 83.229 L
115.537 83.033 L
115.781 82.838 L
116.026 82.645 L
116.271 82.454 L
116.516 82.264 L
116.76 82.077 L
117.005 81.891 L
117.25 81.708 L
117.495 81.526 L
117.74 81.347 L
117.984 81.17 L
118.229 80.995 L
118.474 80.822 L
118.719 80.652 L
118.963 80.483 L
119.208 80.318 L
119.453 80.154 L
119.698 79.993 L
119.943 79.834 L
120.187 79.678 L
120.432 79.524 L
120.677 79.373 L
120.922 79.225 L
121.166 79.079 L
121.411 78.936 L
121.656 78.795 L
121.901 78.657 L
122.145 78.522 L
122.39 78.389 L
122.635 78.26 L
122.88 78.133 L
123.125 78.009 L
123.369 77.888 L
123.614 77.769 L
123.859 77.654 L
124.104 77.542 L
124.348 77.432 L
124.593 77.325 L
124.838 77.222 L
125.083 77.121 L
125.328 77.024 L
125.572 76.929 L
125.817 76.838 L
126.062 76.75 L
126.307 76.664 L
126.551 76.582 L
126.796 76.503 L
127.041 76.427 L
127.286 76.354 L
127.53 76.284 L
127.775 76.217 L
128.02 76.153 L
128.265 76.092 L
128.51 76.034 L
128.754 75.978 L
128.999 75.926 L
129.244 75.876 L
129.489 75.829 L
129.733 75.784 L
129.978 75.742 L
130.223 75.702 L
130.468 75.665 L
130.713 75.63 L
130.957 75.596 L
131.202 75.565 L
131.447 75.535 L
131.692 75.506 L
131.936 75.479 L
132.181 75.453 L
132.426 75.427 L
132.671 75.403 L
132.916 75.379 L
133.16 75.355 L
133.405 75.331 L
133.65 75.306 L
133.895 75.281 L
134.139 75.256 L
134.384 75.229 L
134.629 75.201 L
134.874 75.172 L
135.118 75.141 L
135.363 75.107 L
135.608 75.072 L
135.853 75.034 L
136.098 74.994 L
136.342 74.95 L
136.587 74.904 L
136.832 74.855 L
137.077 74.802 L
137.321 74.746 L
137.566 74.687 L
137.811 74.624 L
138.056 74.558 L
138.301 74.488 L
138.545 74.414 L
138.79 74.337 L
139.035 74.257 L
139.28 74.173 L
139.524 74.086 L
139.769 73.996 L
140.014 73.903 L
140.259 73.807 L
140.503 73.709 L
140.748 73.609 L
140.993 73.507 L
141.238 73.403 L
141.483 73.298 L
141.727 73.192 L
141.972 73.086 L
142.217 72.979 L
142.462 72.873 L
142.706 72.768 L
142.951 72.663 L
143.196 72.56 L
143.441 72.46 L
143.686 72.362 L
143.93 72.266 L
144.175 72.174 L
144.42 72.086 L
144.665 72.002 L
144.909 71.923 L
145.154 71.848 L
145.399 71.778 L
145.644 71.714 L
145.889 71.655 L
146.133 71.603 L
146.378 71.555 L
146.623 71.514 L
146.868 71.478 L
147.112 71.448 L
147.357 71.424 L
147.602 71.404 L
147.847 71.389 L
148.091 71.379 L
148.336 71.374 L
148.581 71.372 L
148.826 71.373 L
149.071 71.377 L
149.315 71.384 L
149.56 71.393 L
149.805 71.403 L
150.05 71.415 L
150.294 71.428 L
150.539 71.442 L
150.784 71.457 L
151.029 71.473 L
151.274 71.489 L
151.518 71.505 L
151.763 71.523 L
152.008 71.541 L
152.253 71.561 L
152.497 71.581 L
152.742 71.603 L
152.987 71.626 L
153.232 71.651 L
153.476 71.678 L
153.721 71.706 L
153.966 71.736 L
154.211 71.768 L
154.456 71.801 L
154.7 71.836 L
154.945 71.872 L
155.19 71.908 L
155.435 71.945 L
155.679 71.982 L
155.924 72.019 L
156.169 72.054 L
156.414 72.087 L
156.659 72.119 L
156.903 72.147 L
157.148 72.171 L
157.393 72.191 L
157.638 72.206 L
157.882 72.214 L
158.127 72.217 L
158.372 72.211 L
158.617 72.198 L
158.861 72.177 L
159.106 72.146 L
159.351 72.105 L
159.596 72.054 L
159.841 71.992 L
160.085 71.919 L
160.33 71.834 L
160.575 71.738 L
160.82 71.629 L
161.064 71.508 L
161.309 71.374 L
161.554 71.228 L
161.799 71.07 L
162.044 70.899 L
162.288 70.716 L
162.533 70.52 L
162.778 70.313 L
163.023 70.095 L
163.267 69.866 L
163.512 69.626 L
163.757 69.376 L
164.002 69.116 L
164.247 68.848 L
164.491 68.571 L
164.736 68.287 L
164.981 67.996 L
165.226 67.699 L
165.47 67.396 L
165.715 67.089 L
165.96 66.778 L
166.205 66.463 L
166.449 66.146 L
166.694 65.828 L
166.939 65.508 L
167.184 65.187 L
167.429 64.867 L
167.673 64.548 L
167.918 64.229 L
168.163 63.912 L
168.408 63.598 L
168.652 63.286 L
168.897 62.976 L
169.142 62.67 L
169.387 62.367 L
169.632 62.067 L
169.876 61.771 L
170.121 61.478 L
170.366 61.19 L
170.611 60.905 L
170.855 60.623 L
171.1 60.346 L
171.345 60.072 L
171.59 59.802 L
171.834 59.536 L
172.079 59.274 L
172.324 59.016 L
172.569 58.762 L
172.814 58.512 L
173.058 58.266 L
173.303 58.025 L
173.548 57.789 L
173.793 57.557 L
174.037 57.331 L
174.282 57.11 L
174.527 56.895 L
174.772 56.686 L
175.017 56.482 L
175.261 56.285 L
175.506 56.095 L
175.751 55.911 L
175.996 55.733 L
176.24 55.563 L
176.485 55.4 L
176.73 55.243 L
176.975 55.093 L
177.22 54.951 L
177.464 54.815 L
177.709 54.685 L
177.954 54.562 L
178.199 54.446 L
178.443 54.335 L
178.688 54.231 L
178.933 54.132 L
179.178 54.038 L
179.422 53.95 L
179.667 53.867 L
179.912 53.788 L
180.157 53.713 L
180.402 53.642 L
180.646 53.575 L
180.891 53.512 L
181.136 53.451 L
181.381 53.394 L
181.625 53.339 L
181.87 53.287 L
182.115 53.238 L
182.36 53.19 L
182.605 53.144 L
182.849 53.1 L
183.094 53.058 L
183.339 53.017 L
183.584 52.978 L
183.828 52.94 L
184.073 52.903 L
184.318 52.868 L
184.563 52.833 L
184.807 52.8 L
185.052 52.768 L
185.297 52.738 L
185.542 52.708 L
185.787 52.679 L
186.031 52.652 L
186.276 52.626 L
186.521 52.601 L
186.766 52.577 L
187.01 52.554 L
187.255 52.533 L
187.5 52.513 L
187.745 52.494 L
187.99 52.477 L
188.234 52.461 L
188.479 52.446 L
188.724 52.433 L
188.969 52.422 L
189.213 52.412 L
189.458 52.404 L
189.703 52.398 L
189.948 52.393 L
190.193 52.391 L
190.437 52.39 L
190.682 52.391 L
190.927 52.394 L
191.172 52.4 L
191.416 52.408 L
191.661 52.418 L
191.906 52.43 L
192.151 52.445 L
192.395 52.463 L
192.64 52.483 L
192.885 52.507 L
193.13 52.533 L
193.375 52.562 L
193.619 52.594 L
193.864 52.629 L
194.109 52.668 L
194.354 52.71 L
194.598 52.754 L
194.843 52.803 L
195.088 52.854 L
195.333 52.908 L
195.578 52.965 L
195.822 53.025 L
196.067 53.088 L
196.312 53.153 L
196.557 53.22 L
196.801 53.289 L
197.046 53.359 L
197.291 53.43 L
197.536 53.502 L
197.78 53.573 L
198.025 53.644 L
198.27 53.714 L
198.515 53.781 L
198.76 53.847 L
199.004 53.909 L
199.249 53.967 L
199.494 54.02 L
199.739 54.069 L
199.983 54.112 L
200.228 54.148 L
200.473 54.178 L
200.718 54.201 L
200.963 54.216 L
201.207 54.223 L
201.452 54.223 L
201.697 54.214 L
201.942 54.199 L
202.186 54.175 L
202.431 54.145 L
202.676 54.109 L
202.921 54.067 L
203.166 54.021 L
203.41 53.971 L
203.655 53.919 L
203.9 53.867 L
204.145 53.816 L
204.389 53.767 L
204.634 53.723 L
204.879 53.686 L
205.124 53.658 L
205.368 53.641 L
205.613 53.638 L
205.858 53.65 L
206.103 53.681 L
206.348 53.733 L
206.592 53.808 L
206.837 53.909 L
207.082 54.037 L
207.327 54.196 L
207.571 54.385 L
207.816 54.609 L
208.061 54.866 L
208.306 55.159 L
208.551 55.487 L
208.795 55.852 L
209.04 56.252 L
209.285 56.687 L
209.53 57.158 L
209.774 57.661 L
210.019 58.198 L
210.264 58.766 L
210.509 59.366 L
210.753 59.996 L
210.998 60.656 L
211.243 61.347 L
211.488 62.07 L
211.733 62.824 L
211.977 63.613 L
212.222 64.437 L
212.467 65.298 L
212.712 66.198 L
212.956 67.139 L
213.201 68.122 L
213.446 69.147 L
213.691 70.216 L
213.936 71.327 L
214.18 72.479 L
214.425 73.672 L
214.67 74.902 L
214.915 76.166 L
215.159 77.461 L
215.404 78.782 L
215.649 80.124 L
215.894 81.481 L
216.139 82.849 L
216.383 84.22 L
216.628 85.589 L
216.873 86.948 L
217.118 88.29 L
217.362 89.609 L
217.607 90.898 L
217.852 92.149 L
218.097 93.356 L
218.341 94.512 L
218.586 95.611 L
218.831 96.647 L
219.076 97.614 L
219.321 98.508 L
219.565 99.323 L
219.81 100.057 L
220.055 100.707 L
220.3 101.269 L
220.544 101.744 L
220.789 102.132 L
221.034 102.433 L
221.279 102.649 L
221.524 102.783 L
221.768 102.841 L
222.013 102.826 L
222.258 102.744 L
222.503 102.602 L
222.747 102.406 L
222.992 102.165 L
223.237 101.886 L
223.482 101.575 L
223.726 101.242 L
223.971 100.892 L
224.216 100.533 L
224.461 100.17 L
224.706 99.811 L
224.95 99.46 L
225.195 99.121 L
225.44 98.799 L
225.685 98.498 L
225.929 98.221 L
226.174 97.97 L
226.419 97.748 L
226.664 97.558 L
226.909 97.4 L
227.153 97.276 L
227.398 97.189 L
227.643 97.14 L
227.888 97.13 L
228.132 97.161 L
228.377 97.234 L
228.622 97.352 L
228.867 97.515 L
229.111 97.726 L
229.356 97.986 L
229.601 98.298 L
229.846 98.663 L
230.091 99.083 L
230.335 99.561 L
230.58 100.097 L
230.825 100.693 L
231.07 101.352 L
231.314 102.074 L
231.559 102.86 L
231.804 103.711 L
232.049 104.628 L
232.294 105.61 L
232.538 106.657 L
232.783 107.767 L
233.028 108.939 L
233.273 110.17 L
233.517 111.459 L
233.762 112.8 L
234.007 114.19 L
234.252 115.623 L
234.497 117.094 L
234.741 118.596 L
234.986 120.122 L
235.231 121.663 L
235.476 123.212 L
235.72 124.758 L
235.965 126.292 L
236.21 127.803 L
236.455 129.281 L
236.699 130.714 L
236.944 132.09 L
237.189 133.398 L
237.434 134.626 L
237.679 135.762 L
237.923 136.794 L
238.168 137.712 L
238.413 138.504 L
238.658 139.16 L
238.902 139.672 L
239.147 140.03 L
239.392 140.228 L
239.637 140.259 L
239.882 140.121 L
240.126 139.812 L
240.371 139.331 L
240.616 138.68 L
240.861 137.865 L
241.105 136.892 L
241.35 135.772 L
241.595 134.516 L
241.84 133.139 L
242.084 131.659 L
242.329 130.093 L
242.574 128.462 L
242.819 126.789 L
243.064 125.096 L
243.308 123.408 L
243.553 121.747 L
243.798 120.138 L
244.043 118.603 L
244.287 117.164 L
244.532 115.84 L
244.777 114.649 L
245.022 113.608 L
245.267 112.728 L
245.511 112.021 L
245.756 111.492 L
246.001 111.147 L
246.246 110.985 L
246.49 111.006 L
246.735 111.204 L
246.98 111.572 L
247.225 112.099 L
247.469 112.774 L
247.714 113.583 L
247.959 114.51 L
248.204 115.54 L
248.449 116.656 L
248.693 117.839 L
248.938 119.072 L
249.183 120.339 L
249.428 121.623 L
249.672 122.908 L
249.917 124.179 L
250.162 125.423 L
250.407 126.627 L
250.652 127.782 L
250.896 128.878 L
251.141 129.908 L
251.386 130.865 L
251.631 131.745 L
251.875 132.544 L
252.12 133.262 L
252.365 133.897 L
252.61 134.45 L
252.855 134.922 L
253.099 135.316 L
253.344 135.634 L
253.589 135.88 L
253.834 136.057 L
254.078 136.171 L
254.323 136.224 L
254.568 136.222 L
254.813 136.169 L
255.057 136.07 L
255.302 135.928 L
255.547 135.748 L
255.792 135.535 L
256.037 135.292 L
256.281 135.022 L
256.526 134.73 L
256.771 134.418 L
257.016 134.089 L
257.26 133.747 L
257.505 133.394 L
257.75 133.031 L
257.995 132.662 L
258.24 132.288 L
258.484 131.91 L
258.729 131.531 L
258.974 131.15 L
259.219 130.77 L
259.463 130.391 L
259.708 130.014 L
259.953 129.638 L
260.198 129.265 L
260.443 128.895 L
260.687 128.528 L
260.932 128.163 L
261.177 127.8 L
261.422 127.44 L
261.666 127.081 L
261.911 126.723 L
262.156 126.366 L
262.401 126.008 L
262.645 125.65 L
262.89 125.291 L
263.135 124.929 L
263.38 124.565 L
263.625 124.197 L
263.869 123.824 L
264.114 123.447 L
264.359 123.063 L
264.604 122.673 L
264.848 122.277 L
265.093 121.873 L
265.338 121.461 L
265.583 121.04 L
265.828 120.612 L
266.072 120.175 L
266.317 119.729 L
266.562 119.276 L
266.807 118.814 L
267.051 118.345 L
267.296 117.869 L
267.541 117.387 L
267.786 116.901 L
268.03 116.41 L
268.275 115.917 L
268.52 115.422 L
268.765 114.928 L
269.01 114.436 L
269.254 113.949 L
269.499 113.468 L
269.744 112.995 L
269.989 112.532 L
270.233 112.083 L
270.478 111.649 L
270.723 111.234 L
270.968 110.838 L
271.213 110.466 L
271.457 110.12 L
271.702 109.802 L
271.947 109.514 L
272.192 109.26 L
272.436 109.042 L
272.681 108.862 L
272.926 108.722 L
273.171 108.624 L
273.415 108.571 L
273.66 108.564 L
273.905 108.605 L
274.15 108.694 L
274.395 108.834 L
274.639 109.026 L
274.884 109.269 L
275.129 109.565 L
275.374 109.913 L
275.618 110.315 L
275.863 110.769 L
276.108 111.274 L
276.353 111.831 L
276.598 112.437 L
276.842 113.092 L
277.087 113.793 L
277.332 114.538 L
277.577 115.326 L
277.821 116.152 L
278.066 117.016 L
278.311 117.912 L
278.556 118.839 L
278.801 119.791 L
279.045 120.765 L
279.29 121.757 L
279.535 122.762 L
279.78 123.777 L
280.024 124.795 L
280.269 125.812 L
280.514 126.824 L
280.759 127.824 L
281.003 128.809 L
281.248 129.773 L
281.493 130.712 L
281.738 131.62 L
281.983 132.492 L
282.227 133.325 L
282.472 134.114 L
282.717 134.856 L
282.962 135.545 L
283.206 136.18 L
283.451 136.758 L
283.696 137.275 L
283.941 137.731 L
284.186 138.123 L
284.43 138.45 L
284.675 138.712 L
284.92 138.909 L
285.165 139.042 L
285.409 139.111 L
285.654 139.117 L
285.899 139.063 L
286.144 138.951 L
286.388 138.783 L
286.633 138.562 L
286.878 138.292 L
287.123 137.975 L
287.368 137.616 L
287.612 137.218 L
287.857 136.785 L
288.102 136.322 L
288.347 135.831 L
288.591 135.318 L
288.836 134.785 L
289.081 134.237 L
289.326 133.677 L
289.571 133.109 L
289.815 132.536 L
290.06 131.961 L
290.305 131.387 L
290.55 130.816 L
290.794 130.252 L
291.039 129.695 L
291.284 129.149 L
291.529 128.614 L
291.774 128.092 L
292.018 127.585 L
292.263 127.093 L
292.508 126.617 L
292.753 126.158 L
292.997 125.715 L
293.242 125.29 L
293.487 124.883 L
293.732 124.493 L
293.976 124.119 L
294.221 123.763 L
294.466 123.423 L
294.711 123.098 L
294.956 122.788 L
295.2 122.493 L
295.445 122.211 L
295.69 121.942 L
295.935 121.685 L
296.179 121.439 L
296.424 121.203 L
296.669 120.976 L
296.914 120.757 L
297.159 120.545 L
297.403 120.34 L
297.648 120.14 L
297.893 119.944 L
298.138 119.753 L
298.382 119.563 L
298.627 119.376 L
298.872 119.19 L
299.117 119.005 L
299.362 118.819 L
299.606 118.632 L
299.851 118.444 L
300.096 118.254 L
300.341 118.062 L
300.585 117.866 L
300.83 117.667 L
301.075 117.465 L
301.32 117.258 L
301.564 117.048 L
301.809 116.833 L
302.054 116.615 L
302.299 116.391 L
302.544 116.164 L
302.788 115.932 L
303.033 115.696 L
303.278 115.457 L
303.523 115.213 L
303.767 114.966 L
304.012 114.716 L
304.257 114.463 L
304.502 114.208 L
304.747 113.95 L
304.991 113.69 L
305.236 113.429 L
305.481 113.167 L
305.726 112.904 L
305.97 112.64 L
306.215 112.377 L
306.46 112.113 L
306.705 111.851 L
306.949 111.589 L
307.194 111.329 L
307.439 111.07 L
307.684 110.813 L
307.929 110.558 L
308.173 110.305 L
308.418 110.055 L
308.663 109.807 L
308.908 109.562 L
309.152 109.32 L
309.397 109.081 L
309.642 108.845 L
309.887 108.613 L
310.132 108.384 L
310.376 108.159 L
310.621 107.937 L
310.866 107.718 L
311.111 107.504 L
311.355 107.293 L
311.6 107.086 L
311.845 106.882 L
312.09 106.683 L
312.335 106.488 L
312.579 106.297 L
312.824 106.11 L
313.069 105.928 L
313.314 105.75 L
313.558 105.577 L
313.803 105.408 L
314.048 105.244 L
314.293 105.085 L
314.537 104.932 L
314.782 104.783 L
315.027 104.641 L
315.272 104.503 L
315.517 104.372 L
315.761 104.247 L
316.006 104.128 L
316.251 104.015 L
316.496 103.909 L
316.74 103.81 L
316.985 103.718 L
317.23 103.633 L
317.475 103.555 L
317.72 103.485 L
317.964 103.423 L
318.209 103.368 L
318.454 103.322 L
318.699 103.283 L
318.943 103.253 L
319.188 103.232 L
319.433 103.218 L
319.678 103.213 L
319.922 103.217 L
320.167 103.229 L
320.412 103.25 L
320.657 103.279 L
320.902 103.317 L
321.146 103.363 L
321.391 103.418 L
321.636 103.481 L
321.881 103.553 L
322.125 103.633 L
322.37 103.721 L
322.615 103.817 L
322.86 103.921 L
323.105 104.034 L
323.349 104.154 L
323.594 104.283 L
323.839 104.419 L
324.084 104.564 L
324.328 104.718 L
324.573 104.88 L
324.818 105.052 L
325.063 105.232 L
325.307 105.423 L
325.552 105.624 L
325.797 105.835 L
326.042 106.059 L
326.287 106.295 L
326.531 106.543 L
326.776 106.806 L
327.021 107.084 L
327.266 107.378 L
327.51 107.689 L
327.755 108.018 L
328 108.366 L
328.034 108.417 L
S
GR
GS
[0.78305 0 0 0.78377 0 -0.07875] CT
1 0 0 RC
[10 6] 0 setdash
2 LJ
1.789 LW
N
47 128.212 M
47.245 128.127 L
47.49 128.041 L
47.734 127.956 L
47.979 127.871 L
48.224 127.786 L
48.469 127.7 L
48.713 127.615 L
48.958 127.53 L
49.203 127.445 L
49.448 127.359 L
49.693 127.274 L
49.937 127.189 L
50.182 127.103 L
50.427 127.018 L
50.672 126.932 L
50.916 126.847 L
51.161 126.762 L
51.406 126.677 L
51.651 126.592 L
51.895 126.507 L
52.14 126.423 L
52.385 126.338 L
52.63 126.254 L
52.875 126.17 L
53.119 126.086 L
53.364 126.002 L
53.609 125.919 L
53.854 125.835 L
54.098 125.752 L
54.343 125.669 L
54.588 125.587 L
54.833 125.504 L
55.078 125.422 L
55.322 125.339 L
55.567 125.257 L
55.812 125.175 L
56.057 125.093 L
56.301 125.012 L
56.546 124.93 L
56.791 124.848 L
57.036 124.767 L
57.28 124.685 L
57.525 124.603 L
57.77 124.522 L
58.015 124.44 L
58.26 124.358 L
58.504 124.276 L
58.749 124.194 L
58.994 124.111 L
59.239 124.029 L
59.483 123.946 L
59.728 123.862 L
59.973 123.778 L
60.218 123.694 L
60.463 123.609 L
60.707 123.524 L
60.952 123.438 L
61.197 123.352 L
61.442 123.264 L
61.686 123.176 L
61.931 123.087 L
62.176 122.998 L
62.421 122.907 L
62.666 122.815 L
62.91 122.723 L
63.155 122.629 L
63.4 122.534 L
63.645 122.438 L
63.889 122.341 L
64.134 122.242 L
64.379 122.142 L
64.624 122.041 L
64.868 121.938 L
65.113 121.833 L
65.358 121.727 L
65.603 121.62 L
65.848 121.511 L
66.092 121.4 L
66.337 121.287 L
66.582 121.172 L
66.827 121.056 L
67.071 120.938 L
67.316 120.818 L
67.561 120.696 L
67.806 120.571 L
68.051 120.445 L
68.295 120.317 L
68.54 120.187 L
68.785 120.055 L
69.03 119.92 L
69.274 119.784 L
69.519 119.645 L
69.764 119.504 L
70.009 119.361 L
70.253 119.216 L
70.498 119.069 L
70.743 118.919 L
70.988 118.767 L
71.233 118.613 L
71.477 118.457 L
71.722 118.298 L
71.967 118.138 L
72.212 117.975 L
72.456 117.81 L
72.701 117.643 L
72.946 117.474 L
73.191 117.303 L
73.436 117.13 L
73.68 116.955 L
73.925 116.778 L
74.17 116.599 L
74.415 116.418 L
74.659 116.235 L
74.904 116.051 L
75.149 115.864 L
75.394 115.677 L
75.639 115.487 L
75.883 115.296 L
76.128 115.103 L
76.373 114.909 L
76.618 114.714 L
76.862 114.517 L
77.107 114.319 L
77.352 114.12 L
77.597 113.92 L
77.841 113.719 L
78.086 113.517 L
78.331 113.314 L
78.576 113.111 L
78.821 112.906 L
79.065 112.701 L
79.31 112.496 L
79.555 112.29 L
79.8 112.083 L
80.044 111.877 L
80.289 111.67 L
80.534 111.462 L
80.779 111.255 L
81.024 111.048 L
81.268 110.841 L
81.513 110.633 L
81.758 110.426 L
82.003 110.22 L
82.247 110.013 L
82.492 109.806 L
82.737 109.6 L
82.982 109.395 L
83.226 109.189 L
83.471 108.984 L
83.716 108.78 L
83.961 108.575 L
84.206 108.371 L
84.45 108.168 L
84.695 107.965 L
84.94 107.762 L
85.185 107.56 L
85.429 107.358 L
85.674 107.157 L
85.919 106.955 L
86.164 106.754 L
86.409 106.554 L
86.653 106.353 L
86.898 106.153 L
87.143 105.952 L
87.388 105.752 L
87.632 105.552 L
87.877 105.352 L
88.122 105.152 L
88.367 104.952 L
88.611 104.752 L
88.856 104.552 L
89.101 104.352 L
89.346 104.151 L
89.591 103.951 L
89.835 103.75 L
90.08 103.55 L
90.325 103.349 L
90.57 103.148 L
90.814 102.948 L
91.059 102.747 L
91.304 102.546 L
91.549 102.345 L
91.794 102.144 L
92.038 101.944 L
92.283 101.743 L
92.528 101.542 L
92.773 101.342 L
93.017 101.142 L
93.262 100.942 L
93.507 100.742 L
93.752 100.542 L
93.997 100.343 L
94.241 100.144 L
94.486 99.945 L
94.731 99.747 L
94.976 99.549 L
95.22 99.351 L
95.465 99.153 L
95.71 98.956 L
95.955 98.759 L
96.199 98.563 L
96.444 98.366 L
96.689 98.17 L
96.934 97.974 L
97.179 97.778 L
97.423 97.582 L
97.668 97.386 L
97.913 97.191 L
98.158 96.995 L
98.402 96.799 L
98.647 96.603 L
98.892 96.407 L
99.137 96.211 L
99.382 96.014 L
99.626 95.817 L
99.871 95.62 L
100.116 95.422 L
100.361 95.224 L
100.605 95.026 L
100.85 94.827 L
101.095 94.627 L
101.34 94.426 L
101.584 94.225 L
101.829 94.024 L
102.074 93.821 L
102.319 93.618 L
102.564 93.414 L
102.808 93.21 L
103.053 93.004 L
103.298 92.798 L
103.543 92.591 L
103.787 92.383 L
104.032 92.174 L
104.277 91.964 L
104.522 91.754 L
104.767 91.543 L
105.011 91.331 L
105.256 91.118 L
105.501 90.905 L
105.746 90.691 L
105.99 90.476 L
106.235 90.261 L
106.48 90.045 L
106.725 89.828 L
106.97 89.611 L
107.214 89.393 L
107.459 89.175 L
107.704 88.957 L
107.949 88.738 L
108.193 88.52 L
108.438 88.301 L
108.683 88.081 L
108.928 87.862 L
109.172 87.643 L
109.417 87.424 L
109.662 87.205 L
109.907 86.986 L
110.152 86.768 L
110.396 86.55 L
110.641 86.333 L
110.886 86.116 L
111.131 85.899 L
111.375 85.684 L
111.62 85.469 L
111.865 85.255 L
112.11 85.042 L
112.355 84.83 L
112.599 84.619 L
112.844 84.409 L
113.089 84.2 L
113.334 83.993 L
113.578 83.787 L
113.823 83.582 L
114.068 83.379 L
114.313 83.178 L
114.557 82.978 L
114.802 82.779 L
115.047 82.583 L
115.292 82.388 L
115.537 82.195 L
115.781 82.004 L
116.026 81.815 L
116.271 81.628 L
116.516 81.443 L
116.76 81.26 L
117.005 81.079 L
117.25 80.9 L
117.495 80.724 L
117.74 80.55 L
117.984 80.378 L
118.229 80.208 L
118.474 80.041 L
118.719 79.876 L
118.963 79.714 L
119.208 79.554 L
119.453 79.396 L
119.698 79.242 L
119.943 79.089 L
120.187 78.94 L
120.432 78.793 L
120.677 78.648 L
120.922 78.507 L
121.166 78.368 L
121.411 78.232 L
121.656 78.099 L
121.901 77.969 L
122.145 77.841 L
122.39 77.717 L
122.635 77.595 L
122.88 77.477 L
123.125 77.362 L
123.369 77.25 L
123.614 77.141 L
123.859 77.035 L
124.104 76.932 L
124.348 76.833 L
124.593 76.737 L
124.838 76.645 L
125.083 76.556 L
125.328 76.471 L
125.572 76.389 L
125.817 76.31 L
126.062 76.236 L
126.307 76.164 L
126.551 76.097 L
126.796 76.033 L
127.041 75.973 L
127.286 75.917 L
127.53 75.865 L
127.775 75.816 L
128.02 75.771 L
128.265 75.73 L
128.51 75.692 L
128.754 75.658 L
128.999 75.628 L
129.244 75.601 L
129.489 75.577 L
129.733 75.557 L
129.978 75.54 L
130.223 75.526 L
130.468 75.516 L
130.713 75.507 L
130.957 75.502 L
131.202 75.499 L
131.447 75.498 L
131.692 75.499 L
131.936 75.501 L
132.181 75.505 L
132.426 75.51 L
132.671 75.516 L
132.916 75.522 L
133.16 75.528 L
133.405 75.535 L
133.65 75.54 L
133.895 75.545 L
134.139 75.549 L
134.384 75.551 L
134.629 75.551 L
134.874 75.548 L
135.118 75.544 L
135.363 75.536 L
135.608 75.525 L
135.853 75.511 L
136.098 75.492 L
136.342 75.47 L
136.587 75.444 L
136.832 75.413 L
137.077 75.378 L
137.321 75.338 L
137.566 75.294 L
137.811 75.244 L
138.056 75.19 L
138.301 75.131 L
138.545 75.067 L
138.79 74.998 L
139.035 74.925 L
139.28 74.847 L
139.524 74.765 L
139.769 74.679 L
140.014 74.589 L
140.259 74.495 L
140.503 74.398 L
140.748 74.298 L
140.993 74.195 L
141.238 74.09 L
141.483 73.983 L
141.727 73.874 L
141.972 73.765 L
142.217 73.655 L
142.462 73.544 L
142.706 73.435 L
142.951 73.325 L
143.196 73.218 L
143.441 73.112 L
143.686 73.008 L
143.93 72.907 L
144.175 72.809 L
144.42 72.715 L
144.665 72.625 L
144.909 72.539 L
145.154 72.458 L
145.399 72.382 L
145.644 72.311 L
145.889 72.246 L
146.133 72.186 L
146.378 72.131 L
146.623 72.082 L
146.868 72.038 L
147.112 72 L
147.357 71.966 L
147.602 71.937 L
147.847 71.913 L
148.091 71.892 L
148.336 71.875 L
148.581 71.861 L
148.826 71.85 L
149.071 71.841 L
149.315 71.835 L
149.56 71.83 L
149.805 71.826 L
150.05 71.824 L
150.294 71.822 L
150.539 71.821 L
150.784 71.821 L
151.029 71.821 L
151.274 71.822 L
151.518 71.824 L
151.763 71.827 L
152.008 71.83 L
152.253 71.835 L
152.497 71.842 L
152.742 71.849 L
152.987 71.859 L
153.232 71.87 L
153.476 71.883 L
153.721 71.898 L
153.966 71.915 L
154.211 71.934 L
154.456 71.954 L
154.7 71.976 L
154.945 71.999 L
155.19 72.024 L
155.435 72.048 L
155.679 72.073 L
155.924 72.098 L
156.169 72.122 L
156.414 72.145 L
156.659 72.166 L
156.903 72.184 L
157.148 72.2 L
157.393 72.212 L
157.638 72.221 L
157.882 72.224 L
158.127 72.222 L
158.372 72.215 L
158.617 72.201 L
158.861 72.18 L
159.106 72.151 L
159.351 72.115 L
159.596 72.071 L
159.841 72.017 L
160.085 71.955 L
160.33 71.884 L
160.575 71.802 L
160.82 71.711 L
161.064 71.611 L
161.309 71.5 L
161.554 71.378 L
161.799 71.247 L
162.044 71.106 L
162.288 70.955 L
162.533 70.794 L
162.778 70.623 L
163.023 70.443 L
163.267 70.255 L
163.512 70.058 L
163.757 69.853 L
164.002 69.64 L
164.247 69.421 L
164.491 69.195 L
164.736 68.964 L
164.981 68.727 L
165.226 68.486 L
165.47 68.242 L
165.715 67.995 L
165.96 67.746 L
166.205 67.496 L
166.449 67.245 L
166.694 66.994 L
166.939 66.745 L
167.184 66.497 L
167.429 66.252 L
167.673 66.009 L
167.918 65.771 L
168.163 65.536 L
168.408 65.306 L
168.652 65.081 L
168.897 64.861 L
169.142 64.647 L
169.387 64.438 L
169.632 64.235 L
169.876 64.038 L
170.121 63.846 L
170.366 63.66 L
170.611 63.478 L
170.855 63.302 L
171.1 63.13 L
171.345 62.962 L
171.59 62.799 L
171.834 62.638 L
172.079 62.482 L
172.324 62.328 L
172.569 62.176 L
172.814 62.028 L
173.058 61.881 L
173.303 61.737 L
173.548 61.595 L
173.793 61.455 L
174.037 61.317 L
174.282 61.182 L
174.527 61.048 L
174.772 60.917 L
175.017 60.787 L
175.261 60.66 L
175.506 60.534 L
175.751 60.411 L
175.996 60.289 L
176.24 60.169 L
176.485 60.051 L
176.73 59.933 L
176.975 59.816 L
177.22 59.699 L
177.464 59.583 L
177.709 59.466 L
177.954 59.347 L
178.199 59.228 L
178.443 59.106 L
178.688 58.982 L
178.933 58.855 L
179.178 58.725 L
179.422 58.591 L
179.667 58.452 L
179.912 58.309 L
180.157 58.16 L
180.402 58.006 L
180.646 57.845 L
180.891 57.679 L
181.136 57.506 L
181.381 57.326 L
181.625 57.139 L
181.87 56.945 L
182.115 56.743 L
182.36 56.535 L
182.605 56.319 L
182.849 56.096 L
183.094 55.866 L
183.339 55.628 L
183.584 55.384 L
183.828 55.133 L
184.073 54.875 L
184.318 54.612 L
184.563 54.343 L
184.807 54.068 L
185.052 53.788 L
185.297 53.503 L
185.542 53.215 L
185.787 52.922 L
186.031 52.627 L
186.276 52.328 L
186.521 52.028 L
186.766 51.726 L
187.01 51.422 L
187.255 51.118 L
187.5 50.814 L
187.745 50.51 L
187.99 50.207 L
188.234 49.906 L
188.479 49.606 L
188.724 49.308 L
188.969 49.014 L
189.213 48.722 L
189.458 48.434 L
189.703 48.15 L
189.948 47.871 L
190.193 47.595 L
190.437 47.325 L
190.682 47.06 L
190.927 46.8 L
191.172 46.546 L
191.416 46.297 L
191.661 46.055 L
191.906 45.819 L
192.151 45.589 L
192.395 45.365 L
192.64 45.149 L
192.885 44.938 L
193.13 44.735 L
193.375 44.538 L
193.619 44.349 L
193.864 44.166 L
194.109 43.991 L
194.354 43.822 L
194.598 43.661 L
194.843 43.508 L
195.088 43.362 L
195.333 43.223 L
195.578 43.091 L
195.822 42.968 L
196.067 42.851 L
196.312 42.743 L
196.557 42.641 L
196.801 42.548 L
197.046 42.462 L
197.291 42.383 L
197.536 42.312 L
197.78 42.249 L
198.025 42.193 L
198.27 42.143 L
198.515 42.101 L
198.76 42.066 L
199.004 42.038 L
199.249 42.016 L
199.494 42.001 L
199.739 41.992 L
199.983 41.989 L
200.228 41.991 L
200.473 41.999 L
200.718 42.013 L
200.963 42.031 L
201.207 42.054 L
201.452 42.082 L
201.697 42.113 L
201.942 42.149 L
202.186 42.188 L
202.431 42.231 L
202.676 42.277 L
202.921 42.325 L
203.166 42.377 L
203.41 42.431 L
203.655 42.487 L
203.9 42.545 L
204.145 42.606 L
204.389 42.668 L
204.634 42.733 L
204.879 42.799 L
205.124 42.867 L
205.368 42.937 L
205.613 43.009 L
205.858 43.084 L
206.103 43.161 L
206.348 43.24 L
206.592 43.323 L
206.837 43.409 L
207.082 43.499 L
207.327 43.593 L
207.571 43.692 L
207.816 43.796 L
208.061 43.907 L
208.306 44.024 L
208.551 44.149 L
208.795 44.282 L
209.04 44.424 L
209.285 44.576 L
209.53 44.739 L
209.774 44.912 L
210.019 45.098 L
210.264 45.296 L
210.509 45.508 L
210.753 45.733 L
210.998 45.972 L
211.243 46.225 L
211.488 46.492 L
211.733 46.774 L
211.977 47.069 L
212.222 47.377 L
212.467 47.697 L
212.712 48.028 L
212.956 48.369 L
213.201 48.718 L
213.446 49.073 L
213.691 49.432 L
213.936 49.794 L
214.18 50.156 L
214.425 50.515 L
214.67 50.869 L
214.915 51.217 L
215.159 51.555 L
215.404 51.882 L
215.649 52.196 L
215.894 52.496 L
216.139 52.78 L
216.383 53.047 L
216.628 53.298 L
216.873 53.532 L
217.118 53.748 L
217.362 53.947 L
217.607 54.129 L
217.852 54.295 L
218.097 54.444 L
218.341 54.579 L
218.586 54.698 L
218.831 54.803 L
219.076 54.893 L
219.321 54.968 L
219.565 55.029 L
219.81 55.075 L
220.055 55.106 L
220.3 55.121 L
220.544 55.119 L
220.789 55.1 L
221.034 55.064 L
221.279 55.008 L
221.524 54.932 L
221.768 54.837 L
222.013 54.72 L
222.258 54.583 L
222.503 54.423 L
222.747 54.241 L
222.992 54.038 L
223.237 53.812 L
223.482 53.564 L
223.726 53.295 L
223.971 53.007 L
224.216 52.699 L
224.461 52.373 L
224.706 52.031 L
224.95 51.675 L
225.195 51.308 L
225.44 50.933 L
225.685 50.551 L
225.929 50.167 L
226.174 49.785 L
226.419 49.409 L
226.664 49.042 L
226.909 48.689 L
227.153 48.356 L
227.398 48.046 L
227.643 47.765 L
227.888 47.518 L
228.132 47.31 L
228.377 47.146 L
228.622 47.03 L
228.867 46.968 L
229.111 46.965 L
229.356 47.024 L
229.601 47.151 L
229.846 47.348 L
230.091 47.62 L
230.335 47.97 L
230.58 48.402 L
230.825 48.917 L
231.07 49.518 L
231.314 50.207 L
231.559 50.986 L
231.804 51.856 L
232.049 52.818 L
232.294 53.871 L
232.538 55.016 L
232.783 56.251 L
233.028 57.576 L
233.273 58.988 L
233.517 60.484 L
233.762 62.062 L
234.007 63.716 L
234.252 65.442 L
234.497 67.233 L
234.741 69.082 L
234.986 70.982 L
235.231 72.924 L
235.476 74.897 L
235.72 76.89 L
235.965 78.893 L
236.21 80.892 L
236.455 82.874 L
236.699 84.826 L
236.944 86.732 L
237.189 88.579 L
237.434 90.352 L
237.679 92.038 L
237.923 93.623 L
238.168 95.094 L
238.413 96.441 L
238.658 97.654 L
238.902 98.725 L
239.147 99.649 L
239.392 100.42 L
239.637 101.038 L
239.882 101.501 L
240.126 101.812 L
240.371 101.973 L
240.616 101.991 L
240.861 101.871 L
241.105 101.623 L
241.35 101.257 L
241.595 100.784 L
241.84 100.217 L
242.084 99.572 L
242.329 98.865 L
242.574 98.112 L
242.819 97.332 L
243.064 96.544 L
243.308 95.767 L
243.553 95.019 L
243.798 94.318 L
244.043 93.681 L
244.287 93.124 L
244.532 92.66 L
244.777 92.299 L
245.022 92.05 L
245.267 91.918 L
245.511 91.908 L
245.756 92.017 L
246.001 92.245 L
246.246 92.585 L
246.49 93.03 L
246.735 93.571 L
246.98 94.196 L
247.225 94.894 L
247.469 95.65 L
247.714 96.45 L
247.959 97.281 L
248.204 98.126 L
248.449 98.973 L
248.693 99.808 L
248.938 100.618 L
249.183 101.392 L
249.428 102.12 L
249.672 102.792 L
249.917 103.401 L
250.162 103.941 L
250.407 104.407 L
250.652 104.796 L
250.896 105.104 L
251.141 105.331 L
251.386 105.477 L
251.631 105.542 L
251.875 105.527 L
252.12 105.435 L
252.365 105.267 L
252.61 105.026 L
252.855 104.716 L
253.099 104.339 L
253.344 103.898 L
253.589 103.396 L
253.834 102.838 L
254.078 102.224 L
254.323 101.559 L
254.568 100.846 L
254.813 100.086 L
255.057 99.282 L
255.302 98.438 L
255.547 97.556 L
255.792 96.638 L
256.037 95.688 L
256.281 94.708 L
256.526 93.702 L
256.771 92.672 L
257.016 91.624 L
257.26 90.56 L
257.505 89.486 L
257.75 88.405 L
257.995 87.321 L
258.24 86.241 L
258.484 85.167 L
258.729 84.105 L
258.974 83.058 L
259.219 82.032 L
259.463 81.03 L
259.708 80.057 L
259.953 79.116 L
260.198 78.211 L
260.443 77.345 L
260.687 76.521 L
260.932 75.743 L
261.177 75.013 L
261.422 74.334 L
261.666 73.708 L
261.911 73.136 L
262.156 72.62 L
262.401 72.16 L
262.645 71.758 L
262.89 71.413 L
263.135 71.124 L
263.38 70.892 L
263.625 70.713 L
263.869 70.587 L
264.114 70.512 L
264.359 70.483 L
264.604 70.499 L
264.848 70.556 L
265.093 70.65 L
265.338 70.777 L
265.583 70.935 L
265.828 71.119 L
266.072 71.325 L
266.317 71.551 L
266.562 71.793 L
266.807 72.048 L
267.051 72.315 L
267.296 72.591 L
267.541 72.876 L
267.786 73.167 L
268.03 73.464 L
268.275 73.768 L
268.52 74.079 L
268.765 74.397 L
269.01 74.722 L
269.254 75.056 L
269.499 75.399 L
269.744 75.751 L
269.989 76.112 L
270.233 76.481 L
270.478 76.857 L
270.723 77.238 L
270.968 77.624 L
271.213 78.011 L
271.457 78.397 L
271.702 78.781 L
271.947 79.161 L
272.192 79.535 L
272.436 79.901 L
272.681 80.258 L
272.926 80.606 L
273.171 80.944 L
273.415 81.272 L
273.66 81.591 L
273.905 81.901 L
274.15 82.205 L
274.395 82.505 L
274.639 82.803 L
274.884 83.104 L
275.129 83.412 L
275.374 83.732 L
275.618 84.07 L
275.863 84.432 L
276.108 84.827 L
276.353 85.262 L
276.598 85.744 L
276.842 86.284 L
277.087 86.888 L
277.332 87.564 L
277.577 88.32 L
277.821 89.163 L
278.066 90.096 L
278.311 91.123 L
278.556 92.246 L
278.801 93.465 L
279.045 94.777 L
279.29 96.18 L
279.535 97.667 L
279.78 99.231 L
280.024 100.864 L
280.269 102.556 L
280.514 104.296 L
280.759 106.073 L
281.003 107.875 L
281.248 109.69 L
281.493 111.504 L
281.738 113.306 L
281.983 115.084 L
282.227 116.825 L
282.472 118.52 L
282.717 120.157 L
282.962 121.727 L
283.206 123.222 L
283.451 124.633 L
283.696 125.954 L
283.941 127.18 L
284.186 128.306 L
284.43 129.329 L
284.675 130.247 L
284.92 131.059 L
285.165 131.765 L
285.409 132.367 L
285.654 132.866 L
285.899 133.266 L
286.144 133.571 L
286.388 133.786 L
286.633 133.917 L
286.878 133.97 L
287.123 133.951 L
287.368 133.867 L
287.612 133.726 L
287.857 133.535 L
288.102 133.301 L
288.347 133.032 L
288.591 132.733 L
288.836 132.413 L
289.081 132.076 L
289.326 131.729 L
289.571 131.377 L
289.815 131.026 L
290.06 130.678 L
290.305 130.339 L
290.55 130.012 L
290.794 129.7 L
291.039 129.405 L
291.284 129.129 L
291.529 128.875 L
291.774 128.642 L
292.018 128.434 L
292.263 128.251 L
292.508 128.092 L
292.753 127.96 L
292.997 127.854 L
293.242 127.775 L
293.487 127.723 L
293.732 127.698 L
293.976 127.7 L
294.221 127.731 L
294.466 127.789 L
294.711 127.875 L
294.956 127.989 L
295.2 128.132 L
295.445 128.303 L
295.69 128.502 L
295.935 128.731 L
296.179 128.987 L
296.424 129.273 L
296.669 129.586 L
296.914 129.928 L
297.159 130.298 L
297.403 130.695 L
297.648 131.12 L
297.893 131.57 L
298.138 132.046 L
298.382 132.546 L
298.627 133.07 L
298.872 133.615 L
299.117 134.181 L
299.362 134.765 L
299.606 135.365 L
299.851 135.98 L
300.096 136.607 L
300.341 137.243 L
300.585 137.887 L
300.83 138.534 L
301.075 139.181 L
301.32 139.827 L
301.564 140.467 L
301.809 141.098 L
302.054 141.716 L
302.299 142.319 L
302.544 142.903 L
302.788 143.464 L
303.033 144 L
303.278 144.506 L
303.523 144.981 L
303.767 145.421 L
304.012 145.824 L
304.257 146.187 L
304.502 146.508 L
304.747 146.787 L
304.991 147.02 L
305.236 147.207 L
305.481 147.348 L
305.726 147.442 L
305.97 147.489 L
306.215 147.489 L
306.46 147.443 L
306.705 147.352 L
306.949 147.217 L
307.194 147.039 L
307.439 146.82 L
307.684 146.561 L
307.929 146.266 L
308.173 145.936 L
308.418 145.573 L
308.663 145.179 L
308.908 144.758 L
309.152 144.311 L
309.397 143.84 L
309.642 143.349 L
309.887 142.839 L
310.132 142.313 L
310.376 141.773 L
310.621 141.222 L
310.866 140.661 L
311.111 140.092 L
311.355 139.517 L
311.6 138.939 L
311.845 138.358 L
312.09 137.777 L
312.335 137.196 L
312.579 136.618 L
312.824 136.044 L
313.069 135.475 L
313.314 134.911 L
313.558 134.355 L
313.803 133.806 L
314.048 133.266 L
314.293 132.735 L
314.537 132.215 L
314.782 131.704 L
315.027 131.205 L
315.272 130.717 L
315.517 130.24 L
315.761 129.776 L
316.006 129.323 L
316.251 128.882 L
316.496 128.454 L
316.74 128.038 L
316.985 127.633 L
317.23 127.241 L
317.475 126.861 L
317.72 126.492 L
317.964 126.135 L
318.209 125.79 L
318.454 125.456 L
318.699 125.132 L
318.943 124.82 L
319.188 124.518 L
319.433 124.227 L
319.678 123.946 L
319.922 123.674 L
320.167 123.413 L
320.412 123.161 L
320.657 122.918 L
320.902 122.685 L
321.146 122.461 L
321.391 122.246 L
321.636 122.039 L
321.881 121.842 L
322.125 121.653 L
322.37 121.472 L
322.615 121.3 L
322.86 121.137 L
323.105 120.982 L
323.349 120.835 L
323.594 120.697 L
323.839 120.567 L
324.084 120.446 L
324.328 120.334 L
324.573 120.23 L
324.818 120.134 L
325.063 120.048 L
325.307 119.97 L
325.552 119.901 L
325.797 119.842 L
326.042 119.791 L
326.287 119.75 L
326.531 119.718 L
326.776 119.696 L
327.021 119.683 L
327.266 119.68 L
327.51 119.687 L
327.755 119.704 L
328 119.731 L
328.034 119.736 L
S
GR
%%Trailer
%%Pages: 1
%%EOF
