%!PS-Adobe-3.0 EPSF-3.0
%%Creator: (MATLAB, The Mathworks, Inc. Version 9.10.0.1684407 \(R2021a\) Update 3. Operating System: Linux)
%%Title: /home/adoan/Code/PRoSA_PI-ESN_Git/pi-esn/Results/MFE_results/Figures/FIG6B.eps
%%CreationDate: 2021-07-21T18:54:52
%%Pages: (atend)
%%BoundingBox:     0     0   283   170
%%LanguageLevel: 3
%%EndComments
%%BeginProlog
%%BeginResource: procset (Apache XML Graphics Std ProcSet) 1.2 0
%%Version: 1.2 0
%%Copyright: (Copyright 2001-2003,2010 The Apache Software Foundation. License terms: http://www.apache.org/licenses/LICENSE-2.0)
/bd{bind def}bind def
/ld{load def}bd
/GR/grestore ld
/GS/gsave ld
/RM/rmoveto ld
/C/curveto ld
/t/show ld
/L/lineto ld
/ML/setmiterlimit ld
/CT/concat ld
/f/fill ld
/N/newpath ld
/S/stroke ld
/CC/setcmykcolor ld
/A/ashow ld
/cp/closepath ld
/RC/setrgbcolor ld
/LJ/setlinejoin ld
/GC/setgray ld
/LW/setlinewidth ld
/M/moveto ld
/re {4 2 roll M
1 index 0 rlineto
0 exch rlineto
neg 0 rlineto
cp } bd
/_ctm matrix def
/_tm matrix def
/BT { _ctm currentmatrix pop matrix _tm copy pop 0 0 moveto } bd
/ET { _ctm setmatrix } bd
/iTm { _ctm setmatrix _tm concat } bd
/Tm { _tm astore pop iTm 0 0 moveto } bd
/ux 0.0 def
/uy 0.0 def
/F {
  /Tp exch def
  /Tf exch def
  Tf findfont Tp scalefont setfont
  /cf Tf def  /cs Tp def
} bd
/ULS {currentpoint /uy exch def /ux exch def} bd
/ULE {
  /Tcx currentpoint pop def
  gsave
  newpath
  cf findfont cs scalefont dup
  /FontMatrix get 0 get /Ts exch def /FontInfo get dup
  /UnderlinePosition get Ts mul /To exch def
  /UnderlineThickness get Ts mul /Tt exch def
  ux uy To add moveto  Tcx uy To add lineto
  Tt setlinewidth stroke
  grestore
} bd
/OLE {
  /Tcx currentpoint pop def
  gsave
  newpath
  cf findfont cs scalefont dup
  /FontMatrix get 0 get /Ts exch def /FontInfo get dup
  /UnderlinePosition get Ts mul /To exch def
  /UnderlineThickness get Ts mul /Tt exch def
  ux uy To add cs add moveto Tcx uy To add cs add lineto
  Tt setlinewidth stroke
  grestore
} bd
/SOE {
  /Tcx currentpoint pop def
  gsave
  newpath
  cf findfont cs scalefont dup
  /FontMatrix get 0 get /Ts exch def /FontInfo get dup
  /UnderlinePosition get Ts mul /To exch def
  /UnderlineThickness get Ts mul /Tt exch def
  ux uy To add cs 10 mul 26 idiv add moveto Tcx uy To add cs 10 mul 26 idiv add lineto
  Tt setlinewidth stroke
  grestore
} bd
/QT {
/Y22 exch store
/X22 exch store
/Y21 exch store
/X21 exch store
currentpoint
/Y21 load 2 mul add 3 div exch
/X21 load 2 mul add 3 div exch
/X21 load 2 mul /X22 load add 3 div
/Y21 load 2 mul /Y22 load add 3 div
/X22 load /Y22 load curveto
} bd
/SSPD {
dup length /d exch dict def
{
/v exch def
/k exch def
currentpagedevice k known {
/cpdv currentpagedevice k get def
v cpdv ne {
/upd false def
/nullv v type /nulltype eq def
/nullcpdv cpdv type /nulltype eq def
nullv nullcpdv or
{
/upd true def
} {
/sametype v type cpdv type eq def
sametype {
v type /arraytype eq {
/vlen v length def
/cpdvlen cpdv length def
vlen cpdvlen eq {
0 1 vlen 1 sub {
/i exch def
/obj v i get def
/cpdobj cpdv i get def
obj cpdobj ne {
/upd true def
exit
} if
} for
} {
/upd true def
} ifelse
} {
v type /dicttype eq {
v {
/dv exch def
/dk exch def
/cpddv cpdv dk get def
dv cpddv ne {
/upd true def
exit
} if
} forall
} {
/upd true def
} ifelse
} ifelse
} if
} ifelse
upd true eq {
d k v put
} if
} if
} if
} forall
d length 0 gt {
d setpagedevice
} if
} bd
/RE { % /NewFontName [NewEncodingArray] /FontName RE -
  findfont dup length dict begin
  {
    1 index /FID ne
    {def} {pop pop} ifelse
  } forall
  /Encoding exch def
  /FontName 1 index def
  currentdict definefont pop
  end
} bind def
%%EndResource
%%BeginResource: procset (Apache XML Graphics EPS ProcSet) 1.0 0
%%Version: 1.0 0
%%Copyright: (Copyright 2002-2003 The Apache Software Foundation. License terms: http://www.apache.org/licenses/LICENSE-2.0)
/BeginEPSF { %def
/b4_Inc_state save def         % Save state for cleanup
/dict_count countdictstack def % Count objects on dict stack
/op_count count 1 sub def      % Count objects on operand stack
userdict begin                 % Push userdict on dict stack
/showpage { } def              % Redefine showpage, { } = null proc
0 setgray 0 setlinecap         % Prepare graphics state
1 setlinewidth 0 setlinejoin
10 setmiterlimit [ ] 0 setdash newpath
/languagelevel where           % If level not equal to 1 then
{pop languagelevel             % set strokeadjust and
1 ne                           % overprint to their defaults.
{false setstrokeadjust false setoverprint
} if
} if
} bd
/EndEPSF { %def
count op_count sub {pop} repeat            % Clean up stacks
countdictstack dict_count sub {end} repeat
b4_Inc_state restore
} bd
%%EndResource
%FOPBeginFontDict
%%IncludeResource: font Courier-Oblique
%%IncludeResource: font Courier-BoldOblique
%%IncludeResource: font Courier-Bold
%%IncludeResource: font ZapfDingbats
%%IncludeResource: font Symbol
%%IncludeResource: font Helvetica
%%IncludeResource: font Helvetica-Oblique
%%IncludeResource: font Helvetica-Bold
%%IncludeResource: font Helvetica-BoldOblique
%%IncludeResource: font Times-Roman
%%IncludeResource: font Times-Italic
%%IncludeResource: font Times-Bold
%%IncludeResource: font Times-BoldItalic
%%IncludeResource: font Courier
%FOPEndFontDict
%%BeginResource: encoding WinAnsiEncoding
/WinAnsiEncoding [
/.notdef /.notdef /.notdef /.notdef /.notdef
/.notdef /.notdef /.notdef /.notdef /.notdef
/.notdef /.notdef /.notdef /.notdef /.notdef
/.notdef /.notdef /.notdef /.notdef /.notdef
/.notdef /.notdef /.notdef /.notdef /.notdef
/.notdef /.notdef /.notdef /.notdef /.notdef
/.notdef /.notdef /space /exclam /quotedbl
/numbersign /dollar /percent /ampersand /quotesingle
/parenleft /parenright /asterisk /plus /comma
/hyphen /period /slash /zero /one
/two /three /four /five /six
/seven /eight /nine /colon /semicolon
/less /equal /greater /question /at
/A /B /C /D /E
/F /G /H /I /J
/K /L /M /N /O
/P /Q /R /S /T
/U /V /W /X /Y
/Z /bracketleft /backslash /bracketright /asciicircum
/underscore /quoteleft /a /b /c
/d /e /f /g /h
/i /j /k /l /m
/n /o /p /q /r
/s /t /u /v /w
/x /y /z /braceleft /bar
/braceright /asciitilde /bullet /Euro /bullet
/quotesinglbase /florin /quotedblbase /ellipsis /dagger
/daggerdbl /circumflex /perthousand /Scaron /guilsinglleft
/OE /bullet /Zcaron /bullet /bullet
/quoteleft /quoteright /quotedblleft /quotedblright /bullet
/endash /emdash /asciitilde /trademark /scaron
/guilsinglright /oe /bullet /zcaron /Ydieresis
/space /exclamdown /cent /sterling /currency
/yen /brokenbar /section /dieresis /copyright
/ordfeminine /guillemotleft /logicalnot /sfthyphen /registered
/macron /degree /plusminus /twosuperior /threesuperior
/acute /mu /paragraph /middot /cedilla
/onesuperior /ordmasculine /guillemotright /onequarter /onehalf
/threequarters /questiondown /Agrave /Aacute /Acircumflex
/Atilde /Adieresis /Aring /AE /Ccedilla
/Egrave /Eacute /Ecircumflex /Edieresis /Igrave
/Iacute /Icircumflex /Idieresis /Eth /Ntilde
/Ograve /Oacute /Ocircumflex /Otilde /Odieresis
/multiply /Oslash /Ugrave /Uacute /Ucircumflex
/Udieresis /Yacute /Thorn /germandbls /agrave
/aacute /acircumflex /atilde /adieresis /aring
/ae /ccedilla /egrave /eacute /ecircumflex
/edieresis /igrave /iacute /icircumflex /idieresis
/eth /ntilde /ograve /oacute /ocircumflex
/otilde /odieresis /divide /oslash /ugrave
/uacute /ucircumflex /udieresis /yacute /thorn
/ydieresis
] def
%%EndResource
%FOPBeginFontReencode
/Courier-Oblique findfont
dup length dict begin
  {1 index /FID ne {def} {pop pop} ifelse} forall
  /Encoding WinAnsiEncoding def
  currentdict
end
/Courier-Oblique exch definefont pop
/Courier-BoldOblique findfont
dup length dict begin
  {1 index /FID ne {def} {pop pop} ifelse} forall
  /Encoding WinAnsiEncoding def
  currentdict
end
/Courier-BoldOblique exch definefont pop
/Courier-Bold findfont
dup length dict begin
  {1 index /FID ne {def} {pop pop} ifelse} forall
  /Encoding WinAnsiEncoding def
  currentdict
end
/Courier-Bold exch definefont pop
/Helvetica findfont
dup length dict begin
  {1 index /FID ne {def} {pop pop} ifelse} forall
  /Encoding WinAnsiEncoding def
  currentdict
end
/Helvetica exch definefont pop
/Helvetica-Oblique findfont
dup length dict begin
  {1 index /FID ne {def} {pop pop} ifelse} forall
  /Encoding WinAnsiEncoding def
  currentdict
end
/Helvetica-Oblique exch definefont pop
/Helvetica-Bold findfont
dup length dict begin
  {1 index /FID ne {def} {pop pop} ifelse} forall
  /Encoding WinAnsiEncoding def
  currentdict
end
/Helvetica-Bold exch definefont pop
/Helvetica-BoldOblique findfont
dup length dict begin
  {1 index /FID ne {def} {pop pop} ifelse} forall
  /Encoding WinAnsiEncoding def
  currentdict
end
/Helvetica-BoldOblique exch definefont pop
/Times-Roman findfont
dup length dict begin
  {1 index /FID ne {def} {pop pop} ifelse} forall
  /Encoding WinAnsiEncoding def
  currentdict
end
/Times-Roman exch definefont pop
/Times-Italic findfont
dup length dict begin
  {1 index /FID ne {def} {pop pop} ifelse} forall
  /Encoding WinAnsiEncoding def
  currentdict
end
/Times-Italic exch definefont pop
/Times-Bold findfont
dup length dict begin
  {1 index /FID ne {def} {pop pop} ifelse} forall
  /Encoding WinAnsiEncoding def
  currentdict
end
/Times-Bold exch definefont pop
/Times-BoldItalic findfont
dup length dict begin
  {1 index /FID ne {def} {pop pop} ifelse} forall
  /Encoding WinAnsiEncoding def
  currentdict
end
/Times-BoldItalic exch definefont pop
/Courier findfont
dup length dict begin
  {1 index /FID ne {def} {pop pop} ifelse} forall
  /Encoding WinAnsiEncoding def
  currentdict
end
/Courier exch definefont pop
%FOPEndFontReencode
%%EndProlog
%%Page: 1 1
%%PageBoundingBox: 0 0 283 170
%%BeginPageSetup
[1 0 0 -1 0 170] CT
%%EndPageSetup
GS
[0.78305 0 0 0.78377 0 -0.07875] CT
1 GC
N
0 0 362 217 re
f
GR
GS
[0.78305 0 0 0.78377 0 -0.07875] CT
1 GC
N
0 0 362 217 re
f
GR
GS
[0.78305 0 0 0.78377 0 -0.07875] CT
1 GC
N
47 172 M
328 172 L
328 16 L
47 16 L
cp
f
GR
GS
[0.78305 0 0 0.78377 0 -0.07875] CT
0.149 GC
2 setlinecap
1 LJ
0.639 LW
N
47 172 M
328 172 L
S
GR
GS
[0.78305 0 0 0.78377 0 -0.07875] CT
0.149 GC
2 setlinecap
1 LJ
0.639 LW
N
47 16 M
328 16 L
S
GR
GS
[0.78305 0 0 0.78377 0 -0.07875] CT
0.149 GC
2 setlinecap
1 LJ
0.639 LW
N
47 172 M
47 169.19 L
S
GR
GS
[0.78305 0 0 0.78377 0 -0.07875] CT
0.149 GC
2 setlinecap
1 LJ
0.639 LW
N
127.286 172 M
127.286 169.19 L
S
GR
GS
[0.78305 0 0 0.78377 0 -0.07875] CT
0.149 GC
2 setlinecap
1 LJ
0.639 LW
N
207.571 172 M
207.571 169.19 L
S
GR
GS
[0.78305 0 0 0.78377 0 -0.07875] CT
0.149 GC
2 setlinecap
1 LJ
0.639 LW
N
287.857 172 M
287.857 169.19 L
S
GR
GS
[0.78305 0 0 0.78377 0 -0.07875] CT
0.149 GC
2 setlinecap
1 LJ
0.639 LW
N
47 16 M
47 18.81 L
S
GR
GS
[0.78305 0 0 0.78377 0 -0.07875] CT
0.149 GC
2 setlinecap
1 LJ
0.639 LW
N
127.286 16 M
127.286 18.81 L
S
GR
GS
[0.78305 0 0 0.78377 0 -0.07875] CT
0.149 GC
2 setlinecap
1 LJ
0.639 LW
N
207.571 16 M
207.571 18.81 L
S
GR
GS
[0.78305 0 0 0.78377 0 -0.07875] CT
0.149 GC
2 setlinecap
1 LJ
0.639 LW
N
287.857 16 M
287.857 18.81 L
S
GR
GS
[0.78305 0 0 0.78377 36.80341 139.13676] CT
0.149 GC
N
-0.083 13.208 M
-1.927 13.208 -2.583 11.692 QT
-3.24 10.177 -3.24 8.099 QT
-3.24 6.786 -3.005 5.638 QT
-2.771 4.489 -2.068 3.692 QT
-1.365 2.896 -0.083 2.896 QT
0.901 2.896 1.534 3.372 QT
2.167 3.849 2.495 4.614 QT
2.823 5.38 2.948 6.255 QT
3.073 7.13 3.073 8.099 QT
3.073 9.38 2.831 10.505 QT
2.589 11.63 1.893 12.419 QT
1.198 13.208 -0.083 13.208 QT
cp
-0.083 12.817 M
0.745 12.817 1.159 11.966 QT
1.573 11.114 1.667 10.067 QT
1.76 9.021 1.76 7.849 QT
1.76 6.724 1.667 5.771 QT
1.573 4.817 1.167 4.044 QT
0.76 3.271 -0.083 3.271 QT
-0.927 3.271 -1.341 4.052 QT
-1.755 4.833 -1.849 5.778 QT
-1.943 6.724 -1.943 7.849 QT
-1.943 8.692 -1.904 9.435 QT
-1.865 10.177 -1.685 10.958 QT
-1.505 11.739 -1.115 12.278 QT
-0.724 12.817 -0.083 12.817 QT
cp
f
GR
GS
[0.78305 0 0 0.78377 99.67124 139.13676] CT
0.149 GC
N
-3.083 12.88 M
-3.083 12.474 L
-3.083 12.442 -3.052 12.396 QT
-0.724 9.817 L
-0.193 9.239 0.135 8.857 QT
0.464 8.474 0.784 7.966 QT
1.104 7.458 1.292 6.935 QT
1.479 6.411 1.479 5.833 QT
1.479 5.208 1.253 4.646 QT
1.026 4.083 0.573 3.747 QT
0.12 3.411 -0.521 3.411 QT
-1.161 3.411 -1.685 3.81 QT
-2.208 4.208 -2.427 4.817 QT
-2.365 4.802 -2.255 4.802 QT
-1.927 4.802 -1.685 5.028 QT
-1.443 5.255 -1.443 5.614 QT
-1.443 5.958 -1.685 6.2 QT
-1.927 6.442 -2.255 6.442 QT
-2.615 6.442 -2.849 6.2 QT
-3.083 5.958 -3.083 5.614 QT
-3.083 5.052 -2.872 4.56 QT
-2.661 4.067 -2.263 3.685 QT
-1.865 3.302 -1.365 3.099 QT
-0.865 2.896 -0.302 2.896 QT
0.557 2.896 1.299 3.255 QT
2.042 3.614 2.471 4.278 QT
2.901 4.942 2.901 5.833 QT
2.901 6.474 2.62 7.06 QT
2.339 7.646 1.893 8.13 QT
1.448 8.614 0.745 9.224 QT
0.042 9.833 -0.177 10.036 QT
-1.865 11.661 L
-0.427 11.661 L
0.635 11.661 1.346 11.646 QT
2.057 11.63 2.104 11.583 QT
2.276 11.396 2.464 10.208 QT
2.901 10.208 L
2.479 12.88 L
-3.083 12.88 L
cp
f
GR
GS
[0.78305 0 0 0.78377 162.53907 139.13676] CT
0.149 GC
N
-3.411 10.411 M
-3.411 9.88 L
1.214 2.958 L
1.276 2.896 1.37 2.896 QT
1.589 2.896 L
1.76 2.896 1.76 3.052 QT
1.76 9.88 L
3.229 9.88 L
3.229 10.411 L
1.76 10.411 L
1.76 11.88 L
1.76 12.177 2.198 12.263 QT
2.635 12.349 3.214 12.349 QT
3.214 12.88 L
-0.911 12.88 L
-0.911 12.349 L
-0.333 12.349 0.104 12.263 QT
0.542 12.177 0.542 11.88 QT
0.542 10.411 L
-3.411 10.411 L
cp
-2.911 9.88 M
0.635 9.88 L
0.635 4.567 L
-2.911 9.88 L
cp
f
GR
GS
[0.78305 0 0 0.78377 225.40691 139.13676] CT
0.149 GC
N
-0.083 13.208 M
-1.021 13.208 -1.638 12.716 QT
-2.255 12.224 -2.599 11.435 QT
-2.943 10.646 -3.076 9.778 QT
-3.208 8.911 -3.208 8.036 QT
-3.208 6.849 -2.747 5.653 QT
-2.286 4.458 -1.388 3.677 QT
-0.49 2.896 0.745 2.896 QT
1.26 2.896 1.706 3.083 QT
2.151 3.271 2.401 3.653 QT
2.651 4.036 2.651 4.567 QT
2.651 4.88 2.44 5.083 QT
2.229 5.286 1.917 5.286 QT
1.635 5.286 1.424 5.075 QT
1.214 4.864 1.214 4.567 QT
1.214 4.271 1.424 4.06 QT
1.635 3.849 1.917 3.849 QT
2.01 3.849 L
1.807 3.583 1.464 3.45 QT
1.12 3.317 0.745 3.317 QT
0.292 3.317 -0.091 3.521 QT
-0.474 3.724 -0.786 4.06 QT
-1.099 4.396 -1.302 4.802 QT
-1.505 5.208 -1.615 5.724 QT
-1.724 6.239 -1.755 6.692 QT
-1.786 7.146 -1.786 7.833 QT
-1.521 7.224 -1.036 6.833 QT
-0.552 6.442 0.042 6.442 QT
0.714 6.442 1.26 6.716 QT
1.807 6.989 2.206 7.466 QT
2.604 7.942 2.815 8.56 QT
3.026 9.177 3.026 9.802 QT
3.026 10.677 2.635 11.474 QT
2.245 12.271 1.534 12.739 QT
0.823 13.208 -0.083 13.208 QT
cp
-0.083 12.739 M
0.495 12.739 0.846 12.474 QT
1.198 12.208 1.362 11.771 QT
1.526 11.333 1.565 10.888 QT
1.604 10.442 1.604 9.802 QT
1.604 8.958 1.526 8.357 QT
1.448 7.755 1.089 7.294 QT
0.729 6.833 -0.005 6.833 QT
-0.615 6.833 -1.005 7.247 QT
-1.396 7.661 -1.576 8.286 QT
-1.755 8.911 -1.755 9.489 QT
-1.755 9.692 -1.74 9.786 QT
-1.74 9.817 -1.747 9.825 QT
-1.755 9.833 -1.755 9.864 QT
-1.755 10.505 -1.622 11.161 QT
-1.49 11.817 -1.122 12.278 QT
-0.755 12.739 -0.083 12.739 QT
cp
f
GR
GS
[0.78305 0 0 0.78377 146.82223 154.13643] CT
0.149 GC
N
-18.326 12.793 M
-18.326 12.543 -18.264 12.324 QT
-17.045 7.434 L
-18.826 7.434 L
-18.998 7.434 -18.998 7.215 QT
-18.936 6.84 -18.78 6.84 QT
-16.889 6.84 L
-16.217 4.059 L
-16.139 3.84 -15.944 3.684 QT
-15.748 3.527 -15.498 3.527 QT
-15.28 3.527 -15.131 3.652 QT
-14.983 3.777 -14.983 3.996 QT
-14.983 4.043 -14.99 4.074 QT
-14.998 4.105 -15.014 4.137 QT
-15.686 6.84 L
-13.936 6.84 L
-13.764 6.84 -13.764 7.059 QT
-13.764 7.105 -13.795 7.207 QT
-13.826 7.309 -13.865 7.371 QT
-13.905 7.434 -13.983 7.434 QT
-15.842 7.434 L
-17.061 12.355 L
-17.186 12.824 -17.186 13.184 QT
-17.186 13.918 -16.686 13.918 QT
-15.936 13.918 -15.358 13.215 QT
-14.78 12.512 -14.483 11.668 QT
-14.405 11.574 -14.342 11.574 QT
-14.139 11.574 L
-14.076 11.574 -14.03 11.621 QT
-13.983 11.668 -13.983 11.715 QT
-13.983 11.746 -13.998 11.762 QT
-14.373 12.793 -15.092 13.574 QT
-15.811 14.355 -16.733 14.355 QT
-17.405 14.355 -17.865 13.918 QT
-18.326 13.48 -18.326 12.793 QT
cp
f
GR
GS
[0.78305 0 0 0.78377 146.82223 154.13643] CT
0.149 GC
N
-12.423 13.871 M
-12.423 13.621 -12.189 13.402 QT
-7.408 8.715 L
-9.095 3.98 L
-9.298 3.449 -9.517 3.129 QT
-9.736 2.809 -10.158 2.809 QT
-10.345 2.809 -10.345 2.59 QT
-10.329 2.496 -10.259 2.434 QT
-10.189 2.371 -10.079 2.371 QT
-8.298 2.371 -7.923 3.434 QT
-4.47 13.059 L
-4.251 13.793 -4.017 14.027 QT
-3.939 14.152 -3.939 14.199 QT
-3.939 14.355 -4.064 14.355 QT
-4.986 14.355 L
-5.408 14.23 -5.658 13.621 QT
-7.22 9.277 L
-11.329 14.105 L
-11.626 14.387 -11.876 14.387 QT
-12.079 14.387 -12.251 14.238 QT
-12.423 14.09 -12.423 13.871 QT
cp
f
GR
GS
[0.78305 0 0 0.78377 146.82223 154.13643] CT
0.149 GC
N
-3.084 16.698 M
-3.084 16.276 L
-2.678 16.276 -2.412 16.214 QT
-2.147 16.151 -2.147 15.901 QT
-2.147 12.62 L
-2.147 12.292 -2.24 12.151 QT
-2.334 12.01 -2.522 11.979 QT
-2.709 11.948 -3.084 11.948 QT
-3.084 11.526 L
-1.35 11.401 L
-1.35 12.573 L
-1.1 12.057 -0.631 11.729 QT
-0.162 11.401 0.4 11.401 QT
1.775 11.401 2.025 12.526 QT
2.26 12.01 2.72 11.706 QT
3.181 11.401 3.728 11.401 QT
4.275 11.401 4.65 11.573 QT
5.025 11.745 5.213 12.104 QT
5.4 12.464 5.4 13.01 QT
5.4 15.901 L
5.4 16.151 5.666 16.214 QT
5.931 16.276 6.338 16.276 QT
6.338 16.698 L
3.588 16.698 L
3.588 16.276 L
3.994 16.276 4.26 16.214 QT
4.525 16.151 4.525 15.901 QT
4.525 13.042 L
4.525 12.448 4.353 12.073 QT
4.181 11.698 3.666 11.698 QT
2.963 11.698 2.517 12.26 QT
2.072 12.823 2.072 13.526 QT
2.072 15.901 L
2.072 16.151 2.33 16.214 QT
2.588 16.276 3.01 16.276 QT
3.01 16.698 L
0.26 16.698 L
0.26 16.276 L
0.666 16.276 0.931 16.214 QT
1.197 16.151 1.197 15.901 QT
1.197 13.042 L
1.197 12.464 1.025 12.081 QT
0.853 11.698 0.322 11.698 QT
-0.365 11.698 -0.819 12.26 QT
-1.272 12.823 -1.272 13.526 QT
-1.272 15.901 L
-1.272 16.151 -1.006 16.214 QT
-0.74 16.276 -0.334 16.276 QT
-0.334 16.698 L
-3.084 16.698 L
cp
f
GR
GS
[0.78305 0 0 0.78377 146.82223 154.13643] CT
0.149 GC
N
6.88 15.526 M
6.88 14.807 7.442 14.354 QT
8.005 13.901 8.794 13.721 QT
9.583 13.542 10.286 13.542 QT
10.286 13.042 L
10.286 12.698 10.137 12.378 QT
9.989 12.057 9.7 11.846 QT
9.411 11.635 9.067 11.635 QT
8.27 11.635 7.848 11.995 QT
8.083 11.995 8.231 12.167 QT
8.38 12.339 8.38 12.573 QT
8.38 12.807 8.208 12.979 QT
8.036 13.151 7.802 13.151 QT
7.567 13.151 7.395 12.979 QT
7.223 12.807 7.223 12.573 QT
7.223 11.932 7.794 11.628 QT
8.364 11.323 9.067 11.323 QT
9.552 11.323 10.044 11.526 QT
10.536 11.729 10.848 12.12 QT
11.161 12.51 11.161 13.026 QT
11.161 15.729 L
11.161 15.964 11.262 16.159 QT
11.364 16.354 11.567 16.354 QT
11.77 16.354 11.864 16.151 QT
11.958 15.948 11.958 15.729 QT
11.958 14.964 L
12.317 14.964 L
12.317 15.729 L
12.317 15.995 12.177 16.237 QT
12.036 16.479 11.794 16.628 QT
11.552 16.776 11.286 16.776 QT
10.927 16.776 10.677 16.503 QT
10.427 16.229 10.395 15.854 QT
10.177 16.292 9.739 16.565 QT
9.302 16.839 8.817 16.839 QT
8.348 16.839 7.911 16.698 QT
7.473 16.557 7.177 16.268 QT
6.88 15.979 6.88 15.526 QT
cp
7.848 15.526 M
7.848 15.948 8.161 16.229 QT
8.473 16.51 8.895 16.51 QT
9.286 16.51 9.598 16.323 QT
9.911 16.135 10.098 15.799 QT
10.286 15.464 10.286 15.089 QT
10.286 13.839 L
9.739 13.839 9.169 14.018 QT
8.598 14.198 8.223 14.581 QT
7.848 14.964 7.848 15.526 QT
cp
f
GR
GS
[0.78305 0 0 0.78377 146.82223 154.13643] CT
0.149 GC
N
12.439 16.698 M
12.439 16.276 L
12.908 16.276 13.306 16.096 QT
13.705 15.917 13.986 15.573 QT
15.08 14.182 L
13.658 12.339 L
13.455 12.073 13.205 12.01 QT
12.955 11.948 12.502 11.948 QT
12.502 11.526 L
15.002 11.526 L
15.002 11.948 L
14.846 11.948 14.705 12.018 QT
14.564 12.089 14.564 12.214 QT
14.564 12.26 14.596 12.339 QT
15.564 13.573 L
16.283 12.651 L
16.424 12.479 16.424 12.307 QT
16.424 12.151 16.33 12.049 QT
16.236 11.948 16.08 11.948 QT
16.08 11.526 L
18.283 11.526 L
18.283 11.948 L
17.83 11.948 17.424 12.128 QT
17.017 12.307 16.736 12.651 QT
15.783 13.87 L
17.314 15.901 L
17.549 16.151 17.791 16.214 QT
18.033 16.276 18.486 16.276 QT
18.486 16.698 L
16.002 16.698 L
16.002 16.276 L
16.142 16.276 16.275 16.206 QT
16.408 16.135 16.408 15.995 QT
16.408 15.948 16.377 15.901 QT
15.299 14.464 L
14.439 15.573 L
14.299 15.714 14.299 15.917 QT
14.299 16.057 14.4 16.167 QT
14.502 16.276 14.642 16.276 QT
14.642 16.698 L
12.439 16.698 L
cp
f
GR
GS
[0.78305 0 0 0.78377 0 -0.07875] CT
0.149 GC
2 setlinecap
1 LJ
0.639 LW
N
47 172 M
47 16 L
S
GR
GS
[0.78305 0 0 0.78377 0 -0.07875] CT
0.149 GC
2 setlinecap
1 LJ
0.639 LW
N
328 172 M
328 16 L
S
GR
GS
[0.78305 0 0 0.78377 0 -0.07875] CT
0.149 GC
2 setlinecap
1 LJ
0.639 LW
N
47 150.341 M
49.81 150.341 L
S
GR
GS
[0.78305 0 0 0.78377 0 -0.07875] CT
0.149 GC
2 setlinecap
1 LJ
0.639 LW
N
47 119.339 M
49.81 119.339 L
S
GR
GS
[0.78305 0 0 0.78377 0 -0.07875] CT
0.149 GC
2 setlinecap
1 LJ
0.639 LW
N
47 88.337 M
49.81 88.337 L
S
GR
GS
[0.78305 0 0 0.78377 0 -0.07875] CT
0.149 GC
2 setlinecap
1 LJ
0.639 LW
N
47 57.335 M
49.81 57.335 L
S
GR
GS
[0.78305 0 0 0.78377 0 -0.07875] CT
0.149 GC
2 setlinecap
1 LJ
0.639 LW
N
47 26.332 M
49.81 26.332 L
S
GR
GS
[0.78305 0 0 0.78377 0 -0.07875] CT
0.149 GC
2 setlinecap
1 LJ
0.639 LW
N
328 150.341 M
325.19 150.341 L
S
GR
GS
[0.78305 0 0 0.78377 0 -0.07875] CT
0.149 GC
2 setlinecap
1 LJ
0.639 LW
N
328 119.339 M
325.19 119.339 L
S
GR
GS
[0.78305 0 0 0.78377 0 -0.07875] CT
0.149 GC
2 setlinecap
1 LJ
0.639 LW
N
328 88.337 M
325.19 88.337 L
S
GR
GS
[0.78305 0 0 0.78377 0 -0.07875] CT
0.149 GC
2 setlinecap
1 LJ
0.639 LW
N
328 57.335 M
325.19 57.335 L
S
GR
GS
[0.78305 0 0 0.78377 0 -0.07875] CT
0.149 GC
2 setlinecap
1 LJ
0.639 LW
N
328 26.332 M
325.19 26.332 L
S
GR
GS
[0.78305 0 0 0.78377 32.40092 117.75463] CT
0.149 GC
N
-24.532 0.899 M
-24.532 -0.023 L
-20.563 -0.023 L
-20.563 0.899 L
-24.532 0.899 L
cp
f
GR
GS
[0.78305 0 0 0.78377 32.40092 117.75463] CT
0.149 GC
N
-15.843 4.008 M
-17.686 4.008 -18.343 2.492 QT
-18.999 0.977 -18.999 -1.101 QT
-18.999 -2.414 -18.765 -3.562 QT
-18.53 -4.711 -17.827 -5.508 QT
-17.124 -6.304 -15.843 -6.304 QT
-14.858 -6.304 -14.225 -5.828 QT
-13.593 -5.351 -13.265 -4.586 QT
-12.936 -3.82 -12.811 -2.945 QT
-12.686 -2.07 -12.686 -1.101 QT
-12.686 0.18 -12.929 1.305 QT
-13.171 2.43 -13.866 3.219 QT
-14.561 4.008 -15.843 4.008 QT
cp
-15.843 3.617 M
-15.015 3.617 -14.6 2.766 QT
-14.186 1.914 -14.093 0.867 QT
-13.999 -0.179 -13.999 -1.351 QT
-13.999 -2.476 -14.093 -3.429 QT
-14.186 -4.383 -14.593 -5.156 QT
-14.999 -5.929 -15.843 -5.929 QT
-16.686 -5.929 -17.1 -5.148 QT
-17.515 -4.367 -17.608 -3.422 QT
-17.702 -2.476 -17.702 -1.351 QT
-17.702 -0.508 -17.663 0.235 QT
-17.624 0.977 -17.444 1.758 QT
-17.265 2.539 -16.874 3.078 QT
-16.483 3.617 -15.843 3.617 QT
cp
f
GR
GS
[0.78305 0 0 0.78377 32.40092 117.75463] CT
0.149 GC
N
-10.66 2.852 M
-10.66 2.508 -10.41 2.274 QT
-10.16 2.039 -9.832 2.039 QT
-9.629 2.039 -9.434 2.149 QT
-9.238 2.258 -9.129 2.453 QT
-9.02 2.649 -9.02 2.852 QT
-9.02 3.18 -9.262 3.43 QT
-9.504 3.68 -9.832 3.68 QT
-10.16 3.68 -10.41 3.43 QT
-10.66 3.18 -10.66 2.852 QT
cp
f
GR
GS
[0.78305 0 0 0.78377 32.40092 117.75463] CT
0.149 GC
N
-6.917 3.68 M
-6.917 3.274 L
-6.917 3.242 -6.885 3.196 QT
-4.557 0.617 L
-4.026 0.039 -3.698 -0.343 QT
-3.37 -0.726 -3.05 -1.234 QT
-2.729 -1.742 -2.542 -2.265 QT
-2.354 -2.789 -2.354 -3.367 QT
-2.354 -3.992 -2.581 -4.554 QT
-2.807 -5.117 -3.26 -5.453 QT
-3.714 -5.789 -4.354 -5.789 QT
-4.995 -5.789 -5.518 -5.39 QT
-6.042 -4.992 -6.26 -4.383 QT
-6.198 -4.398 -6.089 -4.398 QT
-5.76 -4.398 -5.518 -4.172 QT
-5.276 -3.945 -5.276 -3.586 QT
-5.276 -3.242 -5.518 -3 QT
-5.76 -2.758 -6.089 -2.758 QT
-6.448 -2.758 -6.682 -3 QT
-6.917 -3.242 -6.917 -3.586 QT
-6.917 -4.148 -6.706 -4.64 QT
-6.495 -5.133 -6.096 -5.515 QT
-5.698 -5.898 -5.198 -6.101 QT
-4.698 -6.304 -4.135 -6.304 QT
-3.276 -6.304 -2.534 -5.945 QT
-1.792 -5.586 -1.362 -4.922 QT
-0.932 -4.258 -0.932 -3.367 QT
-0.932 -2.726 -1.214 -2.14 QT
-1.495 -1.554 -1.94 -1.07 QT
-2.385 -0.586 -3.089 0.024 QT
-3.792 0.633 -4.01 0.836 QT
-5.698 2.461 L
-4.26 2.461 L
-3.198 2.461 -2.487 2.446 QT
-1.776 2.43 -1.729 2.383 QT
-1.557 2.196 -1.37 1.008 QT
-0.932 1.008 L
-1.354 3.68 L
-6.917 3.68 L
cp
f
GR
GS
[0.78305 0 0 0.78377 32.40092 93.45596] CT
0.149 GC
N
/f-975976711{-24.532 0.899 M
-24.532 -0.023 L
-20.563 -0.023 L
-20.563 0.899 L
-24.532 0.899 L
cp}def
f-975976711
f
GR
GS
[0.78305 0 0 0.78377 32.40092 93.45596] CT
0.149 GC
N
/f-1716017318{-15.843 4.008 M
-17.686 4.008 -18.343 2.492 QT
-18.999 0.977 -18.999 -1.101 QT
-18.999 -2.414 -18.765 -3.562 QT
-18.53 -4.711 -17.827 -5.508 QT
-17.124 -6.304 -15.843 -6.304 QT
-14.858 -6.304 -14.225 -5.828 QT
-13.593 -5.351 -13.265 -4.586 QT
-12.936 -3.82 -12.811 -2.945 QT
-12.686 -2.07 -12.686 -1.101 QT
-12.686 0.18 -12.929 1.305 QT
-13.171 2.43 -13.866 3.219 QT
-14.561 4.008 -15.843 4.008 QT
cp
-15.843 3.617 M
-15.015 3.617 -14.6 2.766 QT
-14.186 1.914 -14.093 0.867 QT
-13.999 -0.179 -13.999 -1.351 QT
-13.999 -2.476 -14.093 -3.429 QT
-14.186 -4.383 -14.593 -5.156 QT
-14.999 -5.929 -15.843 -5.929 QT
-16.686 -5.929 -17.1 -5.148 QT
-17.515 -4.367 -17.608 -3.422 QT
-17.702 -2.476 -17.702 -1.351 QT
-17.702 -0.508 -17.663 0.235 QT
-17.624 0.977 -17.444 1.758 QT
-17.265 2.539 -16.874 3.078 QT
-16.483 3.617 -15.843 3.617 QT
cp}def
f-1716017318
f
GR
GS
[0.78305 0 0 0.78377 32.40092 93.45596] CT
0.149 GC
N
/f-606985051{-10.66 2.852 M
-10.66 2.508 -10.41 2.274 QT
-10.16 2.039 -9.832 2.039 QT
-9.629 2.039 -9.434 2.149 QT
-9.238 2.258 -9.129 2.453 QT
-9.02 2.649 -9.02 2.852 QT
-9.02 3.18 -9.262 3.43 QT
-9.504 3.68 -9.832 3.68 QT
-10.16 3.68 -10.41 3.43 QT
-10.66 3.18 -10.66 2.852 QT
cp}def
f-606985051
f
GR
GS
[0.78305 0 0 0.78377 32.40092 93.45596] CT
0.149 GC
N
/f-921695313{-6.276 3.68 M
-6.276 3.149 L
-4.401 3.149 -4.401 2.68 QT
-4.401 -5.195 L
-5.182 -4.82 -6.37 -4.82 QT
-6.37 -5.351 L
-4.526 -5.351 -3.589 -6.304 QT
-3.37 -6.304 L
-3.323 -6.304 -3.276 -6.265 QT
-3.229 -6.226 -3.229 -6.179 QT
-3.229 2.68 L
-3.229 3.149 -1.354 3.149 QT
-1.354 3.68 L
-6.276 3.68 L
cp}def
f-921695313
f
GR
GS
[0.78305 0 0 0.78377 32.40092 69.15729] CT
0.149 GC
N
/f1704323170{-3.917 4.008 M
-5.76 4.008 -6.417 2.492 QT
-7.073 0.977 -7.073 -1.101 QT
-7.073 -2.414 -6.839 -3.562 QT
-6.604 -4.711 -5.901 -5.508 QT
-5.198 -6.304 -3.917 -6.304 QT
-2.932 -6.304 -2.3 -5.828 QT
-1.667 -5.351 -1.339 -4.586 QT
-1.01 -3.82 -0.885 -2.945 QT
-0.76 -2.07 -0.76 -1.101 QT
-0.76 0.18 -1.003 1.305 QT
-1.245 2.43 -1.94 3.219 QT
-2.635 4.008 -3.917 4.008 QT
cp
-3.917 3.617 M
-3.089 3.617 -2.675 2.766 QT
-2.26 1.914 -2.167 0.867 QT
-2.073 -0.179 -2.073 -1.351 QT
-2.073 -2.476 -2.167 -3.429 QT
-2.26 -4.383 -2.667 -5.156 QT
-3.073 -5.929 -3.917 -5.929 QT
-4.76 -5.929 -5.175 -5.148 QT
-5.589 -4.367 -5.682 -3.422 QT
-5.776 -2.476 -5.776 -1.351 QT
-5.776 -0.508 -5.737 0.235 QT
-5.698 0.977 -5.518 1.758 QT
-5.339 2.539 -4.948 3.078 QT
-4.557 3.617 -3.917 3.617 QT
cp}def
f1704323170
f
GR
GS
[0.78305 0 0 0.78377 32.40092 44.85862] CT
0.149 GC
N
f-1716017318
f
GR
GS
[0.78305 0 0 0.78377 32.40092 44.85862] CT
0.149 GC
N
f-606985051
f
GR
GS
[0.78305 0 0 0.78377 32.40092 44.85862] CT
0.149 GC
N
f-921695313
f
GR
GS
[0.78305 0 0 0.78377 32.40092 20.55995] CT
0.149 GC
N
f-1716017318
f
GR
GS
[0.78305 0 0 0.78377 32.40092 20.55995] CT
0.149 GC
N
f-606985051
f
GR
GS
[0.78305 0 0 0.78377 32.40092 20.55995] CT
0.149 GC
N
/f274154036{-6.917 3.68 M
-6.917 3.274 L
-6.917 3.242 -6.885 3.196 QT
-4.557 0.617 L
-4.026 0.039 -3.698 -0.343 QT
-3.37 -0.726 -3.05 -1.234 QT
-2.729 -1.742 -2.542 -2.265 QT
-2.354 -2.789 -2.354 -3.367 QT
-2.354 -3.992 -2.581 -4.554 QT
-2.807 -5.117 -3.26 -5.453 QT
-3.714 -5.789 -4.354 -5.789 QT
-4.995 -5.789 -5.518 -5.39 QT
-6.042 -4.992 -6.26 -4.383 QT
-6.198 -4.398 -6.089 -4.398 QT
-5.76 -4.398 -5.518 -4.172 QT
-5.276 -3.945 -5.276 -3.586 QT
-5.276 -3.242 -5.518 -3 QT
-5.76 -2.758 -6.089 -2.758 QT
-6.448 -2.758 -6.682 -3 QT
-6.917 -3.242 -6.917 -3.586 QT
-6.917 -4.148 -6.706 -4.64 QT
-6.495 -5.133 -6.096 -5.515 QT
-5.698 -5.898 -5.198 -6.101 QT
-4.698 -6.304 -4.135 -6.304 QT
-3.276 -6.304 -2.534 -5.945 QT
-1.792 -5.586 -1.362 -4.922 QT
-0.932 -4.258 -0.932 -3.367 QT
-0.932 -2.726 -1.214 -2.14 QT
-1.495 -1.554 -1.94 -1.07 QT
-2.385 -0.586 -3.089 0.024 QT
-3.792 0.633 -4.01 0.836 QT
-5.698 2.461 L
-4.26 2.461 L
-3.198 2.461 -2.487 2.446 QT
-1.776 2.43 -1.729 2.383 QT
-1.557 2.196 -1.37 1.008 QT
-0.932 1.008 L
-1.354 3.68 L
-6.917 3.68 L
cp}def
f274154036
f
GR
GS
[0.78305 0 0 0.78377 0 -0.07875] CT
0 0 1 RC
1 LJ
1.917 LW
N
47 96.123 M
47.245 95.85 L
47.49 95.571 L
47.734 95.287 L
47.979 94.998 L
48.224 94.704 L
48.469 94.406 L
48.713 94.104 L
48.958 93.799 L
49.203 93.49 L
49.448 93.178 L
49.693 92.863 L
49.937 92.546 L
50.182 92.226 L
50.427 91.905 L
50.672 91.582 L
50.916 91.258 L
51.161 90.934 L
51.406 90.608 L
51.651 90.283 L
51.895 89.957 L
52.14 89.632 L
52.385 89.307 L
52.63 88.984 L
52.875 88.661 L
53.119 88.34 L
53.364 88.021 L
53.609 87.703 L
53.854 87.388 L
54.098 87.076 L
54.343 86.765 L
54.588 86.458 L
54.833 86.154 L
55.078 85.853 L
55.322 85.556 L
55.567 85.262 L
55.812 84.973 L
56.057 84.687 L
56.301 84.405 L
56.546 84.127 L
56.791 83.854 L
57.036 83.585 L
57.28 83.321 L
57.525 83.062 L
57.77 82.807 L
58.015 82.557 L
58.26 82.311 L
58.504 82.071 L
58.749 81.835 L
58.994 81.605 L
59.239 81.379 L
59.483 81.158 L
59.728 80.943 L
59.973 80.732 L
60.218 80.526 L
60.463 80.325 L
60.707 80.129 L
60.952 79.937 L
61.197 79.751 L
61.442 79.569 L
61.686 79.392 L
61.931 79.219 L
62.176 79.051 L
62.421 78.887 L
62.666 78.728 L
62.91 78.573 L
63.155 78.422 L
63.4 78.275 L
63.645 78.132 L
63.889 77.994 L
64.134 77.859 L
64.379 77.728 L
64.624 77.6 L
64.868 77.477 L
65.113 77.356 L
65.358 77.24 L
65.603 77.126 L
65.848 77.016 L
66.092 76.908 L
66.337 76.804 L
66.582 76.703 L
66.827 76.605 L
67.071 76.509 L
67.316 76.417 L
67.561 76.326 L
67.806 76.239 L
68.051 76.154 L
68.295 76.072 L
68.54 75.991 L
68.785 75.914 L
69.03 75.838 L
69.274 75.765 L
69.519 75.694 L
69.764 75.626 L
70.009 75.559 L
70.253 75.495 L
70.498 75.433 L
70.743 75.373 L
70.988 75.315 L
71.233 75.26 L
71.477 75.206 L
71.722 75.155 L
71.967 75.106 L
72.212 75.06 L
72.456 75.016 L
72.701 74.974 L
72.946 74.935 L
73.191 74.899 L
73.436 74.866 L
73.68 74.835 L
73.925 74.807 L
74.17 74.783 L
74.415 74.762 L
74.659 74.744 L
74.904 74.73 L
75.149 74.72 L
75.394 74.714 L
75.639 74.712 L
75.883 74.714 L
76.128 74.722 L
76.373 74.734 L
76.618 74.752 L
76.862 74.776 L
77.107 74.805 L
77.352 74.841 L
77.597 74.883 L
77.841 74.933 L
78.086 74.989 L
78.331 75.054 L
78.576 75.126 L
78.821 75.207 L
79.065 75.297 L
79.31 75.396 L
79.555 75.505 L
79.8 75.624 L
80.044 75.754 L
80.289 75.895 L
80.534 76.047 L
80.779 76.211 L
81.024 76.388 L
81.268 76.577 L
81.513 76.779 L
81.758 76.995 L
82.003 77.225 L
82.247 77.468 L
82.492 77.726 L
82.737 77.999 L
82.982 78.287 L
83.226 78.59 L
83.471 78.908 L
83.716 79.241 L
83.961 79.59 L
84.206 79.954 L
84.45 80.333 L
84.695 80.727 L
84.94 81.136 L
85.185 81.56 L
85.429 81.997 L
85.674 82.448 L
85.919 82.913 L
86.164 83.389 L
86.409 83.878 L
86.653 84.377 L
86.898 84.887 L
87.143 85.406 L
87.388 85.933 L
87.632 86.467 L
87.877 87.008 L
88.122 87.553 L
88.367 88.102 L
88.611 88.654 L
88.856 89.207 L
89.101 89.76 L
89.346 90.311 L
89.591 90.86 L
89.835 91.405 L
90.08 91.945 L
90.325 92.478 L
90.57 93.003 L
90.814 93.519 L
91.059 94.025 L
91.304 94.519 L
91.549 95.001 L
91.794 95.47 L
92.038 95.924 L
92.283 96.363 L
92.528 96.787 L
92.773 97.193 L
93.017 97.582 L
93.262 97.954 L
93.507 98.307 L
93.752 98.641 L
93.997 98.956 L
94.241 99.252 L
94.486 99.529 L
94.731 99.787 L
94.976 100.025 L
95.22 100.243 L
95.465 100.443 L
95.71 100.624 L
95.955 100.786 L
96.199 100.929 L
96.444 101.055 L
96.689 101.162 L
96.934 101.253 L
97.179 101.327 L
97.423 101.385 L
97.668 101.426 L
97.913 101.453 L
98.158 101.465 L
98.402 101.463 L
98.647 101.447 L
98.892 101.418 L
99.137 101.377 L
99.382 101.324 L
99.626 101.259 L
99.871 101.184 L
100.116 101.099 L
100.361 101.004 L
100.605 100.9 L
100.85 100.787 L
101.095 100.666 L
101.34 100.537 L
101.584 100.402 L
101.829 100.259 L
102.074 100.11 L
102.319 99.956 L
102.564 99.796 L
102.808 99.63 L
103.053 99.46 L
103.298 99.285 L
103.543 99.106 L
103.787 98.924 L
104.032 98.737 L
104.277 98.547 L
104.522 98.355 L
104.767 98.159 L
105.011 97.96 L
105.256 97.759 L
105.501 97.555 L
105.746 97.349 L
105.99 97.14 L
106.235 96.93 L
106.48 96.717 L
106.725 96.502 L
106.97 96.286 L
107.214 96.067 L
107.459 95.846 L
107.704 95.624 L
107.949 95.399 L
108.193 95.173 L
108.438 94.944 L
108.683 94.713 L
108.928 94.48 L
109.172 94.245 L
109.417 94.007 L
109.662 93.767 L
109.907 93.525 L
110.152 93.279 L
110.396 93.031 L
110.641 92.78 L
110.886 92.527 L
111.131 92.269 L
111.375 92.009 L
111.62 91.745 L
111.865 91.478 L
112.11 91.207 L
112.355 90.932 L
112.599 90.653 L
112.844 90.371 L
113.089 90.084 L
113.334 89.793 L
113.578 89.497 L
113.823 89.197 L
114.068 88.892 L
114.313 88.583 L
114.557 88.269 L
114.802 87.95 L
115.047 87.627 L
115.292 87.298 L
115.537 86.965 L
115.781 86.626 L
116.026 86.282 L
116.271 85.934 L
116.516 85.58 L
116.76 85.221 L
117.005 84.858 L
117.25 84.489 L
117.495 84.115 L
117.74 83.737 L
117.984 83.353 L
118.229 82.965 L
118.474 82.573 L
118.719 82.175 L
118.963 81.773 L
119.208 81.367 L
119.453 80.957 L
119.698 80.542 L
119.943 80.124 L
120.187 79.702 L
120.432 79.276 L
120.677 78.847 L
120.922 78.414 L
121.166 77.979 L
121.411 77.54 L
121.656 77.1 L
121.901 76.657 L
122.145 76.212 L
122.39 75.765 L
122.635 75.317 L
122.88 74.867 L
123.125 74.417 L
123.369 73.967 L
123.614 73.516 L
123.859 73.066 L
124.104 72.616 L
124.348 72.168 L
124.593 71.721 L
124.838 71.276 L
125.083 70.834 L
125.328 70.395 L
125.572 69.959 L
125.817 69.528 L
126.062 69.101 L
126.307 68.68 L
126.551 68.264 L
126.796 67.855 L
127.041 67.454 L
127.286 67.06 L
127.53 66.675 L
127.775 66.299 L
128.02 65.933 L
128.265 65.577 L
128.51 65.233 L
128.754 64.901 L
128.999 64.582 L
129.244 64.277 L
129.489 63.986 L
129.733 63.709 L
129.978 63.448 L
130.223 63.203 L
130.468 62.975 L
130.713 62.764 L
130.957 62.571 L
131.202 62.396 L
131.447 62.239 L
131.692 62.101 L
131.936 61.983 L
132.181 61.883 L
132.426 61.803 L
132.671 61.742 L
132.916 61.7 L
133.16 61.676 L
133.405 61.672 L
133.65 61.685 L
133.895 61.716 L
134.139 61.764 L
134.384 61.827 L
134.629 61.906 L
134.874 61.999 L
135.118 62.106 L
135.363 62.224 L
135.608 62.353 L
135.853 62.491 L
136.098 62.637 L
136.342 62.79 L
136.587 62.948 L
136.832 63.109 L
137.077 63.272 L
137.321 63.436 L
137.566 63.599 L
137.811 63.759 L
138.056 63.916 L
138.301 64.068 L
138.545 64.213 L
138.79 64.351 L
139.035 64.481 L
139.28 64.602 L
139.524 64.713 L
139.769 64.814 L
140.014 64.905 L
140.259 64.986 L
140.503 65.056 L
140.748 65.117 L
140.993 65.169 L
141.238 65.213 L
141.483 65.251 L
141.727 65.283 L
141.972 65.312 L
142.217 65.339 L
142.462 65.368 L
142.706 65.401 L
142.951 65.441 L
143.196 65.491 L
143.441 65.554 L
143.686 65.636 L
143.93 65.739 L
144.175 65.868 L
144.42 66.028 L
144.665 66.223 L
144.909 66.459 L
145.154 66.74 L
145.399 67.071 L
145.644 67.457 L
145.889 67.902 L
146.133 68.413 L
146.378 68.992 L
146.623 69.645 L
146.868 70.374 L
147.112 71.182 L
147.357 72.072 L
147.602 73.046 L
147.847 74.104 L
148.091 75.245 L
148.336 76.47 L
148.581 77.775 L
148.826 79.157 L
149.071 80.613 L
149.315 82.136 L
149.56 83.72 L
149.805 85.359 L
150.05 87.044 L
150.294 88.766 L
150.539 90.517 L
150.784 92.287 L
151.029 94.067 L
151.274 95.845 L
151.518 97.615 L
151.763 99.365 L
152.008 101.087 L
152.253 102.774 L
152.497 104.418 L
152.742 106.013 L
152.987 107.552 L
153.232 109.032 L
153.476 110.447 L
153.721 111.797 L
153.966 113.077 L
154.211 114.286 L
154.456 115.425 L
154.7 116.493 L
154.945 117.49 L
155.19 118.418 L
155.435 119.277 L
155.679 120.07 L
155.924 120.798 L
156.169 121.463 L
156.414 122.067 L
156.659 122.614 L
156.903 123.103 L
157.148 123.539 L
157.393 123.922 L
157.638 124.255 L
157.882 124.54 L
158.127 124.777 L
158.372 124.97 L
158.617 125.118 L
158.861 125.224 L
159.106 125.289 L
159.351 125.314 L
159.596 125.299 L
159.841 125.246 L
160.085 125.156 L
160.33 125.029 L
160.575 124.867 L
160.82 124.669 L
161.064 124.438 L
161.309 124.172 L
161.554 123.874 L
161.799 123.543 L
162.044 123.181 L
162.288 122.788 L
162.533 122.365 L
162.778 121.912 L
163.023 121.431 L
163.267 120.921 L
163.512 120.384 L
163.757 119.819 L
164.002 119.228 L
164.247 118.61 L
164.491 117.966 L
164.736 117.296 L
164.981 116.601 L
165.226 115.879 L
165.47 115.132 L
165.715 114.359 L
165.96 113.559 L
166.205 112.731 L
166.449 111.877 L
166.694 110.994 L
166.939 110.082 L
167.184 109.14 L
167.429 108.169 L
167.673 107.166 L
167.918 106.132 L
168.163 105.067 L
168.408 103.969 L
168.652 102.84 L
168.897 101.679 L
169.142 100.487 L
169.387 99.265 L
169.632 98.014 L
169.876 96.737 L
170.121 95.435 L
170.366 94.111 L
170.611 92.768 L
170.855 91.41 L
171.1 90.041 L
171.345 88.664 L
171.59 87.285 L
171.834 85.908 L
172.079 84.538 L
172.324 83.179 L
172.569 81.837 L
172.814 80.516 L
173.058 79.222 L
173.303 77.957 L
173.548 76.727 L
173.793 75.534 L
174.037 74.382 L
174.282 73.273 L
174.527 72.209 L
174.772 71.192 L
175.017 70.222 L
175.261 69.3 L
175.506 68.426 L
175.751 67.599 L
175.996 66.818 L
176.24 66.082 L
176.485 65.388 L
176.73 64.734 L
176.975 64.118 L
177.22 63.537 L
177.464 62.988 L
177.709 62.468 L
177.954 61.974 L
178.199 61.504 L
178.443 61.053 L
178.688 60.62 L
178.933 60.201 L
179.178 59.794 L
179.422 59.396 L
179.667 59.005 L
179.912 58.618 L
180.157 58.234 L
180.402 57.851 L
180.646 57.468 L
180.891 57.083 L
181.136 56.696 L
181.381 56.304 L
181.625 55.909 L
181.87 55.509 L
182.115 55.104 L
182.36 54.694 L
182.605 54.279 L
182.849 53.859 L
183.094 53.435 L
183.339 53.006 L
183.584 52.573 L
183.828 52.136 L
184.073 51.697 L
184.318 51.255 L
184.563 50.811 L
184.807 50.366 L
185.052 49.919 L
185.297 49.472 L
185.542 49.024 L
185.787 48.577 L
186.031 48.131 L
186.276 47.685 L
186.521 47.241 L
186.766 46.798 L
187.01 46.356 L
187.255 45.916 L
187.5 45.478 L
187.745 45.042 L
187.99 44.607 L
188.234 44.175 L
188.479 43.744 L
188.724 43.316 L
188.969 42.889 L
189.213 42.464 L
189.458 42.042 L
189.703 41.622 L
189.948 41.204 L
190.193 40.789 L
190.437 40.376 L
190.682 39.967 L
190.927 39.562 L
191.172 39.161 L
191.416 38.766 L
191.661 38.376 L
191.906 37.993 L
192.151 37.617 L
192.395 37.251 L
192.64 36.895 L
192.885 36.551 L
193.13 36.221 L
193.375 35.906 L
193.619 35.608 L
193.864 35.33 L
194.109 35.073 L
194.354 34.841 L
194.598 34.634 L
194.843 34.457 L
195.088 34.312 L
195.333 34.2 L
195.578 34.126 L
195.822 34.092 L
196.067 34.1 L
196.312 34.153 L
196.557 34.253 L
196.801 34.402 L
197.046 34.603 L
197.291 34.857 L
197.536 35.164 L
197.78 35.527 L
198.025 35.945 L
198.27 36.417 L
198.515 36.943 L
198.76 37.522 L
199.004 38.151 L
199.249 38.827 L
199.494 39.547 L
199.739 40.306 L
199.983 41.1 L
200.228 41.922 L
200.473 42.767 L
200.718 43.628 L
200.963 44.498 L
201.207 45.371 L
201.452 46.239 L
201.697 47.094 L
201.942 47.931 L
202.186 48.743 L
202.431 49.524 L
202.676 50.27 L
202.921 50.976 L
203.166 51.64 L
203.41 52.26 L
203.655 52.837 L
203.9 53.372 L
204.145 53.868 L
204.389 54.33 L
204.634 54.766 L
204.879 55.183 L
205.124 55.594 L
205.368 56.009 L
205.613 56.445 L
205.858 56.918 L
206.103 57.445 L
206.348 58.047 L
206.592 58.745 L
206.837 59.563 L
207.082 60.523 L
207.327 61.65 L
207.571 62.967 L
207.816 64.499 L
208.061 66.266 L
208.306 68.288 L
208.551 70.582 L
208.795 73.16 L
209.04 76.027 L
209.285 79.185 L
209.53 82.629 L
209.774 86.344 L
210.019 90.31 L
210.264 94.5 L
210.509 98.88 L
210.753 103.409 L
210.998 108.044 L
211.243 112.738 L
211.488 117.443 L
211.733 122.113 L
211.977 126.701 L
212.222 131.167 L
212.467 135.475 L
212.712 139.592 L
212.956 143.495 L
213.201 147.163 L
213.446 150.581 L
213.691 153.74 L
213.936 156.636 L
214.18 159.267 L
214.425 161.633 L
214.67 163.74 L
214.915 165.593 L
215.159 167.197 L
215.404 168.56 L
215.649 169.688 L
215.894 170.586 L
216.139 171.262 L
216.383 171.721 L
216.628 171.965 L
216.873 172 L
217.118 171.828 L
217.362 171.45 L
217.607 170.87 L
217.852 170.087 L
218.097 169.102 L
218.341 167.915 L
218.586 166.526 L
218.831 164.935 L
219.076 163.141 L
219.321 161.144 L
219.565 158.943 L
219.81 156.54 L
220.055 153.934 L
220.3 151.128 L
220.544 148.125 L
220.789 144.931 L
221.034 141.552 L
221.279 137.998 L
221.524 134.279 L
221.768 130.412 L
222.013 126.412 L
222.258 122.299 L
222.503 118.098 L
222.747 113.833 L
222.992 109.531 L
223.237 105.221 L
223.482 100.934 L
223.726 96.698 L
223.971 92.545 L
224.216 88.501 L
224.461 84.592 L
224.706 80.841 L
224.95 77.269 L
225.195 73.892 L
225.44 70.721 L
225.685 67.765 L
225.929 65.03 L
226.174 62.516 L
226.419 60.221 L
226.664 58.139 L
226.909 56.263 L
227.153 54.58 L
227.398 53.079 L
227.643 51.744 L
227.888 50.561 L
228.132 49.512 L
228.377 48.581 L
228.622 47.749 L
228.867 47 L
229.111 46.317 L
229.356 45.682 L
229.601 45.08 L
229.846 44.497 L
230.091 43.919 L
230.335 43.333 L
230.58 42.73 L
230.825 42.1 L
231.07 41.435 L
231.314 40.729 L
231.559 39.978 L
231.804 39.18 L
232.049 38.333 L
232.294 37.439 L
232.538 36.5 L
232.783 35.519 L
233.028 34.503 L
233.273 33.459 L
233.517 32.395 L
233.762 31.32 L
234.007 30.246 L
234.252 29.185 L
234.497 28.149 L
234.741 27.151 L
234.986 26.206 L
235.231 25.328 L
235.476 24.531 L
235.72 23.829 L
235.965 23.235 L
236.21 22.763 L
236.455 22.426 L
236.699 22.234 L
236.944 22.199 L
237.189 22.329 L
237.434 22.634 L
237.679 23.119 L
237.923 23.791 L
238.168 24.656 L
238.413 25.717 L
238.658 26.977 L
238.902 28.44 L
239.147 30.108 L
239.392 31.982 L
239.637 34.065 L
239.882 36.358 L
240.126 38.862 L
240.371 41.577 L
240.616 44.503 L
240.861 47.637 L
241.105 50.976 L
241.35 54.512 L
241.595 58.235 L
241.84 62.13 L
242.084 66.178 L
242.329 70.353 L
242.574 74.626 L
242.819 78.961 L
243.064 83.316 L
243.308 87.647 L
243.553 91.903 L
243.798 96.034 L
244.043 99.985 L
244.287 103.705 L
244.532 107.142 L
244.777 110.25 L
245.022 112.983 L
245.267 115.303 L
245.511 117.18 L
245.756 118.587 L
246.001 119.506 L
246.246 119.927 L
246.49 119.847 L
246.735 119.273 L
246.98 118.215 L
247.225 116.696 L
247.469 114.741 L
247.714 112.384 L
247.959 109.665 L
248.204 106.626 L
248.449 103.315 L
248.693 99.784 L
248.938 96.082 L
249.183 92.264 L
249.428 88.381 L
249.672 84.485 L
249.917 80.624 L
250.162 76.846 L
250.407 73.193 L
250.652 69.706 L
250.896 66.421 L
251.141 63.37 L
251.386 60.582 L
251.631 58.082 L
251.875 55.891 L
252.12 54.026 L
252.365 52.503 L
252.61 51.331 L
252.855 50.519 L
253.099 50.072 L
253.344 49.993 L
253.589 50.282 L
253.834 50.936 L
254.078 51.952 L
254.323 53.32 L
254.568 55.03 L
254.813 57.069 L
255.057 59.42 L
255.302 62.062 L
255.547 64.972 L
255.792 68.123 L
256.037 71.483 L
256.281 75.021 L
256.526 78.699 L
256.771 82.482 L
257.016 86.332 L
257.26 90.209 L
257.505 94.076 L
257.75 97.9 L
257.995 101.645 L
258.24 105.284 L
258.484 108.79 L
258.729 112.142 L
258.974 115.321 L
259.219 118.315 L
259.463 121.114 L
259.708 123.712 L
259.953 126.107 L
260.198 128.298 L
260.443 130.287 L
260.687 132.08 L
260.932 133.681 L
261.177 135.097 L
261.422 136.336 L
261.666 137.406 L
261.911 138.314 L
262.156 139.069 L
262.401 139.679 L
262.645 140.153 L
262.89 140.498 L
263.135 140.721 L
263.38 140.831 L
263.625 140.832 L
263.869 140.732 L
264.114 140.534 L
264.359 140.245 L
264.604 139.867 L
264.848 139.404 L
265.093 138.858 L
265.338 138.231 L
265.583 137.526 L
265.828 136.743 L
266.072 135.882 L
266.317 134.944 L
266.562 133.93 L
266.807 132.839 L
267.051 131.671 L
267.296 130.427 L
267.541 129.106 L
267.786 127.709 L
268.03 126.236 L
268.275 124.689 L
268.52 123.069 L
268.765 121.378 L
269.01 119.619 L
269.254 117.796 L
269.499 115.912 L
269.744 113.971 L
269.989 111.981 L
270.233 109.947 L
270.478 107.876 L
270.723 105.777 L
270.968 103.657 L
271.213 101.525 L
271.457 99.392 L
271.702 97.267 L
271.947 95.16 L
272.192 93.081 L
272.436 91.041 L
272.681 89.05 L
272.926 87.117 L
273.171 85.253 L
273.415 83.466 L
273.66 81.764 L
273.905 80.155 L
274.15 78.647 L
274.395 77.245 L
274.639 75.956 L
274.884 74.784 L
275.129 73.733 L
275.374 72.807 L
275.618 72.008 L
275.863 71.338 L
276.108 70.799 L
276.353 70.392 L
276.598 70.115 L
276.842 69.969 L
277.087 69.953 L
277.332 70.065 L
277.577 70.302 L
277.821 70.663 L
278.066 71.144 L
278.311 71.742 L
278.556 72.452 L
278.801 73.269 L
279.045 74.19 L
279.29 75.208 L
279.535 76.318 L
279.78 77.514 L
280.024 78.788 L
280.269 80.135 L
280.514 81.547 L
280.759 83.017 L
281.003 84.538 L
281.248 86.1 L
281.493 87.698 L
281.738 89.323 L
281.983 90.967 L
282.227 92.623 L
282.472 94.283 L
282.717 95.94 L
282.962 97.587 L
283.206 99.218 L
283.451 100.826 L
283.696 102.405 L
283.941 103.951 L
284.186 105.458 L
284.43 106.922 L
284.675 108.34 L
284.92 109.709 L
285.165 111.024 L
285.409 112.285 L
285.654 113.49 L
285.899 114.637 L
286.144 115.726 L
286.388 116.756 L
286.633 117.727 L
286.878 118.64 L
287.123 119.494 L
287.368 120.291 L
287.612 121.032 L
287.857 121.717 L
288.102 122.349 L
288.347 122.929 L
288.591 123.457 L
288.836 123.936 L
289.081 124.368 L
289.326 124.754 L
289.571 125.095 L
289.815 125.394 L
290.06 125.652 L
290.305 125.871 L
290.55 126.051 L
290.794 126.195 L
291.039 126.304 L
291.284 126.379 L
291.529 126.422 L
291.774 126.433 L
292.018 126.414 L
292.263 126.366 L
292.508 126.289 L
292.753 126.184 L
292.997 126.053 L
293.242 125.895 L
293.487 125.712 L
293.732 125.504 L
293.976 125.27 L
294.221 125.012 L
294.466 124.73 L
294.711 124.424 L
294.956 124.093 L
295.2 123.738 L
295.445 123.36 L
295.69 122.957 L
295.935 122.53 L
296.179 122.078 L
296.424 121.602 L
296.669 121.101 L
296.914 120.576 L
297.159 120.025 L
297.403 119.448 L
297.648 118.846 L
297.893 118.219 L
298.138 117.566 L
298.382 116.887 L
298.627 116.182 L
298.872 115.452 L
299.117 114.696 L
299.362 113.915 L
299.606 113.11 L
299.851 112.281 L
300.096 111.428 L
300.341 110.553 L
300.585 109.657 L
300.83 108.74 L
301.075 107.804 L
301.32 106.851 L
301.564 105.882 L
301.809 104.899 L
302.054 103.904 L
302.299 102.899 L
302.544 101.886 L
302.788 100.869 L
303.033 99.849 L
303.278 98.829 L
303.523 97.813 L
303.767 96.802 L
304.012 95.8 L
304.257 94.81 L
304.502 93.835 L
304.747 92.877 L
304.991 91.941 L
305.236 91.029 L
305.481 90.143 L
305.726 89.288 L
305.97 88.464 L
306.215 87.676 L
306.46 86.925 L
306.705 86.215 L
306.949 85.546 L
307.194 84.922 L
307.439 84.343 L
307.684 83.812 L
307.929 83.33 L
308.173 82.898 L
308.418 82.517 L
308.663 82.189 L
308.908 81.912 L
309.152 81.689 L
309.397 81.519 L
309.642 81.401 L
309.887 81.337 L
310.132 81.324 L
310.376 81.363 L
310.621 81.452 L
310.866 81.591 L
311.111 81.779 L
311.355 82.013 L
311.6 82.292 L
311.845 82.615 L
312.09 82.979 L
312.335 83.383 L
312.579 83.825 L
312.824 84.302 L
313.069 84.811 L
313.314 85.351 L
313.558 85.92 L
313.803 86.513 L
314.048 87.129 L
314.293 87.766 L
314.537 88.419 L
314.782 89.088 L
315.027 89.768 L
315.272 90.458 L
315.517 91.155 L
315.761 91.855 L
316.006 92.557 L
316.251 93.258 L
316.496 93.956 L
316.74 94.648 L
316.985 95.332 L
317.23 96.006 L
317.475 96.668 L
317.72 97.316 L
317.964 97.948 L
318.209 98.563 L
318.454 99.159 L
318.699 99.735 L
318.943 100.289 L
319.188 100.822 L
319.433 101.33 L
319.678 101.815 L
319.922 102.274 L
320.167 102.709 L
320.412 103.117 L
320.657 103.5 L
320.902 103.856 L
321.146 104.186 L
321.391 104.489 L
321.636 104.767 L
321.881 105.019 L
322.125 105.245 L
322.37 105.447 L
322.615 105.624 L
322.86 105.777 L
323.105 105.908 L
323.349 106.015 L
323.594 106.101 L
323.839 106.166 L
324.084 106.212 L
324.328 106.238 L
324.573 106.246 L
324.818 106.237 L
325.063 106.211 L
325.307 106.17 L
325.552 106.116 L
325.797 106.048 L
326.042 105.967 L
326.287 105.876 L
326.531 105.774 L
326.776 105.663 L
327.021 105.543 L
327.266 105.417 L
327.51 105.283 L
327.755 105.144 L
328 105.001 L
328.034 104.98 L
S
GR
GS
[0.78305 0 0 0.78377 0 -0.07875] CT
1 LJ
2.172 LW
N
47 96.123 M
47.245 95.85 L
47.49 95.572 L
47.734 95.288 L
47.979 95 L
48.224 94.707 L
48.469 94.409 L
48.713 94.108 L
48.958 93.803 L
49.203 93.494 L
49.448 93.182 L
49.693 92.868 L
49.937 92.551 L
50.182 92.232 L
50.427 91.911 L
50.672 91.589 L
50.916 91.265 L
51.161 90.941 L
51.406 90.616 L
51.651 90.29 L
51.895 89.965 L
52.14 89.64 L
52.385 89.316 L
52.63 88.992 L
52.875 88.67 L
53.119 88.349 L
53.364 88.03 L
53.609 87.713 L
53.854 87.398 L
54.098 87.086 L
54.343 86.776 L
54.588 86.469 L
54.833 86.165 L
55.078 85.864 L
55.322 85.567 L
55.567 85.273 L
55.812 84.984 L
56.057 84.698 L
56.301 84.416 L
56.546 84.139 L
56.791 83.865 L
57.036 83.597 L
57.28 83.332 L
57.525 83.073 L
57.77 82.818 L
58.015 82.568 L
58.26 82.323 L
58.504 82.082 L
58.749 81.846 L
58.994 81.616 L
59.239 81.39 L
59.483 81.169 L
59.728 80.953 L
59.973 80.742 L
60.218 80.536 L
60.463 80.335 L
60.707 80.138 L
60.952 79.947 L
61.197 79.76 L
61.442 79.578 L
61.686 79.4 L
61.931 79.227 L
62.176 79.059 L
62.421 78.895 L
62.666 78.735 L
62.91 78.58 L
63.155 78.429 L
63.4 78.282 L
63.645 78.138 L
63.889 77.999 L
64.134 77.864 L
64.379 77.733 L
64.624 77.605 L
64.868 77.481 L
65.113 77.36 L
65.358 77.243 L
65.603 77.129 L
65.848 77.018 L
66.092 76.91 L
66.337 76.806 L
66.582 76.704 L
66.827 76.605 L
67.071 76.509 L
67.316 76.416 L
67.561 76.325 L
67.806 76.238 L
68.051 76.152 L
68.295 76.069 L
68.54 75.989 L
68.785 75.911 L
69.03 75.835 L
69.274 75.761 L
69.519 75.69 L
69.764 75.621 L
70.009 75.554 L
70.253 75.489 L
70.498 75.427 L
70.743 75.366 L
70.988 75.308 L
71.233 75.252 L
71.477 75.199 L
71.722 75.147 L
71.967 75.098 L
72.212 75.052 L
72.456 75.007 L
72.701 74.965 L
72.946 74.926 L
73.191 74.89 L
73.436 74.856 L
73.68 74.825 L
73.925 74.797 L
74.17 74.773 L
74.415 74.751 L
74.659 74.733 L
74.904 74.719 L
75.149 74.709 L
75.394 74.703 L
75.639 74.701 L
75.883 74.704 L
76.128 74.711 L
76.373 74.724 L
76.618 74.742 L
76.862 74.765 L
77.107 74.795 L
77.352 74.831 L
77.597 74.873 L
77.841 74.923 L
78.086 74.98 L
78.331 75.044 L
78.576 75.117 L
78.821 75.198 L
79.065 75.289 L
79.31 75.388 L
79.555 75.498 L
79.8 75.617 L
80.044 75.747 L
80.289 75.888 L
80.534 76.041 L
80.779 76.206 L
81.024 76.383 L
81.268 76.572 L
81.513 76.775 L
81.758 76.991 L
82.003 77.221 L
82.247 77.465 L
82.492 77.724 L
82.737 77.997 L
82.982 78.285 L
83.226 78.589 L
83.471 78.907 L
83.716 79.241 L
83.961 79.59 L
84.206 79.954 L
84.45 80.333 L
84.695 80.728 L
84.94 81.137 L
85.185 81.561 L
85.429 81.998 L
85.674 82.45 L
85.919 82.914 L
86.164 83.391 L
86.409 83.879 L
86.653 84.379 L
86.898 84.888 L
87.143 85.407 L
87.388 85.934 L
87.632 86.468 L
87.877 87.009 L
88.122 87.554 L
88.367 88.103 L
88.611 88.655 L
88.856 89.207 L
89.101 89.76 L
89.346 90.312 L
89.591 90.86 L
89.835 91.405 L
90.08 91.944 L
90.325 92.477 L
90.57 93.002 L
90.814 93.518 L
91.059 94.024 L
91.304 94.518 L
91.549 95 L
91.794 95.469 L
92.038 95.923 L
92.283 96.362 L
92.528 96.785 L
92.773 97.191 L
93.017 97.58 L
93.262 97.951 L
93.507 98.304 L
93.752 98.638 L
93.997 98.953 L
94.241 99.249 L
94.486 99.525 L
94.731 99.783 L
94.976 100.02 L
95.22 100.239 L
95.465 100.438 L
95.71 100.618 L
95.955 100.78 L
96.199 100.923 L
96.444 101.048 L
96.689 101.155 L
96.934 101.245 L
97.179 101.319 L
97.423 101.376 L
97.668 101.417 L
97.913 101.443 L
98.158 101.454 L
98.402 101.451 L
98.647 101.434 L
98.892 101.404 L
99.137 101.362 L
99.382 101.308 L
99.626 101.242 L
99.871 101.166 L
100.116 101.08 L
100.361 100.984 L
100.605 100.878 L
100.85 100.764 L
101.095 100.642 L
101.34 100.512 L
101.584 100.376 L
101.829 100.232 L
102.074 100.082 L
102.319 99.926 L
102.564 99.765 L
102.808 99.598 L
103.053 99.427 L
103.298 99.251 L
103.543 99.071 L
103.787 98.887 L
104.032 98.7 L
104.277 98.509 L
104.522 98.315 L
104.767 98.118 L
105.011 97.919 L
105.256 97.717 L
105.501 97.512 L
105.746 97.305 L
105.99 97.096 L
106.235 96.885 L
106.48 96.671 L
106.725 96.456 L
106.97 96.239 L
107.214 96.019 L
107.459 95.798 L
107.704 95.575 L
107.949 95.35 L
108.193 95.122 L
108.438 94.893 L
108.683 94.661 L
108.928 94.428 L
109.172 94.192 L
109.417 93.953 L
109.662 93.712 L
109.907 93.469 L
110.152 93.222 L
110.396 92.973 L
110.641 92.721 L
110.886 92.466 L
111.131 92.208 L
111.375 91.946 L
111.62 91.681 L
111.865 91.412 L
112.11 91.14 L
112.355 90.863 L
112.599 90.583 L
112.844 90.298 L
113.089 90.01 L
113.334 89.717 L
113.578 89.419 L
113.823 89.117 L
114.068 88.811 L
114.313 88.499 L
114.557 88.183 L
114.802 87.862 L
115.047 87.536 L
115.292 87.205 L
115.537 86.87 L
115.781 86.529 L
116.026 86.183 L
116.271 85.832 L
116.516 85.476 L
116.76 85.114 L
117.005 84.748 L
117.25 84.377 L
117.495 84.001 L
117.74 83.62 L
117.984 83.234 L
118.229 82.844 L
118.474 82.448 L
118.719 82.048 L
118.963 81.644 L
119.208 81.235 L
119.453 80.823 L
119.698 80.406 L
119.943 79.985 L
120.187 79.56 L
120.432 79.132 L
120.677 78.7 L
120.922 78.265 L
121.166 77.827 L
121.411 77.387 L
121.656 76.943 L
121.901 76.498 L
122.145 76.05 L
122.39 75.601 L
122.635 75.15 L
122.88 74.699 L
123.125 74.246 L
123.369 73.793 L
123.614 73.34 L
123.859 72.887 L
124.104 72.435 L
124.348 71.985 L
124.593 71.535 L
124.838 71.088 L
125.083 70.644 L
125.328 70.203 L
125.572 69.765 L
125.817 69.332 L
126.062 68.903 L
126.307 68.48 L
126.551 68.063 L
126.796 67.653 L
127.041 67.25 L
127.286 66.856 L
127.53 66.47 L
127.775 66.093 L
128.02 65.727 L
128.265 65.371 L
128.51 65.027 L
128.754 64.696 L
128.999 64.378 L
129.244 64.073 L
129.489 63.783 L
129.733 63.508 L
129.978 63.249 L
130.223 63.006 L
130.468 62.781 L
130.713 62.573 L
130.957 62.382 L
131.202 62.211 L
131.447 62.058 L
131.692 61.925 L
131.936 61.81 L
132.181 61.716 L
132.426 61.64 L
132.671 61.585 L
132.916 61.548 L
133.16 61.531 L
133.405 61.532 L
133.65 61.552 L
133.895 61.59 L
134.139 61.644 L
134.384 61.715 L
134.629 61.801 L
134.874 61.901 L
135.118 62.015 L
135.363 62.14 L
135.608 62.277 L
135.853 62.423 L
136.098 62.576 L
136.342 62.737 L
136.587 62.902 L
136.832 63.071 L
137.077 63.241 L
137.321 63.412 L
137.566 63.582 L
137.811 63.75 L
138.056 63.914 L
138.301 64.072 L
138.545 64.224 L
138.79 64.369 L
139.035 64.505 L
139.28 64.632 L
139.524 64.749 L
139.769 64.855 L
140.014 64.952 L
140.259 65.038 L
140.503 65.113 L
140.748 65.179 L
140.993 65.235 L
141.238 65.284 L
141.483 65.326 L
141.727 65.363 L
141.972 65.396 L
142.217 65.429 L
142.462 65.463 L
142.706 65.501 L
142.951 65.546 L
143.196 65.602 L
143.441 65.673 L
143.686 65.761 L
143.93 65.873 L
144.175 66.011 L
144.42 66.18 L
144.665 66.386 L
144.909 66.633 L
145.154 66.926 L
145.399 67.271 L
145.644 67.671 L
145.889 68.133 L
146.133 68.66 L
146.378 69.258 L
146.623 69.929 L
146.868 70.677 L
147.112 71.506 L
147.357 72.418 L
147.602 73.414 L
147.847 74.494 L
148.091 75.659 L
148.336 76.906 L
148.581 78.234 L
148.826 79.64 L
149.071 81.118 L
149.315 82.664 L
149.56 84.27 L
149.805 85.929 L
150.05 87.634 L
150.294 89.375 L
150.539 91.143 L
150.784 92.928 L
151.029 94.721 L
151.274 96.512 L
151.518 98.29 L
151.763 100.048 L
152.008 101.777 L
152.253 103.468 L
152.497 105.113 L
152.742 106.708 L
152.987 108.246 L
153.232 109.723 L
153.476 111.134 L
153.721 112.478 L
153.966 113.751 L
154.211 114.954 L
154.456 116.085 L
154.7 117.144 L
154.945 118.133 L
155.19 119.051 L
155.435 119.902 L
155.679 120.686 L
155.924 121.406 L
156.169 122.063 L
156.414 122.659 L
156.659 123.198 L
156.903 123.681 L
157.148 124.11 L
157.393 124.486 L
157.638 124.813 L
157.882 125.092 L
158.127 125.324 L
158.372 125.512 L
158.617 125.655 L
158.861 125.757 L
159.106 125.817 L
159.351 125.837 L
159.596 125.818 L
159.841 125.761 L
160.085 125.667 L
160.33 125.536 L
160.575 125.37 L
160.82 125.169 L
161.064 124.934 L
161.309 124.665 L
161.554 124.364 L
161.799 124.03 L
162.044 123.666 L
162.288 123.271 L
162.533 122.846 L
162.778 122.392 L
163.023 121.91 L
163.267 121.4 L
163.512 120.862 L
163.757 120.298 L
164.002 119.708 L
164.247 119.091 L
164.491 118.449 L
164.736 117.781 L
164.981 117.088 L
165.226 116.369 L
165.47 115.624 L
165.715 114.853 L
165.96 114.055 L
166.205 113.23 L
166.449 112.377 L
166.694 111.496 L
166.939 110.584 L
167.184 109.643 L
167.429 108.67 L
167.673 107.666 L
167.918 106.629 L
168.163 105.559 L
168.408 104.455 L
168.652 103.318 L
168.897 102.148 L
169.142 100.946 L
169.387 99.712 L
169.632 98.448 L
169.876 97.155 L
170.121 95.837 L
170.366 94.495 L
170.611 93.133 L
170.855 91.755 L
171.1 90.365 L
171.345 88.967 L
171.59 87.566 L
171.834 86.166 L
172.079 84.774 L
172.324 83.394 L
172.569 82.031 L
172.814 80.69 L
173.058 79.377 L
173.303 78.095 L
173.548 76.849 L
173.793 75.642 L
174.037 74.477 L
174.282 73.358 L
174.527 72.287 L
174.772 71.264 L
175.017 70.29 L
175.261 69.367 L
175.506 68.494 L
175.751 67.669 L
175.996 66.892 L
176.24 66.162 L
176.485 65.475 L
176.73 64.831 L
176.975 64.225 L
177.22 63.655 L
177.464 63.119 L
177.709 62.613 L
177.954 62.133 L
178.199 61.678 L
178.443 61.243 L
178.688 60.825 L
178.933 60.423 L
179.178 60.032 L
179.422 59.651 L
179.667 59.276 L
179.912 58.907 L
180.157 58.54 L
180.402 58.174 L
180.646 57.808 L
180.891 57.44 L
181.136 57.07 L
181.381 56.695 L
181.625 56.317 L
181.87 55.933 L
182.115 55.545 L
182.36 55.151 L
182.605 54.753 L
182.849 54.349 L
183.094 53.941 L
183.339 53.528 L
183.584 53.111 L
183.828 52.691 L
184.073 52.268 L
184.318 51.843 L
184.563 51.416 L
184.807 50.988 L
185.052 50.559 L
185.297 50.13 L
185.542 49.701 L
185.787 49.274 L
186.031 48.847 L
186.276 48.422 L
186.521 47.999 L
186.766 47.578 L
187.01 47.159 L
187.255 46.743 L
187.5 46.329 L
187.745 45.918 L
187.99 45.509 L
188.234 45.103 L
188.479 44.7 L
188.724 44.299 L
188.969 43.9 L
189.213 43.504 L
189.458 43.11 L
189.703 42.718 L
189.948 42.329 L
190.193 41.942 L
190.437 41.557 L
190.682 41.175 L
190.927 40.796 L
191.172 40.42 L
191.416 40.048 L
191.661 39.68 L
191.906 39.316 L
192.151 38.958 L
192.395 38.607 L
192.64 38.262 L
192.885 37.926 L
193.13 37.599 L
193.375 37.283 L
193.619 36.979 L
193.864 36.689 L
194.109 36.415 L
194.354 36.157 L
194.598 35.919 L
194.843 35.702 L
195.088 35.508 L
195.333 35.34 L
195.578 35.199 L
195.822 35.087 L
196.067 35.007 L
196.312 34.961 L
196.557 34.951 L
196.801 34.978 L
197.046 35.044 L
197.291 35.151 L
197.536 35.299 L
197.78 35.491 L
198.025 35.725 L
198.27 36.003 L
198.515 36.324 L
198.76 36.688 L
199.004 37.092 L
199.249 37.536 L
199.494 38.017 L
199.739 38.532 L
199.983 39.077 L
200.228 39.65 L
200.473 40.245 L
200.718 40.858 L
200.963 41.483 L
201.207 42.116 L
201.452 42.75 L
201.697 43.381 L
201.942 44.002 L
202.186 44.609 L
202.431 45.196 L
202.676 45.759 L
202.921 46.294 L
203.166 46.799 L
203.41 47.27 L
203.655 47.707 L
203.9 48.111 L
204.145 48.482 L
204.389 48.825 L
204.634 49.143 L
204.879 49.444 L
205.124 49.736 L
205.368 50.029 L
205.613 50.336 L
205.858 50.67 L
206.103 51.05 L
206.348 51.492 L
206.592 52.018 L
206.837 52.65 L
207.082 53.411 L
207.327 54.327 L
207.571 55.423 L
207.816 56.724 L
208.061 58.257 L
208.306 60.046 L
208.551 62.111 L
208.795 64.471 L
209.04 67.14 L
209.285 70.126 L
209.53 73.431 L
209.774 77.049 L
210.019 80.967 L
210.264 85.162 L
210.509 89.605 L
210.753 94.258 L
210.998 99.076 L
211.243 104.011 L
211.488 109.01 L
211.733 114.02 L
211.977 118.988 L
212.222 123.863 L
212.467 128.598 L
212.712 133.153 L
212.956 137.492 L
213.201 141.588 L
213.446 145.418 L
213.691 148.965 L
213.936 152.22 L
214.18 155.177 L
214.425 157.834 L
214.67 160.192 L
214.915 162.254 L
215.159 164.024 L
215.404 165.509 L
215.649 166.713 L
215.894 167.642 L
216.139 168.301 L
216.383 168.693 L
216.628 168.823 L
216.873 168.692 L
217.118 168.302 L
217.362 167.654 L
217.607 166.746 L
217.852 165.58 L
218.097 164.153 L
218.341 162.465 L
218.586 160.513 L
218.831 158.297 L
219.076 155.816 L
219.321 153.072 L
219.565 150.067 L
219.81 146.806 L
220.055 143.295 L
220.3 139.545 L
220.544 135.568 L
220.789 131.381 L
221.034 127.006 L
221.279 122.467 L
221.524 117.791 L
221.768 113.01 L
222.013 108.158 L
222.258 103.272 L
222.503 98.387 L
222.747 93.54 L
222.992 88.768 L
223.237 84.104 L
223.482 79.578 L
223.726 75.218 L
223.971 71.044 L
224.216 67.077 L
224.461 63.327 L
224.706 59.803 L
224.95 56.509 L
225.195 53.444 L
225.44 50.603 L
225.685 47.98 L
225.929 45.563 L
226.174 43.342 L
226.419 41.302 L
226.664 39.43 L
226.909 37.711 L
227.153 36.129 L
227.398 34.671 L
227.643 33.322 L
227.888 32.07 L
228.132 30.9 L
228.377 29.803 L
228.622 28.767 L
228.867 27.784 L
229.111 26.846 L
229.356 25.947 L
229.601 25.081 L
229.846 24.244 L
230.091 23.433 L
230.335 22.647 L
230.58 21.887 L
230.825 21.151 L
231.07 20.444 L
231.314 19.767 L
231.559 19.124 L
231.804 18.521 L
232.049 17.964 L
232.294 17.459 L
232.538 17.014 L
232.783 16.637 L
233.028 16.338 L
233.273 16.125 L
233.517 16.009 L
233.762 16 L
234.007 16.11 L
234.252 16.35 L
234.497 16.731 L
234.741 17.266 L
234.986 17.967 L
235.231 18.846 L
235.476 19.915 L
235.72 21.186 L
235.965 22.671 L
236.21 24.379 L
236.455 26.322 L
236.699 28.505 L
236.944 30.937 L
237.189 33.62 L
237.434 36.554 L
237.679 39.737 L
237.923 43.162 L
238.168 46.814 L
238.413 50.678 L
238.658 54.728 L
238.902 58.936 L
239.147 63.266 L
239.392 67.677 L
239.637 72.124 L
239.882 76.557 L
240.126 80.925 L
240.371 85.172 L
240.616 89.247 L
240.861 93.098 L
241.105 96.674 L
241.35 99.933 L
241.595 102.834 L
241.84 105.345 L
242.084 107.439 L
242.329 109.098 L
242.574 110.309 L
242.819 111.069 L
243.064 111.379 L
243.308 111.25 L
243.553 110.698 L
243.798 109.745 L
244.043 108.417 L
244.287 106.746 L
244.532 104.768 L
244.777 102.523 L
245.022 100.05 L
245.267 97.395 L
245.511 94.601 L
245.756 91.715 L
246.001 88.782 L
246.246 85.847 L
246.49 82.954 L
246.735 80.146 L
246.98 77.465 L
247.225 74.95 L
247.469 72.635 L
247.714 70.556 L
247.959 68.74 L
248.204 67.215 L
248.449 66.001 L
248.693 65.116 L
248.938 64.572 L
249.183 64.378 L
249.428 64.535 L
249.672 65.043 L
249.917 65.892 L
250.162 67.073 L
250.407 68.567 L
250.652 70.355 L
250.896 72.411 L
251.141 74.707 L
251.386 77.212 L
251.631 79.893 L
251.875 82.715 L
252.12 85.642 L
252.365 88.64 L
252.61 91.673 L
252.855 94.708 L
253.099 97.714 L
253.344 100.663 L
253.589 103.53 L
253.834 106.291 L
254.078 108.928 L
254.323 111.427 L
254.568 113.774 L
254.813 115.962 L
255.057 117.984 L
255.302 119.837 L
255.547 121.521 L
255.792 123.036 L
256.037 124.387 L
256.281 125.576 L
256.526 126.609 L
256.771 127.492 L
257.016 128.232 L
257.26 128.834 L
257.505 129.307 L
257.75 129.657 L
257.995 129.891 L
258.24 130.014 L
258.484 130.034 L
258.729 129.956 L
258.974 129.785 L
259.219 129.527 L
259.463 129.185 L
259.708 128.765 L
259.953 128.271 L
260.198 127.705 L
260.443 127.071 L
260.687 126.373 L
260.932 125.612 L
261.177 124.793 L
261.422 123.916 L
261.666 122.984 L
261.911 122.001 L
262.156 120.967 L
262.401 119.886 L
262.645 118.76 L
262.89 117.591 L
263.135 116.383 L
263.38 115.137 L
263.625 113.858 L
263.869 112.549 L
264.114 111.214 L
264.359 109.856 L
264.604 108.48 L
264.848 107.09 L
265.093 105.692 L
265.338 104.29 L
265.583 102.891 L
265.828 101.499 L
266.072 100.12 L
266.317 98.76 L
266.562 97.426 L
266.807 96.124 L
267.051 94.858 L
267.296 93.636 L
267.541 92.462 L
267.786 91.343 L
268.03 90.284 L
268.275 89.289 L
268.52 88.363 L
268.765 87.509 L
269.01 86.732 L
269.254 86.034 L
269.499 85.417 L
269.744 84.884 L
269.989 84.435 L
270.233 84.071 L
270.478 83.793 L
270.723 83.599 L
270.968 83.488 L
271.213 83.46 L
271.457 83.512 L
271.702 83.641 L
271.947 83.844 L
272.192 84.118 L
272.436 84.46 L
272.681 84.866 L
272.926 85.331 L
273.171 85.851 L
273.415 86.422 L
273.66 87.038 L
273.905 87.696 L
274.15 88.39 L
274.395 89.115 L
274.639 89.868 L
274.884 90.641 L
275.129 91.432 L
275.374 92.234 L
275.618 93.043 L
275.863 93.854 L
276.108 94.661 L
276.353 95.46 L
276.598 96.245 L
276.842 97.012 L
277.087 97.756 L
277.332 98.472 L
277.577 99.154 L
277.821 99.798 L
278.066 100.4 L
278.311 100.956 L
278.556 101.46 L
278.801 101.91 L
279.045 102.302 L
279.29 102.633 L
279.535 102.9 L
279.78 103.102 L
280.024 103.236 L
280.269 103.303 L
280.514 103.303 L
280.759 103.235 L
281.003 103.101 L
281.248 102.903 L
281.493 102.645 L
281.738 102.329 L
281.983 101.961 L
282.227 101.544 L
282.472 101.085 L
282.717 100.59 L
282.962 100.064 L
283.206 99.516 L
283.451 98.953 L
283.696 98.382 L
283.941 97.81 L
284.186 97.246 L
284.43 96.697 L
284.675 96.171 L
284.92 95.674 L
285.165 95.214 L
285.409 94.797 L
285.654 94.428 L
285.899 94.113 L
286.144 93.857 L
286.388 93.662 L
286.633 93.533 L
286.878 93.471 L
287.123 93.477 L
287.368 93.552 L
287.612 93.697 L
287.857 93.909 L
288.102 94.188 L
288.347 94.53 L
288.591 94.932 L
288.836 95.391 L
289.081 95.903 L
289.326 96.462 L
289.571 97.065 L
289.815 97.704 L
290.06 98.375 L
290.305 99.073 L
290.55 99.79 L
290.794 100.522 L
291.039 101.263 L
291.284 102.007 L
291.529 102.748 L
291.774 103.482 L
292.018 104.204 L
292.263 104.909 L
292.508 105.592 L
292.753 106.25 L
292.997 106.878 L
293.242 107.474 L
293.487 108.033 L
293.732 108.554 L
293.976 109.033 L
294.221 109.468 L
294.466 109.856 L
294.711 110.197 L
294.956 110.487 L
295.2 110.726 L
295.445 110.911 L
295.69 111.043 L
295.935 111.119 L
296.179 111.138 L
296.424 111.101 L
296.669 111.005 L
296.914 110.85 L
297.159 110.637 L
297.403 110.364 L
297.648 110.031 L
297.893 109.64 L
298.138 109.188 L
298.382 108.678 L
298.627 108.11 L
298.872 107.485 L
299.117 106.803 L
299.362 106.066 L
299.606 105.277 L
299.851 104.436 L
300.096 103.546 L
300.341 102.609 L
300.585 101.629 L
300.83 100.608 L
301.075 99.55 L
301.32 98.458 L
301.564 97.336 L
301.809 96.188 L
302.054 95.018 L
302.299 93.831 L
302.544 92.63 L
302.788 91.421 L
303.033 90.208 L
303.278 88.995 L
303.523 87.786 L
303.767 86.587 L
304.012 85.4 L
304.257 84.231 L
304.502 83.082 L
304.747 81.957 L
304.991 80.859 L
305.236 79.791 L
305.481 78.756 L
305.726 77.755 L
305.97 76.791 L
306.215 75.864 L
306.46 74.976 L
306.705 74.128 L
306.949 73.32 L
307.194 72.552 L
307.439 71.824 L
307.684 71.136 L
307.929 70.486 L
308.173 69.874 L
308.418 69.299 L
308.663 68.759 L
308.908 68.252 L
309.152 67.777 L
309.397 67.332 L
309.642 66.916 L
309.887 66.525 L
310.132 66.159 L
310.376 65.814 L
310.621 65.49 L
310.866 65.183 L
311.111 64.892 L
311.355 64.615 L
311.6 64.349 L
311.845 64.094 L
312.09 63.846 L
312.335 63.604 L
312.579 63.368 L
312.824 63.134 L
313.069 62.902 L
313.314 62.67 L
313.558 62.437 L
313.803 62.203 L
314.048 61.966 L
314.293 61.726 L
314.537 61.482 L
314.782 61.234 L
315.027 60.982 L
315.272 60.725 L
315.517 60.464 L
315.761 60.199 L
316.006 59.93 L
316.251 59.66 L
316.496 59.387 L
316.74 59.114 L
316.985 58.841 L
317.23 58.57 L
317.475 58.304 L
317.72 58.042 L
317.964 57.789 L
318.209 57.545 L
318.454 57.313 L
318.699 57.096 L
318.943 56.896 L
319.188 56.717 L
319.433 56.561 L
319.678 56.432 L
319.922 56.332 L
320.167 56.265 L
320.412 56.236 L
320.657 56.246 L
320.902 56.301 L
321.146 56.403 L
321.391 56.558 L
321.636 56.767 L
321.881 57.036 L
322.125 57.368 L
322.37 57.766 L
322.615 58.234 L
322.86 58.776 L
323.105 59.394 L
323.349 60.09 L
323.594 60.868 L
323.839 61.73 L
324.084 62.677 L
324.328 63.709 L
324.573 64.829 L
324.818 66.035 L
325.063 67.326 L
325.307 68.702 L
325.552 70.16 L
325.797 71.697 L
326.042 73.309 L
326.287 74.991 L
326.531 76.739 L
326.776 78.545 L
327.021 80.405 L
327.266 82.309 L
327.51 84.249 L
327.755 86.219 L
328 88.207 L
328.034 88.481 L
S
GR
GS
[0.78305 0 0 0.78377 0 -0.07875] CT
1 0 0 RC
[10 6] 0 setdash
2 LJ
1.789 LW
N
47 96.123 M
47.245 95.85 L
47.49 95.571 L
47.734 95.288 L
47.979 94.999 L
48.224 94.707 L
48.469 94.409 L
48.713 94.108 L
48.958 93.804 L
49.203 93.496 L
49.448 93.185 L
49.693 92.871 L
49.937 92.555 L
50.182 92.236 L
50.427 91.916 L
50.672 91.594 L
50.916 91.272 L
51.161 90.948 L
51.406 90.624 L
51.651 90.3 L
51.895 89.976 L
52.14 89.652 L
52.385 89.329 L
52.63 89.007 L
52.875 88.686 L
53.119 88.367 L
53.364 88.049 L
53.609 87.733 L
53.854 87.42 L
54.098 87.108 L
54.343 86.8 L
54.588 86.495 L
54.833 86.192 L
55.078 85.893 L
55.322 85.597 L
55.567 85.305 L
55.812 85.017 L
56.057 84.732 L
56.301 84.452 L
56.546 84.176 L
56.791 83.904 L
57.036 83.637 L
57.28 83.374 L
57.525 83.116 L
57.77 82.862 L
58.015 82.613 L
58.26 82.369 L
58.504 82.13 L
58.749 81.896 L
58.994 81.666 L
59.239 81.441 L
59.483 81.222 L
59.728 81.007 L
59.973 80.797 L
60.218 80.591 L
60.463 80.391 L
60.707 80.196 L
60.952 80.005 L
61.197 79.819 L
61.442 79.637 L
61.686 79.46 L
61.931 79.288 L
62.176 79.12 L
62.421 78.956 L
62.666 78.797 L
62.91 78.642 L
63.155 78.491 L
63.4 78.344 L
63.645 78.201 L
63.889 78.062 L
64.134 77.927 L
64.379 77.796 L
64.624 77.668 L
64.868 77.543 L
65.113 77.422 L
65.358 77.305 L
65.603 77.191 L
65.848 77.079 L
66.092 76.971 L
66.337 76.866 L
66.582 76.764 L
66.827 76.664 L
67.071 76.568 L
67.316 76.474 L
67.561 76.382 L
67.806 76.293 L
68.051 76.207 L
68.295 76.123 L
68.54 76.041 L
68.785 75.962 L
69.03 75.885 L
69.274 75.81 L
69.519 75.737 L
69.764 75.666 L
70.009 75.598 L
70.253 75.532 L
70.498 75.467 L
70.743 75.405 L
70.988 75.345 L
71.233 75.287 L
71.477 75.232 L
71.722 75.178 L
71.967 75.127 L
72.212 75.078 L
72.456 75.031 L
72.701 74.987 L
72.946 74.945 L
73.191 74.906 L
73.436 74.869 L
73.68 74.836 L
73.925 74.805 L
74.17 74.778 L
74.415 74.753 L
74.659 74.733 L
74.904 74.715 L
75.149 74.702 L
75.394 74.693 L
75.639 74.688 L
75.883 74.687 L
76.128 74.691 L
76.373 74.7 L
76.618 74.715 L
76.862 74.735 L
77.107 74.761 L
77.352 74.793 L
77.597 74.832 L
77.841 74.878 L
78.086 74.931 L
78.331 74.992 L
78.576 75.061 L
78.821 75.139 L
79.065 75.225 L
79.31 75.321 L
79.555 75.427 L
79.8 75.543 L
80.044 75.67 L
80.289 75.808 L
80.534 75.958 L
80.779 76.119 L
81.024 76.293 L
81.268 76.48 L
81.513 76.68 L
81.758 76.894 L
82.003 77.122 L
82.247 77.364 L
82.492 77.621 L
82.737 77.892 L
82.982 78.179 L
83.226 78.481 L
83.471 78.799 L
83.716 79.132 L
83.961 79.481 L
84.206 79.845 L
84.45 80.225 L
84.695 80.62 L
84.94 81.03 L
85.185 81.455 L
85.429 81.894 L
85.674 82.347 L
85.919 82.813 L
86.164 83.292 L
86.409 83.783 L
86.653 84.285 L
86.898 84.798 L
87.143 85.32 L
87.388 85.85 L
87.632 86.388 L
87.877 86.931 L
88.122 87.48 L
88.367 88.033 L
88.611 88.588 L
88.856 89.144 L
89.101 89.7 L
89.346 90.254 L
89.591 90.806 L
89.835 91.353 L
90.08 91.895 L
90.325 92.43 L
90.57 92.957 L
90.814 93.475 L
91.059 93.981 L
91.304 94.477 L
91.549 94.959 L
91.794 95.427 L
92.038 95.881 L
92.283 96.319 L
92.528 96.74 L
92.773 97.144 L
93.017 97.531 L
93.262 97.899 L
93.507 98.248 L
93.752 98.578 L
93.997 98.888 L
94.241 99.179 L
94.486 99.449 L
94.731 99.7 L
94.976 99.931 L
95.22 100.142 L
95.465 100.334 L
95.71 100.506 L
95.955 100.659 L
96.199 100.793 L
96.444 100.908 L
96.689 101.005 L
96.934 101.085 L
97.179 101.147 L
97.423 101.193 L
97.668 101.223 L
97.913 101.237 L
98.158 101.236 L
98.402 101.221 L
98.647 101.191 L
98.892 101.149 L
99.137 101.093 L
99.382 101.025 L
99.626 100.946 L
99.871 100.856 L
100.116 100.755 L
100.361 100.644 L
100.605 100.524 L
100.85 100.395 L
101.095 100.258 L
101.34 100.113 L
101.584 99.96 L
101.829 99.8 L
102.074 99.634 L
102.319 99.462 L
102.564 99.284 L
102.808 99.1 L
103.053 98.912 L
103.298 98.719 L
103.543 98.521 L
103.787 98.319 L
104.032 98.114 L
104.277 97.904 L
104.522 97.692 L
104.767 97.476 L
105.011 97.257 L
105.256 97.036 L
105.501 96.812 L
105.746 96.585 L
105.99 96.355 L
106.235 96.124 L
106.48 95.89 L
106.725 95.654 L
106.97 95.415 L
107.214 95.175 L
107.459 94.932 L
107.704 94.687 L
107.949 94.44 L
108.193 94.191 L
108.438 93.939 L
108.683 93.685 L
108.928 93.429 L
109.172 93.17 L
109.417 92.908 L
109.662 92.644 L
109.907 92.377 L
110.152 92.107 L
110.396 91.834 L
110.641 91.558 L
110.886 91.279 L
111.131 90.997 L
111.375 90.71 L
111.62 90.421 L
111.865 90.127 L
112.11 89.829 L
112.355 89.528 L
112.599 89.222 L
112.844 88.912 L
113.089 88.597 L
113.334 88.278 L
113.578 87.955 L
113.823 87.626 L
114.068 87.293 L
114.313 86.954 L
114.557 86.611 L
114.802 86.263 L
115.047 85.909 L
115.292 85.55 L
115.537 85.186 L
115.781 84.816 L
116.026 84.441 L
116.271 84.061 L
116.516 83.675 L
116.76 83.284 L
117.005 82.887 L
117.25 82.485 L
117.495 82.078 L
117.74 81.665 L
117.984 81.247 L
118.229 80.824 L
118.474 80.396 L
118.719 79.963 L
118.963 79.524 L
119.208 79.081 L
119.453 78.633 L
119.698 78.181 L
119.943 77.725 L
120.187 77.264 L
120.432 76.799 L
120.677 76.33 L
120.922 75.857 L
121.166 75.381 L
121.411 74.902 L
121.656 74.42 L
121.901 73.936 L
122.145 73.449 L
122.39 72.96 L
122.635 72.47 L
122.88 71.978 L
123.125 71.486 L
123.369 70.993 L
123.614 70.5 L
123.859 70.008 L
124.104 69.517 L
124.348 69.027 L
124.593 68.54 L
124.838 68.055 L
125.083 67.574 L
125.328 67.098 L
125.572 66.626 L
125.817 66.16 L
126.062 65.7 L
126.307 65.247 L
126.551 64.803 L
126.796 64.368 L
127.041 63.943 L
127.286 63.528 L
127.53 63.126 L
127.775 62.736 L
128.02 62.361 L
128.265 62 L
128.51 61.656 L
128.754 61.329 L
128.999 61.019 L
129.244 60.729 L
129.489 60.46 L
129.733 60.211 L
129.978 59.985 L
130.223 59.782 L
130.468 59.604 L
130.713 59.45 L
130.957 59.322 L
131.202 59.22 L
131.447 59.145 L
131.692 59.098 L
131.936 59.079 L
132.181 59.087 L
132.426 59.124 L
132.671 59.189 L
132.916 59.282 L
133.16 59.402 L
133.405 59.549 L
133.65 59.723 L
133.895 59.922 L
134.139 60.146 L
134.384 60.392 L
134.629 60.66 L
134.874 60.949 L
135.118 61.256 L
135.363 61.579 L
135.608 61.917 L
135.853 62.268 L
136.098 62.629 L
136.342 62.998 L
136.587 63.373 L
136.832 63.751 L
137.077 64.131 L
137.321 64.509 L
137.566 64.885 L
137.811 65.255 L
138.056 65.617 L
138.301 65.971 L
138.545 66.314 L
138.79 66.644 L
139.035 66.961 L
139.28 67.263 L
139.524 67.55 L
139.769 67.82 L
140.014 68.075 L
140.259 68.314 L
140.503 68.537 L
140.748 68.745 L
140.993 68.94 L
141.238 69.122 L
141.483 69.294 L
141.727 69.457 L
141.972 69.615 L
142.217 69.769 L
142.462 69.923 L
142.706 70.08 L
142.951 70.245 L
143.196 70.42 L
143.441 70.611 L
143.686 70.822 L
143.93 71.057 L
144.175 71.323 L
144.42 71.623 L
144.665 71.963 L
144.909 72.348 L
145.154 72.783 L
145.399 73.274 L
145.644 73.824 L
145.889 74.439 L
146.133 75.123 L
146.378 75.879 L
146.623 76.711 L
146.868 77.621 L
147.112 78.61 L
147.357 79.68 L
147.602 80.831 L
147.847 82.06 L
148.091 83.367 L
148.336 84.748 L
148.581 86.2 L
148.826 87.716 L
149.071 89.29 L
149.315 90.916 L
149.56 92.587 L
149.805 94.292 L
150.05 96.024 L
150.294 97.773 L
150.539 99.53 L
150.784 101.286 L
151.029 103.031 L
151.274 104.756 L
151.518 106.454 L
151.763 108.116 L
152.008 109.735 L
152.253 111.305 L
152.497 112.821 L
152.742 114.278 L
152.987 115.673 L
153.232 117.003 L
153.476 118.266 L
153.721 119.462 L
153.966 120.589 L
154.211 121.647 L
154.456 122.639 L
154.7 123.565 L
154.945 124.426 L
155.19 125.225 L
155.435 125.964 L
155.679 126.646 L
155.924 127.272 L
156.169 127.846 L
156.414 128.369 L
156.659 128.844 L
156.903 129.275 L
157.148 129.662 L
157.393 130.008 L
157.638 130.316 L
157.882 130.587 L
158.127 130.822 L
158.372 131.024 L
158.617 131.194 L
158.861 131.333 L
159.106 131.443 L
159.351 131.525 L
159.596 131.579 L
159.841 131.607 L
160.085 131.61 L
160.33 131.589 L
160.575 131.543 L
160.82 131.475 L
161.064 131.385 L
161.309 131.273 L
161.554 131.14 L
161.799 130.987 L
162.044 130.813 L
162.288 130.62 L
162.533 130.408 L
162.778 130.177 L
163.023 129.927 L
163.267 129.658 L
163.512 129.37 L
163.757 129.064 L
164.002 128.738 L
164.247 128.392 L
164.491 128.025 L
164.736 127.636 L
164.981 127.225 L
165.226 126.789 L
165.47 126.326 L
165.715 125.836 L
165.96 125.315 L
166.205 124.761 L
166.449 124.172 L
166.694 123.544 L
166.939 122.875 L
167.184 122.16 L
167.429 121.398 L
167.673 120.584 L
167.918 119.716 L
168.163 118.789 L
168.408 117.802 L
168.652 116.752 L
168.897 115.636 L
169.142 114.454 L
169.387 113.204 L
169.632 111.886 L
169.876 110.5 L
170.121 109.05 L
170.366 107.536 L
170.611 105.963 L
170.855 104.335 L
171.1 102.658 L
171.345 100.94 L
171.59 99.186 L
171.834 97.407 L
172.079 95.61 L
172.324 93.805 L
172.569 92.002 L
172.814 90.211 L
173.058 88.441 L
173.303 86.701 L
173.548 85.001 L
173.793 83.349 L
174.037 81.752 L
174.282 80.217 L
174.527 78.749 L
174.772 77.352 L
175.017 76.031 L
175.261 74.786 L
175.506 73.621 L
175.751 72.534 L
175.996 71.526 L
176.24 70.595 L
176.485 69.739 L
176.73 68.956 L
176.975 68.241 L
177.22 67.593 L
177.464 67.006 L
177.709 66.477 L
177.954 66.002 L
178.199 65.576 L
178.443 65.197 L
178.688 64.859 L
178.933 64.559 L
179.178 64.293 L
179.422 64.059 L
179.667 63.853 L
179.912 63.673 L
180.157 63.516 L
180.402 63.38 L
180.646 63.263 L
180.891 63.165 L
181.136 63.083 L
181.381 63.017 L
181.625 62.967 L
181.87 62.932 L
182.115 62.911 L
182.36 62.907 L
182.605 62.917 L
182.849 62.944 L
183.094 62.988 L
183.339 63.049 L
183.584 63.129 L
183.828 63.228 L
184.073 63.348 L
184.318 63.489 L
184.563 63.653 L
184.807 63.84 L
185.052 64.052 L
185.297 64.29 L
185.542 64.554 L
185.787 64.845 L
186.031 65.165 L
186.276 65.513 L
186.521 65.891 L
186.766 66.298 L
187.01 66.736 L
187.255 67.204 L
187.5 67.703 L
187.745 68.233 L
187.99 68.793 L
188.234 69.384 L
188.479 70.004 L
188.724 70.654 L
188.969 71.333 L
189.213 72.041 L
189.458 72.775 L
189.703 73.536 L
189.948 74.323 L
190.193 75.133 L
190.437 75.966 L
190.682 76.821 L
190.927 77.696 L
191.172 78.589 L
191.416 79.499 L
191.661 80.423 L
191.906 81.361 L
192.151 82.311 L
192.395 83.27 L
192.64 84.237 L
192.885 85.21 L
193.13 86.186 L
193.375 87.166 L
193.619 88.146 L
193.864 89.124 L
194.109 90.101 L
194.354 91.073 L
194.598 92.039 L
194.843 92.999 L
195.088 93.951 L
195.333 94.894 L
195.578 95.827 L
195.822 96.749 L
196.067 97.66 L
196.312 98.559 L
196.557 99.446 L
196.801 100.319 L
197.046 101.18 L
197.291 102.028 L
197.536 102.862 L
197.78 103.684 L
198.025 104.492 L
198.27 105.287 L
198.515 106.07 L
198.76 106.841 L
199.004 107.6 L
199.249 108.347 L
199.494 109.084 L
199.739 109.809 L
199.983 110.525 L
200.228 111.231 L
200.473 111.928 L
200.718 112.617 L
200.963 113.299 L
201.207 113.973 L
201.452 114.641 L
201.697 115.303 L
201.942 115.96 L
202.186 116.613 L
202.431 117.262 L
202.676 117.909 L
202.921 118.554 L
203.166 119.198 L
203.41 119.841 L
203.655 120.485 L
203.9 121.13 L
204.145 121.777 L
204.389 122.426 L
204.634 123.079 L
204.879 123.735 L
205.124 124.395 L
205.368 125.06 L
205.613 125.729 L
205.858 126.403 L
206.103 127.082 L
206.348 127.764 L
206.592 128.45 L
206.837 129.139 L
207.082 129.828 L
207.327 130.518 L
207.571 131.205 L
207.816 131.886 L
208.061 132.561 L
208.306 133.223 L
208.551 133.871 L
208.795 134.498 L
209.04 135.1 L
209.285 135.671 L
209.53 136.204 L
209.774 136.692 L
210.019 137.126 L
210.264 137.497 L
210.509 137.796 L
210.753 138.014 L
210.998 138.138 L
211.243 138.157 L
211.488 138.061 L
211.733 137.837 L
211.977 137.472 L
212.222 136.957 L
212.467 136.28 L
212.712 135.43 L
212.956 134.399 L
213.201 133.181 L
213.446 131.769 L
213.691 130.163 L
213.936 128.361 L
214.18 126.368 L
214.425 124.19 L
214.67 121.838 L
214.915 119.326 L
215.159 116.671 L
215.404 113.894 L
215.649 111.019 L
215.894 108.07 L
216.139 105.074 L
216.383 102.06 L
216.628 99.055 L
216.873 96.087 L
217.118 93.18 L
217.362 90.358 L
217.607 87.641 L
217.852 85.049 L
218.097 82.594 L
218.341 80.29 L
218.586 78.144 L
218.831 76.161 L
219.076 74.346 L
219.321 72.697 L
219.565 71.215 L
219.81 69.896 L
220.055 68.736 L
220.3 67.729 L
220.544 66.871 L
220.789 66.156 L
221.034 65.577 L
221.279 65.129 L
221.524 64.807 L
221.768 64.606 L
222.013 64.522 L
222.258 64.551 L
222.503 64.69 L
222.747 64.936 L
222.992 65.287 L
223.237 65.741 L
223.482 66.297 L
223.726 66.954 L
223.971 67.712 L
224.216 68.569 L
224.461 69.527 L
224.706 70.583 L
224.95 71.739 L
225.195 72.993 L
225.44 74.345 L
225.685 75.794 L
225.929 77.339 L
226.174 78.979 L
226.419 80.711 L
226.664 82.534 L
226.909 84.443 L
227.153 86.437 L
227.398 88.511 L
227.643 90.661 L
227.888 92.882 L
228.132 95.167 L
228.377 97.513 L
228.622 99.91 L
228.867 102.354 L
229.111 104.835 L
229.356 107.345 L
229.601 109.876 L
229.846 112.418 L
230.091 114.96 L
230.335 117.493 L
230.58 120.004 L
230.825 122.482 L
231.07 124.913 L
231.314 127.284 L
231.559 129.58 L
231.804 131.787 L
232.049 133.888 L
232.294 135.869 L
232.538 137.71 L
232.783 139.395 L
233.028 140.906 L
233.273 142.223 L
233.517 143.328 L
233.762 144.201 L
234.007 144.823 L
234.252 145.174 L
234.497 145.236 L
234.741 144.991 L
234.986 144.421 L
235.231 143.512 L
235.476 142.252 L
235.72 140.629 L
235.965 138.639 L
236.21 136.281 L
236.455 133.558 L
236.699 130.481 L
236.944 127.068 L
237.189 123.344 L
237.434 119.341 L
237.679 115.101 L
237.923 110.67 L
238.168 106.105 L
238.413 101.464 L
238.658 96.81 L
238.902 92.211 L
239.147 87.73 L
239.392 83.432 L
239.637 79.375 L
239.882 75.615 L
240.126 72.198 L
240.371 69.165 L
240.616 66.547 L
240.861 64.369 L
241.105 62.644 L
241.35 61.381 L
241.595 60.578 L
241.84 60.227 L
242.084 60.314 L
242.329 60.819 L
242.574 61.717 L
242.819 62.98 L
243.064 64.573 L
243.308 66.465 L
243.553 68.617 L
243.798 70.995 L
244.043 73.56 L
244.287 76.278 L
244.532 79.115 L
244.777 82.038 L
245.022 85.017 L
245.267 88.025 L
245.511 91.038 L
245.756 94.034 L
246.001 96.993 L
246.246 99.897 L
246.49 102.732 L
246.735 105.484 L
246.98 108.14 L
247.225 110.688 L
247.469 113.119 L
247.714 115.422 L
247.959 117.589 L
248.204 119.612 L
248.449 121.482 L
248.693 123.195 L
248.938 124.742 L
249.183 126.121 L
249.428 127.327 L
249.672 128.357 L
249.917 129.207 L
250.162 129.877 L
250.407 130.365 L
250.652 130.668 L
250.896 130.787 L
251.141 130.719 L
251.386 130.464 L
251.631 130.02 L
251.875 129.384 L
252.12 128.557 L
252.365 127.535 L
252.61 126.317 L
252.855 124.902 L
253.099 123.29 L
253.344 121.478 L
253.589 119.47 L
253.834 117.265 L
254.078 114.869 L
254.323 112.286 L
254.568 109.524 L
254.813 106.592 L
255.057 103.502 L
255.302 100.268 L
255.547 96.907 L
255.792 93.438 L
256.037 89.883 L
256.281 86.265 L
256.526 82.608 L
256.771 78.938 L
257.016 75.281 L
257.26 71.664 L
257.505 68.112 L
257.75 64.65 L
257.995 61.302 L
258.24 58.089 L
258.484 55.029 L
258.729 52.142 L
258.974 49.44 L
259.219 46.937 L
259.463 44.642 L
259.708 42.563 L
259.953 40.708 L
260.198 39.08 L
260.443 37.683 L
260.687 36.522 L
260.932 35.597 L
261.177 34.912 L
261.422 34.471 L
261.666 34.275 L
261.911 34.33 L
262.156 34.64 L
262.401 35.211 L
262.645 36.049 L
262.89 37.161 L
263.135 38.554 L
263.38 40.233 L
263.625 42.205 L
263.869 44.473 L
264.114 47.038 L
264.359 49.897 L
264.604 53.044 L
264.848 56.468 L
265.093 60.152 L
265.338 64.071 L
265.583 68.199 L
265.828 72.499 L
266.072 76.934 L
266.317 81.461 L
266.562 86.034 L
266.807 90.609 L
267.051 95.14 L
267.296 99.586 L
267.541 103.909 L
267.786 108.074 L
268.03 112.055 L
268.275 115.828 L
268.52 119.377 L
268.765 122.688 L
269.01 125.753 L
269.254 128.569 L
269.499 131.134 L
269.744 133.447 L
269.989 135.511 L
270.233 137.328 L
270.478 138.901 L
270.723 140.234 L
270.968 141.327 L
271.213 142.183 L
271.457 142.802 L
271.702 143.184 L
271.947 143.326 L
272.192 143.225 L
272.436 142.877 L
272.681 142.276 L
272.926 141.417 L
273.171 140.294 L
273.415 138.899 L
273.66 137.229 L
273.905 135.277 L
274.15 133.042 L
274.395 130.523 L
274.639 127.723 L
274.884 124.648 L
275.129 121.309 L
275.374 117.72 L
275.618 113.9 L
275.863 109.875 L
276.108 105.674 L
276.353 101.33 L
276.598 96.883 L
276.842 92.372 L
277.087 87.841 L
277.332 83.335 L
277.577 78.898 L
277.821 74.572 L
278.066 70.4 L
278.311 66.419 L
278.556 62.661 L
278.801 59.158 L
279.045 55.932 L
279.29 53.004 L
279.535 50.389 L
279.78 48.095 L
280.024 46.13 L
280.269 44.494 L
280.514 43.186 L
280.759 42.201 L
281.003 41.532 L
281.248 41.168 L
281.493 41.098 L
281.738 41.308 L
281.983 41.785 L
282.227 42.513 L
282.472 43.476 L
282.717 44.656 L
282.962 46.039 L
283.206 47.605 L
283.451 49.34 L
283.696 51.224 L
283.941 53.243 L
284.186 55.378 L
284.43 57.614 L
284.675 59.935 L
284.92 62.324 L
285.165 64.765 L
285.409 67.244 L
285.654 69.746 L
285.899 72.255 L
286.144 74.759 L
286.388 77.243 L
286.633 79.696 L
286.878 82.106 L
287.123 84.461 L
287.368 86.752 L
287.612 88.97 L
287.857 91.106 L
288.102 93.153 L
288.347 95.106 L
288.591 96.959 L
288.836 98.707 L
289.081 100.349 L
289.326 101.881 L
289.571 103.304 L
289.815 104.617 L
290.06 105.821 L
290.305 106.919 L
290.55 107.912 L
290.794 108.805 L
291.039 109.602 L
291.284 110.307 L
291.529 110.926 L
291.774 111.462 L
292.018 111.923 L
292.263 112.314 L
292.508 112.639 L
292.753 112.906 L
292.997 113.118 L
293.242 113.281 L
293.487 113.401 L
293.732 113.482 L
293.976 113.528 L
294.221 113.544 L
294.466 113.533 L
294.711 113.499 L
294.956 113.445 L
295.2 113.374 L
295.445 113.288 L
295.69 113.19 L
295.935 113.08 L
296.179 112.961 L
296.424 112.833 L
296.669 112.698 L
296.914 112.555 L
297.159 112.405 L
297.403 112.247 L
297.648 112.082 L
297.893 111.908 L
298.138 111.725 L
298.382 111.531 L
298.627 111.326 L
298.872 111.109 L
299.117 110.877 L
299.362 110.63 L
299.606 110.365 L
299.851 110.083 L
300.096 109.78 L
300.341 109.455 L
300.585 109.108 L
300.83 108.737 L
301.075 108.339 L
301.32 107.915 L
301.564 107.463 L
301.809 106.981 L
302.054 106.469 L
302.299 105.926 L
302.544 105.351 L
302.788 104.743 L
303.033 104.102 L
303.278 103.426 L
303.523 102.717 L
303.767 101.973 L
304.012 101.194 L
304.257 100.38 L
304.502 99.532 L
304.747 98.65 L
304.991 97.735 L
305.236 96.787 L
305.481 95.807 L
305.726 94.798 L
305.97 93.76 L
306.215 92.697 L
306.46 91.609 L
306.705 90.501 L
306.949 89.374 L
307.194 88.234 L
307.439 87.082 L
307.684 85.923 L
307.929 84.761 L
308.173 83.6 L
308.418 82.444 L
308.663 81.299 L
308.908 80.167 L
309.152 79.054 L
309.397 77.962 L
309.642 76.897 L
309.887 75.861 L
310.132 74.858 L
310.376 73.891 L
310.621 72.962 L
310.866 72.073 L
311.111 71.226 L
311.355 70.423 L
311.6 69.664 L
311.845 68.951 L
312.09 68.283 L
312.335 67.661 L
312.579 67.084 L
312.824 66.551 L
313.069 66.061 L
313.314 65.615 L
313.558 65.209 L
313.803 64.842 L
314.048 64.514 L
314.293 64.221 L
314.537 63.963 L
314.782 63.737 L
315.027 63.541 L
315.272 63.373 L
315.517 63.231 L
315.761 63.114 L
316.006 63.019 L
316.251 62.944 L
316.496 62.888 L
316.74 62.848 L
316.985 62.823 L
317.23 62.812 L
317.475 62.812 L
317.72 62.823 L
317.964 62.842 L
318.209 62.869 L
318.454 62.903 L
318.699 62.942 L
318.943 62.986 L
319.188 63.033 L
319.433 63.083 L
319.678 63.135 L
319.922 63.19 L
320.167 63.245 L
320.412 63.301 L
320.657 63.357 L
320.902 63.414 L
321.146 63.471 L
321.391 63.528 L
321.636 63.585 L
321.881 63.643 L
322.125 63.7 L
322.37 63.758 L
322.615 63.817 L
322.86 63.876 L
323.105 63.937 L
323.349 64 L
323.594 64.065 L
323.839 64.133 L
324.084 64.204 L
324.328 64.278 L
324.573 64.357 L
324.818 64.441 L
325.063 64.53 L
325.307 64.626 L
325.552 64.728 L
325.797 64.838 L
326.042 64.956 L
326.287 65.083 L
326.531 65.219 L
326.776 65.365 L
327.021 65.523 L
327.266 65.691 L
327.51 65.872 L
327.755 66.066 L
328 66.272 L
328.034 66.303 L
S
GR
%%Trailer
%%Pages: 1
%%EOF
