%!PS-Adobe-3.0 EPSF-3.0
%%Creator: (MATLAB, The Mathworks, Inc. Version 9.10.0.1684407 \(R2021a\) Update 3. Operating System: Linux)
%%Title: /home/adoan/Code/PRoSA_PI-ESN_Git/pi-esn/Results/MFE_results/Figures/FIG5D.eps
%%CreationDate: 2021-07-21T18:54:04
%%Pages: (atend)
%%BoundingBox:     0     0   283   170
%%LanguageLevel: 3
%%EndComments
%%BeginProlog
%%BeginResource: procset (Apache XML Graphics Std ProcSet) 1.2 0
%%Version: 1.2 0
%%Copyright: (Copyright 2001-2003,2010 The Apache Software Foundation. License terms: http://www.apache.org/licenses/LICENSE-2.0)
/bd{bind def}bind def
/ld{load def}bd
/GR/grestore ld
/GS/gsave ld
/RM/rmoveto ld
/C/curveto ld
/t/show ld
/L/lineto ld
/ML/setmiterlimit ld
/CT/concat ld
/f/fill ld
/N/newpath ld
/S/stroke ld
/CC/setcmykcolor ld
/A/ashow ld
/cp/closepath ld
/RC/setrgbcolor ld
/LJ/setlinejoin ld
/GC/setgray ld
/LW/setlinewidth ld
/M/moveto ld
/re {4 2 roll M
1 index 0 rlineto
0 exch rlineto
neg 0 rlineto
cp } bd
/_ctm matrix def
/_tm matrix def
/BT { _ctm currentmatrix pop matrix _tm copy pop 0 0 moveto } bd
/ET { _ctm setmatrix } bd
/iTm { _ctm setmatrix _tm concat } bd
/Tm { _tm astore pop iTm 0 0 moveto } bd
/ux 0.0 def
/uy 0.0 def
/F {
  /Tp exch def
  /Tf exch def
  Tf findfont Tp scalefont setfont
  /cf Tf def  /cs Tp def
} bd
/ULS {currentpoint /uy exch def /ux exch def} bd
/ULE {
  /Tcx currentpoint pop def
  gsave
  newpath
  cf findfont cs scalefont dup
  /FontMatrix get 0 get /Ts exch def /FontInfo get dup
  /UnderlinePosition get Ts mul /To exch def
  /UnderlineThickness get Ts mul /Tt exch def
  ux uy To add moveto  Tcx uy To add lineto
  Tt setlinewidth stroke
  grestore
} bd
/OLE {
  /Tcx currentpoint pop def
  gsave
  newpath
  cf findfont cs scalefont dup
  /FontMatrix get 0 get /Ts exch def /FontInfo get dup
  /UnderlinePosition get Ts mul /To exch def
  /UnderlineThickness get Ts mul /Tt exch def
  ux uy To add cs add moveto Tcx uy To add cs add lineto
  Tt setlinewidth stroke
  grestore
} bd
/SOE {
  /Tcx currentpoint pop def
  gsave
  newpath
  cf findfont cs scalefont dup
  /FontMatrix get 0 get /Ts exch def /FontInfo get dup
  /UnderlinePosition get Ts mul /To exch def
  /UnderlineThickness get Ts mul /Tt exch def
  ux uy To add cs 10 mul 26 idiv add moveto Tcx uy To add cs 10 mul 26 idiv add lineto
  Tt setlinewidth stroke
  grestore
} bd
/QT {
/Y22 exch store
/X22 exch store
/Y21 exch store
/X21 exch store
currentpoint
/Y21 load 2 mul add 3 div exch
/X21 load 2 mul add 3 div exch
/X21 load 2 mul /X22 load add 3 div
/Y21 load 2 mul /Y22 load add 3 div
/X22 load /Y22 load curveto
} bd
/SSPD {
dup length /d exch dict def
{
/v exch def
/k exch def
currentpagedevice k known {
/cpdv currentpagedevice k get def
v cpdv ne {
/upd false def
/nullv v type /nulltype eq def
/nullcpdv cpdv type /nulltype eq def
nullv nullcpdv or
{
/upd true def
} {
/sametype v type cpdv type eq def
sametype {
v type /arraytype eq {
/vlen v length def
/cpdvlen cpdv length def
vlen cpdvlen eq {
0 1 vlen 1 sub {
/i exch def
/obj v i get def
/cpdobj cpdv i get def
obj cpdobj ne {
/upd true def
exit
} if
} for
} {
/upd true def
} ifelse
} {
v type /dicttype eq {
v {
/dv exch def
/dk exch def
/cpddv cpdv dk get def
dv cpddv ne {
/upd true def
exit
} if
} forall
} {
/upd true def
} ifelse
} ifelse
} if
} ifelse
upd true eq {
d k v put
} if
} if
} if
} forall
d length 0 gt {
d setpagedevice
} if
} bd
/RE { % /NewFontName [NewEncodingArray] /FontName RE -
  findfont dup length dict begin
  {
    1 index /FID ne
    {def} {pop pop} ifelse
  } forall
  /Encoding exch def
  /FontName 1 index def
  currentdict definefont pop
  end
} bind def
%%EndResource
%%BeginResource: procset (Apache XML Graphics EPS ProcSet) 1.0 0
%%Version: 1.0 0
%%Copyright: (Copyright 2002-2003 The Apache Software Foundation. License terms: http://www.apache.org/licenses/LICENSE-2.0)
/BeginEPSF { %def
/b4_Inc_state save def         % Save state for cleanup
/dict_count countdictstack def % Count objects on dict stack
/op_count count 1 sub def      % Count objects on operand stack
userdict begin                 % Push userdict on dict stack
/showpage { } def              % Redefine showpage, { } = null proc
0 setgray 0 setlinecap         % Prepare graphics state
1 setlinewidth 0 setlinejoin
10 setmiterlimit [ ] 0 setdash newpath
/languagelevel where           % If level not equal to 1 then
{pop languagelevel             % set strokeadjust and
1 ne                           % overprint to their defaults.
{false setstrokeadjust false setoverprint
} if
} if
} bd
/EndEPSF { %def
count op_count sub {pop} repeat            % Clean up stacks
countdictstack dict_count sub {end} repeat
b4_Inc_state restore
} bd
%%EndResource
%FOPBeginFontDict
%%IncludeResource: font Courier-Oblique
%%IncludeResource: font Courier-BoldOblique
%%IncludeResource: font Courier-Bold
%%IncludeResource: font ZapfDingbats
%%IncludeResource: font Symbol
%%IncludeResource: font Helvetica
%%IncludeResource: font Helvetica-Oblique
%%IncludeResource: font Helvetica-Bold
%%IncludeResource: font Helvetica-BoldOblique
%%IncludeResource: font Times-Roman
%%IncludeResource: font Times-Italic
%%IncludeResource: font Times-Bold
%%IncludeResource: font Times-BoldItalic
%%IncludeResource: font Courier
%FOPEndFontDict
%%BeginResource: encoding WinAnsiEncoding
/WinAnsiEncoding [
/.notdef /.notdef /.notdef /.notdef /.notdef
/.notdef /.notdef /.notdef /.notdef /.notdef
/.notdef /.notdef /.notdef /.notdef /.notdef
/.notdef /.notdef /.notdef /.notdef /.notdef
/.notdef /.notdef /.notdef /.notdef /.notdef
/.notdef /.notdef /.notdef /.notdef /.notdef
/.notdef /.notdef /space /exclam /quotedbl
/numbersign /dollar /percent /ampersand /quotesingle
/parenleft /parenright /asterisk /plus /comma
/hyphen /period /slash /zero /one
/two /three /four /five /six
/seven /eight /nine /colon /semicolon
/less /equal /greater /question /at
/A /B /C /D /E
/F /G /H /I /J
/K /L /M /N /O
/P /Q /R /S /T
/U /V /W /X /Y
/Z /bracketleft /backslash /bracketright /asciicircum
/underscore /quoteleft /a /b /c
/d /e /f /g /h
/i /j /k /l /m
/n /o /p /q /r
/s /t /u /v /w
/x /y /z /braceleft /bar
/braceright /asciitilde /bullet /Euro /bullet
/quotesinglbase /florin /quotedblbase /ellipsis /dagger
/daggerdbl /circumflex /perthousand /Scaron /guilsinglleft
/OE /bullet /Zcaron /bullet /bullet
/quoteleft /quoteright /quotedblleft /quotedblright /bullet
/endash /emdash /asciitilde /trademark /scaron
/guilsinglright /oe /bullet /zcaron /Ydieresis
/space /exclamdown /cent /sterling /currency
/yen /brokenbar /section /dieresis /copyright
/ordfeminine /guillemotleft /logicalnot /sfthyphen /registered
/macron /degree /plusminus /twosuperior /threesuperior
/acute /mu /paragraph /middot /cedilla
/onesuperior /ordmasculine /guillemotright /onequarter /onehalf
/threequarters /questiondown /Agrave /Aacute /Acircumflex
/Atilde /Adieresis /Aring /AE /Ccedilla
/Egrave /Eacute /Ecircumflex /Edieresis /Igrave
/Iacute /Icircumflex /Idieresis /Eth /Ntilde
/Ograve /Oacute /Ocircumflex /Otilde /Odieresis
/multiply /Oslash /Ugrave /Uacute /Ucircumflex
/Udieresis /Yacute /Thorn /germandbls /agrave
/aacute /acircumflex /atilde /adieresis /aring
/ae /ccedilla /egrave /eacute /ecircumflex
/edieresis /igrave /iacute /icircumflex /idieresis
/eth /ntilde /ograve /oacute /ocircumflex
/otilde /odieresis /divide /oslash /ugrave
/uacute /ucircumflex /udieresis /yacute /thorn
/ydieresis
] def
%%EndResource
%FOPBeginFontReencode
/Courier-Oblique findfont
dup length dict begin
  {1 index /FID ne {def} {pop pop} ifelse} forall
  /Encoding WinAnsiEncoding def
  currentdict
end
/Courier-Oblique exch definefont pop
/Courier-BoldOblique findfont
dup length dict begin
  {1 index /FID ne {def} {pop pop} ifelse} forall
  /Encoding WinAnsiEncoding def
  currentdict
end
/Courier-BoldOblique exch definefont pop
/Courier-Bold findfont
dup length dict begin
  {1 index /FID ne {def} {pop pop} ifelse} forall
  /Encoding WinAnsiEncoding def
  currentdict
end
/Courier-Bold exch definefont pop
/Helvetica findfont
dup length dict begin
  {1 index /FID ne {def} {pop pop} ifelse} forall
  /Encoding WinAnsiEncoding def
  currentdict
end
/Helvetica exch definefont pop
/Helvetica-Oblique findfont
dup length dict begin
  {1 index /FID ne {def} {pop pop} ifelse} forall
  /Encoding WinAnsiEncoding def
  currentdict
end
/Helvetica-Oblique exch definefont pop
/Helvetica-Bold findfont
dup length dict begin
  {1 index /FID ne {def} {pop pop} ifelse} forall
  /Encoding WinAnsiEncoding def
  currentdict
end
/Helvetica-Bold exch definefont pop
/Helvetica-BoldOblique findfont
dup length dict begin
  {1 index /FID ne {def} {pop pop} ifelse} forall
  /Encoding WinAnsiEncoding def
  currentdict
end
/Helvetica-BoldOblique exch definefont pop
/Times-Roman findfont
dup length dict begin
  {1 index /FID ne {def} {pop pop} ifelse} forall
  /Encoding WinAnsiEncoding def
  currentdict
end
/Times-Roman exch definefont pop
/Times-Italic findfont
dup length dict begin
  {1 index /FID ne {def} {pop pop} ifelse} forall
  /Encoding WinAnsiEncoding def
  currentdict
end
/Times-Italic exch definefont pop
/Times-Bold findfont
dup length dict begin
  {1 index /FID ne {def} {pop pop} ifelse} forall
  /Encoding WinAnsiEncoding def
  currentdict
end
/Times-Bold exch definefont pop
/Times-BoldItalic findfont
dup length dict begin
  {1 index /FID ne {def} {pop pop} ifelse} forall
  /Encoding WinAnsiEncoding def
  currentdict
end
/Times-BoldItalic exch definefont pop
/Courier findfont
dup length dict begin
  {1 index /FID ne {def} {pop pop} ifelse} forall
  /Encoding WinAnsiEncoding def
  currentdict
end
/Courier exch definefont pop
%FOPEndFontReencode
%%EndProlog
%%Page: 1 1
%%PageBoundingBox: 0 0 283 170
%%BeginPageSetup
[1 0 0 -1 0 170] CT
%%EndPageSetup
GS
[0.78261 0 0 0.78261 0 0.1739] CT
N
0 0 M
362 0 L
362 217 L
0 217 L
0 0 L
cp
clip
1 GC
N
0 0 362 217 re
f
GR
GS
[0.78261 0 0 0.78261 0 0.1739] CT
1 GC
N
0 0 362 217 re
f
GR
GS
[0.78261 0 0 0.78261 0 0.1739] CT
1 GC
N
47 172 M
328 172 L
328 16 L
47 16 L
cp
f
GR
GS
[0.78261 0 0 0.78261 0 0.1739] CT
0.149 GC
2 setlinecap
1 LJ
0.639 LW
N
47 172 M
328 172 L
S
GR
GS
[0.78261 0 0 0.78261 0 0.1739] CT
0.149 GC
2 setlinecap
1 LJ
0.639 LW
N
47 16 M
328 16 L
S
GR
GS
[0.78261 0 0 0.78261 0 0.1739] CT
0.149 GC
2 setlinecap
1 LJ
0.639 LW
N
47 172 M
47 169.19 L
S
GR
GS
[0.78261 0 0 0.78261 0 0.1739] CT
0.149 GC
2 setlinecap
1 LJ
0.639 LW
N
127.286 172 M
127.286 169.19 L
S
GR
GS
[0.78261 0 0 0.78261 0 0.1739] CT
0.149 GC
2 setlinecap
1 LJ
0.639 LW
N
207.571 172 M
207.571 169.19 L
S
GR
GS
[0.78261 0 0 0.78261 0 0.1739] CT
0.149 GC
2 setlinecap
1 LJ
0.639 LW
N
287.857 172 M
287.857 169.19 L
S
GR
GS
[0.78261 0 0 0.78261 0 0.1739] CT
0.149 GC
2 setlinecap
1 LJ
0.639 LW
N
47 16 M
47 18.81 L
S
GR
GS
[0.78261 0 0 0.78261 0 0.1739] CT
0.149 GC
2 setlinecap
1 LJ
0.639 LW
N
127.286 16 M
127.286 18.81 L
S
GR
GS
[0.78261 0 0 0.78261 0 0.1739] CT
0.149 GC
2 setlinecap
1 LJ
0.639 LW
N
207.571 16 M
207.571 18.81 L
S
GR
GS
[0.78261 0 0 0.78261 0 0.1739] CT
0.149 GC
2 setlinecap
1 LJ
0.639 LW
N
287.857 16 M
287.857 18.81 L
S
GR
GS
[0.78261 0 0 0.78261 36.78261 139.18261] CT
0.149 GC
N
-0.083 13.208 M
-1.927 13.208 -2.583 11.692 QT
-3.24 10.177 -3.24 8.099 QT
-3.24 6.786 -3.005 5.638 QT
-2.771 4.489 -2.068 3.692 QT
-1.365 2.896 -0.083 2.896 QT
0.901 2.896 1.534 3.372 QT
2.167 3.849 2.495 4.614 QT
2.823 5.38 2.948 6.255 QT
3.073 7.13 3.073 8.099 QT
3.073 9.38 2.831 10.505 QT
2.589 11.63 1.893 12.419 QT
1.198 13.208 -0.083 13.208 QT
cp
-0.083 12.817 M
0.745 12.817 1.159 11.966 QT
1.573 11.114 1.667 10.067 QT
1.76 9.021 1.76 7.849 QT
1.76 6.724 1.667 5.771 QT
1.573 4.817 1.167 4.044 QT
0.76 3.271 -0.083 3.271 QT
-0.927 3.271 -1.341 4.052 QT
-1.755 4.833 -1.849 5.778 QT
-1.943 6.724 -1.943 7.849 QT
-1.943 8.692 -1.904 9.435 QT
-1.865 10.177 -1.685 10.958 QT
-1.505 11.739 -1.115 12.278 QT
-0.724 12.817 -0.083 12.817 QT
cp
f
GR
GS
[0.78261 0 0 0.78261 99.61491 139.18261] CT
0.149 GC
N
-3.083 12.88 M
-3.083 12.474 L
-3.083 12.442 -3.052 12.396 QT
-0.724 9.817 L
-0.193 9.239 0.135 8.857 QT
0.464 8.474 0.784 7.966 QT
1.104 7.458 1.292 6.935 QT
1.479 6.411 1.479 5.833 QT
1.479 5.208 1.253 4.646 QT
1.026 4.083 0.573 3.747 QT
0.12 3.411 -0.521 3.411 QT
-1.161 3.411 -1.685 3.81 QT
-2.208 4.208 -2.427 4.817 QT
-2.365 4.802 -2.255 4.802 QT
-1.927 4.802 -1.685 5.028 QT
-1.443 5.255 -1.443 5.614 QT
-1.443 5.958 -1.685 6.2 QT
-1.927 6.442 -2.255 6.442 QT
-2.615 6.442 -2.849 6.2 QT
-3.083 5.958 -3.083 5.614 QT
-3.083 5.052 -2.872 4.56 QT
-2.661 4.067 -2.263 3.685 QT
-1.865 3.302 -1.365 3.099 QT
-0.865 2.896 -0.302 2.896 QT
0.557 2.896 1.299 3.255 QT
2.042 3.614 2.471 4.278 QT
2.901 4.942 2.901 5.833 QT
2.901 6.474 2.62 7.06 QT
2.339 7.646 1.893 8.13 QT
1.448 8.614 0.745 9.224 QT
0.042 9.833 -0.177 10.036 QT
-1.865 11.661 L
-0.427 11.661 L
0.635 11.661 1.346 11.646 QT
2.057 11.63 2.104 11.583 QT
2.276 11.396 2.464 10.208 QT
2.901 10.208 L
2.479 12.88 L
-3.083 12.88 L
cp
f
GR
GS
[0.78261 0 0 0.78261 162.44721 139.18261] CT
0.149 GC
N
-3.411 10.411 M
-3.411 9.88 L
1.214 2.958 L
1.276 2.896 1.37 2.896 QT
1.589 2.896 L
1.76 2.896 1.76 3.052 QT
1.76 9.88 L
3.229 9.88 L
3.229 10.411 L
1.76 10.411 L
1.76 11.88 L
1.76 12.177 2.198 12.263 QT
2.635 12.349 3.214 12.349 QT
3.214 12.88 L
-0.911 12.88 L
-0.911 12.349 L
-0.333 12.349 0.104 12.263 QT
0.542 12.177 0.542 11.88 QT
0.542 10.411 L
-3.411 10.411 L
cp
-2.911 9.88 M
0.635 9.88 L
0.635 4.567 L
-2.911 9.88 L
cp
f
GR
GS
[0.78261 0 0 0.78261 225.27951 139.18261] CT
0.149 GC
N
-0.083 13.208 M
-1.021 13.208 -1.638 12.716 QT
-2.255 12.224 -2.599 11.435 QT
-2.943 10.646 -3.076 9.778 QT
-3.208 8.911 -3.208 8.036 QT
-3.208 6.849 -2.747 5.653 QT
-2.286 4.458 -1.388 3.677 QT
-0.49 2.896 0.745 2.896 QT
1.26 2.896 1.706 3.083 QT
2.151 3.271 2.401 3.653 QT
2.651 4.036 2.651 4.567 QT
2.651 4.88 2.44 5.083 QT
2.229 5.286 1.917 5.286 QT
1.635 5.286 1.424 5.075 QT
1.214 4.864 1.214 4.567 QT
1.214 4.271 1.424 4.06 QT
1.635 3.849 1.917 3.849 QT
2.01 3.849 L
1.807 3.583 1.464 3.45 QT
1.12 3.317 0.745 3.317 QT
0.292 3.317 -0.091 3.521 QT
-0.474 3.724 -0.786 4.06 QT
-1.099 4.396 -1.302 4.802 QT
-1.505 5.208 -1.615 5.724 QT
-1.724 6.239 -1.755 6.692 QT
-1.786 7.146 -1.786 7.833 QT
-1.521 7.224 -1.036 6.833 QT
-0.552 6.442 0.042 6.442 QT
0.714 6.442 1.26 6.716 QT
1.807 6.989 2.206 7.466 QT
2.604 7.942 2.815 8.56 QT
3.026 9.177 3.026 9.802 QT
3.026 10.677 2.635 11.474 QT
2.245 12.271 1.534 12.739 QT
0.823 13.208 -0.083 13.208 QT
cp
-0.083 12.739 M
0.495 12.739 0.846 12.474 QT
1.198 12.208 1.362 11.771 QT
1.526 11.333 1.565 10.888 QT
1.604 10.442 1.604 9.802 QT
1.604 8.958 1.526 8.357 QT
1.448 7.755 1.089 7.294 QT
0.729 6.833 -0.005 6.833 QT
-0.615 6.833 -1.005 7.247 QT
-1.396 7.661 -1.576 8.286 QT
-1.755 8.911 -1.755 9.489 QT
-1.755 9.692 -1.74 9.786 QT
-1.74 9.817 -1.747 9.825 QT
-1.755 9.833 -1.755 9.864 QT
-1.755 10.505 -1.622 11.161 QT
-1.49 11.817 -1.122 12.278 QT
-0.755 12.739 -0.083 12.739 QT
cp
f
GR
GS
[0.78261 0 0 0.78261 146.73924 154.15999] CT
0.149 GC
N
-18.326 12.793 M
-18.326 12.543 -18.264 12.324 QT
-17.045 7.434 L
-18.826 7.434 L
-18.998 7.434 -18.998 7.215 QT
-18.936 6.84 -18.78 6.84 QT
-16.889 6.84 L
-16.217 4.059 L
-16.139 3.84 -15.944 3.684 QT
-15.748 3.527 -15.498 3.527 QT
-15.28 3.527 -15.131 3.652 QT
-14.983 3.777 -14.983 3.996 QT
-14.983 4.043 -14.99 4.074 QT
-14.998 4.105 -15.014 4.137 QT
-15.686 6.84 L
-13.936 6.84 L
-13.764 6.84 -13.764 7.059 QT
-13.764 7.105 -13.795 7.207 QT
-13.826 7.309 -13.865 7.371 QT
-13.905 7.434 -13.983 7.434 QT
-15.842 7.434 L
-17.061 12.355 L
-17.186 12.824 -17.186 13.184 QT
-17.186 13.918 -16.686 13.918 QT
-15.936 13.918 -15.358 13.215 QT
-14.78 12.512 -14.483 11.668 QT
-14.405 11.574 -14.342 11.574 QT
-14.139 11.574 L
-14.076 11.574 -14.03 11.621 QT
-13.983 11.668 -13.983 11.715 QT
-13.983 11.746 -13.998 11.762 QT
-14.373 12.793 -15.092 13.574 QT
-15.811 14.355 -16.733 14.355 QT
-17.405 14.355 -17.865 13.918 QT
-18.326 13.48 -18.326 12.793 QT
cp
f
GR
GS
[0.78261 0 0 0.78261 146.73924 154.15999] CT
0.149 GC
N
-12.423 13.871 M
-12.423 13.621 -12.189 13.402 QT
-7.408 8.715 L
-9.095 3.98 L
-9.298 3.449 -9.517 3.129 QT
-9.736 2.809 -10.158 2.809 QT
-10.345 2.809 -10.345 2.59 QT
-10.329 2.496 -10.259 2.434 QT
-10.189 2.371 -10.079 2.371 QT
-8.298 2.371 -7.923 3.434 QT
-4.47 13.059 L
-4.251 13.793 -4.017 14.027 QT
-3.939 14.152 -3.939 14.199 QT
-3.939 14.355 -4.064 14.355 QT
-4.986 14.355 L
-5.408 14.23 -5.658 13.621 QT
-7.22 9.277 L
-11.329 14.105 L
-11.626 14.387 -11.876 14.387 QT
-12.079 14.387 -12.251 14.238 QT
-12.423 14.09 -12.423 13.871 QT
cp
f
GR
GS
[0.78261 0 0 0.78261 146.73924 154.15999] CT
0.149 GC
N
-3.084 16.698 M
-3.084 16.276 L
-2.678 16.276 -2.412 16.214 QT
-2.147 16.151 -2.147 15.901 QT
-2.147 12.62 L
-2.147 12.292 -2.24 12.151 QT
-2.334 12.01 -2.522 11.979 QT
-2.709 11.948 -3.084 11.948 QT
-3.084 11.526 L
-1.35 11.401 L
-1.35 12.573 L
-1.1 12.057 -0.631 11.729 QT
-0.162 11.401 0.4 11.401 QT
1.775 11.401 2.025 12.526 QT
2.26 12.01 2.72 11.706 QT
3.181 11.401 3.728 11.401 QT
4.275 11.401 4.65 11.573 QT
5.025 11.745 5.213 12.104 QT
5.4 12.464 5.4 13.01 QT
5.4 15.901 L
5.4 16.151 5.666 16.214 QT
5.931 16.276 6.338 16.276 QT
6.338 16.698 L
3.588 16.698 L
3.588 16.276 L
3.994 16.276 4.26 16.214 QT
4.525 16.151 4.525 15.901 QT
4.525 13.042 L
4.525 12.448 4.353 12.073 QT
4.181 11.698 3.666 11.698 QT
2.963 11.698 2.517 12.26 QT
2.072 12.823 2.072 13.526 QT
2.072 15.901 L
2.072 16.151 2.33 16.214 QT
2.588 16.276 3.01 16.276 QT
3.01 16.698 L
0.26 16.698 L
0.26 16.276 L
0.666 16.276 0.931 16.214 QT
1.197 16.151 1.197 15.901 QT
1.197 13.042 L
1.197 12.464 1.025 12.081 QT
0.853 11.698 0.322 11.698 QT
-0.365 11.698 -0.819 12.26 QT
-1.272 12.823 -1.272 13.526 QT
-1.272 15.901 L
-1.272 16.151 -1.006 16.214 QT
-0.74 16.276 -0.334 16.276 QT
-0.334 16.698 L
-3.084 16.698 L
cp
f
GR
GS
[0.78261 0 0 0.78261 146.73924 154.15999] CT
0.149 GC
N
6.88 15.526 M
6.88 14.807 7.442 14.354 QT
8.005 13.901 8.794 13.721 QT
9.583 13.542 10.286 13.542 QT
10.286 13.042 L
10.286 12.698 10.137 12.378 QT
9.989 12.057 9.7 11.846 QT
9.411 11.635 9.067 11.635 QT
8.27 11.635 7.848 11.995 QT
8.083 11.995 8.231 12.167 QT
8.38 12.339 8.38 12.573 QT
8.38 12.807 8.208 12.979 QT
8.036 13.151 7.802 13.151 QT
7.567 13.151 7.395 12.979 QT
7.223 12.807 7.223 12.573 QT
7.223 11.932 7.794 11.628 QT
8.364 11.323 9.067 11.323 QT
9.552 11.323 10.044 11.526 QT
10.536 11.729 10.848 12.12 QT
11.161 12.51 11.161 13.026 QT
11.161 15.729 L
11.161 15.964 11.262 16.159 QT
11.364 16.354 11.567 16.354 QT
11.77 16.354 11.864 16.151 QT
11.958 15.948 11.958 15.729 QT
11.958 14.964 L
12.317 14.964 L
12.317 15.729 L
12.317 15.995 12.177 16.237 QT
12.036 16.479 11.794 16.628 QT
11.552 16.776 11.286 16.776 QT
10.927 16.776 10.677 16.503 QT
10.427 16.229 10.395 15.854 QT
10.177 16.292 9.739 16.565 QT
9.302 16.839 8.817 16.839 QT
8.348 16.839 7.911 16.698 QT
7.473 16.557 7.177 16.268 QT
6.88 15.979 6.88 15.526 QT
cp
7.848 15.526 M
7.848 15.948 8.161 16.229 QT
8.473 16.51 8.895 16.51 QT
9.286 16.51 9.598 16.323 QT
9.911 16.135 10.098 15.799 QT
10.286 15.464 10.286 15.089 QT
10.286 13.839 L
9.739 13.839 9.169 14.018 QT
8.598 14.198 8.223 14.581 QT
7.848 14.964 7.848 15.526 QT
cp
f
GR
GS
[0.78261 0 0 0.78261 146.73924 154.15999] CT
0.149 GC
N
12.439 16.698 M
12.439 16.276 L
12.908 16.276 13.306 16.096 QT
13.705 15.917 13.986 15.573 QT
15.08 14.182 L
13.658 12.339 L
13.455 12.073 13.205 12.01 QT
12.955 11.948 12.502 11.948 QT
12.502 11.526 L
15.002 11.526 L
15.002 11.948 L
14.846 11.948 14.705 12.018 QT
14.564 12.089 14.564 12.214 QT
14.564 12.26 14.596 12.339 QT
15.564 13.573 L
16.283 12.651 L
16.424 12.479 16.424 12.307 QT
16.424 12.151 16.33 12.049 QT
16.236 11.948 16.08 11.948 QT
16.08 11.526 L
18.283 11.526 L
18.283 11.948 L
17.83 11.948 17.424 12.128 QT
17.017 12.307 16.736 12.651 QT
15.783 13.87 L
17.314 15.901 L
17.549 16.151 17.791 16.214 QT
18.033 16.276 18.486 16.276 QT
18.486 16.698 L
16.002 16.698 L
16.002 16.276 L
16.142 16.276 16.275 16.206 QT
16.408 16.135 16.408 15.995 QT
16.408 15.948 16.377 15.901 QT
15.299 14.464 L
14.439 15.573 L
14.299 15.714 14.299 15.917 QT
14.299 16.057 14.4 16.167 QT
14.502 16.276 14.642 16.276 QT
14.642 16.698 L
12.439 16.698 L
cp
f
GR
GS
[0.78261 0 0 0.78261 0 0.1739] CT
0.149 GC
2 setlinecap
1 LJ
0.639 LW
N
47 172 M
47 16 L
S
GR
GS
[0.78261 0 0 0.78261 0 0.1739] CT
0.149 GC
2 setlinecap
1 LJ
0.639 LW
N
328 172 M
328 16 L
S
GR
GS
[0.78261 0 0 0.78261 0 0.1739] CT
0.149 GC
2 setlinecap
1 LJ
0.639 LW
N
47 172 M
49.81 172 L
S
GR
GS
[0.78261 0 0 0.78261 0 0.1739] CT
0.149 GC
2 setlinecap
1 LJ
0.639 LW
N
47 133 M
49.81 133 L
S
GR
GS
[0.78261 0 0 0.78261 0 0.1739] CT
0.149 GC
2 setlinecap
1 LJ
0.639 LW
N
47 94 M
49.81 94 L
S
GR
GS
[0.78261 0 0 0.78261 0 0.1739] CT
0.149 GC
2 setlinecap
1 LJ
0.639 LW
N
47 55 M
49.81 55 L
S
GR
GS
[0.78261 0 0 0.78261 0 0.1739] CT
0.149 GC
2 setlinecap
1 LJ
0.639 LW
N
47 16 M
49.81 16 L
S
GR
GS
[0.78261 0 0 0.78261 0 0.1739] CT
0.149 GC
2 setlinecap
1 LJ
0.639 LW
N
328 172 M
325.19 172 L
S
GR
GS
[0.78261 0 0 0.78261 0 0.1739] CT
0.149 GC
2 setlinecap
1 LJ
0.639 LW
N
328 133 M
325.19 133 L
S
GR
GS
[0.78261 0 0 0.78261 0 0.1739] CT
0.149 GC
2 setlinecap
1 LJ
0.639 LW
N
328 94 M
325.19 94 L
S
GR
GS
[0.78261 0 0 0.78261 0 0.1739] CT
0.149 GC
2 setlinecap
1 LJ
0.639 LW
N
328 55 M
325.19 55 L
S
GR
GS
[0.78261 0 0 0.78261 0 0.1739] CT
0.149 GC
2 setlinecap
1 LJ
0.639 LW
N
328 16 M
325.19 16 L
S
GR
GS
[0.78261 0 0 0.78261 32.38261 134.78261] CT
0.149 GC
N
-3.917 4.008 M
-5.76 4.008 -6.417 2.492 QT
-7.073 0.977 -7.073 -1.101 QT
-7.073 -2.414 -6.839 -3.562 QT
-6.604 -4.711 -5.901 -5.508 QT
-5.198 -6.304 -3.917 -6.304 QT
-2.932 -6.304 -2.3 -5.828 QT
-1.667 -5.351 -1.339 -4.586 QT
-1.01 -3.82 -0.885 -2.945 QT
-0.76 -2.07 -0.76 -1.101 QT
-0.76 0.18 -1.003 1.305 QT
-1.245 2.43 -1.94 3.219 QT
-2.635 4.008 -3.917 4.008 QT
cp
-3.917 3.617 M
-3.089 3.617 -2.675 2.766 QT
-2.26 1.914 -2.167 0.867 QT
-2.073 -0.179 -2.073 -1.351 QT
-2.073 -2.476 -2.167 -3.429 QT
-2.26 -4.383 -2.667 -5.156 QT
-3.073 -5.929 -3.917 -5.929 QT
-4.76 -5.929 -5.175 -5.148 QT
-5.589 -4.367 -5.682 -3.422 QT
-5.776 -2.476 -5.776 -1.351 QT
-5.776 -0.508 -5.737 0.235 QT
-5.698 0.977 -5.518 1.758 QT
-5.339 2.539 -4.948 3.078 QT
-4.557 3.617 -3.917 3.617 QT
cp
f
GR
GS
[0.78261 0 0 0.78261 32.38261 104.26087] CT
0.149 GC
N
-15.843 4.008 M
-17.686 4.008 -18.343 2.492 QT
-18.999 0.977 -18.999 -1.101 QT
-18.999 -2.414 -18.765 -3.562 QT
-18.53 -4.711 -17.827 -5.508 QT
-17.124 -6.304 -15.843 -6.304 QT
-14.858 -6.304 -14.225 -5.828 QT
-13.593 -5.351 -13.265 -4.586 QT
-12.936 -3.82 -12.811 -2.945 QT
-12.686 -2.07 -12.686 -1.101 QT
-12.686 0.18 -12.929 1.305 QT
-13.171 2.43 -13.866 3.219 QT
-14.561 4.008 -15.843 4.008 QT
cp
-15.843 3.617 M
-15.015 3.617 -14.6 2.766 QT
-14.186 1.914 -14.093 0.867 QT
-13.999 -0.179 -13.999 -1.351 QT
-13.999 -2.476 -14.093 -3.429 QT
-14.186 -4.383 -14.593 -5.156 QT
-14.999 -5.929 -15.843 -5.929 QT
-16.686 -5.929 -17.1 -5.148 QT
-17.515 -4.367 -17.608 -3.422 QT
-17.702 -2.476 -17.702 -1.351 QT
-17.702 -0.508 -17.663 0.235 QT
-17.624 0.977 -17.444 1.758 QT
-17.265 2.539 -16.874 3.078 QT
-16.483 3.617 -15.843 3.617 QT
cp
f
GR
GS
[0.78261 0 0 0.78261 32.38261 104.26087] CT
0.149 GC
N
-10.66 2.852 M
-10.66 2.508 -10.41 2.274 QT
-10.16 2.039 -9.832 2.039 QT
-9.629 2.039 -9.434 2.149 QT
-9.238 2.258 -9.129 2.453 QT
-9.02 2.649 -9.02 2.852 QT
-9.02 3.18 -9.262 3.43 QT
-9.504 3.68 -9.832 3.68 QT
-10.16 3.68 -10.41 3.43 QT
-10.66 3.18 -10.66 2.852 QT
cp
f
GR
GS
[0.78261 0 0 0.78261 32.38261 104.26087] CT
0.149 GC
N
-6.37 1.977 M
-6.214 2.414 -5.893 2.774 QT
-5.573 3.133 -5.135 3.336 QT
-4.698 3.539 -4.229 3.539 QT
-3.151 3.539 -2.737 2.696 QT
-2.323 1.852 -2.323 0.649 QT
-2.323 0.133 -2.346 -0.226 QT
-2.37 -0.586 -2.448 -0.914 QT
-2.589 -1.445 -2.932 -1.836 QT
-3.276 -2.226 -3.792 -2.226 QT
-4.292 -2.226 -4.651 -2.078 QT
-5.01 -1.929 -5.237 -1.718 QT
-5.464 -1.508 -5.643 -1.281 QT
-5.823 -1.054 -5.87 -1.039 QT
-6.026 -1.039 L
-6.073 -1.039 -6.128 -1.086 QT
-6.182 -1.133 -6.182 -1.179 QT
-6.182 -6.195 L
-6.182 -6.226 -6.135 -6.265 QT
-6.089 -6.304 -6.026 -6.304 QT
-5.995 -6.304 L
-4.979 -5.82 -3.839 -5.82 QT
-2.729 -5.82 -1.698 -6.304 QT
-1.651 -6.304 L
-1.604 -6.304 -1.557 -6.273 QT
-1.51 -6.242 -1.51 -6.195 QT
-1.51 -6.054 L
-1.51 -5.976 -1.542 -5.976 QT
-2.057 -5.304 -2.831 -4.922 QT
-3.604 -4.539 -4.432 -4.539 QT
-5.026 -4.539 -5.667 -4.711 QT
-5.667 -1.867 L
-5.167 -2.273 -4.776 -2.445 QT
-4.385 -2.617 -3.776 -2.617 QT
-2.948 -2.617 -2.292 -2.14 QT
-1.635 -1.664 -1.284 -0.898 QT
-0.932 -0.133 -0.932 0.664 QT
-0.932 1.571 -1.37 2.336 QT
-1.807 3.102 -2.573 3.555 QT
-3.339 4.008 -4.229 4.008 QT
-4.964 4.008 -5.589 3.625 QT
-6.214 3.242 -6.565 2.602 QT
-6.917 1.961 -6.917 1.227 QT
-6.917 0.899 -6.698 0.688 QT
-6.479 0.477 -6.151 0.477 QT
-5.823 0.477 -5.596 0.688 QT
-5.37 0.899 -5.37 1.227 QT
-5.37 1.555 -5.596 1.782 QT
-5.823 2.008 -6.151 2.008 QT
-6.198 2.008 -6.268 1.992 QT
-6.339 1.977 -6.37 1.977 QT
cp
f
GR
GS
[0.78261 0 0 0.78261 32.38261 73.73913] CT
0.149 GC
N
-6.276 3.68 M
-6.276 3.149 L
-4.401 3.149 -4.401 2.68 QT
-4.401 -5.195 L
-5.182 -4.82 -6.37 -4.82 QT
-6.37 -5.351 L
-4.526 -5.351 -3.589 -6.304 QT
-3.37 -6.304 L
-3.323 -6.304 -3.276 -6.265 QT
-3.229 -6.226 -3.229 -6.179 QT
-3.229 2.68 L
-3.229 3.149 -1.354 3.149 QT
-1.354 3.68 L
-6.276 3.68 L
cp
f
GR
GS
[0.78261 0 0 0.78261 32.38261 43.21738] CT
0.149 GC
N
-18.202 3.68 M
-18.202 3.149 L
-16.327 3.149 -16.327 2.68 QT
-16.327 -5.195 L
-17.108 -4.82 -18.296 -4.82 QT
-18.296 -5.351 L
-16.452 -5.351 -15.515 -6.304 QT
-15.296 -6.304 L
-15.249 -6.304 -15.202 -6.265 QT
-15.155 -6.226 -15.155 -6.179 QT
-15.155 2.68 L
-15.155 3.149 -13.28 3.149 QT
-13.28 3.68 L
-18.202 3.68 L
cp
f
GR
GS
[0.78261 0 0 0.78261 32.38261 43.21738] CT
0.149 GC
N
/f-606985051{-10.66 2.852 M
-10.66 2.508 -10.41 2.274 QT
-10.16 2.039 -9.832 2.039 QT
-9.629 2.039 -9.434 2.149 QT
-9.238 2.258 -9.129 2.453 QT
-9.02 2.649 -9.02 2.852 QT
-9.02 3.18 -9.262 3.43 QT
-9.504 3.68 -9.832 3.68 QT
-10.16 3.68 -10.41 3.43 QT
-10.66 3.18 -10.66 2.852 QT
cp}def
f-606985051
f
GR
GS
[0.78261 0 0 0.78261 32.38261 43.21738] CT
0.149 GC
N
/f-321985110{-6.37 1.977 M
-6.214 2.414 -5.893 2.774 QT
-5.573 3.133 -5.135 3.336 QT
-4.698 3.539 -4.229 3.539 QT
-3.151 3.539 -2.737 2.696 QT
-2.323 1.852 -2.323 0.649 QT
-2.323 0.133 -2.346 -0.226 QT
-2.37 -0.586 -2.448 -0.914 QT
-2.589 -1.445 -2.932 -1.836 QT
-3.276 -2.226 -3.792 -2.226 QT
-4.292 -2.226 -4.651 -2.078 QT
-5.01 -1.929 -5.237 -1.718 QT
-5.464 -1.508 -5.643 -1.281 QT
-5.823 -1.054 -5.87 -1.039 QT
-6.026 -1.039 L
-6.073 -1.039 -6.128 -1.086 QT
-6.182 -1.133 -6.182 -1.179 QT
-6.182 -6.195 L
-6.182 -6.226 -6.135 -6.265 QT
-6.089 -6.304 -6.026 -6.304 QT
-5.995 -6.304 L
-4.979 -5.82 -3.839 -5.82 QT
-2.729 -5.82 -1.698 -6.304 QT
-1.651 -6.304 L
-1.604 -6.304 -1.557 -6.273 QT
-1.51 -6.242 -1.51 -6.195 QT
-1.51 -6.054 L
-1.51 -5.976 -1.542 -5.976 QT
-2.057 -5.304 -2.831 -4.922 QT
-3.604 -4.539 -4.432 -4.539 QT
-5.026 -4.539 -5.667 -4.711 QT
-5.667 -1.867 L
-5.167 -2.273 -4.776 -2.445 QT
-4.385 -2.617 -3.776 -2.617 QT
-2.948 -2.617 -2.292 -2.14 QT
-1.635 -1.664 -1.284 -0.898 QT
-0.932 -0.133 -0.932 0.664 QT
-0.932 1.571 -1.37 2.336 QT
-1.807 3.102 -2.573 3.555 QT
-3.339 4.008 -4.229 4.008 QT
-4.964 4.008 -5.589 3.625 QT
-6.214 3.242 -6.565 2.602 QT
-6.917 1.961 -6.917 1.227 QT
-6.917 0.899 -6.698 0.688 QT
-6.479 0.477 -6.151 0.477 QT
-5.823 0.477 -5.596 0.688 QT
-5.37 0.899 -5.37 1.227 QT
-5.37 1.555 -5.596 1.782 QT
-5.823 2.008 -6.151 2.008 QT
-6.198 2.008 -6.268 1.992 QT
-6.339 1.977 -6.37 1.977 QT
cp}def
f-321985110
f
GR
GS
[0.78261 0 0 0.78261 32.38261 12.69564] CT
0.149 GC
N
/f274154036{-6.917 3.68 M
-6.917 3.274 L
-6.917 3.242 -6.885 3.196 QT
-4.557 0.617 L
-4.026 0.039 -3.698 -0.343 QT
-3.37 -0.726 -3.05 -1.234 QT
-2.729 -1.742 -2.542 -2.265 QT
-2.354 -2.789 -2.354 -3.367 QT
-2.354 -3.992 -2.581 -4.554 QT
-2.807 -5.117 -3.26 -5.453 QT
-3.714 -5.789 -4.354 -5.789 QT
-4.995 -5.789 -5.518 -5.39 QT
-6.042 -4.992 -6.26 -4.383 QT
-6.198 -4.398 -6.089 -4.398 QT
-5.76 -4.398 -5.518 -4.172 QT
-5.276 -3.945 -5.276 -3.586 QT
-5.276 -3.242 -5.518 -3 QT
-5.76 -2.758 -6.089 -2.758 QT
-6.448 -2.758 -6.682 -3 QT
-6.917 -3.242 -6.917 -3.586 QT
-6.917 -4.148 -6.706 -4.64 QT
-6.495 -5.133 -6.096 -5.515 QT
-5.698 -5.898 -5.198 -6.101 QT
-4.698 -6.304 -4.135 -6.304 QT
-3.276 -6.304 -2.534 -5.945 QT
-1.792 -5.586 -1.362 -4.922 QT
-0.932 -4.258 -0.932 -3.367 QT
-0.932 -2.726 -1.214 -2.14 QT
-1.495 -1.554 -1.94 -1.07 QT
-2.385 -0.586 -3.089 0.024 QT
-3.792 0.633 -4.01 0.836 QT
-5.698 2.461 L
-4.26 2.461 L
-3.198 2.461 -2.487 2.446 QT
-1.776 2.43 -1.729 2.383 QT
-1.557 2.196 -1.37 1.008 QT
-0.932 1.008 L
-1.354 3.68 L
-6.917 3.68 L
cp}def
f274154036
f
GR
GS
[0.78261 0 0 0.78261 0 0.1739] CT
0 0 1 RC
1 LJ
1.917 LW
N
47 172 M
47.245 171.999 L
47.49 171.999 L
47.734 171.999 L
47.979 171.998 L
48.224 171.998 L
48.469 171.998 L
48.713 171.997 L
48.958 171.997 L
49.203 171.997 L
49.448 171.996 L
49.693 171.996 L
49.937 171.996 L
50.182 171.995 L
50.427 171.995 L
50.672 171.995 L
50.916 171.995 L
51.161 171.994 L
51.406 171.994 L
51.651 171.994 L
51.895 171.993 L
52.14 171.993 L
52.385 171.993 L
52.63 171.993 L
52.875 171.992 L
53.119 171.992 L
53.364 171.992 L
53.609 171.992 L
53.854 171.992 L
54.098 171.991 L
54.343 171.991 L
54.588 171.991 L
54.833 171.991 L
55.078 171.991 L
55.322 171.99 L
55.567 171.99 L
55.812 171.99 L
56.057 171.99 L
56.301 171.99 L
56.546 171.99 L
56.791 171.989 L
57.036 171.989 L
57.28 171.989 L
57.525 171.989 L
57.77 171.989 L
58.015 171.989 L
58.26 171.989 L
58.504 171.989 L
58.749 171.989 L
58.994 171.988 L
59.239 171.988 L
59.483 171.988 L
59.728 171.988 L
59.973 171.988 L
60.218 171.988 L
60.463 171.988 L
60.707 171.988 L
60.952 171.988 L
61.197 171.987 L
61.442 171.987 L
61.686 171.987 L
61.931 171.987 L
62.176 171.987 L
62.421 171.987 L
62.666 171.986 L
62.91 171.986 L
63.155 171.986 L
63.4 171.986 L
63.645 171.986 L
63.889 171.985 L
64.134 171.985 L
64.379 171.985 L
64.624 171.985 L
64.868 171.985 L
65.113 171.984 L
65.358 171.984 L
65.603 171.984 L
65.848 171.983 L
66.092 171.983 L
66.337 171.983 L
66.582 171.983 L
66.827 171.982 L
67.071 171.982 L
67.316 171.982 L
67.561 171.982 L
67.806 171.981 L
68.051 171.981 L
68.295 171.981 L
68.54 171.98 L
68.785 171.98 L
69.03 171.98 L
69.274 171.98 L
69.519 171.979 L
69.764 171.979 L
70.009 171.979 L
70.253 171.978 L
70.498 171.978 L
70.743 171.978 L
70.988 171.978 L
71.233 171.977 L
71.477 171.977 L
71.722 171.977 L
71.967 171.976 L
72.212 171.976 L
72.456 171.976 L
72.701 171.976 L
72.946 171.975 L
73.191 171.975 L
73.436 171.975 L
73.68 171.975 L
73.925 171.974 L
74.17 171.974 L
74.415 171.974 L
74.659 171.974 L
74.904 171.973 L
75.149 171.973 L
75.394 171.973 L
75.639 171.973 L
75.883 171.972 L
76.128 171.972 L
76.373 171.972 L
76.618 171.972 L
76.862 171.971 L
77.107 171.971 L
77.352 171.971 L
77.597 171.971 L
77.841 171.97 L
78.086 171.97 L
78.331 171.97 L
78.576 171.969 L
78.821 171.969 L
79.065 171.969 L
79.31 171.969 L
79.555 171.968 L
79.8 171.968 L
80.044 171.968 L
80.289 171.967 L
80.534 171.967 L
80.779 171.967 L
81.024 171.966 L
81.268 171.966 L
81.513 171.965 L
81.758 171.965 L
82.003 171.965 L
82.247 171.964 L
82.492 171.964 L
82.737 171.963 L
82.982 171.963 L
83.226 171.962 L
83.471 171.962 L
83.716 171.962 L
83.961 171.961 L
84.206 171.961 L
84.45 171.96 L
84.695 171.96 L
84.94 171.959 L
85.185 171.959 L
85.429 171.959 L
85.674 171.958 L
85.919 171.958 L
86.164 171.957 L
86.409 171.957 L
86.653 171.957 L
86.898 171.956 L
87.143 171.956 L
87.388 171.956 L
87.632 171.955 L
87.877 171.955 L
88.122 171.955 L
88.367 171.955 L
88.611 171.954 L
88.856 171.954 L
89.101 171.954 L
89.346 171.954 L
89.591 171.954 L
89.835 171.953 L
90.08 171.953 L
90.325 171.953 L
90.57 171.953 L
90.814 171.953 L
91.059 171.953 L
91.304 171.953 L
91.549 171.952 L
91.794 171.952 L
92.038 171.952 L
92.283 171.952 L
92.528 171.952 L
92.773 171.952 L
93.017 171.952 L
93.262 171.951 L
93.507 171.951 L
93.752 171.951 L
93.997 171.951 L
94.241 171.951 L
94.486 171.95 L
94.731 171.95 L
94.976 171.95 L
95.22 171.95 L
95.465 171.949 L
95.71 171.949 L
95.955 171.949 L
96.199 171.949 L
96.444 171.949 L
96.689 171.948 L
96.934 171.948 L
97.179 171.948 L
97.423 171.948 L
97.668 171.947 L
97.913 171.947 L
98.158 171.947 L
98.402 171.947 L
98.647 171.947 L
98.892 171.947 L
99.137 171.946 L
99.382 171.946 L
99.626 171.946 L
99.871 171.946 L
100.116 171.946 L
100.361 171.945 L
100.605 171.945 L
100.85 171.945 L
101.095 171.944 L
101.34 171.944 L
101.584 171.944 L
101.829 171.943 L
102.074 171.943 L
102.319 171.943 L
102.564 171.942 L
102.808 171.941 L
103.053 171.941 L
103.298 171.94 L
103.543 171.94 L
103.787 171.939 L
104.032 171.938 L
104.277 171.938 L
104.522 171.937 L
104.767 171.936 L
105.011 171.935 L
105.256 171.935 L
105.501 171.934 L
105.746 171.933 L
105.99 171.932 L
106.235 171.931 L
106.48 171.93 L
106.725 171.929 L
106.97 171.928 L
107.214 171.928 L
107.459 171.927 L
107.704 171.926 L
107.949 171.925 L
108.193 171.924 L
108.438 171.923 L
108.683 171.922 L
108.928 171.921 L
109.172 171.921 L
109.417 171.92 L
109.662 171.919 L
109.907 171.918 L
110.152 171.917 L
110.396 171.916 L
110.641 171.915 L
110.886 171.914 L
111.131 171.914 L
111.375 171.913 L
111.62 171.912 L
111.865 171.911 L
112.11 171.91 L
112.355 171.909 L
112.599 171.908 L
112.844 171.907 L
113.089 171.906 L
113.334 171.905 L
113.578 171.903 L
113.823 171.902 L
114.068 171.901 L
114.313 171.9 L
114.557 171.899 L
114.802 171.897 L
115.047 171.896 L
115.292 171.895 L
115.537 171.893 L
115.781 171.892 L
116.026 171.89 L
116.271 171.889 L
116.516 171.887 L
116.76 171.886 L
117.005 171.884 L
117.25 171.883 L
117.495 171.881 L
117.74 171.88 L
117.984 171.878 L
118.229 171.876 L
118.474 171.875 L
118.719 171.873 L
118.963 171.871 L
119.208 171.87 L
119.453 171.868 L
119.698 171.866 L
119.943 171.865 L
120.187 171.863 L
120.432 171.861 L
120.677 171.86 L
120.922 171.858 L
121.166 171.856 L
121.411 171.855 L
121.656 171.853 L
121.901 171.852 L
122.145 171.85 L
122.39 171.848 L
122.635 171.847 L
122.88 171.845 L
123.125 171.844 L
123.369 171.842 L
123.614 171.84 L
123.859 171.839 L
124.104 171.837 L
124.348 171.836 L
124.593 171.834 L
124.838 171.833 L
125.083 171.831 L
125.328 171.829 L
125.572 171.828 L
125.817 171.826 L
126.062 171.824 L
126.307 171.823 L
126.551 171.821 L
126.796 171.819 L
127.041 171.818 L
127.286 171.816 L
127.53 171.814 L
127.775 171.812 L
128.02 171.811 L
128.265 171.809 L
128.51 171.807 L
128.754 171.805 L
128.999 171.803 L
129.244 171.801 L
129.489 171.799 L
129.733 171.798 L
129.978 171.796 L
130.223 171.794 L
130.468 171.792 L
130.713 171.79 L
130.957 171.788 L
131.202 171.786 L
131.447 171.784 L
131.692 171.782 L
131.936 171.78 L
132.181 171.778 L
132.426 171.777 L
132.671 171.775 L
132.916 171.773 L
133.16 171.771 L
133.405 171.769 L
133.65 171.767 L
133.895 171.765 L
134.139 171.763 L
134.384 171.762 L
134.629 171.76 L
134.874 171.758 L
135.118 171.756 L
135.363 171.755 L
135.608 171.753 L
135.853 171.751 L
136.098 171.75 L
136.342 171.748 L
136.587 171.747 L
136.832 171.745 L
137.077 171.744 L
137.321 171.742 L
137.566 171.741 L
137.811 171.74 L
138.056 171.738 L
138.301 171.737 L
138.545 171.736 L
138.79 171.735 L
139.035 171.734 L
139.28 171.733 L
139.524 171.732 L
139.769 171.732 L
140.014 171.731 L
140.259 171.73 L
140.503 171.729 L
140.748 171.728 L
140.993 171.727 L
141.238 171.726 L
141.483 171.725 L
141.727 171.724 L
141.972 171.723 L
142.217 171.721 L
142.462 171.719 L
142.706 171.717 L
142.951 171.715 L
143.196 171.713 L
143.441 171.71 L
143.686 171.707 L
143.93 171.703 L
144.175 171.699 L
144.42 171.695 L
144.665 171.69 L
144.909 171.685 L
145.154 171.679 L
145.399 171.673 L
145.644 171.667 L
145.889 171.66 L
146.133 171.653 L
146.378 171.646 L
146.623 171.638 L
146.868 171.631 L
147.112 171.622 L
147.357 171.614 L
147.602 171.606 L
147.847 171.597 L
148.091 171.589 L
148.336 171.58 L
148.581 171.572 L
148.826 171.563 L
149.071 171.555 L
149.315 171.547 L
149.56 171.539 L
149.805 171.531 L
150.05 171.524 L
150.294 171.516 L
150.539 171.51 L
150.784 171.503 L
151.029 171.497 L
151.274 171.491 L
151.518 171.486 L
151.763 171.482 L
152.008 171.478 L
152.253 171.474 L
152.497 171.472 L
152.742 171.469 L
152.987 171.468 L
153.232 171.466 L
153.476 171.466 L
153.721 171.465 L
153.966 171.466 L
154.211 171.466 L
154.456 171.467 L
154.7 171.468 L
154.945 171.469 L
155.19 171.47 L
155.435 171.471 L
155.679 171.473 L
155.924 171.474 L
156.169 171.475 L
156.414 171.475 L
156.659 171.476 L
156.903 171.476 L
157.148 171.476 L
157.393 171.476 L
157.638 171.476 L
157.882 171.476 L
158.127 171.475 L
158.372 171.474 L
158.617 171.473 L
158.861 171.472 L
159.106 171.471 L
159.351 171.469 L
159.596 171.468 L
159.841 171.467 L
160.085 171.465 L
160.33 171.464 L
160.575 171.462 L
160.82 171.461 L
161.064 171.459 L
161.309 171.457 L
161.554 171.455 L
161.799 171.453 L
162.044 171.451 L
162.288 171.448 L
162.533 171.445 L
162.778 171.442 L
163.023 171.438 L
163.267 171.434 L
163.512 171.429 L
163.757 171.424 L
164.002 171.418 L
164.247 171.412 L
164.491 171.405 L
164.736 171.397 L
164.981 171.388 L
165.226 171.379 L
165.47 171.369 L
165.715 171.358 L
165.96 171.346 L
166.205 171.333 L
166.449 171.32 L
166.694 171.306 L
166.939 171.292 L
167.184 171.277 L
167.429 171.262 L
167.673 171.246 L
167.918 171.23 L
168.163 171.214 L
168.408 171.197 L
168.652 171.181 L
168.897 171.165 L
169.142 171.149 L
169.387 171.134 L
169.632 171.119 L
169.876 171.104 L
170.121 171.09 L
170.366 171.076 L
170.611 171.064 L
170.855 171.051 L
171.1 171.04 L
171.345 171.029 L
171.59 171.019 L
171.834 171.01 L
172.079 171.001 L
172.324 170.993 L
172.569 170.986 L
172.814 170.979 L
173.058 170.973 L
173.303 170.967 L
173.548 170.961 L
173.793 170.956 L
174.037 170.951 L
174.282 170.946 L
174.527 170.942 L
174.772 170.937 L
175.017 170.933 L
175.261 170.929 L
175.506 170.925 L
175.751 170.92 L
175.996 170.916 L
176.24 170.912 L
176.485 170.908 L
176.73 170.903 L
176.975 170.899 L
177.22 170.895 L
177.464 170.89 L
177.709 170.885 L
177.954 170.881 L
178.199 170.876 L
178.443 170.871 L
178.688 170.866 L
178.933 170.861 L
179.178 170.856 L
179.422 170.851 L
179.667 170.845 L
179.912 170.84 L
180.157 170.835 L
180.402 170.829 L
180.646 170.824 L
180.891 170.818 L
181.136 170.812 L
181.381 170.806 L
181.625 170.8 L
181.87 170.794 L
182.115 170.788 L
182.36 170.782 L
182.605 170.776 L
182.849 170.769 L
183.094 170.762 L
183.339 170.756 L
183.584 170.749 L
183.828 170.741 L
184.073 170.734 L
184.318 170.727 L
184.563 170.719 L
184.807 170.711 L
185.052 170.702 L
185.297 170.694 L
185.542 170.685 L
185.787 170.675 L
186.031 170.666 L
186.276 170.655 L
186.521 170.645 L
186.766 170.634 L
187.01 170.622 L
187.255 170.61 L
187.5 170.598 L
187.745 170.584 L
187.99 170.57 L
188.234 170.556 L
188.479 170.54 L
188.724 170.523 L
188.969 170.506 L
189.213 170.487 L
189.458 170.467 L
189.703 170.445 L
189.948 170.422 L
190.193 170.398 L
190.437 170.371 L
190.682 170.342 L
190.927 170.312 L
191.172 170.278 L
191.416 170.243 L
191.661 170.204 L
191.906 170.163 L
192.151 170.119 L
192.395 170.072 L
192.64 170.021 L
192.885 169.967 L
193.13 169.91 L
193.375 169.849 L
193.619 169.784 L
193.864 169.716 L
194.109 169.645 L
194.354 169.569 L
194.598 169.49 L
194.843 169.408 L
195.088 169.321 L
195.333 169.232 L
195.578 169.139 L
195.822 169.044 L
196.067 168.945 L
196.312 168.844 L
196.557 168.74 L
196.801 168.634 L
197.046 168.526 L
197.291 168.416 L
197.536 168.306 L
197.78 168.194 L
198.025 168.082 L
198.27 167.969 L
198.515 167.857 L
198.76 167.745 L
199.004 167.635 L
199.249 167.526 L
199.494 167.419 L
199.739 167.315 L
199.983 167.214 L
200.228 167.116 L
200.473 167.022 L
200.718 166.932 L
200.963 166.847 L
201.207 166.766 L
201.452 166.691 L
201.697 166.62 L
201.942 166.555 L
202.186 166.496 L
202.431 166.441 L
202.676 166.391 L
202.921 166.346 L
203.166 166.305 L
203.41 166.267 L
203.655 166.232 L
203.9 166.199 L
204.145 166.168 L
204.389 166.137 L
204.634 166.106 L
204.879 166.073 L
205.124 166.039 L
205.368 166.001 L
205.613 165.96 L
205.858 165.914 L
206.103 165.864 L
206.348 165.808 L
206.592 165.746 L
206.837 165.678 L
207.082 165.605 L
207.327 165.525 L
207.571 165.441 L
207.816 165.352 L
208.061 165.259 L
208.306 165.164 L
208.551 165.068 L
208.795 164.972 L
209.04 164.879 L
209.285 164.79 L
209.53 164.707 L
209.774 164.632 L
210.019 164.568 L
210.264 164.517 L
210.509 164.479 L
210.753 164.456 L
210.998 164.45 L
211.243 164.459 L
211.488 164.484 L
211.733 164.523 L
211.977 164.575 L
212.222 164.637 L
212.467 164.707 L
212.712 164.782 L
212.956 164.858 L
213.201 164.934 L
213.446 165.005 L
213.691 165.068 L
213.936 165.122 L
214.18 165.161 L
214.425 165.185 L
214.67 165.189 L
214.915 165.172 L
215.159 165.132 L
215.404 165.065 L
215.649 164.971 L
215.894 164.848 L
216.139 164.694 L
216.383 164.509 L
216.628 164.292 L
216.873 164.043 L
217.118 163.763 L
217.362 163.452 L
217.607 163.112 L
217.852 162.743 L
218.097 162.348 L
218.341 161.929 L
218.586 161.488 L
218.831 161.028 L
219.076 160.553 L
219.321 160.066 L
219.565 159.572 L
219.81 159.074 L
220.055 158.578 L
220.3 158.088 L
220.544 157.608 L
220.789 157.144 L
221.034 156.7 L
221.279 156.279 L
221.524 155.886 L
221.768 155.523 L
222.013 155.193 L
222.258 154.898 L
222.503 154.639 L
222.747 154.416 L
222.992 154.23 L
223.237 154.078 L
223.482 153.96 L
223.726 153.873 L
223.971 153.815 L
224.216 153.783 L
224.461 153.773 L
224.706 153.781 L
224.95 153.803 L
225.195 153.834 L
225.44 153.869 L
225.685 153.902 L
225.929 153.929 L
226.174 153.944 L
226.419 153.942 L
226.664 153.917 L
226.909 153.867 L
227.153 153.786 L
227.398 153.672 L
227.643 153.523 L
227.888 153.338 L
228.132 153.116 L
228.377 152.86 L
228.622 152.571 L
228.867 152.252 L
229.111 151.906 L
229.356 151.539 L
229.601 151.153 L
229.846 150.754 L
230.091 150.348 L
230.335 149.939 L
230.58 149.531 L
230.825 149.13 L
231.07 148.74 L
231.314 148.363 L
231.559 148.003 L
231.804 147.662 L
232.049 147.341 L
232.294 147.041 L
232.538 146.761 L
232.783 146.5 L
233.028 146.253 L
233.273 146.017 L
233.517 145.785 L
233.762 145.55 L
234.007 145.302 L
234.252 145.031 L
234.497 144.725 L
234.741 144.37 L
234.986 143.956 L
235.231 143.468 L
235.476 142.897 L
235.72 142.232 L
235.965 141.469 L
236.21 140.604 L
236.455 139.639 L
236.699 138.579 L
236.944 137.433 L
237.189 136.214 L
237.434 134.94 L
237.679 133.627 L
237.923 132.298 L
238.168 130.972 L
238.413 129.67 L
238.658 128.413 L
238.902 127.219 L
239.147 126.101 L
239.392 125.074 L
239.637 124.146 L
239.882 123.322 L
240.126 122.604 L
240.371 121.991 L
240.616 121.479 L
240.861 121.062 L
241.105 120.733 L
241.35 120.486 L
241.595 120.313 L
241.84 120.208 L
242.084 120.164 L
242.329 120.178 L
242.574 120.244 L
242.819 120.357 L
243.064 120.512 L
243.308 120.703 L
243.553 120.922 L
243.798 121.16 L
244.043 121.407 L
244.287 121.652 L
244.532 121.883 L
244.777 122.087 L
245.022 122.256 L
245.267 122.38 L
245.511 122.455 L
245.756 122.479 L
246.001 122.454 L
246.246 122.389 L
246.49 122.292 L
246.735 122.178 L
246.98 122.061 L
247.225 121.956 L
247.469 121.875 L
247.714 121.828 L
247.959 121.82 L
248.204 121.851 L
248.449 121.916 L
248.693 122.006 L
248.938 122.104 L
249.183 122.194 L
249.428 122.255 L
249.672 122.269 L
249.917 122.216 L
250.162 122.084 L
250.407 121.862 L
250.652 121.547 L
250.896 121.142 L
251.141 120.654 L
251.386 120.097 L
251.631 119.487 L
251.875 118.844 L
252.12 118.188 L
252.365 117.539 L
252.61 116.916 L
252.855 116.338 L
253.099 115.819 L
253.344 115.373 L
253.589 115.011 L
253.834 114.742 L
254.078 114.571 L
254.323 114.502 L
254.568 114.537 L
254.813 114.674 L
255.057 114.911 L
255.302 115.242 L
255.547 115.66 L
255.792 116.157 L
256.037 116.72 L
256.281 117.339 L
256.526 118 L
256.771 118.688 L
257.016 119.388 L
257.26 120.086 L
257.505 120.766 L
257.75 121.412 L
257.995 122.012 L
258.24 122.553 L
258.484 123.022 L
258.729 123.41 L
258.974 123.708 L
259.219 123.91 L
259.463 124.012 L
259.708 124.011 L
259.953 123.907 L
260.198 123.699 L
260.443 123.39 L
260.687 122.983 L
260.932 122.484 L
261.177 121.896 L
261.422 121.227 L
261.666 120.482 L
261.911 119.667 L
262.156 118.79 L
262.401 117.857 L
262.645 116.874 L
262.89 115.848 L
263.135 114.785 L
263.38 113.691 L
263.625 112.573 L
263.869 111.435 L
264.114 110.285 L
264.359 109.126 L
264.604 107.966 L
264.848 106.809 L
265.093 105.66 L
265.338 104.526 L
265.583 103.41 L
265.828 102.317 L
266.072 101.253 L
266.317 100.221 L
266.562 99.225 L
266.807 98.27 L
267.051 97.358 L
267.296 96.493 L
267.541 95.676 L
267.786 94.91 L
268.03 94.197 L
268.275 93.536 L
268.52 92.929 L
268.765 92.374 L
269.01 91.871 L
269.254 91.418 L
269.499 91.013 L
269.744 90.653 L
269.989 90.333 L
270.233 90.051 L
270.478 89.802 L
270.723 89.581 L
270.968 89.382 L
271.213 89.201 L
271.457 89.032 L
271.702 88.87 L
271.947 88.71 L
272.192 88.547 L
272.436 88.377 L
272.681 88.196 L
272.926 88.002 L
273.171 87.792 L
273.415 87.564 L
273.66 87.319 L
273.905 87.056 L
274.15 86.776 L
274.395 86.481 L
274.639 86.175 L
274.884 85.86 L
275.129 85.54 L
275.374 85.22 L
275.618 84.905 L
275.863 84.6 L
276.108 84.312 L
276.353 84.045 L
276.598 83.805 L
276.842 83.599 L
277.087 83.431 L
277.332 83.308 L
277.577 83.233 L
277.821 83.213 L
278.066 83.25 L
278.311 83.348 L
278.556 83.51 L
278.801 83.738 L
279.045 84.034 L
279.29 84.398 L
279.535 84.83 L
279.78 85.33 L
280.024 85.894 L
280.269 86.52 L
280.514 87.206 L
280.759 87.946 L
281.003 88.736 L
281.248 89.57 L
281.493 90.441 L
281.738 91.344 L
281.983 92.271 L
282.227 93.215 L
282.472 94.168 L
282.717 95.123 L
282.962 96.073 L
283.206 97.011 L
283.451 97.93 L
283.696 98.825 L
283.941 99.69 L
284.186 100.52 L
284.43 101.312 L
284.675 102.063 L
284.92 102.772 L
285.165 103.437 L
285.409 104.059 L
285.654 104.638 L
285.899 105.175 L
286.144 105.674 L
286.388 106.137 L
286.633 106.567 L
286.878 106.969 L
287.123 107.345 L
287.368 107.701 L
287.612 108.04 L
287.857 108.366 L
288.102 108.684 L
288.347 108.996 L
288.591 109.307 L
288.836 109.619 L
289.081 109.934 L
289.326 110.256 L
289.571 110.585 L
289.815 110.924 L
290.06 111.274 L
290.305 111.635 L
290.55 112.008 L
290.794 112.393 L
291.039 112.789 L
291.284 113.198 L
291.529 113.618 L
291.774 114.048 L
292.018 114.487 L
292.263 114.936 L
292.508 115.392 L
292.753 115.854 L
292.997 116.322 L
293.242 116.795 L
293.487 117.271 L
293.732 117.749 L
293.976 118.229 L
294.221 118.709 L
294.466 119.189 L
294.711 119.667 L
294.956 120.143 L
295.2 120.616 L
295.445 121.085 L
295.69 121.551 L
295.935 122.012 L
296.179 122.468 L
296.424 122.919 L
296.669 123.364 L
296.914 123.803 L
297.159 124.236 L
297.403 124.662 L
297.648 125.082 L
297.893 125.494 L
298.138 125.9 L
298.382 126.298 L
298.627 126.688 L
298.872 127.07 L
299.117 127.443 L
299.362 127.808 L
299.606 128.163 L
299.851 128.508 L
300.096 128.843 L
300.341 129.167 L
300.585 129.478 L
300.83 129.776 L
301.075 130.059 L
301.32 130.328 L
301.564 130.579 L
301.809 130.813 L
302.054 131.028 L
302.299 131.221 L
302.544 131.392 L
302.788 131.539 L
303.033 131.66 L
303.278 131.753 L
303.523 131.818 L
303.767 131.852 L
304.012 131.855 L
304.257 131.824 L
304.502 131.758 L
304.747 131.658 L
304.991 131.521 L
305.236 131.347 L
305.481 131.137 L
305.726 130.89 L
305.97 130.607 L
306.215 130.288 L
306.46 129.934 L
306.705 129.546 L
306.949 129.126 L
307.194 128.676 L
307.439 128.197 L
307.684 127.691 L
307.929 127.161 L
308.173 126.609 L
308.418 126.038 L
308.663 125.451 L
308.908 124.849 L
309.152 124.236 L
309.397 123.615 L
309.642 122.987 L
309.887 122.356 L
310.132 121.725 L
310.376 121.095 L
310.621 120.469 L
310.866 119.85 L
311.111 119.24 L
311.355 118.641 L
311.6 118.054 L
311.845 117.483 L
312.09 116.927 L
312.335 116.39 L
312.579 115.872 L
312.824 115.375 L
313.069 114.901 L
313.314 114.449 L
313.558 114.021 L
313.803 113.619 L
314.048 113.242 L
314.293 112.891 L
314.537 112.567 L
314.782 112.27 L
315.027 112.001 L
315.272 111.759 L
315.517 111.545 L
315.761 111.359 L
316.006 111.201 L
316.251 111.07 L
316.496 110.967 L
316.74 110.892 L
316.985 110.843 L
317.23 110.822 L
317.475 110.828 L
317.72 110.859 L
317.964 110.917 L
318.209 111.001 L
318.454 111.111 L
318.699 111.246 L
318.943 111.405 L
319.188 111.59 L
319.433 111.798 L
319.678 112.031 L
319.922 112.288 L
320.167 112.569 L
320.412 112.872 L
320.657 113.199 L
320.902 113.549 L
321.146 113.922 L
321.391 114.316 L
321.636 114.733 L
321.881 115.172 L
322.125 115.632 L
322.37 116.112 L
322.615 116.614 L
322.86 117.135 L
323.105 117.676 L
323.349 118.235 L
323.594 118.811 L
323.839 119.405 L
324.084 120.013 L
324.328 120.636 L
324.573 121.271 L
324.818 121.917 L
325.063 122.571 L
325.307 123.232 L
325.552 123.897 L
325.797 124.563 L
326.042 125.227 L
326.287 125.886 L
326.531 126.536 L
326.776 127.174 L
327.021 127.796 L
327.266 128.398 L
327.51 128.975 L
327.755 129.524 L
328 130.04 L
328.034 130.106 L
S
GR
GS
[0.78261 0 0 0.78261 0 0.1739] CT
1 0 0 RC
[10 6] 0 setdash
2 LJ
1.789 LW
N
47 171.994 M
47.245 171.991 L
47.49 171.987 L
47.734 171.984 L
47.979 171.98 L
48.224 171.976 L
48.469 171.972 L
48.713 171.968 L
48.958 171.965 L
49.203 171.961 L
49.448 171.958 L
49.693 171.955 L
49.937 171.952 L
50.182 171.949 L
50.427 171.946 L
50.672 171.943 L
50.916 171.941 L
51.161 171.938 L
51.406 171.936 L
51.651 171.933 L
51.895 171.931 L
52.14 171.929 L
52.385 171.927 L
52.63 171.924 L
52.875 171.922 L
53.119 171.92 L
53.364 171.919 L
53.609 171.917 L
53.854 171.915 L
54.098 171.913 L
54.343 171.912 L
54.588 171.911 L
54.833 171.909 L
55.078 171.908 L
55.322 171.907 L
55.567 171.906 L
55.812 171.905 L
56.057 171.904 L
56.301 171.903 L
56.546 171.903 L
56.791 171.902 L
57.036 171.902 L
57.28 171.902 L
57.525 171.901 L
57.77 171.901 L
58.015 171.901 L
58.26 171.901 L
58.504 171.901 L
58.749 171.902 L
58.994 171.902 L
59.239 171.902 L
59.483 171.903 L
59.728 171.904 L
59.973 171.904 L
60.218 171.905 L
60.463 171.906 L
60.707 171.907 L
60.952 171.908 L
61.197 171.909 L
61.442 171.91 L
61.686 171.911 L
61.931 171.912 L
62.176 171.913 L
62.421 171.915 L
62.666 171.916 L
62.91 171.917 L
63.155 171.918 L
63.4 171.92 L
63.645 171.921 L
63.889 171.922 L
64.134 171.923 L
64.379 171.924 L
64.624 171.924 L
64.868 171.925 L
65.113 171.925 L
65.358 171.926 L
65.603 171.926 L
65.848 171.925 L
66.092 171.925 L
66.337 171.924 L
66.582 171.923 L
66.827 171.921 L
67.071 171.919 L
67.316 171.917 L
67.561 171.915 L
67.806 171.912 L
68.051 171.909 L
68.295 171.905 L
68.54 171.902 L
68.785 171.898 L
69.03 171.893 L
69.274 171.889 L
69.519 171.884 L
69.764 171.879 L
70.009 171.874 L
70.253 171.868 L
70.498 171.862 L
70.743 171.856 L
70.988 171.85 L
71.233 171.844 L
71.477 171.837 L
71.722 171.831 L
71.967 171.824 L
72.212 171.817 L
72.456 171.809 L
72.701 171.802 L
72.946 171.795 L
73.191 171.787 L
73.436 171.779 L
73.68 171.771 L
73.925 171.763 L
74.17 171.755 L
74.415 171.746 L
74.659 171.738 L
74.904 171.729 L
75.149 171.721 L
75.394 171.712 L
75.639 171.703 L
75.883 171.694 L
76.128 171.685 L
76.373 171.676 L
76.618 171.666 L
76.862 171.657 L
77.107 171.648 L
77.352 171.638 L
77.597 171.629 L
77.841 171.619 L
78.086 171.609 L
78.331 171.6 L
78.576 171.59 L
78.821 171.581 L
79.065 171.571 L
79.31 171.561 L
79.555 171.551 L
79.8 171.542 L
80.044 171.532 L
80.289 171.522 L
80.534 171.513 L
80.779 171.503 L
81.024 171.494 L
81.268 171.484 L
81.513 171.475 L
81.758 171.466 L
82.003 171.456 L
82.247 171.447 L
82.492 171.438 L
82.737 171.429 L
82.982 171.421 L
83.226 171.412 L
83.471 171.403 L
83.716 171.395 L
83.961 171.387 L
84.206 171.379 L
84.45 171.371 L
84.695 171.363 L
84.94 171.355 L
85.185 171.348 L
85.429 171.341 L
85.674 171.334 L
85.919 171.327 L
86.164 171.32 L
86.409 171.313 L
86.653 171.307 L
86.898 171.301 L
87.143 171.295 L
87.388 171.289 L
87.632 171.283 L
87.877 171.278 L
88.122 171.272 L
88.367 171.267 L
88.611 171.262 L
88.856 171.257 L
89.101 171.253 L
89.346 171.248 L
89.591 171.243 L
89.835 171.239 L
90.08 171.235 L
90.325 171.231 L
90.57 171.227 L
90.814 171.223 L
91.059 171.219 L
91.304 171.216 L
91.549 171.212 L
91.794 171.209 L
92.038 171.206 L
92.283 171.202 L
92.528 171.199 L
92.773 171.196 L
93.017 171.193 L
93.262 171.19 L
93.507 171.187 L
93.752 171.184 L
93.997 171.181 L
94.241 171.179 L
94.486 171.176 L
94.731 171.173 L
94.976 171.17 L
95.22 171.168 L
95.465 171.165 L
95.71 171.162 L
95.955 171.16 L
96.199 171.157 L
96.444 171.154 L
96.689 171.152 L
96.934 171.149 L
97.179 171.146 L
97.423 171.143 L
97.668 171.14 L
97.913 171.137 L
98.158 171.134 L
98.402 171.131 L
98.647 171.128 L
98.892 171.125 L
99.137 171.122 L
99.382 171.118 L
99.626 171.115 L
99.871 171.111 L
100.116 171.108 L
100.361 171.104 L
100.605 171.1 L
100.85 171.096 L
101.095 171.092 L
101.34 171.088 L
101.584 171.083 L
101.829 171.079 L
102.074 171.074 L
102.319 171.07 L
102.564 171.065 L
102.808 171.06 L
103.053 171.054 L
103.298 171.049 L
103.543 171.043 L
103.787 171.038 L
104.032 171.032 L
104.277 171.025 L
104.522 171.019 L
104.767 171.012 L
105.011 171.005 L
105.256 170.998 L
105.501 170.991 L
105.746 170.984 L
105.99 170.976 L
106.235 170.968 L
106.48 170.959 L
106.725 170.951 L
106.97 170.942 L
107.214 170.933 L
107.459 170.924 L
107.704 170.914 L
107.949 170.904 L
108.193 170.894 L
108.438 170.883 L
108.683 170.873 L
108.928 170.862 L
109.172 170.85 L
109.417 170.839 L
109.662 170.827 L
109.907 170.815 L
110.152 170.802 L
110.396 170.789 L
110.641 170.776 L
110.886 170.763 L
111.131 170.749 L
111.375 170.735 L
111.62 170.721 L
111.865 170.707 L
112.11 170.692 L
112.355 170.677 L
112.599 170.661 L
112.844 170.646 L
113.089 170.63 L
113.334 170.614 L
113.578 170.597 L
113.823 170.58 L
114.068 170.563 L
114.313 170.545 L
114.557 170.528 L
114.802 170.509 L
115.047 170.491 L
115.292 170.472 L
115.537 170.453 L
115.781 170.434 L
116.026 170.414 L
116.271 170.394 L
116.516 170.374 L
116.76 170.353 L
117.005 170.332 L
117.25 170.31 L
117.495 170.289 L
117.74 170.266 L
117.984 170.244 L
118.229 170.221 L
118.474 170.198 L
118.719 170.175 L
118.963 170.151 L
119.208 170.127 L
119.453 170.102 L
119.698 170.077 L
119.943 170.052 L
120.187 170.027 L
120.432 170.001 L
120.677 169.975 L
120.922 169.948 L
121.166 169.922 L
121.411 169.895 L
121.656 169.867 L
121.901 169.84 L
122.145 169.812 L
122.39 169.784 L
122.635 169.755 L
122.88 169.726 L
123.125 169.697 L
123.369 169.668 L
123.614 169.639 L
123.859 169.609 L
124.104 169.579 L
124.348 169.549 L
124.593 169.518 L
124.838 169.487 L
125.083 169.456 L
125.328 169.425 L
125.572 169.394 L
125.817 169.362 L
126.062 169.33 L
126.307 169.298 L
126.551 169.265 L
126.796 169.232 L
127.041 169.199 L
127.286 169.165 L
127.53 169.131 L
127.775 169.097 L
128.02 169.062 L
128.265 169.027 L
128.51 168.991 L
128.754 168.955 L
128.999 168.918 L
129.244 168.88 L
129.489 168.842 L
129.733 168.803 L
129.978 168.763 L
130.223 168.723 L
130.468 168.681 L
130.713 168.638 L
130.957 168.595 L
131.202 168.55 L
131.447 168.505 L
131.692 168.458 L
131.936 168.41 L
132.181 168.361 L
132.426 168.311 L
132.671 168.259 L
132.916 168.206 L
133.16 168.152 L
133.405 168.097 L
133.65 168.041 L
133.895 167.984 L
134.139 167.925 L
134.384 167.866 L
134.629 167.806 L
134.874 167.746 L
135.118 167.684 L
135.363 167.623 L
135.608 167.561 L
135.853 167.499 L
136.098 167.438 L
136.342 167.376 L
136.587 167.315 L
136.832 167.255 L
137.077 167.195 L
137.321 167.137 L
137.566 167.079 L
137.811 167.023 L
138.056 166.968 L
138.301 166.915 L
138.545 166.863 L
138.79 166.813 L
139.035 166.765 L
139.28 166.718 L
139.524 166.674 L
139.769 166.631 L
140.014 166.589 L
140.259 166.549 L
140.503 166.511 L
140.748 166.474 L
140.993 166.439 L
141.238 166.405 L
141.483 166.371 L
141.727 166.339 L
141.972 166.307 L
142.217 166.276 L
142.462 166.245 L
142.706 166.214 L
142.951 166.182 L
143.196 166.151 L
143.441 166.119 L
143.686 166.086 L
143.93 166.052 L
144.175 166.017 L
144.42 165.981 L
144.665 165.944 L
144.909 165.905 L
145.154 165.865 L
145.399 165.824 L
145.644 165.782 L
145.889 165.738 L
146.133 165.693 L
146.378 165.647 L
146.623 165.601 L
146.868 165.555 L
147.112 165.508 L
147.357 165.463 L
147.602 165.418 L
147.847 165.375 L
148.091 165.333 L
148.336 165.295 L
148.581 165.259 L
148.826 165.227 L
149.071 165.199 L
149.315 165.176 L
149.56 165.157 L
149.805 165.144 L
150.05 165.136 L
150.294 165.134 L
150.539 165.137 L
150.784 165.146 L
151.029 165.159 L
151.274 165.178 L
151.518 165.202 L
151.763 165.23 L
152.008 165.261 L
152.253 165.296 L
152.497 165.334 L
152.742 165.373 L
152.987 165.414 L
153.232 165.456 L
153.476 165.498 L
153.721 165.539 L
153.966 165.58 L
154.211 165.619 L
154.456 165.657 L
154.7 165.692 L
154.945 165.725 L
155.19 165.754 L
155.435 165.781 L
155.679 165.803 L
155.924 165.822 L
156.169 165.836 L
156.414 165.846 L
156.659 165.851 L
156.903 165.852 L
157.148 165.847 L
157.393 165.837 L
157.638 165.822 L
157.882 165.8 L
158.127 165.773 L
158.372 165.74 L
158.617 165.7 L
158.861 165.654 L
159.106 165.601 L
159.351 165.54 L
159.596 165.473 L
159.841 165.398 L
160.085 165.315 L
160.33 165.224 L
160.575 165.126 L
160.82 165.019 L
161.064 164.903 L
161.309 164.779 L
161.554 164.646 L
161.799 164.504 L
162.044 164.354 L
162.288 164.195 L
162.533 164.026 L
162.778 163.85 L
163.023 163.664 L
163.267 163.47 L
163.512 163.267 L
163.757 163.056 L
164.002 162.837 L
164.247 162.611 L
164.491 162.377 L
164.736 162.136 L
164.981 161.888 L
165.226 161.634 L
165.47 161.375 L
165.715 161.11 L
165.96 160.84 L
166.205 160.567 L
166.449 160.29 L
166.694 160.01 L
166.939 159.729 L
167.184 159.446 L
167.429 159.163 L
167.673 158.881 L
167.918 158.601 L
168.163 158.323 L
168.408 158.049 L
168.652 157.78 L
168.897 157.516 L
169.142 157.258 L
169.387 157.008 L
169.632 156.766 L
169.876 156.533 L
170.121 156.31 L
170.366 156.097 L
170.611 155.895 L
170.855 155.704 L
171.1 155.524 L
171.345 155.355 L
171.59 155.198 L
171.834 155.051 L
172.079 154.914 L
172.324 154.787 L
172.569 154.67 L
172.814 154.56 L
173.058 154.459 L
173.303 154.364 L
173.548 154.275 L
173.793 154.19 L
174.037 154.11 L
174.282 154.033 L
174.527 153.959 L
174.772 153.886 L
175.017 153.814 L
175.261 153.743 L
175.506 153.671 L
175.751 153.599 L
175.996 153.525 L
176.24 153.45 L
176.485 153.374 L
176.73 153.296 L
176.975 153.215 L
177.22 153.133 L
177.464 153.048 L
177.709 152.961 L
177.954 152.872 L
178.199 152.78 L
178.443 152.686 L
178.688 152.59 L
178.933 152.492 L
179.178 152.392 L
179.422 152.29 L
179.667 152.186 L
179.912 152.08 L
180.157 151.972 L
180.402 151.862 L
180.646 151.75 L
180.891 151.636 L
181.136 151.52 L
181.381 151.401 L
181.625 151.28 L
181.87 151.156 L
182.115 151.03 L
182.36 150.899 L
182.605 150.765 L
182.849 150.627 L
183.094 150.484 L
183.339 150.335 L
183.584 150.181 L
183.828 150.02 L
184.073 149.851 L
184.318 149.674 L
184.563 149.488 L
184.807 149.293 L
185.052 149.086 L
185.297 148.867 L
185.542 148.636 L
185.787 148.39 L
186.031 148.13 L
186.276 147.854 L
186.521 147.561 L
186.766 147.249 L
187.01 146.919 L
187.255 146.568 L
187.5 146.196 L
187.745 145.802 L
187.99 145.386 L
188.234 144.946 L
188.479 144.481 L
188.724 143.993 L
188.969 143.479 L
189.213 142.94 L
189.458 142.376 L
189.703 141.786 L
189.948 141.172 L
190.193 140.532 L
190.437 139.869 L
190.682 139.183 L
190.927 138.474 L
191.172 137.744 L
191.416 136.993 L
191.661 136.224 L
191.906 135.437 L
192.151 134.635 L
192.395 133.818 L
192.64 132.99 L
192.885 132.15 L
193.13 131.303 L
193.375 130.448 L
193.619 129.59 L
193.864 128.728 L
194.109 127.867 L
194.354 127.007 L
194.598 126.151 L
194.843 125.3 L
195.088 124.458 L
195.333 123.625 L
195.578 122.804 L
195.822 121.996 L
196.067 121.204 L
196.312 120.428 L
196.557 119.671 L
196.801 118.934 L
197.046 118.218 L
197.291 117.525 L
197.536 116.855 L
197.78 116.21 L
198.025 115.589 L
198.27 114.994 L
198.515 114.424 L
198.76 113.88 L
199.004 113.362 L
199.249 112.868 L
199.494 112.397 L
199.739 111.95 L
199.983 111.524 L
200.228 111.117 L
200.473 110.728 L
200.718 110.355 L
200.963 109.995 L
201.207 109.645 L
201.452 109.303 L
201.697 108.966 L
201.942 108.631 L
202.186 108.295 L
202.431 107.954 L
202.676 107.607 L
202.921 107.25 L
203.166 106.881 L
203.41 106.498 L
203.655 106.1 L
203.9 105.684 L
204.145 105.252 L
204.389 104.801 L
204.634 104.334 L
204.879 103.851 L
205.124 103.354 L
205.368 102.848 L
205.613 102.335 L
205.858 101.821 L
206.103 101.311 L
206.348 100.813 L
206.592 100.335 L
206.837 99.885 L
207.082 99.473 L
207.327 99.111 L
207.571 98.809 L
207.816 98.581 L
208.061 98.438 L
208.306 98.393 L
208.551 98.46 L
208.795 98.649 L
209.04 98.971 L
209.285 99.436 L
209.53 100.049 L
209.774 100.815 L
210.019 101.733 L
210.264 102.799 L
210.509 104.004 L
210.753 105.331 L
210.998 106.762 L
211.243 108.268 L
211.488 109.819 L
211.733 111.377 L
211.977 112.899 L
212.222 114.341 L
212.467 115.658 L
212.712 116.802 L
212.956 117.734 L
213.201 118.418 L
213.446 118.828 L
213.691 118.948 L
213.936 118.777 L
214.18 118.324 L
214.425 117.609 L
214.67 116.662 L
214.915 115.518 L
215.159 114.217 L
215.404 112.798 L
215.649 111.302 L
215.894 109.765 L
216.139 108.221 L
216.383 106.702 L
216.628 105.231 L
216.873 103.832 L
217.118 102.521 L
217.362 101.312 L
217.607 100.213 L
217.852 99.23 L
218.097 98.366 L
218.341 97.621 L
218.586 96.991 L
218.831 96.471 L
219.076 96.055 L
219.321 95.735 L
219.565 95.502 L
219.81 95.348 L
220.055 95.263 L
220.3 95.238 L
220.544 95.265 L
220.789 95.335 L
221.034 95.44 L
221.279 95.574 L
221.524 95.729 L
221.768 95.898 L
222.013 96.075 L
222.258 96.253 L
222.503 96.426 L
222.747 96.586 L
222.992 96.725 L
223.237 96.836 L
223.482 96.91 L
223.726 96.938 L
223.971 96.913 L
224.216 96.826 L
224.461 96.669 L
224.706 96.436 L
224.95 96.119 L
225.195 95.714 L
225.44 95.216 L
225.685 94.623 L
225.929 93.932 L
226.174 93.141 L
226.419 92.252 L
226.664 91.263 L
226.909 90.178 L
227.153 88.996 L
227.398 87.72 L
227.643 86.353 L
227.888 84.897 L
228.132 83.354 L
228.377 81.729 L
228.622 80.023 L
228.867 78.24 L
229.111 76.385 L
229.356 74.46 L
229.601 72.472 L
229.846 70.426 L
230.091 68.327 L
230.335 66.183 L
230.58 64.001 L
230.825 61.791 L
231.07 59.561 L
231.314 57.322 L
231.559 55.086 L
231.804 52.865 L
232.049 50.671 L
232.294 48.518 L
232.538 46.42 L
232.783 44.392 L
233.028 42.448 L
233.273 40.603 L
233.517 38.873 L
233.762 37.27 L
234.007 35.808 L
234.252 34.501 L
234.497 33.36 L
234.741 32.395 L
234.986 31.613 L
235.231 31.019 L
235.476 30.617 L
235.72 30.404 L
235.965 30.375 L
236.21 30.522 L
236.455 30.828 L
236.699 31.274 L
236.944 31.835 L
237.189 32.481 L
237.434 33.176 L
237.679 33.883 L
237.923 34.562 L
238.168 35.173 L
238.413 35.679 L
238.658 36.049 L
238.902 36.259 L
239.147 36.297 L
239.392 36.159 L
239.637 35.856 L
239.882 35.41 L
240.126 34.853 L
240.371 34.224 L
240.616 33.569 L
240.861 32.936 L
241.105 32.372 L
241.35 31.919 L
241.595 31.616 L
241.84 31.494 L
242.084 31.575 L
242.329 31.871 L
242.574 32.384 L
242.819 33.107 L
243.064 34.024 L
243.308 35.11 L
243.553 36.333 L
243.798 37.654 L
244.043 39.031 L
244.287 40.421 L
244.532 41.777 L
244.777 43.058 L
245.022 44.224 L
245.267 45.242 L
245.511 46.086 L
245.756 46.739 L
246.001 47.193 L
246.246 47.45 L
246.49 47.519 L
246.735 47.421 L
246.98 47.18 L
247.225 46.827 L
247.469 46.395 L
247.714 45.921 L
247.959 45.439 L
248.204 44.984 L
248.449 44.588 L
248.693 44.277 L
248.938 44.075 L
249.183 44 L
249.428 44.064 L
249.672 44.277 L
249.917 44.639 L
250.162 45.148 L
250.407 45.796 L
250.652 46.574 L
250.896 47.464 L
251.141 48.45 L
251.386 49.511 L
251.631 50.624 L
251.875 51.766 L
252.12 52.913 L
252.365 54.041 L
252.61 55.127 L
252.855 56.149 L
253.099 57.088 L
253.344 57.927 L
253.589 58.651 L
253.834 59.25 L
254.078 59.715 L
254.323 60.043 L
254.568 60.234 L
254.813 60.291 L
255.057 60.221 L
255.302 60.033 L
255.547 59.74 L
255.792 59.355 L
256.037 58.895 L
256.281 58.376 L
256.526 57.816 L
256.771 57.233 L
257.016 56.644 L
257.26 56.066 L
257.505 55.514 L
257.75 55.003 L
257.995 54.546 L
258.24 54.153 L
258.484 53.834 L
258.729 53.597 L
258.974 53.447 L
259.219 53.389 L
259.463 53.426 L
259.708 53.559 L
259.953 53.789 L
260.198 54.114 L
260.443 54.533 L
260.687 55.044 L
260.932 55.644 L
261.177 56.329 L
261.422 57.096 L
261.666 57.941 L
261.911 58.859 L
262.156 59.845 L
262.401 60.895 L
262.645 62.002 L
262.89 63.161 L
263.135 64.366 L
263.38 65.609 L
263.625 66.884 L
263.869 68.182 L
264.114 69.495 L
264.359 70.813 L
264.604 72.128 L
264.848 73.427 L
265.093 74.702 L
265.338 75.941 L
265.583 77.133 L
265.828 78.271 L
266.072 79.344 L
266.317 80.346 L
266.562 81.272 L
266.807 82.119 L
267.051 82.887 L
267.296 83.578 L
267.541 84.197 L
267.786 84.748 L
268.03 85.241 L
268.275 85.683 L
268.52 86.086 L
268.765 86.458 L
269.01 86.81 L
269.254 87.153 L
269.499 87.495 L
269.744 87.844 L
269.989 88.207 L
270.233 88.592 L
270.478 89.002 L
270.723 89.441 L
270.968 89.91 L
271.213 90.412 L
271.457 90.946 L
271.702 91.509 L
271.947 92.099 L
272.192 92.711 L
272.436 93.341 L
272.681 93.979 L
272.926 94.619 L
273.171 95.249 L
273.415 95.858 L
273.66 96.432 L
273.905 96.956 L
274.15 97.414 L
274.395 97.786 L
274.639 98.057 L
274.884 98.205 L
275.129 98.215 L
275.374 98.068 L
275.618 97.752 L
275.863 97.256 L
276.108 96.573 L
276.353 95.701 L
276.598 94.645 L
276.842 93.414 L
277.087 92.021 L
277.332 90.484 L
277.577 88.827 L
277.821 87.073 L
278.066 85.249 L
278.311 83.382 L
278.556 81.499 L
278.801 79.624 L
279.045 77.783 L
279.29 75.998 L
279.535 74.287 L
279.78 72.669 L
280.024 71.157 L
280.269 69.764 L
280.514 68.498 L
280.759 67.365 L
281.003 66.37 L
281.248 65.514 L
281.493 64.796 L
281.738 64.215 L
281.983 63.765 L
282.227 63.442 L
282.472 63.239 L
282.717 63.148 L
282.962 63.161 L
283.206 63.268 L
283.451 63.461 L
283.696 63.731 L
283.941 64.068 L
284.186 64.465 L
284.43 64.912 L
284.675 65.404 L
284.92 65.933 L
285.165 66.497 L
285.409 67.09 L
285.654 67.71 L
285.899 68.357 L
286.144 69.029 L
286.388 69.729 L
286.633 70.458 L
286.878 71.218 L
287.123 72.012 L
287.368 72.843 L
287.612 73.715 L
287.857 74.628 L
288.102 75.586 L
288.347 76.591 L
288.591 77.642 L
288.836 78.739 L
289.081 79.882 L
289.326 81.068 L
289.571 82.295 L
289.815 83.559 L
290.06 84.855 L
290.305 86.18 L
290.55 87.526 L
290.794 88.89 L
291.039 90.263 L
291.284 91.642 L
291.529 93.018 L
291.774 94.386 L
292.018 95.74 L
292.263 97.075 L
292.508 98.384 L
292.753 99.662 L
292.997 100.906 L
293.242 102.11 L
293.487 103.27 L
293.732 104.382 L
293.976 105.444 L
294.221 106.453 L
294.466 107.405 L
294.711 108.299 L
294.956 109.133 L
295.2 109.904 L
295.445 110.612 L
295.69 111.254 L
295.935 111.831 L
296.179 112.339 L
296.424 112.78 L
296.669 113.151 L
296.914 113.451 L
297.159 113.681 L
297.403 113.84 L
297.648 113.927 L
297.893 113.942 L
298.138 113.885 L
298.382 113.755 L
298.627 113.555 L
298.872 113.283 L
299.117 112.942 L
299.362 112.533 L
299.606 112.058 L
299.851 111.519 L
300.096 110.919 L
300.341 110.262 L
300.585 109.551 L
300.83 108.791 L
301.075 107.986 L
301.32 107.141 L
301.564 106.263 L
301.809 105.356 L
302.054 104.428 L
302.299 103.484 L
302.544 102.531 L
302.788 101.577 L
303.033 100.626 L
303.278 99.688 L
303.523 98.767 L
303.767 97.871 L
304.012 97.005 L
304.257 96.176 L
304.502 95.39 L
304.747 94.65 L
304.991 93.962 L
305.236 93.331 L
305.481 92.758 L
305.726 92.249 L
305.97 91.804 L
306.215 91.425 L
306.46 91.114 L
306.705 90.871 L
306.949 90.696 L
307.194 90.588 L
307.439 90.546 L
307.684 90.567 L
307.929 90.65 L
308.173 90.793 L
308.418 90.991 L
308.663 91.241 L
308.908 91.541 L
309.152 91.886 L
309.397 92.273 L
309.642 92.697 L
309.887 93.156 L
310.132 93.644 L
310.376 94.159 L
310.621 94.697 L
310.866 95.255 L
311.111 95.828 L
311.355 96.415 L
311.6 97.013 L
311.845 97.618 L
312.09 98.228 L
312.335 98.841 L
312.579 99.456 L
312.824 100.069 L
313.069 100.68 L
313.314 101.287 L
313.558 101.888 L
313.803 102.483 L
314.048 103.069 L
314.293 103.647 L
314.537 104.216 L
314.782 104.774 L
315.027 105.321 L
315.272 105.856 L
315.517 106.379 L
315.761 106.89 L
316.006 107.387 L
316.251 107.872 L
316.496 108.342 L
316.74 108.798 L
316.985 109.24 L
317.23 109.668 L
317.475 110.081 L
317.72 110.478 L
317.964 110.861 L
318.209 111.228 L
318.454 111.579 L
318.699 111.914 L
318.943 112.234 L
319.188 112.536 L
319.433 112.823 L
319.678 113.092 L
319.922 113.344 L
320.167 113.579 L
320.412 113.796 L
320.657 113.995 L
320.902 114.176 L
321.146 114.337 L
321.391 114.48 L
321.636 114.603 L
321.881 114.706 L
322.125 114.788 L
322.37 114.849 L
322.615 114.888 L
322.86 114.905 L
323.105 114.899 L
323.349 114.869 L
323.594 114.815 L
323.839 114.735 L
324.084 114.63 L
324.328 114.499 L
324.573 114.34 L
324.818 114.153 L
325.063 113.938 L
325.307 113.695 L
325.552 113.422 L
325.797 113.12 L
326.042 112.788 L
326.287 112.427 L
326.531 112.037 L
326.776 111.619 L
327.021 111.172 L
327.266 110.699 L
327.51 110.199 L
327.755 109.675 L
328 109.129 L
328.034 109.051 L
S
GR
%%Trailer
%%Pages: 1
%%EOF
