%!PS-Adobe-3.0 EPSF-3.0
%%Creator: (MATLAB, The Mathworks, Inc. Version 9.10.0.1684407 \(R2021a\) Update 3. Operating System: Linux)
%%Title: /home/adoan/Code/PRoSA_PI-ESN_Git/pi-esn/Results/MFE_results/Figures/FIG7_DOWN_C.eps
%%CreationDate: 2021-07-21T18:44:10
%%Pages: (atend)
%%BoundingBox:     0     0   255   227
%%LanguageLevel: 3
%%EndComments
%%BeginProlog
%%BeginResource: procset (Apache XML Graphics Std ProcSet) 1.2 0
%%Version: 1.2 0
%%Copyright: (Copyright 2001-2003,2010 The Apache Software Foundation. License terms: http://www.apache.org/licenses/LICENSE-2.0)
/bd{bind def}bind def
/ld{load def}bd
/GR/grestore ld
/GS/gsave ld
/RM/rmoveto ld
/C/curveto ld
/t/show ld
/L/lineto ld
/ML/setmiterlimit ld
/CT/concat ld
/f/fill ld
/N/newpath ld
/S/stroke ld
/CC/setcmykcolor ld
/A/ashow ld
/cp/closepath ld
/RC/setrgbcolor ld
/LJ/setlinejoin ld
/GC/setgray ld
/LW/setlinewidth ld
/M/moveto ld
/re {4 2 roll M
1 index 0 rlineto
0 exch rlineto
neg 0 rlineto
cp } bd
/_ctm matrix def
/_tm matrix def
/BT { _ctm currentmatrix pop matrix _tm copy pop 0 0 moveto } bd
/ET { _ctm setmatrix } bd
/iTm { _ctm setmatrix _tm concat } bd
/Tm { _tm astore pop iTm 0 0 moveto } bd
/ux 0.0 def
/uy 0.0 def
/F {
  /Tp exch def
  /Tf exch def
  Tf findfont Tp scalefont setfont
  /cf Tf def  /cs Tp def
} bd
/ULS {currentpoint /uy exch def /ux exch def} bd
/ULE {
  /Tcx currentpoint pop def
  gsave
  newpath
  cf findfont cs scalefont dup
  /FontMatrix get 0 get /Ts exch def /FontInfo get dup
  /UnderlinePosition get Ts mul /To exch def
  /UnderlineThickness get Ts mul /Tt exch def
  ux uy To add moveto  Tcx uy To add lineto
  Tt setlinewidth stroke
  grestore
} bd
/OLE {
  /Tcx currentpoint pop def
  gsave
  newpath
  cf findfont cs scalefont dup
  /FontMatrix get 0 get /Ts exch def /FontInfo get dup
  /UnderlinePosition get Ts mul /To exch def
  /UnderlineThickness get Ts mul /Tt exch def
  ux uy To add cs add moveto Tcx uy To add cs add lineto
  Tt setlinewidth stroke
  grestore
} bd
/SOE {
  /Tcx currentpoint pop def
  gsave
  newpath
  cf findfont cs scalefont dup
  /FontMatrix get 0 get /Ts exch def /FontInfo get dup
  /UnderlinePosition get Ts mul /To exch def
  /UnderlineThickness get Ts mul /Tt exch def
  ux uy To add cs 10 mul 26 idiv add moveto Tcx uy To add cs 10 mul 26 idiv add lineto
  Tt setlinewidth stroke
  grestore
} bd
/QT {
/Y22 exch store
/X22 exch store
/Y21 exch store
/X21 exch store
currentpoint
/Y21 load 2 mul add 3 div exch
/X21 load 2 mul add 3 div exch
/X21 load 2 mul /X22 load add 3 div
/Y21 load 2 mul /Y22 load add 3 div
/X22 load /Y22 load curveto
} bd
/SSPD {
dup length /d exch dict def
{
/v exch def
/k exch def
currentpagedevice k known {
/cpdv currentpagedevice k get def
v cpdv ne {
/upd false def
/nullv v type /nulltype eq def
/nullcpdv cpdv type /nulltype eq def
nullv nullcpdv or
{
/upd true def
} {
/sametype v type cpdv type eq def
sametype {
v type /arraytype eq {
/vlen v length def
/cpdvlen cpdv length def
vlen cpdvlen eq {
0 1 vlen 1 sub {
/i exch def
/obj v i get def
/cpdobj cpdv i get def
obj cpdobj ne {
/upd true def
exit
} if
} for
} {
/upd true def
} ifelse
} {
v type /dicttype eq {
v {
/dv exch def
/dk exch def
/cpddv cpdv dk get def
dv cpddv ne {
/upd true def
exit
} if
} forall
} {
/upd true def
} ifelse
} ifelse
} if
} ifelse
upd true eq {
d k v put
} if
} if
} if
} forall
d length 0 gt {
d setpagedevice
} if
} bd
/RE { % /NewFontName [NewEncodingArray] /FontName RE -
  findfont dup length dict begin
  {
    1 index /FID ne
    {def} {pop pop} ifelse
  } forall
  /Encoding exch def
  /FontName 1 index def
  currentdict definefont pop
  end
} bind def
%%EndResource
%%BeginResource: procset (Apache XML Graphics EPS ProcSet) 1.0 0
%%Version: 1.0 0
%%Copyright: (Copyright 2002-2003 The Apache Software Foundation. License terms: http://www.apache.org/licenses/LICENSE-2.0)
/BeginEPSF { %def
/b4_Inc_state save def         % Save state for cleanup
/dict_count countdictstack def % Count objects on dict stack
/op_count count 1 sub def      % Count objects on operand stack
userdict begin                 % Push userdict on dict stack
/showpage { } def              % Redefine showpage, { } = null proc
0 setgray 0 setlinecap         % Prepare graphics state
1 setlinewidth 0 setlinejoin
10 setmiterlimit [ ] 0 setdash newpath
/languagelevel where           % If level not equal to 1 then
{pop languagelevel             % set strokeadjust and
1 ne                           % overprint to their defaults.
{false setstrokeadjust false setoverprint
} if
} if
} bd
/EndEPSF { %def
count op_count sub {pop} repeat            % Clean up stacks
countdictstack dict_count sub {end} repeat
b4_Inc_state restore
} bd
%%EndResource
%FOPBeginFontDict
%%IncludeResource: font Courier-Oblique
%%IncludeResource: font Courier-BoldOblique
%%IncludeResource: font Courier-Bold
%%IncludeResource: font ZapfDingbats
%%IncludeResource: font Symbol
%%IncludeResource: font Helvetica
%%IncludeResource: font Helvetica-Oblique
%%IncludeResource: font Helvetica-Bold
%%IncludeResource: font Helvetica-BoldOblique
%%IncludeResource: font Times-Roman
%%IncludeResource: font Times-Italic
%%IncludeResource: font Times-Bold
%%IncludeResource: font Times-BoldItalic
%%IncludeResource: font Courier
%FOPEndFontDict
%%BeginResource: encoding WinAnsiEncoding
/WinAnsiEncoding [
/.notdef /.notdef /.notdef /.notdef /.notdef
/.notdef /.notdef /.notdef /.notdef /.notdef
/.notdef /.notdef /.notdef /.notdef /.notdef
/.notdef /.notdef /.notdef /.notdef /.notdef
/.notdef /.notdef /.notdef /.notdef /.notdef
/.notdef /.notdef /.notdef /.notdef /.notdef
/.notdef /.notdef /space /exclam /quotedbl
/numbersign /dollar /percent /ampersand /quotesingle
/parenleft /parenright /asterisk /plus /comma
/hyphen /period /slash /zero /one
/two /three /four /five /six
/seven /eight /nine /colon /semicolon
/less /equal /greater /question /at
/A /B /C /D /E
/F /G /H /I /J
/K /L /M /N /O
/P /Q /R /S /T
/U /V /W /X /Y
/Z /bracketleft /backslash /bracketright /asciicircum
/underscore /quoteleft /a /b /c
/d /e /f /g /h
/i /j /k /l /m
/n /o /p /q /r
/s /t /u /v /w
/x /y /z /braceleft /bar
/braceright /asciitilde /bullet /Euro /bullet
/quotesinglbase /florin /quotedblbase /ellipsis /dagger
/daggerdbl /circumflex /perthousand /Scaron /guilsinglleft
/OE /bullet /Zcaron /bullet /bullet
/quoteleft /quoteright /quotedblleft /quotedblright /bullet
/endash /emdash /asciitilde /trademark /scaron
/guilsinglright /oe /bullet /zcaron /Ydieresis
/space /exclamdown /cent /sterling /currency
/yen /brokenbar /section /dieresis /copyright
/ordfeminine /guillemotleft /logicalnot /sfthyphen /registered
/macron /degree /plusminus /twosuperior /threesuperior
/acute /mu /paragraph /middot /cedilla
/onesuperior /ordmasculine /guillemotright /onequarter /onehalf
/threequarters /questiondown /Agrave /Aacute /Acircumflex
/Atilde /Adieresis /Aring /AE /Ccedilla
/Egrave /Eacute /Ecircumflex /Edieresis /Igrave
/Iacute /Icircumflex /Idieresis /Eth /Ntilde
/Ograve /Oacute /Ocircumflex /Otilde /Odieresis
/multiply /Oslash /Ugrave /Uacute /Ucircumflex
/Udieresis /Yacute /Thorn /germandbls /agrave
/aacute /acircumflex /atilde /adieresis /aring
/ae /ccedilla /egrave /eacute /ecircumflex
/edieresis /igrave /iacute /icircumflex /idieresis
/eth /ntilde /ograve /oacute /ocircumflex
/otilde /odieresis /divide /oslash /ugrave
/uacute /ucircumflex /udieresis /yacute /thorn
/ydieresis
] def
%%EndResource
%FOPBeginFontReencode
/Courier-Oblique findfont
dup length dict begin
  {1 index /FID ne {def} {pop pop} ifelse} forall
  /Encoding WinAnsiEncoding def
  currentdict
end
/Courier-Oblique exch definefont pop
/Courier-BoldOblique findfont
dup length dict begin
  {1 index /FID ne {def} {pop pop} ifelse} forall
  /Encoding WinAnsiEncoding def
  currentdict
end
/Courier-BoldOblique exch definefont pop
/Courier-Bold findfont
dup length dict begin
  {1 index /FID ne {def} {pop pop} ifelse} forall
  /Encoding WinAnsiEncoding def
  currentdict
end
/Courier-Bold exch definefont pop
/Helvetica findfont
dup length dict begin
  {1 index /FID ne {def} {pop pop} ifelse} forall
  /Encoding WinAnsiEncoding def
  currentdict
end
/Helvetica exch definefont pop
/Helvetica-Oblique findfont
dup length dict begin
  {1 index /FID ne {def} {pop pop} ifelse} forall
  /Encoding WinAnsiEncoding def
  currentdict
end
/Helvetica-Oblique exch definefont pop
/Helvetica-Bold findfont
dup length dict begin
  {1 index /FID ne {def} {pop pop} ifelse} forall
  /Encoding WinAnsiEncoding def
  currentdict
end
/Helvetica-Bold exch definefont pop
/Helvetica-BoldOblique findfont
dup length dict begin
  {1 index /FID ne {def} {pop pop} ifelse} forall
  /Encoding WinAnsiEncoding def
  currentdict
end
/Helvetica-BoldOblique exch definefont pop
/Times-Roman findfont
dup length dict begin
  {1 index /FID ne {def} {pop pop} ifelse} forall
  /Encoding WinAnsiEncoding def
  currentdict
end
/Times-Roman exch definefont pop
/Times-Italic findfont
dup length dict begin
  {1 index /FID ne {def} {pop pop} ifelse} forall
  /Encoding WinAnsiEncoding def
  currentdict
end
/Times-Italic exch definefont pop
/Times-Bold findfont
dup length dict begin
  {1 index /FID ne {def} {pop pop} ifelse} forall
  /Encoding WinAnsiEncoding def
  currentdict
end
/Times-Bold exch definefont pop
/Times-BoldItalic findfont
dup length dict begin
  {1 index /FID ne {def} {pop pop} ifelse} forall
  /Encoding WinAnsiEncoding def
  currentdict
end
/Times-BoldItalic exch definefont pop
/Courier findfont
dup length dict begin
  {1 index /FID ne {def} {pop pop} ifelse} forall
  /Encoding WinAnsiEncoding def
  currentdict
end
/Courier exch definefont pop
%FOPEndFontReencode
%%EndProlog
%%Page: 1 1
%%PageBoundingBox: 0 0 255 227
%%BeginPageSetup
[1 0 0 -1 0 227] CT
%%EndPageSetup
GS
[0.78257 0 0 0.78197 0 0.22835] CT
1 GC
N
0 0 326 290 re
f
GR
GS
[0.78257 0 0 0.78197 0 0.22835] CT
1 GC
N
0 0 326 290 re
f
GR
GS
[0.78257 0 0 0.78197 0 0.22835] CT
1 GC
N
42 226.743 M
295 226.743 L
295 53.257 L
42 53.257 L
cp
f
GR
GS
[0.78257 0 0 0.78197 0 0.22835] CT
0.239 0.149 0.659 RC
N
171.313 226.743 M
175.158 226.743 L
188.474 226.743 L
201.789 226.743 L
215.105 226.743 L
218.209 226.743 L
228.421 226.743 L
229.524 226.743 L
238.046 226.743 L
241.737 226.743 L
245.843 226.743 L
244.938 217.612 L
242.221 208.481 L
241.737 207.464 L
237.278 199.35 L
230.89 190.22 L
228.421 187.035 L
223.258 181.089 L
216.124 171.958 L
215.105 170.367 L
210.026 162.827 L
206.112 153.696 L
204.234 144.565 L
204.234 135.435 L
206.112 126.304 L
210.026 117.173 L
215.105 109.633 L
216.124 108.042 L
223.258 98.911 L
228.421 92.965 L
230.89 89.78 L
237.278 80.65 L
241.737 72.536 L
242.221 71.519 L
244.938 62.388 L
245.843 53.257 L
241.737 53.257 L
238.046 53.257 L
229.524 53.257 L
228.421 53.257 L
218.209 53.257 L
215.105 53.257 L
201.789 53.257 L
188.474 53.257 L
175.158 53.257 L
171.313 53.257 L
161.842 53.257 L
159.786 53.257 L
150.826 53.257 L
148.526 53.257 L
142.826 53.257 L
142.213 62.388 L
140.294 71.519 L
136.806 80.65 L
135.211 83.551 L
131.857 89.78 L
125.56 98.911 L
121.895 103.571 L
118.615 108.042 L
112.469 117.173 L
108.579 124.568 L
107.775 126.304 L
105.555 135.435 L
105.555 144.565 L
107.775 153.696 L
108.579 155.432 L
112.469 162.827 L
118.615 171.958 L
121.895 176.429 L
125.56 181.089 L
131.857 190.22 L
135.211 196.449 L
136.806 199.35 L
140.294 208.481 L
142.213 217.612 L
142.826 226.743 L
148.526 226.743 L
150.826 226.743 L
159.786 226.743 L
161.842 226.743 L
cp
f
GR
GS
[0.78257 0 0 0.78197 0 0.22835] CT
0.278 0.263 0.906 RC
N
134.428 217.612 M
135.159 226.743 L
135.211 226.743 L
142.826 226.743 L
142.213 217.612 L
140.294 208.481 L
136.806 199.35 L
135.211 196.449 L
131.857 190.22 L
125.56 181.089 L
121.895 176.429 L
118.615 171.958 L
112.469 162.827 L
108.579 155.432 L
107.775 153.696 L
105.555 144.565 L
105.555 135.435 L
107.775 126.304 L
108.579 124.568 L
112.469 117.173 L
118.615 108.042 L
121.895 103.571 L
125.56 98.911 L
131.857 89.78 L
135.211 83.551 L
136.806 80.65 L
140.294 71.519 L
142.213 62.388 L
142.826 53.257 L
135.211 53.257 L
135.159 53.257 L
134.428 62.388 L
132.2 71.519 L
128.378 80.65 L
122.846 89.78 L
121.895 91.085 L
116.243 98.911 L
109.293 108.042 L
108.579 109.078 L
103.428 117.173 L
99.247 126.304 L
97.065 135.435 L
97.065 144.565 L
99.247 153.696 L
103.428 162.827 L
108.579 170.922 L
109.293 171.958 L
116.243 181.089 L
121.895 188.915 L
122.846 190.22 L
128.378 199.35 L
132.2 208.481 L
cp
244.938 217.612 M
245.843 226.743 L
253.086 226.743 L
252.251 217.612 L
249.744 208.481 L
245.571 199.35 L
241.737 193.163 L
239.697 190.22 L
232.678 181.089 L
228.421 175.526 L
225.543 171.958 L
219.526 162.827 L
215.389 153.696 L
215.105 152.475 L
213.23 144.565 L
213.23 135.435 L
215.105 127.525 L
215.389 126.304 L
219.526 117.173 L
225.543 108.042 L
228.421 104.474 L
232.678 98.911 L
239.697 89.78 L
241.737 86.837 L
245.571 80.65 L
249.744 71.519 L
252.251 62.388 L
253.086 53.257 L
245.843 53.257 L
244.938 62.388 L
242.221 71.519 L
241.737 72.536 L
237.278 80.65 L
230.89 89.78 L
228.421 92.965 L
223.258 98.911 L
216.124 108.042 L
215.105 109.633 L
210.026 117.173 L
206.112 126.304 L
204.234 135.435 L
204.234 144.565 L
206.112 153.696 L
210.026 162.827 L
215.105 170.367 L
216.124 171.958 L
223.258 181.089 L
228.421 187.035 L
230.89 190.22 L
237.278 199.35 L
241.737 207.464 L
242.221 208.481 L
cp
f
GR
GS
[0.78257 0 0 0.78197 0 0.22835] CT
0.173 0.549 0.949 RC
N
126.979 217.612 M
127.809 226.743 L
135.159 226.743 L
134.428 217.612 L
132.2 208.481 L
128.378 199.35 L
122.846 190.22 L
121.895 188.915 L
116.243 181.089 L
109.293 171.958 L
108.579 170.922 L
103.428 162.827 L
99.247 153.696 L
97.065 144.565 L
97.065 135.435 L
99.247 126.304 L
103.428 117.173 L
108.579 109.078 L
109.293 108.042 L
116.243 98.911 L
121.895 91.085 L
122.846 89.78 L
128.378 80.65 L
132.2 71.519 L
134.428 62.388 L
135.159 53.257 L
127.809 53.257 L
126.979 62.388 L
124.45 71.519 L
121.895 77.04 L
120.119 80.65 L
114.246 89.78 L
108.579 97.306 L
107.331 98.911 L
100.539 108.042 L
95.263 116.465 L
94.831 117.173 L
90.93 126.304 L
88.992 135.435 L
88.992 144.565 L
90.93 153.696 L
94.831 162.827 L
95.263 163.535 L
100.539 171.958 L
107.331 181.089 L
108.579 182.694 L
114.246 190.22 L
120.119 199.35 L
121.895 202.96 L
124.45 208.481 L
cp
252.251 217.612 M
253.086 226.743 L
255.053 226.743 L
260.07 226.743 L
259.368 217.612 L
257.209 208.481 L
255.053 203.09 L
253.445 199.35 L
248.159 190.22 L
241.737 181.249 L
241.614 181.089 L
234.716 171.958 L
228.596 162.827 L
228.421 162.476 L
224.216 153.696 L
221.994 144.565 L
221.994 135.435 L
224.216 126.304 L
228.421 117.524 L
228.596 117.173 L
234.716 108.042 L
241.614 98.911 L
241.737 98.751 L
248.159 89.78 L
253.445 80.65 L
255.053 76.91 L
257.209 71.519 L
259.368 62.388 L
260.07 53.257 L
255.053 53.257 L
253.086 53.257 L
252.251 62.388 L
249.744 71.519 L
245.571 80.65 L
241.737 86.837 L
239.697 89.78 L
232.678 98.911 L
228.421 104.474 L
225.543 108.042 L
219.526 117.173 L
215.389 126.304 L
215.105 127.525 L
213.23 135.435 L
213.23 144.565 L
215.105 152.475 L
215.389 153.696 L
219.526 162.827 L
225.543 171.958 L
228.421 175.526 L
232.678 181.089 L
239.697 190.22 L
241.737 193.163 L
245.571 199.35 L
249.744 208.481 L
cp
f
GR
GS
[0.78257 0 0 0.78197 0 0.22835] CT
0.075 0.745 0.722 RC
N
119.403 217.612 M
120.371 226.743 L
121.895 226.743 L
127.809 226.743 L
126.979 217.612 L
124.45 208.481 L
121.895 202.96 L
120.119 199.35 L
114.246 190.22 L
108.579 182.694 L
107.331 181.089 L
100.539 171.958 L
95.263 163.535 L
94.831 162.827 L
90.93 153.696 L
88.992 144.565 L
88.992 135.435 L
90.93 126.304 L
94.831 117.173 L
95.263 116.465 L
100.539 108.042 L
107.331 98.911 L
108.579 97.306 L
114.246 89.78 L
120.119 80.65 L
121.895 77.04 L
124.45 71.519 L
126.979 62.388 L
127.809 53.257 L
121.895 53.257 L
120.371 53.257 L
119.403 62.388 L
116.535 71.519 L
111.885 80.65 L
108.579 85.611 L
105.556 89.78 L
98.501 98.911 L
95.263 103.313 L
91.724 108.042 L
86.361 117.173 L
82.8 126.304 L
81.947 130.654 L
80.996 135.435 L
80.996 144.565 L
81.947 149.346 L
82.8 153.696 L
86.361 162.827 L
91.724 171.958 L
95.263 176.687 L
98.501 181.089 L
105.556 190.22 L
108.579 194.389 L
111.885 199.35 L
116.535 208.481 L
cp
259.368 217.612 M
260.07 226.743 L
266.957 226.743 L
266.363 217.612 L
264.534 208.481 L
261.341 199.35 L
256.588 190.22 L
255.053 187.851 L
250.572 181.089 L
243.909 171.958 L
241.737 168.822 L
237.777 162.827 L
233.273 153.696 L
230.857 144.565 L
230.857 135.435 L
233.273 126.304 L
237.777 117.173 L
241.737 111.178 L
243.909 108.042 L
250.572 98.911 L
255.053 92.149 L
256.588 89.78 L
261.341 80.65 L
264.534 71.519 L
266.363 62.388 L
266.957 53.257 L
260.07 53.257 L
259.368 62.388 L
257.209 71.519 L
255.053 76.91 L
253.445 80.65 L
248.159 89.78 L
241.737 98.751 L
241.614 98.911 L
234.716 108.042 L
228.596 117.173 L
228.421 117.524 L
224.216 126.304 L
221.994 135.435 L
221.994 144.565 L
224.216 153.696 L
228.421 162.476 L
228.596 162.827 L
234.716 171.958 L
241.614 181.089 L
241.737 181.249 L
248.159 190.22 L
253.445 199.35 L
255.053 203.09 L
257.209 208.481 L
cp
f
GR
GS
[0.78257 0 0 0.78197 0 0.22835] CT
0.627 0.784 0.251 RC
N
111.553 217.612 M
112.57 226.743 L
120.371 226.743 L
119.403 217.612 L
116.535 208.481 L
111.885 199.35 L
108.579 194.389 L
105.556 190.22 L
98.501 181.089 L
95.263 176.687 L
91.724 171.958 L
86.361 162.827 L
82.8 153.696 L
81.947 149.346 L
80.996 144.565 L
80.996 135.435 L
81.947 130.654 L
82.8 126.304 L
86.361 117.173 L
91.724 108.042 L
95.263 103.313 L
98.501 98.911 L
105.556 89.78 L
108.579 85.611 L
111.885 80.65 L
116.535 71.519 L
119.403 62.388 L
120.371 53.257 L
112.57 53.257 L
111.553 62.388 L
108.579 71.399 L
108.533 71.519 L
103.142 80.65 L
96.596 89.78 L
95.263 91.517 L
89.146 98.911 L
82.742 108.042 L
81.947 109.465 L
77.526 117.173 L
74.273 126.304 L
72.734 135.435 L
72.734 144.565 L
74.273 153.696 L
77.526 162.827 L
81.947 170.535 L
82.742 171.958 L
89.146 181.089 L
95.263 188.483 L
96.596 190.22 L
103.142 199.35 L
108.533 208.481 L
108.579 208.601 L
cp
266.363 217.612 M
266.957 226.743 L
268.368 226.743 L
274.137 226.743 L
273.654 217.612 L
272.134 208.481 L
269.344 199.35 L
268.368 197.128 L
265.35 190.22 L
260.02 181.089 L
255.053 174.141 L
253.54 171.958 L
247.593 162.827 L
242.677 153.696 L
241.737 150.591 L
240.171 144.565 L
240.171 135.435 L
241.737 129.409 L
242.677 126.304 L
247.593 117.173 L
253.54 108.042 L
255.053 105.859 L
260.02 98.911 L
265.35 89.78 L
268.368 82.872 L
269.344 80.65 L
272.134 71.519 L
273.654 62.388 L
274.137 53.257 L
268.368 53.257 L
266.957 53.257 L
266.363 62.388 L
264.534 71.519 L
261.341 80.65 L
256.588 89.78 L
255.053 92.149 L
250.572 98.911 L
243.909 108.042 L
241.737 111.178 L
237.777 117.173 L
233.273 126.304 L
230.857 135.435 L
230.857 144.565 L
233.273 153.696 L
237.777 162.827 L
241.737 168.822 L
243.909 171.958 L
250.572 181.089 L
255.053 187.851 L
256.588 190.22 L
261.341 199.35 L
264.534 208.481 L
cp
f
GR
GS
[0.78257 0 0 0.78197 0 0.22835] CT
0.98 0.831 0.176 RC
N
102.833 217.612 M
104.05 226.743 L
108.579 226.743 L
112.57 226.743 L
111.553 217.612 L
108.579 208.601 L
108.533 208.481 L
103.142 199.35 L
96.596 190.22 L
95.263 188.483 L
89.146 181.089 L
82.742 171.958 L
81.947 170.535 L
77.526 162.827 L
74.273 153.696 L
72.734 144.565 L
72.734 135.435 L
74.273 126.304 L
77.526 117.173 L
81.947 109.465 L
82.742 108.042 L
89.146 98.911 L
95.263 91.517 L
96.596 89.78 L
103.142 80.65 L
108.533 71.519 L
108.579 71.399 L
111.553 62.388 L
112.57 53.257 L
108.579 53.257 L
104.05 53.257 L
102.833 62.388 L
99.348 71.519 L
95.263 78.552 L
93.759 80.65 L
86.352 89.78 L
81.947 95.468 L
78.91 98.911 L
72.546 108.042 L
68.632 116.368 L
68.214 117.173 L
65.162 126.304 L
63.805 135.435 L
63.805 144.565 L
65.162 153.696 L
68.214 162.827 L
68.632 163.632 L
72.546 171.958 L
78.91 181.089 L
81.947 184.532 L
86.352 190.22 L
93.759 199.35 L
95.263 201.448 L
99.348 208.481 L
cp
273.654 217.612 M
274.137 226.743 L
281.391 226.743 L
281.065 217.612 L
280.035 208.481 L
278.145 199.35 L
275.091 190.22 L
270.369 181.089 L
268.368 178.058 L
264.688 171.958 L
258.672 162.827 L
255.053 156.782 L
253.527 153.696 L
251.025 144.565 L
251.025 135.435 L
253.527 126.304 L
255.053 123.218 L
258.672 117.173 L
264.688 108.042 L
268.368 101.942 L
270.369 98.911 L
275.091 89.78 L
278.145 80.65 L
280.035 71.519 L
281.065 62.388 L
281.391 53.257 L
274.137 53.257 L
273.654 62.388 L
272.134 71.519 L
269.344 80.65 L
268.368 82.872 L
265.35 89.78 L
260.02 98.911 L
255.053 105.859 L
253.54 108.042 L
247.593 117.173 L
242.677 126.304 L
241.737 129.409 L
240.171 135.435 L
240.171 144.565 L
241.737 150.591 L
242.677 153.696 L
247.593 162.827 L
253.54 171.958 L
255.053 174.141 L
260.02 181.089 L
265.35 190.22 L
268.368 197.128 L
269.344 199.35 L
272.134 208.481 L
cp
f
GR
GS
[0.78257 0 0 0.78197 0 0.22835] CT
0.976 0.98 0.078 RC
N
94.58 226.743 M
95.263 226.743 L
104.05 226.743 L
102.833 217.612 L
99.348 208.481 L
95.263 201.448 L
93.759 199.35 L
86.352 190.22 L
81.947 184.532 L
78.91 181.089 L
72.546 171.958 L
68.632 163.632 L
68.214 162.827 L
65.162 153.696 L
63.805 144.565 L
63.805 135.435 L
65.162 126.304 L
68.214 117.173 L
68.632 116.368 L
72.546 108.042 L
78.91 98.911 L
81.947 95.468 L
86.352 89.78 L
93.759 80.65 L
95.263 78.552 L
99.348 71.519 L
102.833 62.388 L
104.05 53.257 L
95.263 53.257 L
94.58 53.257 L
81.947 53.257 L
81.284 53.257 L
68.632 53.257 L
55.316 53.257 L
44.142 53.257 L
42 53.257 L
42 62.388 L
42 71.519 L
42 80.65 L
42 89.78 L
42 98.911 L
42 108.042 L
42 117.173 L
42 126.304 L
42 135.435 L
42 144.565 L
42 153.696 L
42 162.827 L
42 171.958 L
42 181.089 L
42 190.22 L
42 199.35 L
42 208.481 L
42 217.612 L
42 226.743 L
44.142 226.743 L
55.316 226.743 L
68.632 226.743 L
81.284 226.743 L
81.947 226.743 L
cp
281.065 217.612 M
281.391 226.743 L
281.684 226.743 L
289.917 226.743 L
295 226.743 L
295 217.612 L
295 208.481 L
295 199.35 L
295 190.22 L
295 181.089 L
295 171.958 L
295 162.827 L
295 153.696 L
295 144.565 L
295 135.435 L
295 126.304 L
295 117.173 L
295 108.042 L
295 98.911 L
295 89.78 L
295 80.65 L
295 71.519 L
295 62.388 L
295 53.257 L
289.917 53.257 L
281.684 53.257 L
281.391 53.257 L
281.065 62.388 L
280.035 71.519 L
278.145 80.65 L
275.091 89.78 L
270.369 98.911 L
268.368 101.942 L
264.688 108.042 L
258.672 117.173 L
255.053 123.218 L
253.527 126.304 L
251.025 135.435 L
251.025 144.565 L
253.527 153.696 L
255.053 156.782 L
258.672 162.827 L
264.688 171.958 L
268.368 178.058 L
270.369 181.089 L
275.091 190.22 L
278.145 199.35 L
280.035 208.481 L
cp
f
GR
GS
[0.78257 0 0 0.78197 0 0.22835] CT
1 LJ
0.639 LW
N
171.313 226.743 M
171.432 217.612 L
S
GR
GS
[0.78257 0 0 0.78197 0 0.22835] CT
1 LJ
0.639 LW
N
216.762 217.612 M
218.209 226.743 L
S
GR
GS
[0.78257 0 0 0.78197 0 0.22835] CT
1 LJ
0.639 LW
N
171.432 217.612 M
171.839 208.481 L
S
GR
GS
[0.78257 0 0 0.78197 0 0.22835] CT
1 LJ
0.639 LW
N
211.073 208.481 M
215.105 213.921 L
216.762 217.612 L
S
GR
GS
[0.78257 0 0 0.78197 0 0.22835] CT
1 LJ
0.639 LW
N
171.839 208.481 M
172.752 199.35 L
S
GR
GS
[0.78257 0 0 0.78197 0 0.22835] CT
1 LJ
0.639 LW
N
202.551 199.35 M
211.073 208.481 L
S
GR
GS
[0.78257 0 0 0.78197 0 0.22835] CT
1 LJ
0.639 LW
N
172.752 199.35 M
174.948 190.22 L
S
GR
GS
[0.78257 0 0 0.78197 0 0.22835] CT
1 LJ
0.639 LW
N
184.119 190.22 M
188.474 190.313 L
201.789 198.583 L
202.551 199.35 L
S
GR
GS
[0.78257 0 0 0.78197 0 0.22835] CT
1 LJ
0.639 LW
N
174.948 190.22 M
175.158 189.708 L
184.119 190.22 L
S
GR
GS
[0.78257 0 0 0.78197 0 0.22835] CT
1 LJ
0.639 LW
N
162.69 144.565 M
161.842 151.615 L
148.526 149.54 L
146.585 144.565 L
S
GR
GS
[0.78257 0 0 0.78197 0 0.22835] CT
1 LJ
0.639 LW
N
146.585 144.565 M
146.585 135.435 L
S
GR
GS
[0.78257 0 0 0.78197 0 0.22835] CT
1 LJ
0.639 LW
N
162.69 135.435 M
162.69 144.565 L
S
GR
GS
[0.78257 0 0 0.78197 0 0.22835] CT
1 LJ
0.639 LW
N
146.585 135.435 M
148.526 130.46 L
161.842 128.385 L
162.69 135.435 L
S
GR
GS
[0.78257 0 0 0.78197 0 0.22835] CT
1 LJ
0.639 LW
N
184.119 89.78 M
175.158 90.292 L
174.948 89.78 L
S
GR
GS
[0.78257 0 0 0.78197 0 0.22835] CT
1 LJ
0.639 LW
N
174.948 89.78 M
172.752 80.65 L
S
GR
GS
[0.78257 0 0 0.78197 0 0.22835] CT
1 LJ
0.639 LW
N
202.551 80.65 M
201.789 81.417 L
188.474 89.687 L
184.119 89.78 L
S
GR
GS
[0.78257 0 0 0.78197 0 0.22835] CT
1 LJ
0.639 LW
N
172.752 80.65 M
171.839 71.519 L
S
GR
GS
[0.78257 0 0 0.78197 0 0.22835] CT
1 LJ
0.639 LW
N
211.073 71.519 M
202.551 80.65 L
S
GR
GS
[0.78257 0 0 0.78197 0 0.22835] CT
1 LJ
0.639 LW
N
171.839 71.519 M
171.432 62.388 L
S
GR
GS
[0.78257 0 0 0.78197 0 0.22835] CT
1 LJ
0.639 LW
N
216.762 62.388 M
215.105 66.079 L
211.073 71.519 L
S
GR
GS
[0.78257 0 0 0.78197 0 0.22835] CT
1 LJ
0.639 LW
N
171.432 62.388 M
171.313 53.257 L
S
GR
GS
[0.78257 0 0 0.78197 0 0.22835] CT
1 LJ
0.639 LW
N
218.209 53.257 M
216.762 62.388 L
S
GR
GS
[0.78257 0 0 0.78197 0 0.22835] CT
1 LJ
0.639 LW
N
159.786 226.743 M
159.525 217.612 L
S
GR
GS
[0.78257 0 0 0.78197 0 0.22835] CT
1 LJ
0.639 LW
N
228.382 217.612 M
228.421 217.841 L
229.524 226.743 L
S
GR
GS
[0.78257 0 0 0.78197 0 0.22835] CT
1 LJ
0.639 LW
N
159.525 217.612 M
158.678 208.481 L
S
GR
GS
[0.78257 0 0 0.78197 0 0.22835] CT
1 LJ
0.639 LW
N
224.04 208.481 M
228.382 217.612 L
S
GR
GS
[0.78257 0 0 0.78197 0 0.22835] CT
1 LJ
0.639 LW
N
158.678 208.481 M
157.017 199.35 L
S
GR
GS
[0.78257 0 0 0.78197 0 0.22835] CT
1 LJ
0.639 LW
N
217.761 199.35 M
224.04 208.481 L
S
GR
GS
[0.78257 0 0 0.78197 0 0.22835] CT
1 LJ
0.639 LW
N
157.017 199.35 M
154.002 190.22 L
S
GR
GS
[0.78257 0 0 0.78197 0 0.22835] CT
1 LJ
0.639 LW
N
208.917 190.22 M
215.105 196.063 L
217.761 199.35 L
S
GR
GS
[0.78257 0 0 0.78197 0 0.22835] CT
1 LJ
0.639 LW
N
154.002 190.22 M
148.526 181.336 L
148.394 181.089 L
S
GR
GS
[0.78257 0 0 0.78197 0 0.22835] CT
1 LJ
0.639 LW
N
200.033 181.089 M
201.789 182.521 L
208.917 190.22 L
S
GR
GS
[0.78257 0 0 0.78197 0 0.22835] CT
1 LJ
0.639 LW
N
148.394 181.089 M
142.448 171.958 L
S
GR
GS
[0.78257 0 0 0.78197 0 0.22835] CT
1 LJ
0.639 LW
N
191.972 171.958 M
200.033 181.089 L
S
GR
GS
[0.78257 0 0 0.78197 0 0.22835] CT
1 LJ
0.639 LW
N
142.448 171.958 M
135.211 163.587 L
134.693 162.827 L
S
GR
GS
[0.78257 0 0 0.78197 0 0.22835] CT
1 LJ
0.639 LW
N
186.922 162.827 M
188.474 165.194 L
191.972 171.958 L
S
GR
GS
[0.78257 0 0 0.78197 0 0.22835] CT
1 LJ
0.639 LW
N
134.693 162.827 M
129.673 153.696 L
S
GR
GS
[0.78257 0 0 0.78197 0 0.22835] CT
1 LJ
0.639 LW
N
183.586 153.696 M
186.922 162.827 L
S
GR
GS
[0.78257 0 0 0.78197 0 0.22835] CT
1 LJ
0.639 LW
N
129.673 153.696 M
126.63 144.565 L
S
GR
GS
[0.78257 0 0 0.78197 0 0.22835] CT
1 LJ
0.639 LW
N
182.259 144.565 M
183.586 153.696 L
S
GR
GS
[0.78257 0 0 0.78197 0 0.22835] CT
1 LJ
0.639 LW
N
126.63 144.565 M
126.63 135.435 L
S
GR
GS
[0.78257 0 0 0.78197 0 0.22835] CT
1 LJ
0.639 LW
N
182.259 135.435 M
182.259 144.565 L
S
GR
GS
[0.78257 0 0 0.78197 0 0.22835] CT
1 LJ
0.639 LW
N
126.63 135.435 M
129.673 126.304 L
S
GR
GS
[0.78257 0 0 0.78197 0 0.22835] CT
1 LJ
0.639 LW
N
183.586 126.304 M
182.259 135.435 L
S
GR
GS
[0.78257 0 0 0.78197 0 0.22835] CT
1 LJ
0.639 LW
N
129.673 126.304 M
134.693 117.173 L
S
GR
GS
[0.78257 0 0 0.78197 0 0.22835] CT
1 LJ
0.639 LW
N
186.922 117.173 M
183.586 126.304 L
S
GR
GS
[0.78257 0 0 0.78197 0 0.22835] CT
1 LJ
0.639 LW
N
134.693 117.173 M
135.211 116.413 L
142.448 108.042 L
S
GR
GS
[0.78257 0 0 0.78197 0 0.22835] CT
1 LJ
0.639 LW
N
191.972 108.042 M
188.474 114.806 L
186.922 117.173 L
S
GR
GS
[0.78257 0 0 0.78197 0 0.22835] CT
1 LJ
0.639 LW
N
142.448 108.042 M
148.394 98.911 L
S
GR
GS
[0.78257 0 0 0.78197 0 0.22835] CT
1 LJ
0.639 LW
N
200.033 98.911 M
191.972 108.042 L
S
GR
GS
[0.78257 0 0 0.78197 0 0.22835] CT
1 LJ
0.639 LW
N
148.394 98.911 M
148.526 98.664 L
154.002 89.78 L
S
GR
GS
[0.78257 0 0 0.78197 0 0.22835] CT
1 LJ
0.639 LW
N
208.917 89.78 M
201.789 97.479 L
200.033 98.911 L
S
GR
GS
[0.78257 0 0 0.78197 0 0.22835] CT
1 LJ
0.639 LW
N
154.002 89.78 M
157.017 80.65 L
S
GR
GS
[0.78257 0 0 0.78197 0 0.22835] CT
1 LJ
0.639 LW
N
217.761 80.65 M
215.105 83.937 L
208.917 89.78 L
S
GR
GS
[0.78257 0 0 0.78197 0 0.22835] CT
1 LJ
0.639 LW
N
157.017 80.65 M
158.678 71.519 L
S
GR
GS
[0.78257 0 0 0.78197 0 0.22835] CT
1 LJ
0.639 LW
N
224.04 71.519 M
217.761 80.65 L
S
GR
GS
[0.78257 0 0 0.78197 0 0.22835] CT
1 LJ
0.639 LW
N
158.678 71.519 M
159.525 62.388 L
S
GR
GS
[0.78257 0 0 0.78197 0 0.22835] CT
1 LJ
0.639 LW
N
228.382 62.388 M
224.04 71.519 L
S
GR
GS
[0.78257 0 0 0.78197 0 0.22835] CT
1 LJ
0.639 LW
N
159.525 62.388 M
159.786 53.257 L
S
GR
GS
[0.78257 0 0 0.78197 0 0.22835] CT
1 LJ
0.639 LW
N
229.524 53.257 M
228.421 62.159 L
228.382 62.388 L
S
GR
GS
[0.78257 0 0 0.78197 0 0.22835] CT
1 LJ
0.639 LW
N
150.826 226.743 M
150.307 217.612 L
S
GR
GS
[0.78257 0 0 0.78197 0 0.22835] CT
1 LJ
0.639 LW
N
236.934 217.612 M
238.046 226.743 L
S
GR
GS
[0.78257 0 0 0.78197 0 0.22835] CT
1 LJ
0.639 LW
N
150.307 217.612 M
148.625 208.481 L
S
GR
GS
[0.78257 0 0 0.78197 0 0.22835] CT
1 LJ
0.639 LW
N
233.69 208.481 M
236.934 217.612 L
S
GR
GS
[0.78257 0 0 0.78197 0 0.22835] CT
1 LJ
0.639 LW
N
148.625 208.481 M
148.526 208.164 L
146.008 199.35 L
S
GR
GS
[0.78257 0 0 0.78197 0 0.22835] CT
1 LJ
0.639 LW
N
228.588 199.35 M
233.69 208.481 L
S
GR
GS
[0.78257 0 0 0.78197 0 0.22835] CT
1 LJ
0.639 LW
N
146.008 199.35 M
141.876 190.22 L
S
GR
GS
[0.78257 0 0 0.78197 0 0.22835] CT
1 LJ
0.639 LW
N
220.965 190.22 M
228.421 199.113 L
228.588 199.35 L
S
GR
GS
[0.78257 0 0 0.78197 0 0.22835] CT
1 LJ
0.639 LW
N
141.876 190.22 M
135.649 181.089 L
S
GR
GS
[0.78257 0 0 0.78197 0 0.22835] CT
1 LJ
0.639 LW
N
212.969 181.089 M
215.105 183.23 L
220.965 190.22 L
S
GR
GS
[0.78257 0 0 0.78197 0 0.22835] CT
1 LJ
0.639 LW
N
135.649 181.089 M
135.211 180.545 L
129.141 171.958 L
S
GR
GS
[0.78257 0 0 0.78197 0 0.22835] CT
1 LJ
0.639 LW
N
205.382 171.958 M
212.969 181.089 L
S
GR
GS
[0.78257 0 0 0.78197 0 0.22835] CT
1 LJ
0.639 LW
N
129.141 171.958 M
122.238 162.827 L
S
GR
GS
[0.78257 0 0 0.78197 0 0.22835] CT
1 LJ
0.639 LW
N
199.716 162.827 M
201.789 165.922 L
205.382 171.958 L
S
GR
GS
[0.78257 0 0 0.78197 0 0.22835] CT
1 LJ
0.639 LW
N
122.238 162.827 M
121.895 162.275 L
117.623 153.696 L
S
GR
GS
[0.78257 0 0 0.78197 0 0.22835] CT
1 LJ
0.639 LW
N
195.926 153.696 M
199.716 162.827 L
S
GR
GS
[0.78257 0 0 0.78197 0 0.22835] CT
1 LJ
0.639 LW
N
117.623 153.696 M
115.112 144.565 L
S
GR
GS
[0.78257 0 0 0.78197 0 0.22835] CT
1 LJ
0.639 LW
N
194.231 144.565 M
195.926 153.696 L
S
GR
GS
[0.78257 0 0 0.78197 0 0.22835] CT
1 LJ
0.639 LW
N
115.112 144.565 M
115.112 135.435 L
S
GR
GS
[0.78257 0 0 0.78197 0 0.22835] CT
1 LJ
0.639 LW
N
194.231 135.435 M
194.231 144.565 L
S
GR
GS
[0.78257 0 0 0.78197 0 0.22835] CT
1 LJ
0.639 LW
N
115.112 135.435 M
117.623 126.304 L
S
GR
GS
[0.78257 0 0 0.78197 0 0.22835] CT
1 LJ
0.639 LW
N
195.926 126.304 M
194.231 135.435 L
S
GR
GS
[0.78257 0 0 0.78197 0 0.22835] CT
1 LJ
0.639 LW
N
117.623 126.304 M
121.895 117.725 L
122.238 117.173 L
S
GR
GS
[0.78257 0 0 0.78197 0 0.22835] CT
1 LJ
0.639 LW
N
199.716 117.173 M
195.926 126.304 L
S
GR
GS
[0.78257 0 0 0.78197 0 0.22835] CT
1 LJ
0.639 LW
N
122.238 117.173 M
129.141 108.042 L
S
GR
GS
[0.78257 0 0 0.78197 0 0.22835] CT
1 LJ
0.639 LW
N
205.382 108.042 M
201.789 114.078 L
199.716 117.173 L
S
GR
GS
[0.78257 0 0 0.78197 0 0.22835] CT
1 LJ
0.639 LW
N
129.141 108.042 M
135.211 99.455 L
135.649 98.911 L
S
GR
GS
[0.78257 0 0 0.78197 0 0.22835] CT
1 LJ
0.639 LW
N
212.969 98.911 M
205.382 108.042 L
S
GR
GS
[0.78257 0 0 0.78197 0 0.22835] CT
1 LJ
0.639 LW
N
135.649 98.911 M
141.876 89.78 L
S
GR
GS
[0.78257 0 0 0.78197 0 0.22835] CT
1 LJ
0.639 LW
N
220.965 89.78 M
215.105 96.77 L
212.969 98.911 L
S
GR
GS
[0.78257 0 0 0.78197 0 0.22835] CT
1 LJ
0.639 LW
N
141.876 89.78 M
146.008 80.65 L
S
GR
GS
[0.78257 0 0 0.78197 0 0.22835] CT
1 LJ
0.639 LW
N
228.588 80.65 M
228.421 80.887 L
220.965 89.78 L
S
GR
GS
[0.78257 0 0 0.78197 0 0.22835] CT
1 LJ
0.639 LW
N
146.008 80.65 M
148.526 71.836 L
148.625 71.519 L
S
GR
GS
[0.78257 0 0 0.78197 0 0.22835] CT
1 LJ
0.639 LW
N
233.69 71.519 M
228.588 80.65 L
S
GR
GS
[0.78257 0 0 0.78197 0 0.22835] CT
1 LJ
0.639 LW
N
148.625 71.519 M
150.307 62.388 L
S
GR
GS
[0.78257 0 0 0.78197 0 0.22835] CT
1 LJ
0.639 LW
N
236.934 62.388 M
233.69 71.519 L
S
GR
GS
[0.78257 0 0 0.78197 0 0.22835] CT
1 LJ
0.639 LW
N
150.307 62.388 M
150.826 53.257 L
S
GR
GS
[0.78257 0 0 0.78197 0 0.22835] CT
1 LJ
0.639 LW
N
238.046 53.257 M
236.934 62.388 L
S
GR
GS
[0.78257 0 0 0.78197 0 0.22835] CT
1 LJ
0.639 LW
N
142.826 226.743 M
142.213 217.612 L
S
GR
GS
[0.78257 0 0 0.78197 0 0.22835] CT
1 LJ
0.639 LW
N
244.938 217.612 M
245.843 226.743 L
S
GR
GS
[0.78257 0 0 0.78197 0 0.22835] CT
1 LJ
0.639 LW
N
142.213 217.612 M
140.294 208.481 L
S
GR
GS
[0.78257 0 0 0.78197 0 0.22835] CT
1 LJ
0.639 LW
N
242.221 208.481 M
244.938 217.612 L
S
GR
GS
[0.78257 0 0 0.78197 0 0.22835] CT
1 LJ
0.639 LW
N
140.294 208.481 M
136.806 199.35 L
S
GR
GS
[0.78257 0 0 0.78197 0 0.22835] CT
1 LJ
0.639 LW
N
237.278 199.35 M
241.737 207.464 L
242.221 208.481 L
S
GR
GS
[0.78257 0 0 0.78197 0 0.22835] CT
1 LJ
0.639 LW
N
136.806 199.35 M
135.211 196.449 L
131.857 190.22 L
S
GR
GS
[0.78257 0 0 0.78197 0 0.22835] CT
1 LJ
0.639 LW
N
230.89 190.22 M
237.278 199.35 L
S
GR
GS
[0.78257 0 0 0.78197 0 0.22835] CT
1 LJ
0.639 LW
N
131.857 190.22 M
125.56 181.089 L
S
GR
GS
[0.78257 0 0 0.78197 0 0.22835] CT
1 LJ
0.639 LW
N
223.258 181.089 M
228.421 187.035 L
230.89 190.22 L
S
GR
GS
[0.78257 0 0 0.78197 0 0.22835] CT
1 LJ
0.639 LW
N
125.56 181.089 M
121.895 176.429 L
118.615 171.958 L
S
GR
GS
[0.78257 0 0 0.78197 0 0.22835] CT
1 LJ
0.639 LW
N
216.124 171.958 M
223.258 181.089 L
S
GR
GS
[0.78257 0 0 0.78197 0 0.22835] CT
1 LJ
0.639 LW
N
118.615 171.958 M
112.469 162.827 L
S
GR
GS
[0.78257 0 0 0.78197 0 0.22835] CT
1 LJ
0.639 LW
N
210.026 162.827 M
215.105 170.367 L
216.124 171.958 L
S
GR
GS
[0.78257 0 0 0.78197 0 0.22835] CT
1 LJ
0.639 LW
N
112.469 162.827 M
108.579 155.432 L
107.775 153.696 L
S
GR
GS
[0.78257 0 0 0.78197 0 0.22835] CT
1 LJ
0.639 LW
N
206.112 153.696 M
210.026 162.827 L
S
GR
GS
[0.78257 0 0 0.78197 0 0.22835] CT
1 LJ
0.639 LW
N
107.775 153.696 M
105.555 144.565 L
S
GR
GS
[0.78257 0 0 0.78197 0 0.22835] CT
1 LJ
0.639 LW
N
204.234 144.565 M
206.112 153.696 L
S
GR
GS
[0.78257 0 0 0.78197 0 0.22835] CT
1 LJ
0.639 LW
N
105.555 144.565 M
105.555 135.435 L
S
GR
GS
[0.78257 0 0 0.78197 0 0.22835] CT
1 LJ
0.639 LW
N
204.234 135.435 M
204.234 144.565 L
S
GR
GS
[0.78257 0 0 0.78197 0 0.22835] CT
1 LJ
0.639 LW
N
105.555 135.435 M
107.775 126.304 L
S
GR
GS
[0.78257 0 0 0.78197 0 0.22835] CT
1 LJ
0.639 LW
N
206.112 126.304 M
204.234 135.435 L
S
GR
GS
[0.78257 0 0 0.78197 0 0.22835] CT
1 LJ
0.639 LW
N
107.775 126.304 M
108.579 124.568 L
112.469 117.173 L
S
GR
GS
[0.78257 0 0 0.78197 0 0.22835] CT
1 LJ
0.639 LW
N
210.026 117.173 M
206.112 126.304 L
S
GR
GS
[0.78257 0 0 0.78197 0 0.22835] CT
1 LJ
0.639 LW
N
112.469 117.173 M
118.615 108.042 L
S
GR
GS
[0.78257 0 0 0.78197 0 0.22835] CT
1 LJ
0.639 LW
N
216.124 108.042 M
215.105 109.633 L
210.026 117.173 L
S
GR
GS
[0.78257 0 0 0.78197 0 0.22835] CT
1 LJ
0.639 LW
N
118.615 108.042 M
121.895 103.571 L
125.56 98.911 L
S
GR
GS
[0.78257 0 0 0.78197 0 0.22835] CT
1 LJ
0.639 LW
N
223.258 98.911 M
216.124 108.042 L
S
GR
GS
[0.78257 0 0 0.78197 0 0.22835] CT
1 LJ
0.639 LW
N
125.56 98.911 M
131.857 89.78 L
S
GR
GS
[0.78257 0 0 0.78197 0 0.22835] CT
1 LJ
0.639 LW
N
230.89 89.78 M
228.421 92.965 L
223.258 98.911 L
S
GR
GS
[0.78257 0 0 0.78197 0 0.22835] CT
1 LJ
0.639 LW
N
131.857 89.78 M
135.211 83.551 L
136.806 80.65 L
S
GR
GS
[0.78257 0 0 0.78197 0 0.22835] CT
1 LJ
0.639 LW
N
237.278 80.65 M
230.89 89.78 L
S
GR
GS
[0.78257 0 0 0.78197 0 0.22835] CT
1 LJ
0.639 LW
N
136.806 80.65 M
140.294 71.519 L
S
GR
GS
[0.78257 0 0 0.78197 0 0.22835] CT
1 LJ
0.639 LW
N
242.221 71.519 M
241.737 72.536 L
237.278 80.65 L
S
GR
GS
[0.78257 0 0 0.78197 0 0.22835] CT
1 LJ
0.639 LW
N
140.294 71.519 M
142.213 62.388 L
S
GR
GS
[0.78257 0 0 0.78197 0 0.22835] CT
1 LJ
0.639 LW
N
244.938 62.388 M
242.221 71.519 L
S
GR
GS
[0.78257 0 0 0.78197 0 0.22835] CT
1 LJ
0.639 LW
N
142.213 62.388 M
142.826 53.257 L
S
GR
GS
[0.78257 0 0 0.78197 0 0.22835] CT
1 LJ
0.639 LW
N
245.843 53.257 M
244.938 62.388 L
S
GR
GS
[0.78257 0 0 0.78197 0 0.22835] CT
1 LJ
0.639 LW
N
135.159 226.743 M
134.428 217.612 L
S
GR
GS
[0.78257 0 0 0.78197 0 0.22835] CT
1 LJ
0.639 LW
N
252.251 217.612 M
253.086 226.743 L
S
GR
GS
[0.78257 0 0 0.78197 0 0.22835] CT
1 LJ
0.639 LW
N
134.428 217.612 M
132.2 208.481 L
S
GR
GS
[0.78257 0 0 0.78197 0 0.22835] CT
1 LJ
0.639 LW
N
249.744 208.481 M
252.251 217.612 L
S
GR
GS
[0.78257 0 0 0.78197 0 0.22835] CT
1 LJ
0.639 LW
N
132.2 208.481 M
128.378 199.35 L
S
GR
GS
[0.78257 0 0 0.78197 0 0.22835] CT
1 LJ
0.639 LW
N
245.571 199.35 M
249.744 208.481 L
S
GR
GS
[0.78257 0 0 0.78197 0 0.22835] CT
1 LJ
0.639 LW
N
128.378 199.35 M
122.846 190.22 L
S
GR
GS
[0.78257 0 0 0.78197 0 0.22835] CT
1 LJ
0.639 LW
N
239.697 190.22 M
241.737 193.163 L
245.571 199.35 L
S
GR
GS
[0.78257 0 0 0.78197 0 0.22835] CT
1 LJ
0.639 LW
N
122.846 190.22 M
121.895 188.915 L
116.243 181.089 L
S
GR
GS
[0.78257 0 0 0.78197 0 0.22835] CT
1 LJ
0.639 LW
N
232.678 181.089 M
239.697 190.22 L
S
GR
GS
[0.78257 0 0 0.78197 0 0.22835] CT
1 LJ
0.639 LW
N
116.243 181.089 M
109.293 171.958 L
S
GR
GS
[0.78257 0 0 0.78197 0 0.22835] CT
1 LJ
0.639 LW
N
225.543 171.958 M
228.421 175.526 L
232.678 181.089 L
S
GR
GS
[0.78257 0 0 0.78197 0 0.22835] CT
1 LJ
0.639 LW
N
109.293 171.958 M
108.579 170.922 L
103.428 162.827 L
S
GR
GS
[0.78257 0 0 0.78197 0 0.22835] CT
1 LJ
0.639 LW
N
219.526 162.827 M
225.543 171.958 L
S
GR
GS
[0.78257 0 0 0.78197 0 0.22835] CT
1 LJ
0.639 LW
N
103.428 162.827 M
99.247 153.696 L
S
GR
GS
[0.78257 0 0 0.78197 0 0.22835] CT
1 LJ
0.639 LW
N
215.389 153.696 M
219.526 162.827 L
S
GR
GS
[0.78257 0 0 0.78197 0 0.22835] CT
1 LJ
0.639 LW
N
99.247 153.696 M
97.065 144.565 L
S
GR
GS
[0.78257 0 0 0.78197 0 0.22835] CT
1 LJ
0.639 LW
N
213.23 144.565 M
215.105 152.475 L
215.389 153.696 L
S
GR
GS
[0.78257 0 0 0.78197 0 0.22835] CT
1 LJ
0.639 LW
N
97.065 144.565 M
97.065 135.435 L
S
GR
GS
[0.78257 0 0 0.78197 0 0.22835] CT
1 LJ
0.639 LW
N
213.23 135.435 M
213.23 144.565 L
S
GR
GS
[0.78257 0 0 0.78197 0 0.22835] CT
1 LJ
0.639 LW
N
97.065 135.435 M
99.247 126.304 L
S
GR
GS
[0.78257 0 0 0.78197 0 0.22835] CT
1 LJ
0.639 LW
N
215.389 126.304 M
215.105 127.525 L
213.23 135.435 L
S
GR
GS
[0.78257 0 0 0.78197 0 0.22835] CT
1 LJ
0.639 LW
N
99.247 126.304 M
103.428 117.173 L
S
GR
GS
[0.78257 0 0 0.78197 0 0.22835] CT
1 LJ
0.639 LW
N
219.526 117.173 M
215.389 126.304 L
S
GR
GS
[0.78257 0 0 0.78197 0 0.22835] CT
1 LJ
0.639 LW
N
103.428 117.173 M
108.579 109.078 L
109.293 108.042 L
S
GR
GS
[0.78257 0 0 0.78197 0 0.22835] CT
1 LJ
0.639 LW
N
225.543 108.042 M
219.526 117.173 L
S
GR
GS
[0.78257 0 0 0.78197 0 0.22835] CT
1 LJ
0.639 LW
N
109.293 108.042 M
116.243 98.911 L
S
GR
GS
[0.78257 0 0 0.78197 0 0.22835] CT
1 LJ
0.639 LW
N
232.678 98.911 M
228.421 104.474 L
225.543 108.042 L
S
GR
GS
[0.78257 0 0 0.78197 0 0.22835] CT
1 LJ
0.639 LW
N
116.243 98.911 M
121.895 91.085 L
122.846 89.78 L
S
GR
GS
[0.78257 0 0 0.78197 0 0.22835] CT
1 LJ
0.639 LW
N
239.697 89.78 M
232.678 98.911 L
S
GR
GS
[0.78257 0 0 0.78197 0 0.22835] CT
1 LJ
0.639 LW
N
122.846 89.78 M
128.378 80.65 L
S
GR
GS
[0.78257 0 0 0.78197 0 0.22835] CT
1 LJ
0.639 LW
N
245.571 80.65 M
241.737 86.837 L
239.697 89.78 L
S
GR
GS
[0.78257 0 0 0.78197 0 0.22835] CT
1 LJ
0.639 LW
N
128.378 80.65 M
132.2 71.519 L
S
GR
GS
[0.78257 0 0 0.78197 0 0.22835] CT
1 LJ
0.639 LW
N
249.744 71.519 M
245.571 80.65 L
S
GR
GS
[0.78257 0 0 0.78197 0 0.22835] CT
1 LJ
0.639 LW
N
132.2 71.519 M
134.428 62.388 L
S
GR
GS
[0.78257 0 0 0.78197 0 0.22835] CT
1 LJ
0.639 LW
N
252.251 62.388 M
249.744 71.519 L
S
GR
GS
[0.78257 0 0 0.78197 0 0.22835] CT
1 LJ
0.639 LW
N
134.428 62.388 M
135.159 53.257 L
S
GR
GS
[0.78257 0 0 0.78197 0 0.22835] CT
1 LJ
0.639 LW
N
253.086 53.257 M
252.251 62.388 L
S
GR
GS
[0.78257 0 0 0.78197 0 0.22835] CT
1 LJ
0.639 LW
N
127.809 226.743 M
126.979 217.612 L
S
GR
GS
[0.78257 0 0 0.78197 0 0.22835] CT
1 LJ
0.639 LW
N
259.368 217.612 M
260.07 226.743 L
S
GR
GS
[0.78257 0 0 0.78197 0 0.22835] CT
1 LJ
0.639 LW
N
126.979 217.612 M
124.45 208.481 L
S
GR
GS
[0.78257 0 0 0.78197 0 0.22835] CT
1 LJ
0.639 LW
N
257.209 208.481 M
259.368 217.612 L
S
GR
GS
[0.78257 0 0 0.78197 0 0.22835] CT
1 LJ
0.639 LW
N
124.45 208.481 M
121.895 202.96 L
120.119 199.35 L
S
GR
GS
[0.78257 0 0 0.78197 0 0.22835] CT
1 LJ
0.639 LW
N
253.445 199.35 M
255.053 203.09 L
257.209 208.481 L
S
GR
GS
[0.78257 0 0 0.78197 0 0.22835] CT
1 LJ
0.639 LW
N
120.119 199.35 M
114.246 190.22 L
S
GR
GS
[0.78257 0 0 0.78197 0 0.22835] CT
1 LJ
0.639 LW
N
248.159 190.22 M
253.445 199.35 L
S
GR
GS
[0.78257 0 0 0.78197 0 0.22835] CT
1 LJ
0.639 LW
N
114.246 190.22 M
108.579 182.694 L
107.331 181.089 L
S
GR
GS
[0.78257 0 0 0.78197 0 0.22835] CT
1 LJ
0.639 LW
N
241.614 181.089 M
241.737 181.249 L
248.159 190.22 L
S
GR
GS
[0.78257 0 0 0.78197 0 0.22835] CT
1 LJ
0.639 LW
N
107.331 181.089 M
100.539 171.958 L
S
GR
GS
[0.78257 0 0 0.78197 0 0.22835] CT
1 LJ
0.639 LW
N
234.716 171.958 M
241.614 181.089 L
S
GR
GS
[0.78257 0 0 0.78197 0 0.22835] CT
1 LJ
0.639 LW
N
100.539 171.958 M
95.263 163.535 L
94.831 162.827 L
S
GR
GS
[0.78257 0 0 0.78197 0 0.22835] CT
1 LJ
0.639 LW
N
228.596 162.827 M
234.716 171.958 L
S
GR
GS
[0.78257 0 0 0.78197 0 0.22835] CT
1 LJ
0.639 LW
N
94.831 162.827 M
90.93 153.696 L
S
GR
GS
[0.78257 0 0 0.78197 0 0.22835] CT
1 LJ
0.639 LW
N
224.216 153.696 M
228.421 162.476 L
228.596 162.827 L
S
GR
GS
[0.78257 0 0 0.78197 0 0.22835] CT
1 LJ
0.639 LW
N
90.93 153.696 M
88.992 144.565 L
S
GR
GS
[0.78257 0 0 0.78197 0 0.22835] CT
1 LJ
0.639 LW
N
221.994 144.565 M
224.216 153.696 L
S
GR
GS
[0.78257 0 0 0.78197 0 0.22835] CT
1 LJ
0.639 LW
N
88.992 144.565 M
88.992 135.435 L
S
GR
GS
[0.78257 0 0 0.78197 0 0.22835] CT
1 LJ
0.639 LW
N
221.994 135.435 M
221.994 144.565 L
S
GR
GS
[0.78257 0 0 0.78197 0 0.22835] CT
1 LJ
0.639 LW
N
88.992 135.435 M
90.93 126.304 L
S
GR
GS
[0.78257 0 0 0.78197 0 0.22835] CT
1 LJ
0.639 LW
N
224.216 126.304 M
221.994 135.435 L
S
GR
GS
[0.78257 0 0 0.78197 0 0.22835] CT
1 LJ
0.639 LW
N
90.93 126.304 M
94.831 117.173 L
S
GR
GS
[0.78257 0 0 0.78197 0 0.22835] CT
1 LJ
0.639 LW
N
228.596 117.173 M
228.421 117.524 L
224.216 126.304 L
S
GR
GS
[0.78257 0 0 0.78197 0 0.22835] CT
1 LJ
0.639 LW
N
94.831 117.173 M
95.263 116.465 L
100.539 108.042 L
S
GR
GS
[0.78257 0 0 0.78197 0 0.22835] CT
1 LJ
0.639 LW
N
234.716 108.042 M
228.596 117.173 L
S
GR
GS
[0.78257 0 0 0.78197 0 0.22835] CT
1 LJ
0.639 LW
N
100.539 108.042 M
107.331 98.911 L
S
GR
GS
[0.78257 0 0 0.78197 0 0.22835] CT
1 LJ
0.639 LW
N
241.614 98.911 M
234.716 108.042 L
S
GR
GS
[0.78257 0 0 0.78197 0 0.22835] CT
1 LJ
0.639 LW
N
107.331 98.911 M
108.579 97.306 L
114.246 89.78 L
S
GR
GS
[0.78257 0 0 0.78197 0 0.22835] CT
1 LJ
0.639 LW
N
248.159 89.78 M
241.737 98.751 L
241.614 98.911 L
S
GR
GS
[0.78257 0 0 0.78197 0 0.22835] CT
1 LJ
0.639 LW
N
114.246 89.78 M
120.119 80.65 L
S
GR
GS
[0.78257 0 0 0.78197 0 0.22835] CT
1 LJ
0.639 LW
N
253.445 80.65 M
248.159 89.78 L
S
GR
GS
[0.78257 0 0 0.78197 0 0.22835] CT
1 LJ
0.639 LW
N
120.119 80.65 M
121.895 77.04 L
124.45 71.519 L
S
GR
GS
[0.78257 0 0 0.78197 0 0.22835] CT
1 LJ
0.639 LW
N
257.209 71.519 M
255.053 76.91 L
253.445 80.65 L
S
GR
GS
[0.78257 0 0 0.78197 0 0.22835] CT
1 LJ
0.639 LW
N
124.45 71.519 M
126.979 62.388 L
S
GR
GS
[0.78257 0 0 0.78197 0 0.22835] CT
1 LJ
0.639 LW
N
259.368 62.388 M
257.209 71.519 L
S
GR
GS
[0.78257 0 0 0.78197 0 0.22835] CT
1 LJ
0.639 LW
N
126.979 62.388 M
127.809 53.257 L
S
GR
GS
[0.78257 0 0 0.78197 0 0.22835] CT
1 LJ
0.639 LW
N
260.07 53.257 M
259.368 62.388 L
S
GR
GS
[0.78257 0 0 0.78197 0 0.22835] CT
1 LJ
0.639 LW
N
120.371 226.743 M
119.403 217.612 L
S
GR
GS
[0.78257 0 0 0.78197 0 0.22835] CT
1 LJ
0.639 LW
N
266.363 217.612 M
266.957 226.743 L
S
GR
GS
[0.78257 0 0 0.78197 0 0.22835] CT
1 LJ
0.639 LW
N
119.403 217.612 M
116.535 208.481 L
S
GR
GS
[0.78257 0 0 0.78197 0 0.22835] CT
1 LJ
0.639 LW
N
264.534 208.481 M
266.363 217.612 L
S
GR
GS
[0.78257 0 0 0.78197 0 0.22835] CT
1 LJ
0.639 LW
N
116.535 208.481 M
111.885 199.35 L
S
GR
GS
[0.78257 0 0 0.78197 0 0.22835] CT
1 LJ
0.639 LW
N
261.341 199.35 M
264.534 208.481 L
S
GR
GS
[0.78257 0 0 0.78197 0 0.22835] CT
1 LJ
0.639 LW
N
111.885 199.35 M
108.579 194.389 L
105.556 190.22 L
S
GR
GS
[0.78257 0 0 0.78197 0 0.22835] CT
1 LJ
0.639 LW
N
256.588 190.22 M
261.341 199.35 L
S
GR
GS
[0.78257 0 0 0.78197 0 0.22835] CT
1 LJ
0.639 LW
N
105.556 190.22 M
98.501 181.089 L
S
GR
GS
[0.78257 0 0 0.78197 0 0.22835] CT
1 LJ
0.639 LW
N
250.572 181.089 M
255.053 187.851 L
256.588 190.22 L
S
GR
GS
[0.78257 0 0 0.78197 0 0.22835] CT
1 LJ
0.639 LW
N
98.501 181.089 M
95.263 176.687 L
91.724 171.958 L
S
GR
GS
[0.78257 0 0 0.78197 0 0.22835] CT
1 LJ
0.639 LW
N
243.909 171.958 M
250.572 181.089 L
S
GR
GS
[0.78257 0 0 0.78197 0 0.22835] CT
1 LJ
0.639 LW
N
91.724 171.958 M
86.361 162.827 L
S
GR
GS
[0.78257 0 0 0.78197 0 0.22835] CT
1 LJ
0.639 LW
N
237.777 162.827 M
241.737 168.822 L
243.909 171.958 L
S
GR
GS
[0.78257 0 0 0.78197 0 0.22835] CT
1 LJ
0.639 LW
N
86.361 162.827 M
82.8 153.696 L
S
GR
GS
[0.78257 0 0 0.78197 0 0.22835] CT
1 LJ
0.639 LW
N
233.273 153.696 M
237.777 162.827 L
S
GR
GS
[0.78257 0 0 0.78197 0 0.22835] CT
1 LJ
0.639 LW
N
82.8 153.696 M
81.947 149.346 L
80.996 144.565 L
S
GR
GS
[0.78257 0 0 0.78197 0 0.22835] CT
1 LJ
0.639 LW
N
230.857 144.565 M
233.273 153.696 L
S
GR
GS
[0.78257 0 0 0.78197 0 0.22835] CT
1 LJ
0.639 LW
N
80.996 144.565 M
80.996 135.435 L
S
GR
GS
[0.78257 0 0 0.78197 0 0.22835] CT
1 LJ
0.639 LW
N
230.857 135.435 M
230.857 144.565 L
S
GR
GS
[0.78257 0 0 0.78197 0 0.22835] CT
1 LJ
0.639 LW
N
80.996 135.435 M
81.947 130.654 L
82.8 126.304 L
S
GR
GS
[0.78257 0 0 0.78197 0 0.22835] CT
1 LJ
0.639 LW
N
233.273 126.304 M
230.857 135.435 L
S
GR
GS
[0.78257 0 0 0.78197 0 0.22835] CT
1 LJ
0.639 LW
N
82.8 126.304 M
86.361 117.173 L
S
GR
GS
[0.78257 0 0 0.78197 0 0.22835] CT
1 LJ
0.639 LW
N
237.777 117.173 M
233.273 126.304 L
S
GR
GS
[0.78257 0 0 0.78197 0 0.22835] CT
1 LJ
0.639 LW
N
86.361 117.173 M
91.724 108.042 L
S
GR
GS
[0.78257 0 0 0.78197 0 0.22835] CT
1 LJ
0.639 LW
N
243.909 108.042 M
241.737 111.178 L
237.777 117.173 L
S
GR
GS
[0.78257 0 0 0.78197 0 0.22835] CT
1 LJ
0.639 LW
N
91.724 108.042 M
95.263 103.313 L
98.501 98.911 L
S
GR
GS
[0.78257 0 0 0.78197 0 0.22835] CT
1 LJ
0.639 LW
N
250.572 98.911 M
243.909 108.042 L
S
GR
GS
[0.78257 0 0 0.78197 0 0.22835] CT
1 LJ
0.639 LW
N
98.501 98.911 M
105.556 89.78 L
S
GR
GS
[0.78257 0 0 0.78197 0 0.22835] CT
1 LJ
0.639 LW
N
256.588 89.78 M
255.053 92.149 L
250.572 98.911 L
S
GR
GS
[0.78257 0 0 0.78197 0 0.22835] CT
1 LJ
0.639 LW
N
105.556 89.78 M
108.579 85.611 L
111.885 80.65 L
S
GR
GS
[0.78257 0 0 0.78197 0 0.22835] CT
1 LJ
0.639 LW
N
261.341 80.65 M
256.588 89.78 L
S
GR
GS
[0.78257 0 0 0.78197 0 0.22835] CT
1 LJ
0.639 LW
N
111.885 80.65 M
116.535 71.519 L
S
GR
GS
[0.78257 0 0 0.78197 0 0.22835] CT
1 LJ
0.639 LW
N
264.534 71.519 M
261.341 80.65 L
S
GR
GS
[0.78257 0 0 0.78197 0 0.22835] CT
1 LJ
0.639 LW
N
116.535 71.519 M
119.403 62.388 L
S
GR
GS
[0.78257 0 0 0.78197 0 0.22835] CT
1 LJ
0.639 LW
N
266.363 62.388 M
264.534 71.519 L
S
GR
GS
[0.78257 0 0 0.78197 0 0.22835] CT
1 LJ
0.639 LW
N
119.403 62.388 M
120.371 53.257 L
S
GR
GS
[0.78257 0 0 0.78197 0 0.22835] CT
1 LJ
0.639 LW
N
266.957 53.257 M
266.363 62.388 L
S
GR
GS
[0.78257 0 0 0.78197 0 0.22835] CT
1 LJ
0.639 LW
N
112.57 226.743 M
111.553 217.612 L
S
GR
GS
[0.78257 0 0 0.78197 0 0.22835] CT
1 LJ
0.639 LW
N
273.654 217.612 M
274.137 226.743 L
S
GR
GS
[0.78257 0 0 0.78197 0 0.22835] CT
1 LJ
0.639 LW
N
111.553 217.612 M
108.579 208.601 L
108.533 208.481 L
S
GR
GS
[0.78257 0 0 0.78197 0 0.22835] CT
1 LJ
0.639 LW
N
272.134 208.481 M
273.654 217.612 L
S
GR
GS
[0.78257 0 0 0.78197 0 0.22835] CT
1 LJ
0.639 LW
N
108.533 208.481 M
103.142 199.35 L
S
GR
GS
[0.78257 0 0 0.78197 0 0.22835] CT
1 LJ
0.639 LW
N
269.344 199.35 M
272.134 208.481 L
S
GR
GS
[0.78257 0 0 0.78197 0 0.22835] CT
1 LJ
0.639 LW
N
103.142 199.35 M
96.596 190.22 L
S
GR
GS
[0.78257 0 0 0.78197 0 0.22835] CT
1 LJ
0.639 LW
N
265.35 190.22 M
268.368 197.128 L
269.344 199.35 L
S
GR
GS
[0.78257 0 0 0.78197 0 0.22835] CT
1 LJ
0.639 LW
N
96.596 190.22 M
95.263 188.483 L
89.146 181.089 L
S
GR
GS
[0.78257 0 0 0.78197 0 0.22835] CT
1 LJ
0.639 LW
N
260.02 181.089 M
265.35 190.22 L
S
GR
GS
[0.78257 0 0 0.78197 0 0.22835] CT
1 LJ
0.639 LW
N
89.146 181.089 M
82.742 171.958 L
S
GR
GS
[0.78257 0 0 0.78197 0 0.22835] CT
1 LJ
0.639 LW
N
253.54 171.958 M
255.053 174.141 L
260.02 181.089 L
S
GR
GS
[0.78257 0 0 0.78197 0 0.22835] CT
1 LJ
0.639 LW
N
82.742 171.958 M
81.947 170.535 L
77.526 162.827 L
S
GR
GS
[0.78257 0 0 0.78197 0 0.22835] CT
1 LJ
0.639 LW
N
247.593 162.827 M
253.54 171.958 L
S
GR
GS
[0.78257 0 0 0.78197 0 0.22835] CT
1 LJ
0.639 LW
N
77.526 162.827 M
74.273 153.696 L
S
GR
GS
[0.78257 0 0 0.78197 0 0.22835] CT
1 LJ
0.639 LW
N
242.677 153.696 M
247.593 162.827 L
S
GR
GS
[0.78257 0 0 0.78197 0 0.22835] CT
1 LJ
0.639 LW
N
74.273 153.696 M
72.734 144.565 L
S
GR
GS
[0.78257 0 0 0.78197 0 0.22835] CT
1 LJ
0.639 LW
N
240.171 144.565 M
241.737 150.591 L
242.677 153.696 L
S
GR
GS
[0.78257 0 0 0.78197 0 0.22835] CT
1 LJ
0.639 LW
N
72.734 144.565 M
72.734 135.435 L
S
GR
GS
[0.78257 0 0 0.78197 0 0.22835] CT
1 LJ
0.639 LW
N
240.171 135.435 M
240.171 144.565 L
S
GR
GS
[0.78257 0 0 0.78197 0 0.22835] CT
1 LJ
0.639 LW
N
72.734 135.435 M
74.273 126.304 L
S
GR
GS
[0.78257 0 0 0.78197 0 0.22835] CT
1 LJ
0.639 LW
N
242.677 126.304 M
241.737 129.409 L
240.171 135.435 L
S
GR
GS
[0.78257 0 0 0.78197 0 0.22835] CT
1 LJ
0.639 LW
N
74.273 126.304 M
77.526 117.173 L
S
GR
GS
[0.78257 0 0 0.78197 0 0.22835] CT
1 LJ
0.639 LW
N
247.593 117.173 M
242.677 126.304 L
S
GR
GS
[0.78257 0 0 0.78197 0 0.22835] CT
1 LJ
0.639 LW
N
77.526 117.173 M
81.947 109.465 L
82.742 108.042 L
S
GR
GS
[0.78257 0 0 0.78197 0 0.22835] CT
1 LJ
0.639 LW
N
253.54 108.042 M
247.593 117.173 L
S
GR
GS
[0.78257 0 0 0.78197 0 0.22835] CT
1 LJ
0.639 LW
N
82.742 108.042 M
89.146 98.911 L
S
GR
GS
[0.78257 0 0 0.78197 0 0.22835] CT
1 LJ
0.639 LW
N
260.02 98.911 M
255.053 105.859 L
253.54 108.042 L
S
GR
GS
[0.78257 0 0 0.78197 0 0.22835] CT
1 LJ
0.639 LW
N
89.146 98.911 M
95.263 91.517 L
96.596 89.78 L
S
GR
GS
[0.78257 0 0 0.78197 0 0.22835] CT
1 LJ
0.639 LW
N
265.35 89.78 M
260.02 98.911 L
S
GR
GS
[0.78257 0 0 0.78197 0 0.22835] CT
1 LJ
0.639 LW
N
96.596 89.78 M
103.142 80.65 L
S
GR
GS
[0.78257 0 0 0.78197 0 0.22835] CT
1 LJ
0.639 LW
N
269.344 80.65 M
268.368 82.872 L
265.35 89.78 L
S
GR
GS
[0.78257 0 0 0.78197 0 0.22835] CT
1 LJ
0.639 LW
N
103.142 80.65 M
108.533 71.519 L
S
GR
GS
[0.78257 0 0 0.78197 0 0.22835] CT
1 LJ
0.639 LW
N
272.134 71.519 M
269.344 80.65 L
S
GR
GS
[0.78257 0 0 0.78197 0 0.22835] CT
1 LJ
0.639 LW
N
108.533 71.519 M
108.579 71.399 L
111.553 62.388 L
S
GR
GS
[0.78257 0 0 0.78197 0 0.22835] CT
1 LJ
0.639 LW
N
273.654 62.388 M
272.134 71.519 L
S
GR
GS
[0.78257 0 0 0.78197 0 0.22835] CT
1 LJ
0.639 LW
N
111.553 62.388 M
112.57 53.257 L
S
GR
GS
[0.78257 0 0 0.78197 0 0.22835] CT
1 LJ
0.639 LW
N
274.137 53.257 M
273.654 62.388 L
S
GR
GS
[0.78257 0 0 0.78197 0 0.22835] CT
1 LJ
0.639 LW
N
104.05 226.743 M
102.833 217.612 L
S
GR
GS
[0.78257 0 0 0.78197 0 0.22835] CT
1 LJ
0.639 LW
N
281.065 217.612 M
281.391 226.743 L
S
GR
GS
[0.78257 0 0 0.78197 0 0.22835] CT
1 LJ
0.639 LW
N
102.833 217.612 M
99.348 208.481 L
S
GR
GS
[0.78257 0 0 0.78197 0 0.22835] CT
1 LJ
0.639 LW
N
280.035 208.481 M
281.065 217.612 L
S
GR
GS
[0.78257 0 0 0.78197 0 0.22835] CT
1 LJ
0.639 LW
N
99.348 208.481 M
95.263 201.448 L
93.759 199.35 L
S
GR
GS
[0.78257 0 0 0.78197 0 0.22835] CT
1 LJ
0.639 LW
N
278.145 199.35 M
280.035 208.481 L
S
GR
GS
[0.78257 0 0 0.78197 0 0.22835] CT
1 LJ
0.639 LW
N
93.759 199.35 M
86.352 190.22 L
S
GR
GS
[0.78257 0 0 0.78197 0 0.22835] CT
1 LJ
0.639 LW
N
275.091 190.22 M
278.145 199.35 L
S
GR
GS
[0.78257 0 0 0.78197 0 0.22835] CT
1 LJ
0.639 LW
N
86.352 190.22 M
81.947 184.532 L
78.91 181.089 L
S
GR
GS
[0.78257 0 0 0.78197 0 0.22835] CT
1 LJ
0.639 LW
N
270.369 181.089 M
275.091 190.22 L
S
GR
GS
[0.78257 0 0 0.78197 0 0.22835] CT
1 LJ
0.639 LW
N
78.91 181.089 M
72.546 171.958 L
S
GR
GS
[0.78257 0 0 0.78197 0 0.22835] CT
1 LJ
0.639 LW
N
264.688 171.958 M
268.368 178.058 L
270.369 181.089 L
S
GR
GS
[0.78257 0 0 0.78197 0 0.22835] CT
1 LJ
0.639 LW
N
72.546 171.958 M
68.632 163.632 L
68.214 162.827 L
S
GR
GS
[0.78257 0 0 0.78197 0 0.22835] CT
1 LJ
0.639 LW
N
258.672 162.827 M
264.688 171.958 L
S
GR
GS
[0.78257 0 0 0.78197 0 0.22835] CT
1 LJ
0.639 LW
N
68.214 162.827 M
65.162 153.696 L
S
GR
GS
[0.78257 0 0 0.78197 0 0.22835] CT
1 LJ
0.639 LW
N
253.527 153.696 M
255.053 156.782 L
258.672 162.827 L
S
GR
GS
[0.78257 0 0 0.78197 0 0.22835] CT
1 LJ
0.639 LW
N
65.162 153.696 M
63.805 144.565 L
S
GR
GS
[0.78257 0 0 0.78197 0 0.22835] CT
1 LJ
0.639 LW
N
251.025 144.565 M
253.527 153.696 L
S
GR
GS
[0.78257 0 0 0.78197 0 0.22835] CT
1 LJ
0.639 LW
N
63.805 144.565 M
63.805 135.435 L
S
GR
GS
[0.78257 0 0 0.78197 0 0.22835] CT
1 LJ
0.639 LW
N
251.025 135.435 M
251.025 144.565 L
S
GR
GS
[0.78257 0 0 0.78197 0 0.22835] CT
1 LJ
0.639 LW
N
63.805 135.435 M
65.162 126.304 L
S
GR
GS
[0.78257 0 0 0.78197 0 0.22835] CT
1 LJ
0.639 LW
N
253.527 126.304 M
251.025 135.435 L
S
GR
GS
[0.78257 0 0 0.78197 0 0.22835] CT
1 LJ
0.639 LW
N
65.162 126.304 M
68.214 117.173 L
S
GR
GS
[0.78257 0 0 0.78197 0 0.22835] CT
1 LJ
0.639 LW
N
258.672 117.173 M
255.053 123.218 L
253.527 126.304 L
S
GR
GS
[0.78257 0 0 0.78197 0 0.22835] CT
1 LJ
0.639 LW
N
68.214 117.173 M
68.632 116.368 L
72.546 108.042 L
S
GR
GS
[0.78257 0 0 0.78197 0 0.22835] CT
1 LJ
0.639 LW
N
264.688 108.042 M
258.672 117.173 L
S
GR
GS
[0.78257 0 0 0.78197 0 0.22835] CT
1 LJ
0.639 LW
N
72.546 108.042 M
78.91 98.911 L
S
GR
GS
[0.78257 0 0 0.78197 0 0.22835] CT
1 LJ
0.639 LW
N
270.369 98.911 M
268.368 101.942 L
264.688 108.042 L
S
GR
GS
[0.78257 0 0 0.78197 0 0.22835] CT
1 LJ
0.639 LW
N
78.91 98.911 M
81.947 95.468 L
86.352 89.78 L
S
GR
GS
[0.78257 0 0 0.78197 0 0.22835] CT
1 LJ
0.639 LW
N
275.091 89.78 M
270.369 98.911 L
S
GR
GS
[0.78257 0 0 0.78197 0 0.22835] CT
1 LJ
0.639 LW
N
86.352 89.78 M
93.759 80.65 L
S
GR
GS
[0.78257 0 0 0.78197 0 0.22835] CT
1 LJ
0.639 LW
N
278.145 80.65 M
275.091 89.78 L
S
GR
GS
[0.78257 0 0 0.78197 0 0.22835] CT
1 LJ
0.639 LW
N
93.759 80.65 M
95.263 78.552 L
99.348 71.519 L
S
GR
GS
[0.78257 0 0 0.78197 0 0.22835] CT
1 LJ
0.639 LW
N
280.035 71.519 M
278.145 80.65 L
S
GR
GS
[0.78257 0 0 0.78197 0 0.22835] CT
1 LJ
0.639 LW
N
99.348 71.519 M
102.833 62.388 L
S
GR
GS
[0.78257 0 0 0.78197 0 0.22835] CT
1 LJ
0.639 LW
N
281.065 62.388 M
280.035 71.519 L
S
GR
GS
[0.78257 0 0 0.78197 0 0.22835] CT
1 LJ
0.639 LW
N
102.833 62.388 M
104.05 53.257 L
S
GR
GS
[0.78257 0 0 0.78197 0 0.22835] CT
1 LJ
0.639 LW
N
281.391 53.257 M
281.065 62.388 L
S
GR
GS
[0.78257 0 0 0.78197 0 0.22835] CT
1 LJ
0.639 LW
N
94.58 226.743 M
92.945 217.612 L
S
GR
GS
[0.78257 0 0 0.78197 0 0.22835] CT
1 LJ
0.639 LW
N
289.772 217.612 M
289.917 226.743 L
S
GR
GS
[0.78257 0 0 0.78197 0 0.22835] CT
1 LJ
0.639 LW
N
92.945 217.612 M
88.512 208.481 L
S
GR
GS
[0.78257 0 0 0.78197 0 0.22835] CT
1 LJ
0.639 LW
N
289.299 208.481 M
289.772 217.612 L
S
GR
GS
[0.78257 0 0 0.78197 0 0.22835] CT
1 LJ
0.639 LW
N
88.512 208.481 M
82.416 199.35 L
S
GR
GS
[0.78257 0 0 0.78197 0 0.22835] CT
1 LJ
0.639 LW
N
288.373 199.35 M
289.299 208.481 L
S
GR
GS
[0.78257 0 0 0.78197 0 0.22835] CT
1 LJ
0.639 LW
N
82.416 199.35 M
81.947 198.743 L
73.709 190.22 L
S
GR
GS
[0.78257 0 0 0.78197 0 0.22835] CT
1 LJ
0.639 LW
N
286.693 190.22 M
288.373 199.35 L
S
GR
GS
[0.78257 0 0 0.78197 0 0.22835] CT
1 LJ
0.639 LW
N
73.709 190.22 M
68.632 183.64 L
66.159 181.089 L
S
GR
GS
[0.78257 0 0 0.78197 0 0.22835] CT
1 LJ
0.639 LW
N
283.529 181.089 M
286.693 190.22 L
S
GR
GS
[0.78257 0 0 0.78197 0 0.22835] CT
1 LJ
0.639 LW
N
66.159 181.089 M
60.139 171.958 L
S
GR
GS
[0.78257 0 0 0.78197 0 0.22835] CT
1 LJ
0.639 LW
N
279.148 171.958 M
281.684 177.675 L
283.529 181.089 L
S
GR
GS
[0.78257 0 0 0.78197 0 0.22835] CT
1 LJ
0.639 LW
N
60.139 171.958 M
56.823 162.827 L
S
GR
GS
[0.78257 0 0 0.78197 0 0.22835] CT
1 LJ
0.639 LW
N
273.803 162.827 M
279.148 171.958 L
S
GR
GS
[0.78257 0 0 0.78197 0 0.22835] CT
1 LJ
0.639 LW
N
56.823 162.827 M
55.316 155.345 L
54.902 153.696 L
S
GR
GS
[0.78257 0 0 0.78197 0 0.22835] CT
1 LJ
0.639 LW
N
267.725 153.696 M
268.368 155.001 L
273.803 162.827 L
S
GR
GS
[0.78257 0 0 0.78197 0 0.22835] CT
1 LJ
0.639 LW
N
54.902 153.696 M
53.827 144.565 L
S
GR
GS
[0.78257 0 0 0.78197 0 0.22835] CT
1 LJ
0.639 LW
N
265.134 144.565 M
267.725 153.696 L
S
GR
GS
[0.78257 0 0 0.78197 0 0.22835] CT
1 LJ
0.639 LW
N
53.827 144.565 M
53.827 135.435 L
S
GR
GS
[0.78257 0 0 0.78197 0 0.22835] CT
1 LJ
0.639 LW
N
265.134 135.435 M
265.134 144.565 L
S
GR
GS
[0.78257 0 0 0.78197 0 0.22835] CT
1 LJ
0.639 LW
N
53.827 135.435 M
54.902 126.304 L
S
GR
GS
[0.78257 0 0 0.78197 0 0.22835] CT
1 LJ
0.639 LW
N
267.725 126.304 M
265.134 135.435 L
S
GR
GS
[0.78257 0 0 0.78197 0 0.22835] CT
1 LJ
0.639 LW
N
54.902 126.304 M
55.316 124.655 L
56.823 117.173 L
S
GR
GS
[0.78257 0 0 0.78197 0 0.22835] CT
1 LJ
0.639 LW
N
273.803 117.173 M
268.368 124.999 L
267.725 126.304 L
S
GR
GS
[0.78257 0 0 0.78197 0 0.22835] CT
1 LJ
0.639 LW
N
56.823 117.173 M
60.139 108.042 L
S
GR
GS
[0.78257 0 0 0.78197 0 0.22835] CT
1 LJ
0.639 LW
N
279.148 108.042 M
273.803 117.173 L
S
GR
GS
[0.78257 0 0 0.78197 0 0.22835] CT
1 LJ
0.639 LW
N
60.139 108.042 M
66.159 98.911 L
S
GR
GS
[0.78257 0 0 0.78197 0 0.22835] CT
1 LJ
0.639 LW
N
283.529 98.911 M
281.684 102.325 L
279.148 108.042 L
S
GR
GS
[0.78257 0 0 0.78197 0 0.22835] CT
1 LJ
0.639 LW
N
66.159 98.911 M
68.632 96.36 L
73.709 89.78 L
S
GR
GS
[0.78257 0 0 0.78197 0 0.22835] CT
1 LJ
0.639 LW
N
286.693 89.78 M
283.529 98.911 L
S
GR
GS
[0.78257 0 0 0.78197 0 0.22835] CT
1 LJ
0.639 LW
N
73.709 89.78 M
81.947 81.257 L
82.416 80.65 L
S
GR
GS
[0.78257 0 0 0.78197 0 0.22835] CT
1 LJ
0.639 LW
N
288.373 80.65 M
286.693 89.78 L
S
GR
GS
[0.78257 0 0 0.78197 0 0.22835] CT
1 LJ
0.639 LW
N
82.416 80.65 M
88.512 71.519 L
S
GR
GS
[0.78257 0 0 0.78197 0 0.22835] CT
1 LJ
0.639 LW
N
289.299 71.519 M
288.373 80.65 L
S
GR
GS
[0.78257 0 0 0.78197 0 0.22835] CT
1 LJ
0.639 LW
N
88.512 71.519 M
92.945 62.388 L
S
GR
GS
[0.78257 0 0 0.78197 0 0.22835] CT
1 LJ
0.639 LW
N
289.772 62.388 M
289.299 71.519 L
S
GR
GS
[0.78257 0 0 0.78197 0 0.22835] CT
1 LJ
0.639 LW
N
92.945 62.388 M
94.58 53.257 L
S
GR
GS
[0.78257 0 0 0.78197 0 0.22835] CT
1 LJ
0.639 LW
N
289.917 53.257 M
289.772 62.388 L
S
GR
GS
[0.78257 0 0 0.78197 0 0.22835] CT
1 LJ
0.639 LW
N
44.321 217.612 M
44.142 226.743 L
S
GR
GS
[0.78257 0 0 0.78197 0 0.22835] CT
1 LJ
0.639 LW
N
81.284 226.743 M
78.631 217.612 L
S
GR
GS
[0.78257 0 0 0.78197 0 0.22835] CT
1 LJ
0.639 LW
N
45.058 208.481 M
44.321 217.612 L
S
GR
GS
[0.78257 0 0 0.78197 0 0.22835] CT
1 LJ
0.639 LW
N
78.631 217.612 M
72.348 208.481 L
S
GR
GS
[0.78257 0 0 0.78197 0 0.22835] CT
1 LJ
0.639 LW
N
48.013 199.35 M
45.058 208.481 L
S
GR
GS
[0.78257 0 0 0.78197 0 0.22835] CT
1 LJ
0.639 LW
N
72.348 208.481 M
68.632 204.034 L
60.231 199.35 L
S
GR
GS
[0.78257 0 0 0.78197 0 0.22835] CT
1 LJ
0.639 LW
N
60.231 199.35 M
55.316 195.186 L
48.013 199.35 L
S
GR
GS
[0.78257 0 0 0.78197 0 0.22835] CT
1 LJ
0.639 LW
N
48.013 80.65 M
55.316 84.814 L
60.231 80.65 L
S
GR
GS
[0.78257 0 0 0.78197 0 0.22835] CT
1 LJ
0.639 LW
N
45.058 71.519 M
48.013 80.65 L
S
GR
GS
[0.78257 0 0 0.78197 0 0.22835] CT
1 LJ
0.639 LW
N
60.231 80.65 M
68.632 75.966 L
72.348 71.519 L
S
GR
GS
[0.78257 0 0 0.78197 0 0.22835] CT
1 LJ
0.639 LW
N
44.321 62.388 M
45.058 71.519 L
S
GR
GS
[0.78257 0 0 0.78197 0 0.22835] CT
1 LJ
0.639 LW
N
72.348 71.519 M
78.631 62.388 L
S
GR
GS
[0.78257 0 0 0.78197 0 0.22835] CT
1 LJ
0.639 LW
N
44.142 53.257 M
44.321 62.388 L
S
GR
GS
[0.78257 0 0 0.78197 0 0.22835] CT
1 LJ
0.639 LW
N
78.631 62.388 M
81.284 53.257 L
S
GR
GS
[0.78257 0 0 0.78197 0 0.22835] CT
1 0 0 RC
1 LJ
0.639 LW
N
43.263 207.035 M
41.989 207.294 L
S
GR
GS
[0.78257 0 0 0.78197 0 0.22835] CT
1 0 0 RC
1 LJ
0.639 LW
N
41.989 84.66 M
42.241 84.661 L
S
GR
GS
[0.78257 0 0 0.78197 0 0.22835] CT
1 0 0 RC
1 LJ
0.639 LW
N
77.618 204.433 M
74.662 206.039 L
76.514 203.231 L
S
GR
GS
[0.78257 0 0 0.78197 0 0.22835] CT
1 0 0 RC
1 LJ
0.639 LW
N
73.607 184.467 M
69.073 184.545 L
73.037 182.342 L
S
GR
GS
[0.78257 0 0 0.78197 0 0.22835] CT
1 0 0 RC
1 LJ
0.639 LW
N
69.683 163.498 M
63.794 161.593 L
69.886 160.503 L
S
GR
GS
[0.78257 0 0 0.78197 0 0.22835] CT
1 0 0 RC
1 LJ
0.639 LW
N
67.5 142.669 M
61.05 139.162 L
68.392 139.221 L
S
GR
GS
[0.78257 0 0 0.78197 0 0.22835] CT
1 0 0 RC
1 LJ
0.639 LW
N
67.98 123.062 M
61.999 119.009 L
69.184 119.771 L
S
GR
GS
[0.78257 0 0 0.78197 0 0.22835] CT
1 0 0 RC
1 LJ
0.639 LW
N
70.92 105.245 M
66.24 101.933 L
71.928 102.653 L
S
GR
GS
[0.78257 0 0 0.78197 0 0.22835] CT
1 0 0 RC
1 LJ
0.639 LW
N
75.079 89.029 M
71.985 87.433 L
75.467 87.386 L
S
GR
GS
[0.78257 0 0 0.78197 0 0.22835] CT
1 0 0 RC
1 LJ
0.639 LW
N
113.915 200.636 M
116.192 202.207 L
113.444 201.892 L
S
GR
GS
[0.78257 0 0 0.78197 0 0.22835] CT
1 0 0 RC
1 LJ
0.639 LW
N
109.131 180.269 M
109.539 179.983 L
109.314 180.427 L
S
GR
GS
[0.78257 0 0 0.78197 0 0.22835] CT
1 0 0 RC
1 LJ
0.639 LW
N
104.632 160.183 M
103.255 158.226 L
105.391 159.305 L
S
GR
GS
[0.78257 0 0 0.78197 0 0.22835] CT
1 0 0 RC
1 LJ
0.639 LW
N
102.315 141.149 M
99.988 138.408 L
103.331 139.732 L
S
GR
GS
[0.78257 0 0 0.78197 0 0.22835] CT
1 0 0 RC
1 LJ
0.639 LW
N
103.158 123.492 M
101.118 121.188 L
104.002 122.261 L
S
GR
GS
[0.78257 0 0 0.78197 0 0.22835] CT
1 0 0 RC
1 LJ
0.639 LW
N
106.805 106.957 M
106.167 106.125 L
107.121 106.559 L
S
GR
GS
[0.78257 0 0 0.78197 0 0.22835] CT
1 0 0 RC
1 LJ
0.639 LW
N
111.718 90.815 M
113.006 91.87 L
111.373 91.546 L
S
GR
GS
[0.78257 0 0 0.78197 0 0.22835] CT
1 0 0 RC
1 LJ
0.639 LW
N
148.079 197.246 M
154.512 198.587 L
148.205 200.431 L
S
GR
GS
[0.78257 0 0 0.78197 0 0.22835] CT
1 0 0 RC
1 LJ
0.639 LW
N
144.405 176.273 M
149.601 175.674 L
145.299 178.648 L
S
GR
GS
[0.78257 0 0 0.78197 0 0.22835] CT
1 0 0 RC
1 LJ
0.639 LW
N
141.101 156.808 M
144.961 155.044 L
142.385 158.417 L
S
GR
GS
[0.78257 0 0 0.78197 0 0.22835] CT
1 0 0 RC
1 LJ
0.639 LW
N
139.561 139.358 M
142.55 137.697 L
140.694 140.569 L
S
GR
GS
[0.78257 0 0 0.78197 0 0.22835] CT
1 0 0 RC
1 LJ
0.639 LW
N
140.434 123.581 M
143.384 123.246 L
140.939 124.929 L
S
GR
GS
[0.78257 0 0 0.78197 0 0.22835] CT
1 0 0 RC
1 LJ
0.639 LW
N
143.352 108.429 M
147.111 110.085 L
143.015 110.393 L
S
GR
GS
[0.78257 0 0 0.78197 0 0.22835] CT
1 0 0 RC
1 LJ
0.639 LW
N
147.085 92.591 M
152.16 96.062 L
146.048 95.388 L
S
GR
GS
[0.78257 0 0 0.78197 0 0.22835] CT
1 0 0 RC
1 LJ
0.639 LW
N
176.933 195.693 M
184.692 196.705 L
177.37 199.463 L
S
GR
GS
[0.78257 0 0 0.78197 0 0.22835] CT
1 0 0 RC
1 LJ
0.639 LW
N
175.784 174.166 M
183.593 173.434 L
177.047 177.754 L
S
GR
GS
[0.78257 0 0 0.78197 0 0.22835] CT
1 0 0 RC
1 LJ
0.639 LW
N
174.941 154.796 M
182.555 153.391 L
176.498 158.213 L
S
GR
GS
[0.78257 0 0 0.78197 0 0.22835] CT
1 0 0 RC
1 LJ
0.639 LW
N
174.761 138.051 M
182.016 137.327 L
175.956 141.38 L
S
GR
GS
[0.78257 0 0 0.78197 0 0.22835] CT
1 0 0 RC
1 LJ
0.639 LW
N
175.319 123.292 M
182.202 124.316 L
175.647 126.651 L
S
GR
GS
[0.78257 0 0 0.78197 0 0.22835] CT
1 0 0 RC
1 LJ
0.639 LW
N
176.38 109.041 M
183.036 112.143 L
175.704 112.538 L
S
GR
GS
[0.78257 0 0 0.78197 0 0.22835] CT
1 0 0 RC
1 LJ
0.639 LW
N
177.497 93.607 M
184.166 98.241 L
176.101 97.291 L
S
GR
GS
[0.78257 0 0 0.78197 0 0.22835] CT
1 0 0 RC
1 LJ
0.639 LW
N
199.54 196.631 M
205.236 197.356 L
199.869 199.397 L
S
GR
GS
[0.78257 0 0 0.78197 0 0.22835] CT
1 0 0 RC
1 LJ
0.639 LW
N
201.265 174.834 M
208.413 174.209 L
202.401 178.124 L
S
GR
GS
[0.78257 0 0 0.78197 0 0.22835] CT
1 0 0 RC
1 LJ
0.639 LW
N
203.113 154.995 M
211.414 153.962 L
204.575 158.78 L
S
GR
GS
[0.78257 0 0 0.78197 0 0.22835] CT
1 0 0 RC
1 LJ
0.639 LW
N
204.302 137.78 M
212.974 137.455 L
205.476 141.823 L
S
GR
GS
[0.78257 0 0 0.78197 0 0.22835] CT
1 0 0 RC
1 LJ
0.639 LW
N
204.333 122.747 M
212.435 123.946 L
204.722 126.701 L
S
GR
GS
[0.78257 0 0 0.78197 0 0.22835] CT
1 0 0 RC
1 LJ
0.639 LW
N
203.192 108.535 M
210.024 111.431 L
202.632 112.091 L
S
GR
GS
[0.78257 0 0 0.78197 0 0.22835] CT
1 0 0 RC
1 LJ
0.639 LW
N
201.36 93.436 M
206.757 97.487 L
200.088 96.452 L
S
GR
GS
[0.78257 0 0 0.78197 0 0.22835] CT
1 0 0 RC
1 LJ
0.639 LW
N
217.596 199.665 M
218.711 200.264 L
217.446 200.26 L
S
GR
GS
[0.78257 0 0 0.78197 0 0.22835] CT
1 0 0 RC
1 LJ
0.639 LW
N
221.335 177.997 M
224.824 177.671 L
221.899 179.6 L
S
GR
GS
[0.78257 0 0 0.78197 0 0.22835] CT
1 0 0 RC
1 LJ
0.639 LW
N
224.966 157.322 M
230.599 156.518 L
226.007 159.878 L
S
GR
GS
[0.78257 0 0 0.78197 0 0.22835] CT
1 0 0 RC
1 LJ
0.639 LW
N
226.958 138.659 M
233.6 138.027 L
228.036 141.71 L
S
GR
GS
[0.78257 0 0 0.78197 0 0.22835] CT
1 0 0 RC
1 LJ
0.639 LW
N
226.471 122.176 M
232.562 122.292 L
227.133 125.056 L
S
GR
GS
[0.78257 0 0 0.78197 0 0.22835] CT
1 0 0 RC
1 LJ
0.639 LW
N
223.71 107.124 M
227.923 108.25 L
223.676 109.239 L
S
GR
GS
[0.78257 0 0 0.78197 0 0.22835] CT
1 0 0 RC
1 LJ
0.639 LW
N
219.84 92.149 M
221.638 94.12 L
219.124 93.227 L
S
GR
GS
[0.78257 0 0 0.78197 0 0.22835] CT
1 0 0 RC
1 LJ
0.639 LW
N
234.719 203.516 M
230.665 204.204 L
233.918 201.689 L
S
GR
GS
[0.78257 0 0 0.78197 0 0.22835] CT
1 0 0 RC
1 LJ
0.639 LW
N
238.759 182.32 M
237.136 182.36 L
238.55 181.561 L
S
GR
GS
[0.78257 0 0 0.78197 0 0.22835] CT
1 0 0 RC
1 LJ
0.639 LW
N
242.516 160.795 M
243.25 159.981 L
242.985 161.045 L
S
GR
GS
[0.78257 0 0 0.78197 0 0.22835] CT
1 0 0 RC
1 LJ
0.639 LW
N
244.404 140.316 M
246.427 138.801 L
245.355 141.09 L
S
GR
GS
[0.78257 0 0 0.78197 0 0.22835] CT
1 0 0 RC
1 LJ
0.639 LW
N
243.627 121.819 M
245.328 120.053 L
244.659 122.412 L
S
GR
GS
[0.78257 0 0 0.78197 0 0.22835] CT
1 0 0 RC
1 LJ
0.639 LW
N
240.514 105.403 M
240.417 103.94 L
241.191 105.185 L
S
GR
GS
[0.78257 0 0 0.78197 0 0.22835] CT
1 0 0 RC
1 LJ
0.639 LW
N
236.377 90.289 M
233.764 89.558 L
236.413 88.974 L
S
GR
GS
[0.78257 0 0 0.78197 0 0.22835] CT
1 0 0 RC
1 LJ
0.639 LW
N
254.919 206.559 M
247.289 207.513 L
253.572 203.081 L
S
GR
GS
[0.78257 0 0 0.78197 0 0.22835] CT
1 0 0 RC
1 LJ
0.639 LW
N
257.422 185.981 M
251.389 186.3 L
256.562 183.179 L
S
GR
GS
[0.78257 0 0 0.78197 0 0.22835] CT
1 0 0 RC
1 LJ
0.639 LW
N
259.592 163.95 M
255.262 162.889 L
259.582 161.787 L
S
GR
GS
[0.78257 0 0 0.78197 0 0.22835] CT
1 0 0 RC
1 LJ
0.639 LW
N
260.514 142.054 M
257.275 139.452 L
261.358 140.224 L
S
GR
GS
[0.78257 0 0 0.78197 0 0.22835] CT
1 0 0 RC
1 LJ
0.639 LW
N
259.799 121.827 M
256.579 118.171 L
261.141 119.882 L
S
GR
GS
[0.78257 0 0 0.78197 0 0.22835] CT
1 0 0 RC
1 LJ
0.639 LW
N
257.748 104.098 M
253.467 100.32 L
259.022 101.639 L
S
GR
GS
[0.78257 0 0 0.78197 0 0.22835] CT
1 0 0 RC
1 LJ
0.639 LW
N
255.226 88.641 M
249.252 85.726 L
255.895 85.487 L
S
GR
GS
[0.78257 0 0 0.78197 0 0.22835] CT
1 0 0 RC
1 LJ
0.639 LW
N
55.316 199.35 M
41.989 205.707 L
S
GR
GS
[0.78257 0 0 0.78197 0 0.22835] CT
1 0 0 RC
1 LJ
0.639 LW
N
55.316 181.089 M
41.989 185.063 L
S
GR
GS
[0.78257 0 0 0.78197 0 0.22835] CT
1 0 0 RC
1 LJ
0.639 LW
N
55.316 162.827 M
41.989 163.341 L
S
GR
GS
[0.78257 0 0 0.78197 0 0.22835] CT
1 0 0 RC
1 LJ
0.639 LW
N
55.316 144.565 M
41.989 141.874 L
S
GR
GS
[0.78257 0 0 0.78197 0 0.22835] CT
1 0 0 RC
1 LJ
0.639 LW
N
55.316 126.304 M
41.989 121.491 L
S
GR
GS
[0.78257 0 0 0.78197 0 0.22835] CT
1 0 0 RC
1 LJ
0.639 LW
N
55.316 108.042 M
41.989 102.822 L
S
GR
GS
[0.78257 0 0 0.78197 0 0.22835] CT
1 0 0 RC
1 LJ
0.639 LW
N
55.316 89.78 M
41.989 86.368 L
S
GR
GS
[0.78257 0 0 0.78197 0 0.22835] CT
1 0 0 RC
1 LJ
0.639 LW
N
81.947 199.35 M
74.662 206.039 L
S
GR
GS
[0.78257 0 0 0.78197 0 0.22835] CT
1 0 0 RC
1 LJ
0.639 LW
N
81.947 181.089 M
69.073 184.545 L
S
GR
GS
[0.78257 0 0 0.78197 0 0.22835] CT
1 0 0 RC
1 LJ
0.639 LW
N
81.947 162.827 M
63.794 161.593 L
S
GR
GS
[0.78257 0 0 0.78197 0 0.22835] CT
1 0 0 RC
1 LJ
0.639 LW
N
81.947 144.565 M
61.05 139.162 L
S
GR
GS
[0.78257 0 0 0.78197 0 0.22835] CT
1 0 0 RC
1 LJ
0.639 LW
N
81.947 126.304 M
61.999 119.009 L
S
GR
GS
[0.78257 0 0 0.78197 0 0.22835] CT
1 0 0 RC
1 LJ
0.639 LW
N
81.947 108.042 M
66.24 101.933 L
S
GR
GS
[0.78257 0 0 0.78197 0 0.22835] CT
1 0 0 RC
1 LJ
0.639 LW
N
81.947 89.78 M
71.985 87.433 L
S
GR
GS
[0.78257 0 0 0.78197 0 0.22835] CT
1 0 0 RC
1 LJ
0.639 LW
N
108.579 199.35 M
116.192 202.207 L
S
GR
GS
[0.78257 0 0 0.78197 0 0.22835] CT
1 0 0 RC
1 LJ
0.639 LW
N
108.579 181.089 M
109.539 179.983 L
S
GR
GS
[0.78257 0 0 0.78197 0 0.22835] CT
1 0 0 RC
1 LJ
0.639 LW
N
108.579 162.827 M
103.255 158.226 L
S
GR
GS
[0.78257 0 0 0.78197 0 0.22835] CT
1 0 0 RC
1 LJ
0.639 LW
N
108.579 144.565 M
99.988 138.408 L
S
GR
GS
[0.78257 0 0 0.78197 0 0.22835] CT
1 0 0 RC
1 LJ
0.639 LW
N
108.579 126.304 M
101.118 121.188 L
S
GR
GS
[0.78257 0 0 0.78197 0 0.22835] CT
1 0 0 RC
1 LJ
0.639 LW
N
108.579 108.042 M
106.167 106.125 L
S
GR
GS
[0.78257 0 0 0.78197 0 0.22835] CT
1 0 0 RC
1 LJ
0.639 LW
N
108.579 89.78 M
113.006 91.87 L
S
GR
GS
[0.78257 0 0 0.78197 0 0.22835] CT
1 0 0 RC
1 LJ
0.639 LW
N
135.211 199.35 M
154.512 198.587 L
S
GR
GS
[0.78257 0 0 0.78197 0 0.22835] CT
1 0 0 RC
1 LJ
0.639 LW
N
135.211 181.089 M
149.601 175.674 L
S
GR
GS
[0.78257 0 0 0.78197 0 0.22835] CT
1 0 0 RC
1 LJ
0.639 LW
N
135.211 162.827 M
144.961 155.044 L
S
GR
GS
[0.78257 0 0 0.78197 0 0.22835] CT
1 0 0 RC
1 LJ
0.639 LW
N
135.211 144.565 M
142.55 137.697 L
S
GR
GS
[0.78257 0 0 0.78197 0 0.22835] CT
1 0 0 RC
1 LJ
0.639 LW
N
135.211 126.304 M
143.384 123.246 L
S
GR
GS
[0.78257 0 0 0.78197 0 0.22835] CT
1 0 0 RC
1 LJ
0.639 LW
N
135.211 108.042 M
147.111 110.085 L
S
GR
GS
[0.78257 0 0 0.78197 0 0.22835] CT
1 0 0 RC
1 LJ
0.639 LW
N
135.211 89.78 M
152.16 96.062 L
S
GR
GS
[0.78257 0 0 0.78197 0 0.22835] CT
1 0 0 RC
1 LJ
0.639 LW
N
161.842 199.35 M
184.692 196.705 L
S
GR
GS
[0.78257 0 0 0.78197 0 0.22835] CT
1 0 0 RC
1 LJ
0.639 LW
N
161.842 181.089 M
183.593 173.434 L
S
GR
GS
[0.78257 0 0 0.78197 0 0.22835] CT
1 0 0 RC
1 LJ
0.639 LW
N
161.842 162.827 M
182.555 153.391 L
S
GR
GS
[0.78257 0 0 0.78197 0 0.22835] CT
1 0 0 RC
1 LJ
0.639 LW
N
161.842 144.565 M
182.016 137.327 L
S
GR
GS
[0.78257 0 0 0.78197 0 0.22835] CT
1 0 0 RC
1 LJ
0.639 LW
N
161.842 126.304 M
182.202 124.316 L
S
GR
GS
[0.78257 0 0 0.78197 0 0.22835] CT
1 0 0 RC
1 LJ
0.639 LW
N
161.842 108.042 M
183.036 112.143 L
S
GR
GS
[0.78257 0 0 0.78197 0 0.22835] CT
1 0 0 RC
1 LJ
0.639 LW
N
161.842 89.78 M
184.166 98.241 L
S
GR
GS
[0.78257 0 0 0.78197 0 0.22835] CT
1 0 0 RC
1 LJ
0.639 LW
N
188.474 199.35 M
205.236 197.356 L
S
GR
GS
[0.78257 0 0 0.78197 0 0.22835] CT
1 0 0 RC
1 LJ
0.639 LW
N
188.474 181.089 M
208.413 174.209 L
S
GR
GS
[0.78257 0 0 0.78197 0 0.22835] CT
1 0 0 RC
1 LJ
0.639 LW
N
188.474 162.827 M
211.414 153.962 L
S
GR
GS
[0.78257 0 0 0.78197 0 0.22835] CT
1 0 0 RC
1 LJ
0.639 LW
N
188.474 144.565 M
212.974 137.455 L
S
GR
GS
[0.78257 0 0 0.78197 0 0.22835] CT
1 0 0 RC
1 LJ
0.639 LW
N
188.474 126.304 M
212.435 123.946 L
S
GR
GS
[0.78257 0 0 0.78197 0 0.22835] CT
1 0 0 RC
1 LJ
0.639 LW
N
188.474 108.042 M
210.024 111.431 L
S
GR
GS
[0.78257 0 0 0.78197 0 0.22835] CT
1 0 0 RC
1 LJ
0.639 LW
N
188.474 89.78 M
206.757 97.487 L
S
GR
GS
[0.78257 0 0 0.78197 0 0.22835] CT
1 0 0 RC
1 LJ
0.639 LW
N
215.105 199.35 M
218.711 200.264 L
S
GR
GS
[0.78257 0 0 0.78197 0 0.22835] CT
1 0 0 RC
1 LJ
0.639 LW
N
215.105 181.089 M
224.824 177.671 L
S
GR
GS
[0.78257 0 0 0.78197 0 0.22835] CT
1 0 0 RC
1 LJ
0.639 LW
N
215.105 162.827 M
230.599 156.518 L
S
GR
GS
[0.78257 0 0 0.78197 0 0.22835] CT
1 0 0 RC
1 LJ
0.639 LW
N
215.105 144.565 M
233.6 138.027 L
S
GR
GS
[0.78257 0 0 0.78197 0 0.22835] CT
1 0 0 RC
1 LJ
0.639 LW
N
215.105 126.304 M
232.562 122.292 L
S
GR
GS
[0.78257 0 0 0.78197 0 0.22835] CT
1 0 0 RC
1 LJ
0.639 LW
N
215.105 108.042 M
227.923 108.25 L
S
GR
GS
[0.78257 0 0 0.78197 0 0.22835] CT
1 0 0 RC
1 LJ
0.639 LW
N
215.105 89.78 M
221.638 94.12 L
S
GR
GS
[0.78257 0 0 0.78197 0 0.22835] CT
1 0 0 RC
1 LJ
0.639 LW
N
241.737 199.35 M
230.665 204.204 L
S
GR
GS
[0.78257 0 0 0.78197 0 0.22835] CT
1 0 0 RC
1 LJ
0.639 LW
N
241.737 181.089 M
237.136 182.36 L
S
GR
GS
[0.78257 0 0 0.78197 0 0.22835] CT
1 0 0 RC
1 LJ
0.639 LW
N
241.737 162.827 M
243.25 159.981 L
S
GR
GS
[0.78257 0 0 0.78197 0 0.22835] CT
1 0 0 RC
1 LJ
0.639 LW
N
241.737 144.565 M
246.427 138.801 L
S
GR
GS
[0.78257 0 0 0.78197 0 0.22835] CT
1 0 0 RC
1 LJ
0.639 LW
N
241.737 126.304 M
245.328 120.053 L
S
GR
GS
[0.78257 0 0 0.78197 0 0.22835] CT
1 0 0 RC
1 LJ
0.639 LW
N
241.737 108.042 M
240.417 103.94 L
S
GR
GS
[0.78257 0 0 0.78197 0 0.22835] CT
1 0 0 RC
1 LJ
0.639 LW
N
241.737 89.78 M
233.764 89.558 L
S
GR
GS
[0.78257 0 0 0.78197 0 0.22835] CT
1 0 0 RC
1 LJ
0.639 LW
N
268.368 199.35 M
247.289 207.513 L
S
GR
GS
[0.78257 0 0 0.78197 0 0.22835] CT
1 0 0 RC
1 LJ
0.639 LW
N
268.368 181.089 M
251.389 186.3 L
S
GR
GS
[0.78257 0 0 0.78197 0 0.22835] CT
1 0 0 RC
1 LJ
0.639 LW
N
268.368 162.827 M
255.262 162.889 L
S
GR
GS
[0.78257 0 0 0.78197 0 0.22835] CT
1 0 0 RC
1 LJ
0.639 LW
N
268.368 144.565 M
257.275 139.452 L
S
GR
GS
[0.78257 0 0 0.78197 0 0.22835] CT
1 0 0 RC
1 LJ
0.639 LW
N
268.368 126.304 M
256.579 118.171 L
S
GR
GS
[0.78257 0 0 0.78197 0 0.22835] CT
1 0 0 RC
1 LJ
0.639 LW
N
268.368 108.042 M
253.467 100.32 L
S
GR
GS
[0.78257 0 0 0.78197 0 0.22835] CT
1 0 0 RC
1 LJ
0.639 LW
N
268.368 89.78 M
249.252 85.726 L
S
GR
GS
[0.78257 0 0 0.78197 0 0.22835] CT
0.149 GC
2 setlinecap
1 LJ
0.639 LW
N
42 226.743 M
295 226.743 L
S
GR
GS
[0.78257 0 0 0.78197 0 0.22835] CT
0.149 GC
2 setlinecap
1 LJ
0.639 LW
N
42 53.257 M
295 53.257 L
S
GR
GS
[0.78257 0 0 0.78197 0 0.22835] CT
0.149 GC
2 setlinecap
1 LJ
0.639 LW
N
42 226.743 M
42 53.257 L
S
GR
GS
[0.78257 0 0 0.78197 0 0.22835] CT
0.149 GC
2 setlinecap
1 LJ
0.639 LW
N
295 226.743 M
295 53.257 L
S
GR
%%Trailer
%%Pages: 1
%%EOF
