%!PS-Adobe-3.0 EPSF-3.0
%%Creator: (MATLAB, The Mathworks, Inc. Version 9.10.0.1684407 \(R2021a\) Update 3. Operating System: Linux)
%%Title: /home/adoan/Code/PRoSA_PI-ESN_Git/pi-esn/Results/MFE_results/Figures/FIG7_UP_B.eps
%%CreationDate: 2021-07-21T18:42:52
%%Pages: (atend)
%%BoundingBox:     0     0   255   227
%%LanguageLevel: 3
%%EndComments
%%BeginProlog
%%BeginResource: procset (Apache XML Graphics Std ProcSet) 1.2 0
%%Version: 1.2 0
%%Copyright: (Copyright 2001-2003,2010 The Apache Software Foundation. License terms: http://www.apache.org/licenses/LICENSE-2.0)
/bd{bind def}bind def
/ld{load def}bd
/GR/grestore ld
/GS/gsave ld
/RM/rmoveto ld
/C/curveto ld
/t/show ld
/L/lineto ld
/ML/setmiterlimit ld
/CT/concat ld
/f/fill ld
/N/newpath ld
/S/stroke ld
/CC/setcmykcolor ld
/A/ashow ld
/cp/closepath ld
/RC/setrgbcolor ld
/LJ/setlinejoin ld
/GC/setgray ld
/LW/setlinewidth ld
/M/moveto ld
/re {4 2 roll M
1 index 0 rlineto
0 exch rlineto
neg 0 rlineto
cp } bd
/_ctm matrix def
/_tm matrix def
/BT { _ctm currentmatrix pop matrix _tm copy pop 0 0 moveto } bd
/ET { _ctm setmatrix } bd
/iTm { _ctm setmatrix _tm concat } bd
/Tm { _tm astore pop iTm 0 0 moveto } bd
/ux 0.0 def
/uy 0.0 def
/F {
  /Tp exch def
  /Tf exch def
  Tf findfont Tp scalefont setfont
  /cf Tf def  /cs Tp def
} bd
/ULS {currentpoint /uy exch def /ux exch def} bd
/ULE {
  /Tcx currentpoint pop def
  gsave
  newpath
  cf findfont cs scalefont dup
  /FontMatrix get 0 get /Ts exch def /FontInfo get dup
  /UnderlinePosition get Ts mul /To exch def
  /UnderlineThickness get Ts mul /Tt exch def
  ux uy To add moveto  Tcx uy To add lineto
  Tt setlinewidth stroke
  grestore
} bd
/OLE {
  /Tcx currentpoint pop def
  gsave
  newpath
  cf findfont cs scalefont dup
  /FontMatrix get 0 get /Ts exch def /FontInfo get dup
  /UnderlinePosition get Ts mul /To exch def
  /UnderlineThickness get Ts mul /Tt exch def
  ux uy To add cs add moveto Tcx uy To add cs add lineto
  Tt setlinewidth stroke
  grestore
} bd
/SOE {
  /Tcx currentpoint pop def
  gsave
  newpath
  cf findfont cs scalefont dup
  /FontMatrix get 0 get /Ts exch def /FontInfo get dup
  /UnderlinePosition get Ts mul /To exch def
  /UnderlineThickness get Ts mul /Tt exch def
  ux uy To add cs 10 mul 26 idiv add moveto Tcx uy To add cs 10 mul 26 idiv add lineto
  Tt setlinewidth stroke
  grestore
} bd
/QT {
/Y22 exch store
/X22 exch store
/Y21 exch store
/X21 exch store
currentpoint
/Y21 load 2 mul add 3 div exch
/X21 load 2 mul add 3 div exch
/X21 load 2 mul /X22 load add 3 div
/Y21 load 2 mul /Y22 load add 3 div
/X22 load /Y22 load curveto
} bd
/SSPD {
dup length /d exch dict def
{
/v exch def
/k exch def
currentpagedevice k known {
/cpdv currentpagedevice k get def
v cpdv ne {
/upd false def
/nullv v type /nulltype eq def
/nullcpdv cpdv type /nulltype eq def
nullv nullcpdv or
{
/upd true def
} {
/sametype v type cpdv type eq def
sametype {
v type /arraytype eq {
/vlen v length def
/cpdvlen cpdv length def
vlen cpdvlen eq {
0 1 vlen 1 sub {
/i exch def
/obj v i get def
/cpdobj cpdv i get def
obj cpdobj ne {
/upd true def
exit
} if
} for
} {
/upd true def
} ifelse
} {
v type /dicttype eq {
v {
/dv exch def
/dk exch def
/cpddv cpdv dk get def
dv cpddv ne {
/upd true def
exit
} if
} forall
} {
/upd true def
} ifelse
} ifelse
} if
} ifelse
upd true eq {
d k v put
} if
} if
} if
} forall
d length 0 gt {
d setpagedevice
} if
} bd
/RE { % /NewFontName [NewEncodingArray] /FontName RE -
  findfont dup length dict begin
  {
    1 index /FID ne
    {def} {pop pop} ifelse
  } forall
  /Encoding exch def
  /FontName 1 index def
  currentdict definefont pop
  end
} bind def
%%EndResource
%%BeginResource: procset (Apache XML Graphics EPS ProcSet) 1.0 0
%%Version: 1.0 0
%%Copyright: (Copyright 2002-2003 The Apache Software Foundation. License terms: http://www.apache.org/licenses/LICENSE-2.0)
/BeginEPSF { %def
/b4_Inc_state save def         % Save state for cleanup
/dict_count countdictstack def % Count objects on dict stack
/op_count count 1 sub def      % Count objects on operand stack
userdict begin                 % Push userdict on dict stack
/showpage { } def              % Redefine showpage, { } = null proc
0 setgray 0 setlinecap         % Prepare graphics state
1 setlinewidth 0 setlinejoin
10 setmiterlimit [ ] 0 setdash newpath
/languagelevel where           % If level not equal to 1 then
{pop languagelevel             % set strokeadjust and
1 ne                           % overprint to their defaults.
{false setstrokeadjust false setoverprint
} if
} if
} bd
/EndEPSF { %def
count op_count sub {pop} repeat            % Clean up stacks
countdictstack dict_count sub {end} repeat
b4_Inc_state restore
} bd
%%EndResource
%FOPBeginFontDict
%%IncludeResource: font Courier-Oblique
%%IncludeResource: font Courier-BoldOblique
%%IncludeResource: font Courier-Bold
%%IncludeResource: font ZapfDingbats
%%IncludeResource: font Symbol
%%IncludeResource: font Helvetica
%%IncludeResource: font Helvetica-Oblique
%%IncludeResource: font Helvetica-Bold
%%IncludeResource: font Helvetica-BoldOblique
%%IncludeResource: font Times-Roman
%%IncludeResource: font Times-Italic
%%IncludeResource: font Times-Bold
%%IncludeResource: font Times-BoldItalic
%%IncludeResource: font Courier
%FOPEndFontDict
%%BeginResource: encoding WinAnsiEncoding
/WinAnsiEncoding [
/.notdef /.notdef /.notdef /.notdef /.notdef
/.notdef /.notdef /.notdef /.notdef /.notdef
/.notdef /.notdef /.notdef /.notdef /.notdef
/.notdef /.notdef /.notdef /.notdef /.notdef
/.notdef /.notdef /.notdef /.notdef /.notdef
/.notdef /.notdef /.notdef /.notdef /.notdef
/.notdef /.notdef /space /exclam /quotedbl
/numbersign /dollar /percent /ampersand /quotesingle
/parenleft /parenright /asterisk /plus /comma
/hyphen /period /slash /zero /one
/two /three /four /five /six
/seven /eight /nine /colon /semicolon
/less /equal /greater /question /at
/A /B /C /D /E
/F /G /H /I /J
/K /L /M /N /O
/P /Q /R /S /T
/U /V /W /X /Y
/Z /bracketleft /backslash /bracketright /asciicircum
/underscore /quoteleft /a /b /c
/d /e /f /g /h
/i /j /k /l /m
/n /o /p /q /r
/s /t /u /v /w
/x /y /z /braceleft /bar
/braceright /asciitilde /bullet /Euro /bullet
/quotesinglbase /florin /quotedblbase /ellipsis /dagger
/daggerdbl /circumflex /perthousand /Scaron /guilsinglleft
/OE /bullet /Zcaron /bullet /bullet
/quoteleft /quoteright /quotedblleft /quotedblright /bullet
/endash /emdash /asciitilde /trademark /scaron
/guilsinglright /oe /bullet /zcaron /Ydieresis
/space /exclamdown /cent /sterling /currency
/yen /brokenbar /section /dieresis /copyright
/ordfeminine /guillemotleft /logicalnot /sfthyphen /registered
/macron /degree /plusminus /twosuperior /threesuperior
/acute /mu /paragraph /middot /cedilla
/onesuperior /ordmasculine /guillemotright /onequarter /onehalf
/threequarters /questiondown /Agrave /Aacute /Acircumflex
/Atilde /Adieresis /Aring /AE /Ccedilla
/Egrave /Eacute /Ecircumflex /Edieresis /Igrave
/Iacute /Icircumflex /Idieresis /Eth /Ntilde
/Ograve /Oacute /Ocircumflex /Otilde /Odieresis
/multiply /Oslash /Ugrave /Uacute /Ucircumflex
/Udieresis /Yacute /Thorn /germandbls /agrave
/aacute /acircumflex /atilde /adieresis /aring
/ae /ccedilla /egrave /eacute /ecircumflex
/edieresis /igrave /iacute /icircumflex /idieresis
/eth /ntilde /ograve /oacute /ocircumflex
/otilde /odieresis /divide /oslash /ugrave
/uacute /ucircumflex /udieresis /yacute /thorn
/ydieresis
] def
%%EndResource
%FOPBeginFontReencode
/Courier-Oblique findfont
dup length dict begin
  {1 index /FID ne {def} {pop pop} ifelse} forall
  /Encoding WinAnsiEncoding def
  currentdict
end
/Courier-Oblique exch definefont pop
/Courier-BoldOblique findfont
dup length dict begin
  {1 index /FID ne {def} {pop pop} ifelse} forall
  /Encoding WinAnsiEncoding def
  currentdict
end
/Courier-BoldOblique exch definefont pop
/Courier-Bold findfont
dup length dict begin
  {1 index /FID ne {def} {pop pop} ifelse} forall
  /Encoding WinAnsiEncoding def
  currentdict
end
/Courier-Bold exch definefont pop
/Helvetica findfont
dup length dict begin
  {1 index /FID ne {def} {pop pop} ifelse} forall
  /Encoding WinAnsiEncoding def
  currentdict
end
/Helvetica exch definefont pop
/Helvetica-Oblique findfont
dup length dict begin
  {1 index /FID ne {def} {pop pop} ifelse} forall
  /Encoding WinAnsiEncoding def
  currentdict
end
/Helvetica-Oblique exch definefont pop
/Helvetica-Bold findfont
dup length dict begin
  {1 index /FID ne {def} {pop pop} ifelse} forall
  /Encoding WinAnsiEncoding def
  currentdict
end
/Helvetica-Bold exch definefont pop
/Helvetica-BoldOblique findfont
dup length dict begin
  {1 index /FID ne {def} {pop pop} ifelse} forall
  /Encoding WinAnsiEncoding def
  currentdict
end
/Helvetica-BoldOblique exch definefont pop
/Times-Roman findfont
dup length dict begin
  {1 index /FID ne {def} {pop pop} ifelse} forall
  /Encoding WinAnsiEncoding def
  currentdict
end
/Times-Roman exch definefont pop
/Times-Italic findfont
dup length dict begin
  {1 index /FID ne {def} {pop pop} ifelse} forall
  /Encoding WinAnsiEncoding def
  currentdict
end
/Times-Italic exch definefont pop
/Times-Bold findfont
dup length dict begin
  {1 index /FID ne {def} {pop pop} ifelse} forall
  /Encoding WinAnsiEncoding def
  currentdict
end
/Times-Bold exch definefont pop
/Times-BoldItalic findfont
dup length dict begin
  {1 index /FID ne {def} {pop pop} ifelse} forall
  /Encoding WinAnsiEncoding def
  currentdict
end
/Times-BoldItalic exch definefont pop
/Courier findfont
dup length dict begin
  {1 index /FID ne {def} {pop pop} ifelse} forall
  /Encoding WinAnsiEncoding def
  currentdict
end
/Courier exch definefont pop
%FOPEndFontReencode
%%EndProlog
%%Page: 1 1
%%PageBoundingBox: 0 0 255 227
%%BeginPageSetup
[1 0 0 -1 0 227] CT
%%EndPageSetup
GS
[0.78257 0 0 0.78197 0 0.22835] CT
1 GC
N
0 0 326 290 re
f
GR
GS
[0.78257 0 0 0.78197 0 0.22835] CT
1 GC
N
0 0 326 290 re
f
GR
GS
[0.78257 0 0 0.78197 0 0.22835] CT
1 GC
N
42 226.743 M
295 226.743 L
295 53.257 L
42 53.257 L
cp
f
GR
GS
[0.78257 0 0 0.78197 0 0.22835] CT
0.012 0.71 0.804 RC
N
42 217.612 M
42 226.743 L
49.586 226.743 L
49.892 217.612 L
50.935 208.481 L
53.228 199.35 L
55.316 194.869 L
56.807 190.22 L
61.261 181.089 L
68.632 172.059 L
68.69 171.958 L
73.912 162.827 L
78.798 153.696 L
81.87 144.565 L
81.87 135.435 L
78.798 126.304 L
73.912 117.173 L
68.69 108.042 L
68.632 107.941 L
61.261 98.911 L
56.807 89.78 L
55.316 85.131 L
53.228 80.65 L
50.935 71.519 L
49.892 62.388 L
49.586 53.257 L
42 53.257 L
42 62.388 L
42 71.519 L
42 80.65 L
42 89.78 L
42 98.911 L
42 108.042 L
42 117.173 L
42 126.304 L
42 135.435 L
42 144.565 L
42 153.696 L
42 162.827 L
42 171.958 L
42 181.089 L
42 190.22 L
42 199.35 L
42 208.481 L
cp
283.972 217.612 M
281.71 226.743 L
295 226.743 L
295 217.612 L
295 208.481 L
295 199.35 L
295 190.22 L
295 181.089 L
295 171.958 L
295 162.827 L
295 153.696 L
295 144.565 L
295 135.435 L
295 126.304 L
295 117.173 L
295 108.042 L
295 98.911 L
295 89.78 L
295 80.65 L
295 71.519 L
295 62.388 L
295 53.257 L
281.71 53.257 L
283.972 62.388 L
287.609 71.519 L
290.105 80.65 L
291.553 89.78 L
292.393 98.911 L
292.892 108.042 L
293.191 117.173 L
293.362 126.304 L
293.44 135.435 L
293.44 144.565 L
293.362 153.696 L
293.191 162.827 L
292.892 171.958 L
292.393 181.089 L
291.553 190.22 L
290.105 199.35 L
287.609 208.481 L
cp
f
GR
GS
[0.78257 0 0 0.78197 0 0.22835] CT
0.004 0.718 0.792 RC
N
49.892 217.612 M
49.586 226.743 L
55.316 226.743 L
63.519 226.743 L
64.079 217.612 L
65.863 208.481 L
68.632 200.791 L
69.075 199.35 L
72.986 190.22 L
78.299 181.089 L
81.947 175.799 L
84.138 171.958 L
89.011 162.827 L
92.951 153.696 L
95.174 144.565 L
95.174 135.435 L
92.951 126.304 L
89.011 117.173 L
84.138 108.042 L
81.947 104.201 L
78.299 98.911 L
72.986 89.78 L
69.075 80.65 L
68.632 79.209 L
65.863 71.519 L
64.079 62.388 L
63.519 53.257 L
55.316 53.257 L
49.586 53.257 L
49.892 62.388 L
50.935 71.519 L
53.228 80.65 L
55.316 85.131 L
56.807 89.78 L
61.261 98.911 L
68.632 107.941 L
68.69 108.042 L
73.912 117.173 L
78.798 126.304 L
81.87 135.435 L
81.87 144.565 L
78.798 153.696 L
73.912 162.827 L
68.69 171.958 L
68.632 172.059 L
61.261 181.089 L
56.807 190.22 L
55.316 194.869 L
53.228 199.35 L
50.935 208.481 L
cp
262.292 217.612 M
261.32 226.743 L
268.368 226.743 L
281.684 226.743 L
281.71 226.743 L
283.972 217.612 L
287.609 208.481 L
290.105 199.35 L
291.553 190.22 L
292.393 181.089 L
292.892 171.958 L
293.191 162.827 L
293.362 153.696 L
293.44 144.565 L
293.44 135.435 L
293.362 126.304 L
293.191 117.173 L
292.892 108.042 L
292.393 98.911 L
291.553 89.78 L
290.105 80.65 L
287.609 71.519 L
283.972 62.388 L
281.71 53.257 L
281.684 53.257 L
268.368 53.257 L
261.32 53.257 L
262.292 62.388 L
264.874 71.519 L
268.304 80.65 L
268.368 80.801 L
272.851 89.78 L
276.401 98.911 L
278.966 108.042 L
280.709 117.173 L
281.684 125.403 L
281.808 126.304 L
282.435 135.435 L
282.435 144.565 L
281.808 153.696 L
281.684 154.597 L
280.709 162.827 L
278.966 171.958 L
276.401 181.089 L
272.851 190.22 L
268.368 199.199 L
268.304 199.35 L
264.874 208.481 L
cp
f
GR
GS
[0.78257 0 0 0.78197 0 0.22835] CT
0 0.725 0.773 RC
N
64.079 217.612 M
63.519 226.743 L
68.632 226.743 L
74.398 226.743 L
75.044 217.612 L
77.026 208.481 L
80.478 199.35 L
81.947 196.534 L
84.971 190.22 L
90.193 181.089 L
95.263 172.936 L
95.81 171.958 L
100.261 162.827 L
103.581 153.696 L
105.355 144.565 L
105.355 135.435 L
103.581 126.304 L
100.261 117.173 L
95.81 108.042 L
95.263 107.064 L
90.193 98.911 L
84.971 89.78 L
81.947 83.466 L
80.478 80.65 L
77.026 71.519 L
75.044 62.388 L
74.398 53.257 L
68.632 53.257 L
63.519 53.257 L
64.079 62.388 L
65.863 71.519 L
68.632 79.209 L
69.075 80.65 L
72.986 89.78 L
78.299 98.911 L
81.947 104.201 L
84.138 108.042 L
89.011 117.173 L
92.951 126.304 L
95.174 135.435 L
95.174 144.565 L
92.951 153.696 L
89.011 162.827 L
84.138 171.958 L
81.947 175.799 L
78.299 181.089 L
72.986 190.22 L
69.075 199.35 L
68.632 200.791 L
65.863 208.481 L
cp
249.179 217.612 M
248.246 226.743 L
255.053 226.743 L
261.32 226.743 L
262.292 217.612 L
264.874 208.481 L
268.304 199.35 L
268.368 199.199 L
272.851 190.22 L
276.401 181.089 L
278.966 171.958 L
280.709 162.827 L
281.684 154.597 L
281.808 153.696 L
282.435 144.565 L
282.435 135.435 L
281.808 126.304 L
281.684 125.403 L
280.709 117.173 L
278.966 108.042 L
276.401 98.911 L
272.851 89.78 L
268.368 80.801 L
268.304 80.65 L
264.874 71.519 L
262.292 62.388 L
261.32 53.257 L
255.053 53.257 L
248.246 53.257 L
249.179 62.388 L
251.774 71.519 L
255.053 79.501 L
255.59 80.65 L
260.341 89.78 L
264.572 98.911 L
267.984 108.042 L
268.368 109.356 L
270.756 117.173 L
272.503 126.304 L
273.335 135.435 L
273.335 144.565 L
272.503 153.696 L
270.756 162.827 L
268.368 170.644 L
267.984 171.958 L
264.572 181.089 L
260.341 190.22 L
255.59 199.35 L
255.053 200.499 L
251.774 208.481 L
cp
f
GR
GS
[0.78257 0 0 0.78197 0 0.22835] CT
0.008 0.729 0.761 RC
N
75.044 217.612 M
74.398 226.743 L
81.947 226.743 L
84.199 226.743 L
84.919 217.612 L
87.069 208.481 L
90.611 199.35 L
95.263 190.523 L
95.42 190.22 L
100.61 181.089 L
105.769 171.958 L
108.579 166.294 L
110.163 162.827 L
113.14 153.696 L
114.67 144.565 L
114.67 135.435 L
113.14 126.304 L
110.163 117.173 L
108.579 113.706 L
105.769 108.042 L
100.61 98.911 L
95.42 89.78 L
95.263 89.477 L
90.611 80.65 L
87.069 71.519 L
84.919 62.388 L
84.199 53.257 L
81.947 53.257 L
74.398 53.257 L
75.044 62.388 L
77.026 71.519 L
80.478 80.65 L
81.947 83.466 L
84.971 89.78 L
90.193 98.911 L
95.263 107.064 L
95.81 108.042 L
100.261 117.173 L
103.581 126.304 L
105.355 135.435 L
105.355 144.565 L
103.581 153.696 L
100.261 162.827 L
95.81 171.958 L
95.263 172.936 L
90.193 181.089 L
84.971 190.22 L
81.947 196.534 L
80.478 199.35 L
77.026 208.481 L
cp
238.139 217.612 M
237.244 226.743 L
241.737 226.743 L
248.246 226.743 L
249.179 217.612 L
251.774 208.481 L
255.053 200.499 L
255.59 199.35 L
260.341 190.22 L
264.572 181.089 L
267.984 171.958 L
268.368 170.644 L
270.756 162.827 L
272.503 153.696 L
273.335 144.565 L
273.335 135.435 L
272.503 126.304 L
270.756 117.173 L
268.368 109.356 L
267.984 108.042 L
264.572 98.911 L
260.341 89.78 L
255.59 80.65 L
255.053 79.501 L
251.774 71.519 L
249.179 62.388 L
248.246 53.257 L
241.737 53.257 L
237.244 53.257 L
238.139 62.388 L
240.708 71.519 L
241.737 73.902 L
244.809 80.65 L
249.569 89.78 L
254.233 98.911 L
255.053 100.669 L
258.456 108.042 L
261.618 117.173 L
263.678 126.304 L
264.689 135.435 L
264.689 144.565 L
263.678 153.696 L
261.618 162.827 L
258.456 171.958 L
255.053 179.331 L
254.233 181.089 L
249.569 190.22 L
244.809 199.35 L
241.737 206.098 L
240.708 208.481 L
cp
f
GR
GS
[0.78257 0 0 0.78197 0 0.22835] CT
0.035 0.737 0.741 RC
N
84.919 217.612 M
84.199 226.743 L
93.458 226.743 L
94.255 217.612 L
95.263 213.691 L
96.637 208.481 L
100.4 199.35 L
105.167 190.22 L
108.579 184.316 L
110.437 181.089 L
115.339 171.958 L
119.341 162.827 L
121.895 154.538 L
122.146 153.696 L
123.553 144.565 L
123.553 135.435 L
122.146 126.304 L
121.895 125.462 L
119.341 117.173 L
115.339 108.042 L
110.437 98.911 L
108.579 95.684 L
105.167 89.78 L
100.4 80.65 L
96.637 71.519 L
95.263 66.309 L
94.255 62.388 L
93.458 53.257 L
84.199 53.257 L
84.919 62.388 L
87.069 71.519 L
90.611 80.65 L
95.263 89.477 L
95.42 89.78 L
100.61 98.911 L
105.769 108.042 L
108.579 113.706 L
110.163 117.173 L
113.14 126.304 L
114.67 135.435 L
114.67 144.565 L
113.14 153.696 L
110.163 162.827 L
108.579 166.294 L
105.769 171.958 L
100.61 181.089 L
95.42 190.22 L
95.263 190.523 L
90.611 199.35 L
87.069 208.481 L
cp
227.954 217.612 M
227.066 226.743 L
228.421 226.743 L
237.244 226.743 L
238.139 217.612 L
240.708 208.481 L
241.737 206.098 L
244.809 199.35 L
249.569 190.22 L
254.233 181.089 L
255.053 179.331 L
258.456 171.958 L
261.618 162.827 L
263.678 153.696 L
264.689 144.565 L
264.689 135.435 L
263.678 126.304 L
261.618 117.173 L
258.456 108.042 L
255.053 100.669 L
254.233 98.911 L
249.569 89.78 L
244.809 80.65 L
241.737 73.902 L
240.708 71.519 L
238.139 62.388 L
237.244 53.257 L
228.421 53.257 L
227.066 53.257 L
227.954 62.388 L
228.421 64.034 L
230.57 71.519 L
234.57 80.65 L
239.459 89.78 L
241.737 93.749 L
244.604 98.911 L
249.161 108.042 L
252.757 117.173 L
255.053 125.671 L
255.217 126.304 L
256.436 135.435 L
256.436 144.565 L
255.217 153.696 L
255.053 154.329 L
252.757 162.827 L
249.161 171.958 L
244.604 181.089 L
241.737 186.251 L
239.459 190.22 L
234.57 199.35 L
230.57 208.481 L
228.421 215.966 L
cp
f
GR
GS
[0.78257 0 0 0.78197 0 0.22835] CT
0.075 0.745 0.722 RC
N
94.255 217.612 M
93.458 226.743 L
95.263 226.743 L
102.92 226.743 L
103.762 217.612 L
106.213 208.481 L
108.579 202.836 L
110.157 199.35 L
115.099 190.22 L
120.146 181.089 L
121.895 177.691 L
124.882 171.958 L
128.585 162.827 L
131.043 153.696 L
132.264 144.565 L
132.264 135.435 L
131.043 126.304 L
128.585 117.173 L
124.882 108.042 L
121.895 102.309 L
120.146 98.911 L
115.099 89.78 L
110.157 80.65 L
108.579 77.164 L
106.213 71.519 L
103.762 62.388 L
102.92 53.257 L
95.263 53.257 L
93.458 53.257 L
94.255 62.388 L
95.263 66.309 L
96.637 71.519 L
100.4 80.65 L
105.167 89.78 L
108.579 95.684 L
110.437 98.911 L
115.339 108.042 L
119.341 117.173 L
121.895 125.462 L
122.146 126.304 L
123.553 135.435 L
123.553 144.565 L
122.146 153.696 L
121.895 154.538 L
119.341 162.827 L
115.339 171.958 L
110.437 181.089 L
108.579 184.316 L
105.167 190.22 L
100.4 199.35 L
96.637 208.481 L
95.263 213.691 L
cp
217.939 217.612 M
217.105 226.743 L
227.066 226.743 L
227.954 217.612 L
228.421 215.966 L
230.57 208.481 L
234.57 199.35 L
239.459 190.22 L
241.737 186.251 L
244.604 181.089 L
249.161 171.958 L
252.757 162.827 L
255.053 154.329 L
255.217 153.696 L
256.436 144.565 L
256.436 135.435 L
255.217 126.304 L
255.053 125.671 L
252.757 117.173 L
249.161 108.042 L
244.604 98.911 L
241.737 93.749 L
239.459 89.78 L
234.57 80.65 L
230.57 71.519 L
228.421 64.034 L
227.954 62.388 L
227.066 53.257 L
217.105 53.257 L
217.939 62.388 L
220.402 71.519 L
224.368 80.65 L
228.421 87.78 L
229.506 89.78 L
234.823 98.911 L
239.885 108.042 L
241.737 111.966 L
243.957 117.173 L
246.669 126.304 L
248.041 135.435 L
248.041 144.565 L
246.669 153.696 L
243.957 162.827 L
241.737 168.034 L
239.885 171.958 L
234.823 181.089 L
229.506 190.22 L
228.421 192.22 L
224.368 199.35 L
220.402 208.481 L
cp
f
GR
GS
[0.78257 0 0 0.78197 0 0.22835] CT
0.102 0.749 0.706 RC
N
103.762 217.612 M
102.92 226.743 L
108.579 226.743 L
112.976 226.743 L
113.915 217.612 L
116.569 208.481 L
120.502 199.35 L
121.895 196.662 L
125.592 190.22 L
130.566 181.089 L
134.714 171.958 L
135.211 170.584 L
138.175 162.827 L
140.384 153.696 L
141.441 144.565 L
141.441 135.435 L
140.384 126.304 L
138.175 117.173 L
135.211 109.416 L
134.714 108.042 L
130.566 98.911 L
125.592 89.78 L
121.895 83.338 L
120.502 80.65 L
116.569 71.519 L
113.915 62.388 L
112.976 53.257 L
108.579 53.257 L
102.92 53.257 L
103.762 62.388 L
106.213 71.519 L
108.579 77.164 L
110.157 80.65 L
115.099 89.78 L
120.146 98.911 L
121.895 102.309 L
124.882 108.042 L
128.585 117.173 L
131.043 126.304 L
132.264 135.435 L
132.264 144.565 L
131.043 153.696 L
128.585 162.827 L
124.882 171.958 L
121.895 177.691 L
120.146 181.089 L
115.099 190.22 L
110.157 199.35 L
108.579 202.836 L
106.213 208.481 L
cp
207.299 217.612 M
206.518 226.743 L
215.105 226.743 L
217.105 226.743 L
217.939 217.612 L
220.402 208.481 L
224.368 199.35 L
228.421 192.22 L
229.506 190.22 L
234.823 181.089 L
239.885 171.958 L
241.737 168.034 L
243.957 162.827 L
246.669 153.696 L
248.041 144.565 L
248.041 135.435 L
246.669 126.304 L
243.957 117.173 L
241.737 111.966 L
239.885 108.042 L
234.823 98.911 L
229.506 89.78 L
228.421 87.78 L
224.368 80.65 L
220.402 71.519 L
217.939 62.388 L
217.105 53.257 L
215.105 53.257 L
206.518 53.257 L
207.299 62.388 L
209.678 71.519 L
213.752 80.65 L
215.105 82.892 L
218.821 89.78 L
224.515 98.911 L
228.421 104.975 L
230.144 108.042 L
234.519 117.173 L
237.678 126.304 L
239.332 135.435 L
239.332 144.565 L
237.678 153.696 L
234.519 162.827 L
230.144 171.958 L
228.421 175.025 L
224.515 181.089 L
218.821 190.22 L
215.105 197.108 L
213.752 199.35 L
209.678 208.481 L
cp
f
GR
GS
[0.78257 0 0 0.78197 0 0.22835] CT
0.133 0.757 0.686 RC
N
113.915 217.612 M
112.976 226.743 L
121.895 226.743 L
124.432 226.743 L
125.537 217.612 L
128.533 208.481 L
132.649 199.35 L
135.211 194.225 L
137.637 190.22 L
142.493 181.089 L
146.085 171.958 L
148.526 162.997 L
148.58 162.827 L
150.498 153.696 L
151.373 144.565 L
151.373 135.435 L
150.498 126.304 L
148.58 117.173 L
148.526 117.003 L
146.085 108.042 L
142.493 98.911 L
137.637 89.78 L
135.211 85.775 L
132.649 80.65 L
128.533 71.519 L
125.537 62.388 L
124.432 53.257 L
121.895 53.257 L
112.976 53.257 L
113.915 62.388 L
116.569 71.519 L
120.502 80.65 L
121.895 83.338 L
125.592 89.78 L
130.566 98.911 L
134.714 108.042 L
135.211 109.416 L
138.175 117.173 L
140.384 126.304 L
141.441 135.435 L
141.441 144.565 L
140.384 153.696 L
138.175 162.827 L
135.211 170.584 L
134.714 171.958 L
130.566 181.089 L
125.592 190.22 L
121.895 196.662 L
120.502 199.35 L
116.569 208.481 L
cp
195.183 217.612 M
194.472 226.743 L
201.789 226.743 L
206.518 226.743 L
207.299 217.612 L
209.678 208.481 L
213.752 199.35 L
215.105 197.108 L
218.821 190.22 L
224.515 181.089 L
228.421 175.025 L
230.144 171.958 L
234.519 162.827 L
237.678 153.696 L
239.332 144.565 L
239.332 135.435 L
237.678 126.304 L
234.519 117.173 L
230.144 108.042 L
228.421 104.975 L
224.515 98.911 L
218.821 89.78 L
215.105 82.892 L
213.752 80.65 L
209.678 71.519 L
207.299 62.388 L
206.518 53.257 L
201.789 53.257 L
194.472 53.257 L
195.183 62.388 L
197.442 71.519 L
201.66 80.65 L
201.789 80.849 L
206.505 89.78 L
212.814 98.911 L
215.105 101.887 L
218.884 108.042 L
224.012 117.173 L
227.995 126.304 L
228.421 128.101 L
229.775 135.435 L
229.775 144.565 L
228.421 151.899 L
227.995 153.696 L
224.012 162.827 L
218.884 171.958 L
215.105 178.113 L
212.814 181.089 L
206.505 190.22 L
201.789 199.151 L
201.66 199.35 L
197.442 208.481 L
cp
f
GR
GS
[0.78257 0 0 0.78197 0 0.22835] CT
0.153 0.761 0.671 RC
N
125.537 217.612 M
124.432 226.743 L
135.211 226.743 L
140.967 226.743 L
142.245 217.612 L
145.423 208.481 L
148.526 201.23 L
149.949 199.35 L
155.573 190.22 L
158.824 181.089 L
160.755 171.958 L
161.842 163.453 L
161.953 162.827 L
162.947 153.696 L
163.359 144.565 L
163.359 135.435 L
162.947 126.304 L
161.953 117.173 L
161.842 116.547 L
160.755 108.042 L
158.824 98.911 L
155.573 89.78 L
149.949 80.65 L
148.526 78.77 L
145.423 71.519 L
142.245 62.388 L
140.967 53.257 L
135.211 53.257 L
124.432 53.257 L
125.537 62.388 L
128.533 71.519 L
132.649 80.65 L
135.211 85.775 L
137.637 89.78 L
142.493 98.911 L
146.085 108.042 L
148.526 117.003 L
148.58 117.173 L
150.498 126.304 L
151.373 135.435 L
151.373 144.565 L
150.498 153.696 L
148.58 162.827 L
148.526 162.997 L
146.085 171.958 L
142.493 181.089 L
137.637 190.22 L
135.211 194.225 L
132.649 199.35 L
128.533 208.481 L
cp
178.525 217.612 M
178.107 226.743 L
188.474 226.743 L
194.472 226.743 L
195.183 217.612 L
197.442 208.481 L
201.66 199.35 L
201.789 199.151 L
206.505 190.22 L
212.814 181.089 L
215.105 178.113 L
218.884 171.958 L
224.012 162.827 L
227.995 153.696 L
228.421 151.899 L
229.775 144.565 L
229.775 135.435 L
228.421 128.101 L
227.995 126.304 L
224.012 117.173 L
218.884 108.042 L
215.105 101.887 L
212.814 98.911 L
206.505 89.78 L
201.789 80.849 L
201.66 80.65 L
197.442 71.519 L
195.183 62.388 L
194.472 53.257 L
188.474 53.257 L
178.107 53.257 L
178.525 62.388 L
179.959 71.519 L
183.163 80.65 L
188.474 87.723 L
189.5 89.78 L
195.985 98.911 L
201.789 104.575 L
204.182 108.042 L
210.495 117.173 L
215.105 124.797 L
215.726 126.304 L
217.749 135.435 L
217.749 144.565 L
215.726 153.696 L
215.105 155.203 L
210.495 162.827 L
204.182 171.958 L
201.789 175.425 L
195.985 181.089 L
189.5 190.22 L
188.474 192.277 L
183.163 199.35 L
179.959 208.481 L
cp
f
GR
GS
[0.78257 0 0 0.78197 0 0.22835] CT
0.173 0.765 0.651 RC
N
142.245 217.612 M
140.967 226.743 L
148.526 226.743 L
161.842 226.743 L
175.158 226.743 L
178.107 226.743 L
178.525 217.612 L
179.959 208.481 L
183.163 199.35 L
188.474 192.277 L
189.5 190.22 L
195.985 181.089 L
201.789 175.425 L
204.182 171.958 L
210.495 162.827 L
215.105 155.203 L
215.726 153.696 L
217.749 144.565 L
217.749 135.435 L
215.726 126.304 L
215.105 124.797 L
210.495 117.173 L
204.182 108.042 L
201.789 104.575 L
195.985 98.911 L
189.5 89.78 L
188.474 87.723 L
183.163 80.65 L
179.959 71.519 L
178.525 62.388 L
178.107 53.257 L
175.158 53.257 L
161.842 53.257 L
148.526 53.257 L
140.967 53.257 L
142.245 62.388 L
145.423 71.519 L
148.526 78.77 L
149.949 80.65 L
155.573 89.78 L
158.824 98.911 L
160.755 108.042 L
161.842 116.547 L
161.953 117.173 L
162.947 126.304 L
163.359 135.435 L
163.359 144.565 L
162.947 153.696 L
161.953 162.827 L
161.842 163.453 L
160.755 171.958 L
158.824 181.089 L
155.573 190.22 L
149.949 199.35 L
148.526 201.23 L
145.423 208.481 L
cp
188.474 147.196 M
187.491 144.565 L
187.491 135.435 L
188.474 132.804 L
190.439 135.435 L
190.439 144.565 L
cp
f
GR
GS
[0.78257 0 0 0.78197 0 0.22835] CT
0.184 0.769 0.635 RC
N
187.491 144.565 M
188.474 147.196 L
190.439 144.565 L
190.439 135.435 L
188.474 132.804 L
187.491 135.435 L
cp
f
GR
GS
[0.78257 0 0 0.78197 0 0.22835] CT
1 LJ
0.639 LW
N
49.892 217.612 M
49.586 226.743 L
S
GR
GS
[0.78257 0 0 0.78197 0 0.22835] CT
1 LJ
0.639 LW
N
281.71 226.743 M
283.972 217.612 L
S
GR
GS
[0.78257 0 0 0.78197 0 0.22835] CT
1 LJ
0.639 LW
N
50.935 208.481 M
49.892 217.612 L
S
GR
GS
[0.78257 0 0 0.78197 0 0.22835] CT
1 LJ
0.639 LW
N
283.972 217.612 M
287.609 208.481 L
S
GR
GS
[0.78257 0 0 0.78197 0 0.22835] CT
1 LJ
0.639 LW
N
53.228 199.35 M
50.935 208.481 L
S
GR
GS
[0.78257 0 0 0.78197 0 0.22835] CT
1 LJ
0.639 LW
N
287.609 208.481 M
290.105 199.35 L
S
GR
GS
[0.78257 0 0 0.78197 0 0.22835] CT
1 LJ
0.639 LW
N
56.807 190.22 M
55.316 194.869 L
53.228 199.35 L
S
GR
GS
[0.78257 0 0 0.78197 0 0.22835] CT
1 LJ
0.639 LW
N
290.105 199.35 M
291.553 190.22 L
S
GR
GS
[0.78257 0 0 0.78197 0 0.22835] CT
1 LJ
0.639 LW
N
61.261 181.089 M
56.807 190.22 L
S
GR
GS
[0.78257 0 0 0.78197 0 0.22835] CT
1 LJ
0.639 LW
N
291.553 190.22 M
292.393 181.089 L
S
GR
GS
[0.78257 0 0 0.78197 0 0.22835] CT
1 LJ
0.639 LW
N
68.69 171.958 M
68.632 172.059 L
61.261 181.089 L
S
GR
GS
[0.78257 0 0 0.78197 0 0.22835] CT
1 LJ
0.639 LW
N
292.393 181.089 M
292.892 171.958 L
S
GR
GS
[0.78257 0 0 0.78197 0 0.22835] CT
1 LJ
0.639 LW
N
73.912 162.827 M
68.69 171.958 L
S
GR
GS
[0.78257 0 0 0.78197 0 0.22835] CT
1 LJ
0.639 LW
N
292.892 171.958 M
293.191 162.827 L
S
GR
GS
[0.78257 0 0 0.78197 0 0.22835] CT
1 LJ
0.639 LW
N
78.798 153.696 M
73.912 162.827 L
S
GR
GS
[0.78257 0 0 0.78197 0 0.22835] CT
1 LJ
0.639 LW
N
293.191 162.827 M
293.362 153.696 L
S
GR
GS
[0.78257 0 0 0.78197 0 0.22835] CT
1 LJ
0.639 LW
N
81.87 144.565 M
78.798 153.696 L
S
GR
GS
[0.78257 0 0 0.78197 0 0.22835] CT
1 LJ
0.639 LW
N
293.362 153.696 M
293.44 144.565 L
S
GR
GS
[0.78257 0 0 0.78197 0 0.22835] CT
1 LJ
0.639 LW
N
81.87 135.435 M
81.87 144.565 L
S
GR
GS
[0.78257 0 0 0.78197 0 0.22835] CT
1 LJ
0.639 LW
N
293.44 144.565 M
293.44 135.435 L
S
GR
GS
[0.78257 0 0 0.78197 0 0.22835] CT
1 LJ
0.639 LW
N
78.798 126.304 M
81.87 135.435 L
S
GR
GS
[0.78257 0 0 0.78197 0 0.22835] CT
1 LJ
0.639 LW
N
293.44 135.435 M
293.362 126.304 L
S
GR
GS
[0.78257 0 0 0.78197 0 0.22835] CT
1 LJ
0.639 LW
N
73.912 117.173 M
78.798 126.304 L
S
GR
GS
[0.78257 0 0 0.78197 0 0.22835] CT
1 LJ
0.639 LW
N
293.362 126.304 M
293.191 117.173 L
S
GR
GS
[0.78257 0 0 0.78197 0 0.22835] CT
1 LJ
0.639 LW
N
68.69 108.042 M
73.912 117.173 L
S
GR
GS
[0.78257 0 0 0.78197 0 0.22835] CT
1 LJ
0.639 LW
N
293.191 117.173 M
292.892 108.042 L
S
GR
GS
[0.78257 0 0 0.78197 0 0.22835] CT
1 LJ
0.639 LW
N
61.261 98.911 M
68.632 107.941 L
68.69 108.042 L
S
GR
GS
[0.78257 0 0 0.78197 0 0.22835] CT
1 LJ
0.639 LW
N
292.892 108.042 M
292.393 98.911 L
S
GR
GS
[0.78257 0 0 0.78197 0 0.22835] CT
1 LJ
0.639 LW
N
56.807 89.78 M
61.261 98.911 L
S
GR
GS
[0.78257 0 0 0.78197 0 0.22835] CT
1 LJ
0.639 LW
N
292.393 98.911 M
291.553 89.78 L
S
GR
GS
[0.78257 0 0 0.78197 0 0.22835] CT
1 LJ
0.639 LW
N
53.228 80.65 M
55.316 85.131 L
56.807 89.78 L
S
GR
GS
[0.78257 0 0 0.78197 0 0.22835] CT
1 LJ
0.639 LW
N
291.553 89.78 M
290.105 80.65 L
S
GR
GS
[0.78257 0 0 0.78197 0 0.22835] CT
1 LJ
0.639 LW
N
50.935 71.519 M
53.228 80.65 L
S
GR
GS
[0.78257 0 0 0.78197 0 0.22835] CT
1 LJ
0.639 LW
N
290.105 80.65 M
287.609 71.519 L
S
GR
GS
[0.78257 0 0 0.78197 0 0.22835] CT
1 LJ
0.639 LW
N
49.892 62.388 M
50.935 71.519 L
S
GR
GS
[0.78257 0 0 0.78197 0 0.22835] CT
1 LJ
0.639 LW
N
287.609 71.519 M
283.972 62.388 L
S
GR
GS
[0.78257 0 0 0.78197 0 0.22835] CT
1 LJ
0.639 LW
N
49.586 53.257 M
49.892 62.388 L
S
GR
GS
[0.78257 0 0 0.78197 0 0.22835] CT
1 LJ
0.639 LW
N
283.972 62.388 M
281.71 53.257 L
S
GR
GS
[0.78257 0 0 0.78197 0 0.22835] CT
1 LJ
0.639 LW
N
64.079 217.612 M
63.519 226.743 L
S
GR
GS
[0.78257 0 0 0.78197 0 0.22835] CT
1 LJ
0.639 LW
N
261.32 226.743 M
262.292 217.612 L
S
GR
GS
[0.78257 0 0 0.78197 0 0.22835] CT
1 LJ
0.639 LW
N
65.863 208.481 M
64.079 217.612 L
S
GR
GS
[0.78257 0 0 0.78197 0 0.22835] CT
1 LJ
0.639 LW
N
262.292 217.612 M
264.874 208.481 L
S
GR
GS
[0.78257 0 0 0.78197 0 0.22835] CT
1 LJ
0.639 LW
N
69.075 199.35 M
68.632 200.791 L
65.863 208.481 L
S
GR
GS
[0.78257 0 0 0.78197 0 0.22835] CT
1 LJ
0.639 LW
N
264.874 208.481 M
268.304 199.35 L
S
GR
GS
[0.78257 0 0 0.78197 0 0.22835] CT
1 LJ
0.639 LW
N
72.986 190.22 M
69.075 199.35 L
S
GR
GS
[0.78257 0 0 0.78197 0 0.22835] CT
1 LJ
0.639 LW
N
268.304 199.35 M
268.368 199.199 L
272.851 190.22 L
S
GR
GS
[0.78257 0 0 0.78197 0 0.22835] CT
1 LJ
0.639 LW
N
78.299 181.089 M
72.986 190.22 L
S
GR
GS
[0.78257 0 0 0.78197 0 0.22835] CT
1 LJ
0.639 LW
N
272.851 190.22 M
276.401 181.089 L
S
GR
GS
[0.78257 0 0 0.78197 0 0.22835] CT
1 LJ
0.639 LW
N
84.138 171.958 M
81.947 175.799 L
78.299 181.089 L
S
GR
GS
[0.78257 0 0 0.78197 0 0.22835] CT
1 LJ
0.639 LW
N
276.401 181.089 M
278.966 171.958 L
S
GR
GS
[0.78257 0 0 0.78197 0 0.22835] CT
1 LJ
0.639 LW
N
89.011 162.827 M
84.138 171.958 L
S
GR
GS
[0.78257 0 0 0.78197 0 0.22835] CT
1 LJ
0.639 LW
N
278.966 171.958 M
280.709 162.827 L
S
GR
GS
[0.78257 0 0 0.78197 0 0.22835] CT
1 LJ
0.639 LW
N
92.951 153.696 M
89.011 162.827 L
S
GR
GS
[0.78257 0 0 0.78197 0 0.22835] CT
1 LJ
0.639 LW
N
280.709 162.827 M
281.684 154.597 L
281.808 153.696 L
S
GR
GS
[0.78257 0 0 0.78197 0 0.22835] CT
1 LJ
0.639 LW
N
95.174 144.565 M
92.951 153.696 L
S
GR
GS
[0.78257 0 0 0.78197 0 0.22835] CT
1 LJ
0.639 LW
N
281.808 153.696 M
282.435 144.565 L
S
GR
GS
[0.78257 0 0 0.78197 0 0.22835] CT
1 LJ
0.639 LW
N
95.174 135.435 M
95.174 144.565 L
S
GR
GS
[0.78257 0 0 0.78197 0 0.22835] CT
1 LJ
0.639 LW
N
282.435 144.565 M
282.435 135.435 L
S
GR
GS
[0.78257 0 0 0.78197 0 0.22835] CT
1 LJ
0.639 LW
N
92.951 126.304 M
95.174 135.435 L
S
GR
GS
[0.78257 0 0 0.78197 0 0.22835] CT
1 LJ
0.639 LW
N
282.435 135.435 M
281.808 126.304 L
S
GR
GS
[0.78257 0 0 0.78197 0 0.22835] CT
1 LJ
0.639 LW
N
89.011 117.173 M
92.951 126.304 L
S
GR
GS
[0.78257 0 0 0.78197 0 0.22835] CT
1 LJ
0.639 LW
N
281.808 126.304 M
281.684 125.403 L
280.709 117.173 L
S
GR
GS
[0.78257 0 0 0.78197 0 0.22835] CT
1 LJ
0.639 LW
N
84.138 108.042 M
89.011 117.173 L
S
GR
GS
[0.78257 0 0 0.78197 0 0.22835] CT
1 LJ
0.639 LW
N
280.709 117.173 M
278.966 108.042 L
S
GR
GS
[0.78257 0 0 0.78197 0 0.22835] CT
1 LJ
0.639 LW
N
78.299 98.911 M
81.947 104.201 L
84.138 108.042 L
S
GR
GS
[0.78257 0 0 0.78197 0 0.22835] CT
1 LJ
0.639 LW
N
278.966 108.042 M
276.401 98.911 L
S
GR
GS
[0.78257 0 0 0.78197 0 0.22835] CT
1 LJ
0.639 LW
N
72.986 89.78 M
78.299 98.911 L
S
GR
GS
[0.78257 0 0 0.78197 0 0.22835] CT
1 LJ
0.639 LW
N
276.401 98.911 M
272.851 89.78 L
S
GR
GS
[0.78257 0 0 0.78197 0 0.22835] CT
1 LJ
0.639 LW
N
69.075 80.65 M
72.986 89.78 L
S
GR
GS
[0.78257 0 0 0.78197 0 0.22835] CT
1 LJ
0.639 LW
N
272.851 89.78 M
268.368 80.801 L
268.304 80.65 L
S
GR
GS
[0.78257 0 0 0.78197 0 0.22835] CT
1 LJ
0.639 LW
N
65.863 71.519 M
68.632 79.209 L
69.075 80.65 L
S
GR
GS
[0.78257 0 0 0.78197 0 0.22835] CT
1 LJ
0.639 LW
N
268.304 80.65 M
264.874 71.519 L
S
GR
GS
[0.78257 0 0 0.78197 0 0.22835] CT
1 LJ
0.639 LW
N
64.079 62.388 M
65.863 71.519 L
S
GR
GS
[0.78257 0 0 0.78197 0 0.22835] CT
1 LJ
0.639 LW
N
264.874 71.519 M
262.292 62.388 L
S
GR
GS
[0.78257 0 0 0.78197 0 0.22835] CT
1 LJ
0.639 LW
N
63.519 53.257 M
64.079 62.388 L
S
GR
GS
[0.78257 0 0 0.78197 0 0.22835] CT
1 LJ
0.639 LW
N
262.292 62.388 M
261.32 53.257 L
S
GR
GS
[0.78257 0 0 0.78197 0 0.22835] CT
1 LJ
0.639 LW
N
75.044 217.612 M
74.398 226.743 L
S
GR
GS
[0.78257 0 0 0.78197 0 0.22835] CT
1 LJ
0.639 LW
N
248.246 226.743 M
249.179 217.612 L
S
GR
GS
[0.78257 0 0 0.78197 0 0.22835] CT
1 LJ
0.639 LW
N
77.026 208.481 M
75.044 217.612 L
S
GR
GS
[0.78257 0 0 0.78197 0 0.22835] CT
1 LJ
0.639 LW
N
249.179 217.612 M
251.774 208.481 L
S
GR
GS
[0.78257 0 0 0.78197 0 0.22835] CT
1 LJ
0.639 LW
N
80.478 199.35 M
77.026 208.481 L
S
GR
GS
[0.78257 0 0 0.78197 0 0.22835] CT
1 LJ
0.639 LW
N
251.774 208.481 M
255.053 200.499 L
255.59 199.35 L
S
GR
GS
[0.78257 0 0 0.78197 0 0.22835] CT
1 LJ
0.639 LW
N
84.971 190.22 M
81.947 196.534 L
80.478 199.35 L
S
GR
GS
[0.78257 0 0 0.78197 0 0.22835] CT
1 LJ
0.639 LW
N
255.59 199.35 M
260.341 190.22 L
S
GR
GS
[0.78257 0 0 0.78197 0 0.22835] CT
1 LJ
0.639 LW
N
90.193 181.089 M
84.971 190.22 L
S
GR
GS
[0.78257 0 0 0.78197 0 0.22835] CT
1 LJ
0.639 LW
N
260.341 190.22 M
264.572 181.089 L
S
GR
GS
[0.78257 0 0 0.78197 0 0.22835] CT
1 LJ
0.639 LW
N
95.81 171.958 M
95.263 172.936 L
90.193 181.089 L
S
GR
GS
[0.78257 0 0 0.78197 0 0.22835] CT
1 LJ
0.639 LW
N
264.572 181.089 M
267.984 171.958 L
S
GR
GS
[0.78257 0 0 0.78197 0 0.22835] CT
1 LJ
0.639 LW
N
100.261 162.827 M
95.81 171.958 L
S
GR
GS
[0.78257 0 0 0.78197 0 0.22835] CT
1 LJ
0.639 LW
N
267.984 171.958 M
268.368 170.644 L
270.756 162.827 L
S
GR
GS
[0.78257 0 0 0.78197 0 0.22835] CT
1 LJ
0.639 LW
N
103.581 153.696 M
100.261 162.827 L
S
GR
GS
[0.78257 0 0 0.78197 0 0.22835] CT
1 LJ
0.639 LW
N
270.756 162.827 M
272.503 153.696 L
S
GR
GS
[0.78257 0 0 0.78197 0 0.22835] CT
1 LJ
0.639 LW
N
105.355 144.565 M
103.581 153.696 L
S
GR
GS
[0.78257 0 0 0.78197 0 0.22835] CT
1 LJ
0.639 LW
N
272.503 153.696 M
273.335 144.565 L
S
GR
GS
[0.78257 0 0 0.78197 0 0.22835] CT
1 LJ
0.639 LW
N
105.355 135.435 M
105.355 144.565 L
S
GR
GS
[0.78257 0 0 0.78197 0 0.22835] CT
1 LJ
0.639 LW
N
273.335 144.565 M
273.335 135.435 L
S
GR
GS
[0.78257 0 0 0.78197 0 0.22835] CT
1 LJ
0.639 LW
N
103.581 126.304 M
105.355 135.435 L
S
GR
GS
[0.78257 0 0 0.78197 0 0.22835] CT
1 LJ
0.639 LW
N
273.335 135.435 M
272.503 126.304 L
S
GR
GS
[0.78257 0 0 0.78197 0 0.22835] CT
1 LJ
0.639 LW
N
100.261 117.173 M
103.581 126.304 L
S
GR
GS
[0.78257 0 0 0.78197 0 0.22835] CT
1 LJ
0.639 LW
N
272.503 126.304 M
270.756 117.173 L
S
GR
GS
[0.78257 0 0 0.78197 0 0.22835] CT
1 LJ
0.639 LW
N
95.81 108.042 M
100.261 117.173 L
S
GR
GS
[0.78257 0 0 0.78197 0 0.22835] CT
1 LJ
0.639 LW
N
270.756 117.173 M
268.368 109.356 L
267.984 108.042 L
S
GR
GS
[0.78257 0 0 0.78197 0 0.22835] CT
1 LJ
0.639 LW
N
90.193 98.911 M
95.263 107.064 L
95.81 108.042 L
S
GR
GS
[0.78257 0 0 0.78197 0 0.22835] CT
1 LJ
0.639 LW
N
267.984 108.042 M
264.572 98.911 L
S
GR
GS
[0.78257 0 0 0.78197 0 0.22835] CT
1 LJ
0.639 LW
N
84.971 89.78 M
90.193 98.911 L
S
GR
GS
[0.78257 0 0 0.78197 0 0.22835] CT
1 LJ
0.639 LW
N
264.572 98.911 M
260.341 89.78 L
S
GR
GS
[0.78257 0 0 0.78197 0 0.22835] CT
1 LJ
0.639 LW
N
80.478 80.65 M
81.947 83.466 L
84.971 89.78 L
S
GR
GS
[0.78257 0 0 0.78197 0 0.22835] CT
1 LJ
0.639 LW
N
260.341 89.78 M
255.59 80.65 L
S
GR
GS
[0.78257 0 0 0.78197 0 0.22835] CT
1 LJ
0.639 LW
N
77.026 71.519 M
80.478 80.65 L
S
GR
GS
[0.78257 0 0 0.78197 0 0.22835] CT
1 LJ
0.639 LW
N
255.59 80.65 M
255.053 79.501 L
251.774 71.519 L
S
GR
GS
[0.78257 0 0 0.78197 0 0.22835] CT
1 LJ
0.639 LW
N
75.044 62.388 M
77.026 71.519 L
S
GR
GS
[0.78257 0 0 0.78197 0 0.22835] CT
1 LJ
0.639 LW
N
251.774 71.519 M
249.179 62.388 L
S
GR
GS
[0.78257 0 0 0.78197 0 0.22835] CT
1 LJ
0.639 LW
N
74.398 53.257 M
75.044 62.388 L
S
GR
GS
[0.78257 0 0 0.78197 0 0.22835] CT
1 LJ
0.639 LW
N
249.179 62.388 M
248.246 53.257 L
S
GR
GS
[0.78257 0 0 0.78197 0 0.22835] CT
1 LJ
0.639 LW
N
84.919 217.612 M
84.199 226.743 L
S
GR
GS
[0.78257 0 0 0.78197 0 0.22835] CT
1 LJ
0.639 LW
N
237.244 226.743 M
238.139 217.612 L
S
GR
GS
[0.78257 0 0 0.78197 0 0.22835] CT
1 LJ
0.639 LW
N
87.069 208.481 M
84.919 217.612 L
S
GR
GS
[0.78257 0 0 0.78197 0 0.22835] CT
1 LJ
0.639 LW
N
238.139 217.612 M
240.708 208.481 L
S
GR
GS
[0.78257 0 0 0.78197 0 0.22835] CT
1 LJ
0.639 LW
N
90.611 199.35 M
87.069 208.481 L
S
GR
GS
[0.78257 0 0 0.78197 0 0.22835] CT
1 LJ
0.639 LW
N
240.708 208.481 M
241.737 206.098 L
244.809 199.35 L
S
GR
GS
[0.78257 0 0 0.78197 0 0.22835] CT
1 LJ
0.639 LW
N
95.42 190.22 M
95.263 190.523 L
90.611 199.35 L
S
GR
GS
[0.78257 0 0 0.78197 0 0.22835] CT
1 LJ
0.639 LW
N
244.809 199.35 M
249.569 190.22 L
S
GR
GS
[0.78257 0 0 0.78197 0 0.22835] CT
1 LJ
0.639 LW
N
100.61 181.089 M
95.42 190.22 L
S
GR
GS
[0.78257 0 0 0.78197 0 0.22835] CT
1 LJ
0.639 LW
N
249.569 190.22 M
254.233 181.089 L
S
GR
GS
[0.78257 0 0 0.78197 0 0.22835] CT
1 LJ
0.639 LW
N
105.769 171.958 M
100.61 181.089 L
S
GR
GS
[0.78257 0 0 0.78197 0 0.22835] CT
1 LJ
0.639 LW
N
254.233 181.089 M
255.053 179.331 L
258.456 171.958 L
S
GR
GS
[0.78257 0 0 0.78197 0 0.22835] CT
1 LJ
0.639 LW
N
110.163 162.827 M
108.579 166.294 L
105.769 171.958 L
S
GR
GS
[0.78257 0 0 0.78197 0 0.22835] CT
1 LJ
0.639 LW
N
258.456 171.958 M
261.618 162.827 L
S
GR
GS
[0.78257 0 0 0.78197 0 0.22835] CT
1 LJ
0.639 LW
N
113.14 153.696 M
110.163 162.827 L
S
GR
GS
[0.78257 0 0 0.78197 0 0.22835] CT
1 LJ
0.639 LW
N
261.618 162.827 M
263.678 153.696 L
S
GR
GS
[0.78257 0 0 0.78197 0 0.22835] CT
1 LJ
0.639 LW
N
114.67 144.565 M
113.14 153.696 L
S
GR
GS
[0.78257 0 0 0.78197 0 0.22835] CT
1 LJ
0.639 LW
N
263.678 153.696 M
264.689 144.565 L
S
GR
GS
[0.78257 0 0 0.78197 0 0.22835] CT
1 LJ
0.639 LW
N
114.67 135.435 M
114.67 144.565 L
S
GR
GS
[0.78257 0 0 0.78197 0 0.22835] CT
1 LJ
0.639 LW
N
264.689 144.565 M
264.689 135.435 L
S
GR
GS
[0.78257 0 0 0.78197 0 0.22835] CT
1 LJ
0.639 LW
N
113.14 126.304 M
114.67 135.435 L
S
GR
GS
[0.78257 0 0 0.78197 0 0.22835] CT
1 LJ
0.639 LW
N
264.689 135.435 M
263.678 126.304 L
S
GR
GS
[0.78257 0 0 0.78197 0 0.22835] CT
1 LJ
0.639 LW
N
110.163 117.173 M
113.14 126.304 L
S
GR
GS
[0.78257 0 0 0.78197 0 0.22835] CT
1 LJ
0.639 LW
N
263.678 126.304 M
261.618 117.173 L
S
GR
GS
[0.78257 0 0 0.78197 0 0.22835] CT
1 LJ
0.639 LW
N
105.769 108.042 M
108.579 113.706 L
110.163 117.173 L
S
GR
GS
[0.78257 0 0 0.78197 0 0.22835] CT
1 LJ
0.639 LW
N
261.618 117.173 M
258.456 108.042 L
S
GR
GS
[0.78257 0 0 0.78197 0 0.22835] CT
1 LJ
0.639 LW
N
100.61 98.911 M
105.769 108.042 L
S
GR
GS
[0.78257 0 0 0.78197 0 0.22835] CT
1 LJ
0.639 LW
N
258.456 108.042 M
255.053 100.669 L
254.233 98.911 L
S
GR
GS
[0.78257 0 0 0.78197 0 0.22835] CT
1 LJ
0.639 LW
N
95.42 89.78 M
100.61 98.911 L
S
GR
GS
[0.78257 0 0 0.78197 0 0.22835] CT
1 LJ
0.639 LW
N
254.233 98.911 M
249.569 89.78 L
S
GR
GS
[0.78257 0 0 0.78197 0 0.22835] CT
1 LJ
0.639 LW
N
90.611 80.65 M
95.263 89.477 L
95.42 89.78 L
S
GR
GS
[0.78257 0 0 0.78197 0 0.22835] CT
1 LJ
0.639 LW
N
249.569 89.78 M
244.809 80.65 L
S
GR
GS
[0.78257 0 0 0.78197 0 0.22835] CT
1 LJ
0.639 LW
N
87.069 71.519 M
90.611 80.65 L
S
GR
GS
[0.78257 0 0 0.78197 0 0.22835] CT
1 LJ
0.639 LW
N
244.809 80.65 M
241.737 73.902 L
240.708 71.519 L
S
GR
GS
[0.78257 0 0 0.78197 0 0.22835] CT
1 LJ
0.639 LW
N
84.919 62.388 M
87.069 71.519 L
S
GR
GS
[0.78257 0 0 0.78197 0 0.22835] CT
1 LJ
0.639 LW
N
240.708 71.519 M
238.139 62.388 L
S
GR
GS
[0.78257 0 0 0.78197 0 0.22835] CT
1 LJ
0.639 LW
N
84.199 53.257 M
84.919 62.388 L
S
GR
GS
[0.78257 0 0 0.78197 0 0.22835] CT
1 LJ
0.639 LW
N
238.139 62.388 M
237.244 53.257 L
S
GR
GS
[0.78257 0 0 0.78197 0 0.22835] CT
1 LJ
0.639 LW
N
94.255 217.612 M
93.458 226.743 L
S
GR
GS
[0.78257 0 0 0.78197 0 0.22835] CT
1 LJ
0.639 LW
N
227.066 226.743 M
227.954 217.612 L
S
GR
GS
[0.78257 0 0 0.78197 0 0.22835] CT
1 LJ
0.639 LW
N
96.637 208.481 M
95.263 213.691 L
94.255 217.612 L
S
GR
GS
[0.78257 0 0 0.78197 0 0.22835] CT
1 LJ
0.639 LW
N
227.954 217.612 M
228.421 215.966 L
230.57 208.481 L
S
GR
GS
[0.78257 0 0 0.78197 0 0.22835] CT
1 LJ
0.639 LW
N
100.4 199.35 M
96.637 208.481 L
S
GR
GS
[0.78257 0 0 0.78197 0 0.22835] CT
1 LJ
0.639 LW
N
230.57 208.481 M
234.57 199.35 L
S
GR
GS
[0.78257 0 0 0.78197 0 0.22835] CT
1 LJ
0.639 LW
N
105.167 190.22 M
100.4 199.35 L
S
GR
GS
[0.78257 0 0 0.78197 0 0.22835] CT
1 LJ
0.639 LW
N
234.57 199.35 M
239.459 190.22 L
S
GR
GS
[0.78257 0 0 0.78197 0 0.22835] CT
1 LJ
0.639 LW
N
110.437 181.089 M
108.579 184.316 L
105.167 190.22 L
S
GR
GS
[0.78257 0 0 0.78197 0 0.22835] CT
1 LJ
0.639 LW
N
239.459 190.22 M
241.737 186.251 L
244.604 181.089 L
S
GR
GS
[0.78257 0 0 0.78197 0 0.22835] CT
1 LJ
0.639 LW
N
115.339 171.958 M
110.437 181.089 L
S
GR
GS
[0.78257 0 0 0.78197 0 0.22835] CT
1 LJ
0.639 LW
N
244.604 181.089 M
249.161 171.958 L
S
GR
GS
[0.78257 0 0 0.78197 0 0.22835] CT
1 LJ
0.639 LW
N
119.341 162.827 M
115.339 171.958 L
S
GR
GS
[0.78257 0 0 0.78197 0 0.22835] CT
1 LJ
0.639 LW
N
249.161 171.958 M
252.757 162.827 L
S
GR
GS
[0.78257 0 0 0.78197 0 0.22835] CT
1 LJ
0.639 LW
N
122.146 153.696 M
121.895 154.538 L
119.341 162.827 L
S
GR
GS
[0.78257 0 0 0.78197 0 0.22835] CT
1 LJ
0.639 LW
N
252.757 162.827 M
255.053 154.329 L
255.217 153.696 L
S
GR
GS
[0.78257 0 0 0.78197 0 0.22835] CT
1 LJ
0.639 LW
N
123.553 144.565 M
122.146 153.696 L
S
GR
GS
[0.78257 0 0 0.78197 0 0.22835] CT
1 LJ
0.639 LW
N
255.217 153.696 M
256.436 144.565 L
S
GR
GS
[0.78257 0 0 0.78197 0 0.22835] CT
1 LJ
0.639 LW
N
123.553 135.435 M
123.553 144.565 L
S
GR
GS
[0.78257 0 0 0.78197 0 0.22835] CT
1 LJ
0.639 LW
N
256.436 144.565 M
256.436 135.435 L
S
GR
GS
[0.78257 0 0 0.78197 0 0.22835] CT
1 LJ
0.639 LW
N
122.146 126.304 M
123.553 135.435 L
S
GR
GS
[0.78257 0 0 0.78197 0 0.22835] CT
1 LJ
0.639 LW
N
256.436 135.435 M
255.217 126.304 L
S
GR
GS
[0.78257 0 0 0.78197 0 0.22835] CT
1 LJ
0.639 LW
N
119.341 117.173 M
121.895 125.462 L
122.146 126.304 L
S
GR
GS
[0.78257 0 0 0.78197 0 0.22835] CT
1 LJ
0.639 LW
N
255.217 126.304 M
255.053 125.671 L
252.757 117.173 L
S
GR
GS
[0.78257 0 0 0.78197 0 0.22835] CT
1 LJ
0.639 LW
N
115.339 108.042 M
119.341 117.173 L
S
GR
GS
[0.78257 0 0 0.78197 0 0.22835] CT
1 LJ
0.639 LW
N
252.757 117.173 M
249.161 108.042 L
S
GR
GS
[0.78257 0 0 0.78197 0 0.22835] CT
1 LJ
0.639 LW
N
110.437 98.911 M
115.339 108.042 L
S
GR
GS
[0.78257 0 0 0.78197 0 0.22835] CT
1 LJ
0.639 LW
N
249.161 108.042 M
244.604 98.911 L
S
GR
GS
[0.78257 0 0 0.78197 0 0.22835] CT
1 LJ
0.639 LW
N
105.167 89.78 M
108.579 95.684 L
110.437 98.911 L
S
GR
GS
[0.78257 0 0 0.78197 0 0.22835] CT
1 LJ
0.639 LW
N
244.604 98.911 M
241.737 93.749 L
239.459 89.78 L
S
GR
GS
[0.78257 0 0 0.78197 0 0.22835] CT
1 LJ
0.639 LW
N
100.4 80.65 M
105.167 89.78 L
S
GR
GS
[0.78257 0 0 0.78197 0 0.22835] CT
1 LJ
0.639 LW
N
239.459 89.78 M
234.57 80.65 L
S
GR
GS
[0.78257 0 0 0.78197 0 0.22835] CT
1 LJ
0.639 LW
N
96.637 71.519 M
100.4 80.65 L
S
GR
GS
[0.78257 0 0 0.78197 0 0.22835] CT
1 LJ
0.639 LW
N
234.57 80.65 M
230.57 71.519 L
S
GR
GS
[0.78257 0 0 0.78197 0 0.22835] CT
1 LJ
0.639 LW
N
94.255 62.388 M
95.263 66.309 L
96.637 71.519 L
S
GR
GS
[0.78257 0 0 0.78197 0 0.22835] CT
1 LJ
0.639 LW
N
230.57 71.519 M
228.421 64.034 L
227.954 62.388 L
S
GR
GS
[0.78257 0 0 0.78197 0 0.22835] CT
1 LJ
0.639 LW
N
93.458 53.257 M
94.255 62.388 L
S
GR
GS
[0.78257 0 0 0.78197 0 0.22835] CT
1 LJ
0.639 LW
N
227.954 62.388 M
227.066 53.257 L
S
GR
GS
[0.78257 0 0 0.78197 0 0.22835] CT
1 LJ
0.639 LW
N
103.762 217.612 M
102.92 226.743 L
S
GR
GS
[0.78257 0 0 0.78197 0 0.22835] CT
1 LJ
0.639 LW
N
217.105 226.743 M
217.939 217.612 L
S
GR
GS
[0.78257 0 0 0.78197 0 0.22835] CT
1 LJ
0.639 LW
N
106.213 208.481 M
103.762 217.612 L
S
GR
GS
[0.78257 0 0 0.78197 0 0.22835] CT
1 LJ
0.639 LW
N
217.939 217.612 M
220.402 208.481 L
S
GR
GS
[0.78257 0 0 0.78197 0 0.22835] CT
1 LJ
0.639 LW
N
110.157 199.35 M
108.579 202.836 L
106.213 208.481 L
S
GR
GS
[0.78257 0 0 0.78197 0 0.22835] CT
1 LJ
0.639 LW
N
220.402 208.481 M
224.368 199.35 L
S
GR
GS
[0.78257 0 0 0.78197 0 0.22835] CT
1 LJ
0.639 LW
N
115.099 190.22 M
110.157 199.35 L
S
GR
GS
[0.78257 0 0 0.78197 0 0.22835] CT
1 LJ
0.639 LW
N
224.368 199.35 M
228.421 192.22 L
229.506 190.22 L
S
GR
GS
[0.78257 0 0 0.78197 0 0.22835] CT
1 LJ
0.639 LW
N
120.146 181.089 M
115.099 190.22 L
S
GR
GS
[0.78257 0 0 0.78197 0 0.22835] CT
1 LJ
0.639 LW
N
229.506 190.22 M
234.823 181.089 L
S
GR
GS
[0.78257 0 0 0.78197 0 0.22835] CT
1 LJ
0.639 LW
N
124.882 171.958 M
121.895 177.691 L
120.146 181.089 L
S
GR
GS
[0.78257 0 0 0.78197 0 0.22835] CT
1 LJ
0.639 LW
N
234.823 181.089 M
239.885 171.958 L
S
GR
GS
[0.78257 0 0 0.78197 0 0.22835] CT
1 LJ
0.639 LW
N
128.585 162.827 M
124.882 171.958 L
S
GR
GS
[0.78257 0 0 0.78197 0 0.22835] CT
1 LJ
0.639 LW
N
239.885 171.958 M
241.737 168.034 L
243.957 162.827 L
S
GR
GS
[0.78257 0 0 0.78197 0 0.22835] CT
1 LJ
0.639 LW
N
131.043 153.696 M
128.585 162.827 L
S
GR
GS
[0.78257 0 0 0.78197 0 0.22835] CT
1 LJ
0.639 LW
N
243.957 162.827 M
246.669 153.696 L
S
GR
GS
[0.78257 0 0 0.78197 0 0.22835] CT
1 LJ
0.639 LW
N
132.264 144.565 M
131.043 153.696 L
S
GR
GS
[0.78257 0 0 0.78197 0 0.22835] CT
1 LJ
0.639 LW
N
246.669 153.696 M
248.041 144.565 L
S
GR
GS
[0.78257 0 0 0.78197 0 0.22835] CT
1 LJ
0.639 LW
N
132.264 135.435 M
132.264 144.565 L
S
GR
GS
[0.78257 0 0 0.78197 0 0.22835] CT
1 LJ
0.639 LW
N
248.041 144.565 M
248.041 135.435 L
S
GR
GS
[0.78257 0 0 0.78197 0 0.22835] CT
1 LJ
0.639 LW
N
131.043 126.304 M
132.264 135.435 L
S
GR
GS
[0.78257 0 0 0.78197 0 0.22835] CT
1 LJ
0.639 LW
N
248.041 135.435 M
246.669 126.304 L
S
GR
GS
[0.78257 0 0 0.78197 0 0.22835] CT
1 LJ
0.639 LW
N
128.585 117.173 M
131.043 126.304 L
S
GR
GS
[0.78257 0 0 0.78197 0 0.22835] CT
1 LJ
0.639 LW
N
246.669 126.304 M
243.957 117.173 L
S
GR
GS
[0.78257 0 0 0.78197 0 0.22835] CT
1 LJ
0.639 LW
N
124.882 108.042 M
128.585 117.173 L
S
GR
GS
[0.78257 0 0 0.78197 0 0.22835] CT
1 LJ
0.639 LW
N
243.957 117.173 M
241.737 111.966 L
239.885 108.042 L
S
GR
GS
[0.78257 0 0 0.78197 0 0.22835] CT
1 LJ
0.639 LW
N
120.146 98.911 M
121.895 102.309 L
124.882 108.042 L
S
GR
GS
[0.78257 0 0 0.78197 0 0.22835] CT
1 LJ
0.639 LW
N
239.885 108.042 M
234.823 98.911 L
S
GR
GS
[0.78257 0 0 0.78197 0 0.22835] CT
1 LJ
0.639 LW
N
115.099 89.78 M
120.146 98.911 L
S
GR
GS
[0.78257 0 0 0.78197 0 0.22835] CT
1 LJ
0.639 LW
N
234.823 98.911 M
229.506 89.78 L
S
GR
GS
[0.78257 0 0 0.78197 0 0.22835] CT
1 LJ
0.639 LW
N
110.157 80.65 M
115.099 89.78 L
S
GR
GS
[0.78257 0 0 0.78197 0 0.22835] CT
1 LJ
0.639 LW
N
229.506 89.78 M
228.421 87.78 L
224.368 80.65 L
S
GR
GS
[0.78257 0 0 0.78197 0 0.22835] CT
1 LJ
0.639 LW
N
106.213 71.519 M
108.579 77.164 L
110.157 80.65 L
S
GR
GS
[0.78257 0 0 0.78197 0 0.22835] CT
1 LJ
0.639 LW
N
224.368 80.65 M
220.402 71.519 L
S
GR
GS
[0.78257 0 0 0.78197 0 0.22835] CT
1 LJ
0.639 LW
N
103.762 62.388 M
106.213 71.519 L
S
GR
GS
[0.78257 0 0 0.78197 0 0.22835] CT
1 LJ
0.639 LW
N
220.402 71.519 M
217.939 62.388 L
S
GR
GS
[0.78257 0 0 0.78197 0 0.22835] CT
1 LJ
0.639 LW
N
102.92 53.257 M
103.762 62.388 L
S
GR
GS
[0.78257 0 0 0.78197 0 0.22835] CT
1 LJ
0.639 LW
N
217.939 62.388 M
217.105 53.257 L
S
GR
GS
[0.78257 0 0 0.78197 0 0.22835] CT
1 LJ
0.639 LW
N
113.915 217.612 M
112.976 226.743 L
S
GR
GS
[0.78257 0 0 0.78197 0 0.22835] CT
1 LJ
0.639 LW
N
206.518 226.743 M
207.299 217.612 L
S
GR
GS
[0.78257 0 0 0.78197 0 0.22835] CT
1 LJ
0.639 LW
N
116.569 208.481 M
113.915 217.612 L
S
GR
GS
[0.78257 0 0 0.78197 0 0.22835] CT
1 LJ
0.639 LW
N
207.299 217.612 M
209.678 208.481 L
S
GR
GS
[0.78257 0 0 0.78197 0 0.22835] CT
1 LJ
0.639 LW
N
120.502 199.35 M
116.569 208.481 L
S
GR
GS
[0.78257 0 0 0.78197 0 0.22835] CT
1 LJ
0.639 LW
N
209.678 208.481 M
213.752 199.35 L
S
GR
GS
[0.78257 0 0 0.78197 0 0.22835] CT
1 LJ
0.639 LW
N
125.592 190.22 M
121.895 196.662 L
120.502 199.35 L
S
GR
GS
[0.78257 0 0 0.78197 0 0.22835] CT
1 LJ
0.639 LW
N
213.752 199.35 M
215.105 197.108 L
218.821 190.22 L
S
GR
GS
[0.78257 0 0 0.78197 0 0.22835] CT
1 LJ
0.639 LW
N
130.566 181.089 M
125.592 190.22 L
S
GR
GS
[0.78257 0 0 0.78197 0 0.22835] CT
1 LJ
0.639 LW
N
218.821 190.22 M
224.515 181.089 L
S
GR
GS
[0.78257 0 0 0.78197 0 0.22835] CT
1 LJ
0.639 LW
N
134.714 171.958 M
130.566 181.089 L
S
GR
GS
[0.78257 0 0 0.78197 0 0.22835] CT
1 LJ
0.639 LW
N
224.515 181.089 M
228.421 175.025 L
230.144 171.958 L
S
GR
GS
[0.78257 0 0 0.78197 0 0.22835] CT
1 LJ
0.639 LW
N
138.175 162.827 M
135.211 170.584 L
134.714 171.958 L
S
GR
GS
[0.78257 0 0 0.78197 0 0.22835] CT
1 LJ
0.639 LW
N
230.144 171.958 M
234.519 162.827 L
S
GR
GS
[0.78257 0 0 0.78197 0 0.22835] CT
1 LJ
0.639 LW
N
140.384 153.696 M
138.175 162.827 L
S
GR
GS
[0.78257 0 0 0.78197 0 0.22835] CT
1 LJ
0.639 LW
N
234.519 162.827 M
237.678 153.696 L
S
GR
GS
[0.78257 0 0 0.78197 0 0.22835] CT
1 LJ
0.639 LW
N
141.441 144.565 M
140.384 153.696 L
S
GR
GS
[0.78257 0 0 0.78197 0 0.22835] CT
1 LJ
0.639 LW
N
237.678 153.696 M
239.332 144.565 L
S
GR
GS
[0.78257 0 0 0.78197 0 0.22835] CT
1 LJ
0.639 LW
N
141.441 135.435 M
141.441 144.565 L
S
GR
GS
[0.78257 0 0 0.78197 0 0.22835] CT
1 LJ
0.639 LW
N
239.332 144.565 M
239.332 135.435 L
S
GR
GS
[0.78257 0 0 0.78197 0 0.22835] CT
1 LJ
0.639 LW
N
140.384 126.304 M
141.441 135.435 L
S
GR
GS
[0.78257 0 0 0.78197 0 0.22835] CT
1 LJ
0.639 LW
N
239.332 135.435 M
237.678 126.304 L
S
GR
GS
[0.78257 0 0 0.78197 0 0.22835] CT
1 LJ
0.639 LW
N
138.175 117.173 M
140.384 126.304 L
S
GR
GS
[0.78257 0 0 0.78197 0 0.22835] CT
1 LJ
0.639 LW
N
237.678 126.304 M
234.519 117.173 L
S
GR
GS
[0.78257 0 0 0.78197 0 0.22835] CT
1 LJ
0.639 LW
N
134.714 108.042 M
135.211 109.416 L
138.175 117.173 L
S
GR
GS
[0.78257 0 0 0.78197 0 0.22835] CT
1 LJ
0.639 LW
N
234.519 117.173 M
230.144 108.042 L
S
GR
GS
[0.78257 0 0 0.78197 0 0.22835] CT
1 LJ
0.639 LW
N
130.566 98.911 M
134.714 108.042 L
S
GR
GS
[0.78257 0 0 0.78197 0 0.22835] CT
1 LJ
0.639 LW
N
230.144 108.042 M
228.421 104.975 L
224.515 98.911 L
S
GR
GS
[0.78257 0 0 0.78197 0 0.22835] CT
1 LJ
0.639 LW
N
125.592 89.78 M
130.566 98.911 L
S
GR
GS
[0.78257 0 0 0.78197 0 0.22835] CT
1 LJ
0.639 LW
N
224.515 98.911 M
218.821 89.78 L
S
GR
GS
[0.78257 0 0 0.78197 0 0.22835] CT
1 LJ
0.639 LW
N
120.502 80.65 M
121.895 83.338 L
125.592 89.78 L
S
GR
GS
[0.78257 0 0 0.78197 0 0.22835] CT
1 LJ
0.639 LW
N
218.821 89.78 M
215.105 82.892 L
213.752 80.65 L
S
GR
GS
[0.78257 0 0 0.78197 0 0.22835] CT
1 LJ
0.639 LW
N
116.569 71.519 M
120.502 80.65 L
S
GR
GS
[0.78257 0 0 0.78197 0 0.22835] CT
1 LJ
0.639 LW
N
213.752 80.65 M
209.678 71.519 L
S
GR
GS
[0.78257 0 0 0.78197 0 0.22835] CT
1 LJ
0.639 LW
N
113.915 62.388 M
116.569 71.519 L
S
GR
GS
[0.78257 0 0 0.78197 0 0.22835] CT
1 LJ
0.639 LW
N
209.678 71.519 M
207.299 62.388 L
S
GR
GS
[0.78257 0 0 0.78197 0 0.22835] CT
1 LJ
0.639 LW
N
112.976 53.257 M
113.915 62.388 L
S
GR
GS
[0.78257 0 0 0.78197 0 0.22835] CT
1 LJ
0.639 LW
N
207.299 62.388 M
206.518 53.257 L
S
GR
GS
[0.78257 0 0 0.78197 0 0.22835] CT
1 LJ
0.639 LW
N
125.537 217.612 M
124.432 226.743 L
S
GR
GS
[0.78257 0 0 0.78197 0 0.22835] CT
1 LJ
0.639 LW
N
194.472 226.743 M
195.183 217.612 L
S
GR
GS
[0.78257 0 0 0.78197 0 0.22835] CT
1 LJ
0.639 LW
N
128.533 208.481 M
125.537 217.612 L
S
GR
GS
[0.78257 0 0 0.78197 0 0.22835] CT
1 LJ
0.639 LW
N
195.183 217.612 M
197.442 208.481 L
S
GR
GS
[0.78257 0 0 0.78197 0 0.22835] CT
1 LJ
0.639 LW
N
132.649 199.35 M
128.533 208.481 L
S
GR
GS
[0.78257 0 0 0.78197 0 0.22835] CT
1 LJ
0.639 LW
N
197.442 208.481 M
201.66 199.35 L
S
GR
GS
[0.78257 0 0 0.78197 0 0.22835] CT
1 LJ
0.639 LW
N
137.637 190.22 M
135.211 194.225 L
132.649 199.35 L
S
GR
GS
[0.78257 0 0 0.78197 0 0.22835] CT
1 LJ
0.639 LW
N
201.66 199.35 M
201.789 199.151 L
206.505 190.22 L
S
GR
GS
[0.78257 0 0 0.78197 0 0.22835] CT
1 LJ
0.639 LW
N
142.493 181.089 M
137.637 190.22 L
S
GR
GS
[0.78257 0 0 0.78197 0 0.22835] CT
1 LJ
0.639 LW
N
206.505 190.22 M
212.814 181.089 L
S
GR
GS
[0.78257 0 0 0.78197 0 0.22835] CT
1 LJ
0.639 LW
N
146.085 171.958 M
142.493 181.089 L
S
GR
GS
[0.78257 0 0 0.78197 0 0.22835] CT
1 LJ
0.639 LW
N
212.814 181.089 M
215.105 178.113 L
218.884 171.958 L
S
GR
GS
[0.78257 0 0 0.78197 0 0.22835] CT
1 LJ
0.639 LW
N
148.58 162.827 M
148.526 162.997 L
146.085 171.958 L
S
GR
GS
[0.78257 0 0 0.78197 0 0.22835] CT
1 LJ
0.639 LW
N
218.884 171.958 M
224.012 162.827 L
S
GR
GS
[0.78257 0 0 0.78197 0 0.22835] CT
1 LJ
0.639 LW
N
150.498 153.696 M
148.58 162.827 L
S
GR
GS
[0.78257 0 0 0.78197 0 0.22835] CT
1 LJ
0.639 LW
N
224.012 162.827 M
227.995 153.696 L
S
GR
GS
[0.78257 0 0 0.78197 0 0.22835] CT
1 LJ
0.639 LW
N
151.373 144.565 M
150.498 153.696 L
S
GR
GS
[0.78257 0 0 0.78197 0 0.22835] CT
1 LJ
0.639 LW
N
227.995 153.696 M
228.421 151.899 L
229.775 144.565 L
S
GR
GS
[0.78257 0 0 0.78197 0 0.22835] CT
1 LJ
0.639 LW
N
151.373 135.435 M
151.373 144.565 L
S
GR
GS
[0.78257 0 0 0.78197 0 0.22835] CT
1 LJ
0.639 LW
N
229.775 144.565 M
229.775 135.435 L
S
GR
GS
[0.78257 0 0 0.78197 0 0.22835] CT
1 LJ
0.639 LW
N
150.498 126.304 M
151.373 135.435 L
S
GR
GS
[0.78257 0 0 0.78197 0 0.22835] CT
1 LJ
0.639 LW
N
229.775 135.435 M
228.421 128.101 L
227.995 126.304 L
S
GR
GS
[0.78257 0 0 0.78197 0 0.22835] CT
1 LJ
0.639 LW
N
148.58 117.173 M
150.498 126.304 L
S
GR
GS
[0.78257 0 0 0.78197 0 0.22835] CT
1 LJ
0.639 LW
N
227.995 126.304 M
224.012 117.173 L
S
GR
GS
[0.78257 0 0 0.78197 0 0.22835] CT
1 LJ
0.639 LW
N
146.085 108.042 M
148.526 117.003 L
148.58 117.173 L
S
GR
GS
[0.78257 0 0 0.78197 0 0.22835] CT
1 LJ
0.639 LW
N
224.012 117.173 M
218.884 108.042 L
S
GR
GS
[0.78257 0 0 0.78197 0 0.22835] CT
1 LJ
0.639 LW
N
142.493 98.911 M
146.085 108.042 L
S
GR
GS
[0.78257 0 0 0.78197 0 0.22835] CT
1 LJ
0.639 LW
N
218.884 108.042 M
215.105 101.887 L
212.814 98.911 L
S
GR
GS
[0.78257 0 0 0.78197 0 0.22835] CT
1 LJ
0.639 LW
N
137.637 89.78 M
142.493 98.911 L
S
GR
GS
[0.78257 0 0 0.78197 0 0.22835] CT
1 LJ
0.639 LW
N
212.814 98.911 M
206.505 89.78 L
S
GR
GS
[0.78257 0 0 0.78197 0 0.22835] CT
1 LJ
0.639 LW
N
132.649 80.65 M
135.211 85.775 L
137.637 89.78 L
S
GR
GS
[0.78257 0 0 0.78197 0 0.22835] CT
1 LJ
0.639 LW
N
206.505 89.78 M
201.789 80.849 L
201.66 80.65 L
S
GR
GS
[0.78257 0 0 0.78197 0 0.22835] CT
1 LJ
0.639 LW
N
128.533 71.519 M
132.649 80.65 L
S
GR
GS
[0.78257 0 0 0.78197 0 0.22835] CT
1 LJ
0.639 LW
N
201.66 80.65 M
197.442 71.519 L
S
GR
GS
[0.78257 0 0 0.78197 0 0.22835] CT
1 LJ
0.639 LW
N
125.537 62.388 M
128.533 71.519 L
S
GR
GS
[0.78257 0 0 0.78197 0 0.22835] CT
1 LJ
0.639 LW
N
197.442 71.519 M
195.183 62.388 L
S
GR
GS
[0.78257 0 0 0.78197 0 0.22835] CT
1 LJ
0.639 LW
N
124.432 53.257 M
125.537 62.388 L
S
GR
GS
[0.78257 0 0 0.78197 0 0.22835] CT
1 LJ
0.639 LW
N
195.183 62.388 M
194.472 53.257 L
S
GR
GS
[0.78257 0 0 0.78197 0 0.22835] CT
1 LJ
0.639 LW
N
142.245 217.612 M
140.967 226.743 L
S
GR
GS
[0.78257 0 0 0.78197 0 0.22835] CT
1 LJ
0.639 LW
N
178.107 226.743 M
178.525 217.612 L
S
GR
GS
[0.78257 0 0 0.78197 0 0.22835] CT
1 LJ
0.639 LW
N
145.423 208.481 M
142.245 217.612 L
S
GR
GS
[0.78257 0 0 0.78197 0 0.22835] CT
1 LJ
0.639 LW
N
178.525 217.612 M
179.959 208.481 L
S
GR
GS
[0.78257 0 0 0.78197 0 0.22835] CT
1 LJ
0.639 LW
N
149.949 199.35 M
148.526 201.23 L
145.423 208.481 L
S
GR
GS
[0.78257 0 0 0.78197 0 0.22835] CT
1 LJ
0.639 LW
N
179.959 208.481 M
183.163 199.35 L
S
GR
GS
[0.78257 0 0 0.78197 0 0.22835] CT
1 LJ
0.639 LW
N
155.573 190.22 M
149.949 199.35 L
S
GR
GS
[0.78257 0 0 0.78197 0 0.22835] CT
1 LJ
0.639 LW
N
183.163 199.35 M
188.474 192.277 L
189.5 190.22 L
S
GR
GS
[0.78257 0 0 0.78197 0 0.22835] CT
1 LJ
0.639 LW
N
158.824 181.089 M
155.573 190.22 L
S
GR
GS
[0.78257 0 0 0.78197 0 0.22835] CT
1 LJ
0.639 LW
N
189.5 190.22 M
195.985 181.089 L
S
GR
GS
[0.78257 0 0 0.78197 0 0.22835] CT
1 LJ
0.639 LW
N
160.755 171.958 M
158.824 181.089 L
S
GR
GS
[0.78257 0 0 0.78197 0 0.22835] CT
1 LJ
0.639 LW
N
195.985 181.089 M
201.789 175.425 L
204.182 171.958 L
S
GR
GS
[0.78257 0 0 0.78197 0 0.22835] CT
1 LJ
0.639 LW
N
161.953 162.827 M
161.842 163.453 L
160.755 171.958 L
S
GR
GS
[0.78257 0 0 0.78197 0 0.22835] CT
1 LJ
0.639 LW
N
204.182 171.958 M
210.495 162.827 L
S
GR
GS
[0.78257 0 0 0.78197 0 0.22835] CT
1 LJ
0.639 LW
N
162.947 153.696 M
161.953 162.827 L
S
GR
GS
[0.78257 0 0 0.78197 0 0.22835] CT
1 LJ
0.639 LW
N
210.495 162.827 M
215.105 155.203 L
215.726 153.696 L
S
GR
GS
[0.78257 0 0 0.78197 0 0.22835] CT
1 LJ
0.639 LW
N
163.359 144.565 M
162.947 153.696 L
S
GR
GS
[0.78257 0 0 0.78197 0 0.22835] CT
1 LJ
0.639 LW
N
215.726 153.696 M
217.749 144.565 L
S
GR
GS
[0.78257 0 0 0.78197 0 0.22835] CT
1 LJ
0.639 LW
N
163.359 135.435 M
163.359 144.565 L
S
GR
GS
[0.78257 0 0 0.78197 0 0.22835] CT
1 LJ
0.639 LW
N
217.749 144.565 M
217.749 135.435 L
S
GR
GS
[0.78257 0 0 0.78197 0 0.22835] CT
1 LJ
0.639 LW
N
162.947 126.304 M
163.359 135.435 L
S
GR
GS
[0.78257 0 0 0.78197 0 0.22835] CT
1 LJ
0.639 LW
N
217.749 135.435 M
215.726 126.304 L
S
GR
GS
[0.78257 0 0 0.78197 0 0.22835] CT
1 LJ
0.639 LW
N
161.953 117.173 M
162.947 126.304 L
S
GR
GS
[0.78257 0 0 0.78197 0 0.22835] CT
1 LJ
0.639 LW
N
215.726 126.304 M
215.105 124.797 L
210.495 117.173 L
S
GR
GS
[0.78257 0 0 0.78197 0 0.22835] CT
1 LJ
0.639 LW
N
160.755 108.042 M
161.842 116.547 L
161.953 117.173 L
S
GR
GS
[0.78257 0 0 0.78197 0 0.22835] CT
1 LJ
0.639 LW
N
210.495 117.173 M
204.182 108.042 L
S
GR
GS
[0.78257 0 0 0.78197 0 0.22835] CT
1 LJ
0.639 LW
N
158.824 98.911 M
160.755 108.042 L
S
GR
GS
[0.78257 0 0 0.78197 0 0.22835] CT
1 LJ
0.639 LW
N
204.182 108.042 M
201.789 104.575 L
195.985 98.911 L
S
GR
GS
[0.78257 0 0 0.78197 0 0.22835] CT
1 LJ
0.639 LW
N
155.573 89.78 M
158.824 98.911 L
S
GR
GS
[0.78257 0 0 0.78197 0 0.22835] CT
1 LJ
0.639 LW
N
195.985 98.911 M
189.5 89.78 L
S
GR
GS
[0.78257 0 0 0.78197 0 0.22835] CT
1 LJ
0.639 LW
N
149.949 80.65 M
155.573 89.78 L
S
GR
GS
[0.78257 0 0 0.78197 0 0.22835] CT
1 LJ
0.639 LW
N
189.5 89.78 M
188.474 87.723 L
183.163 80.65 L
S
GR
GS
[0.78257 0 0 0.78197 0 0.22835] CT
1 LJ
0.639 LW
N
145.423 71.519 M
148.526 78.77 L
149.949 80.65 L
S
GR
GS
[0.78257 0 0 0.78197 0 0.22835] CT
1 LJ
0.639 LW
N
183.163 80.65 M
179.959 71.519 L
S
GR
GS
[0.78257 0 0 0.78197 0 0.22835] CT
1 LJ
0.639 LW
N
142.245 62.388 M
145.423 71.519 L
S
GR
GS
[0.78257 0 0 0.78197 0 0.22835] CT
1 LJ
0.639 LW
N
179.959 71.519 M
178.525 62.388 L
S
GR
GS
[0.78257 0 0 0.78197 0 0.22835] CT
1 LJ
0.639 LW
N
140.967 53.257 M
142.245 62.388 L
S
GR
GS
[0.78257 0 0 0.78197 0 0.22835] CT
1 LJ
0.639 LW
N
178.525 62.388 M
178.107 53.257 L
S
GR
GS
[0.78257 0 0 0.78197 0 0.22835] CT
1 LJ
0.639 LW
N
187.491 144.565 M
188.474 147.196 L
190.439 144.565 L
S
GR
GS
[0.78257 0 0 0.78197 0 0.22835] CT
1 LJ
0.639 LW
N
187.491 135.435 M
187.491 144.565 L
S
GR
GS
[0.78257 0 0 0.78197 0 0.22835] CT
1 LJ
0.639 LW
N
190.439 144.565 M
190.439 135.435 L
S
GR
GS
[0.78257 0 0 0.78197 0 0.22835] CT
1 LJ
0.639 LW
N
190.439 135.435 M
188.474 132.804 L
187.491 135.435 L
S
GR
GS
[0.78257 0 0 0.78197 0 0.22835] CT
1 0 0 RC
1 LJ
0.639 LW
N
56.547 187.407 M
59.289 182.014 L
59.408 188.063 L
S
GR
GS
[0.78257 0 0 0.78197 0 0.22835] CT
1 0 0 RC
1 LJ
0.639 LW
N
59.879 171.441 M
63.772 167.731 L
62.083 172.837 L
S
GR
GS
[0.78257 0 0 0.78197 0 0.22835] CT
1 0 0 RC
1 LJ
0.639 LW
N
63.51 159.27 M
68.008 159.081 L
64.128 161.364 L
S
GR
GS
[0.78257 0 0 0.78197 0 0.22835] CT
1 0 0 RC
1 LJ
0.639 LW
N
65.908 148.325 M
70.209 152.011 L
64.68 150.783 L
S
GR
GS
[0.78257 0 0 0.78197 0 0.22835] CT
1 0 0 RC
1 LJ
0.639 LW
N
66.063 135.521 M
69.448 141.801 L
63.506 137.853 L
S
GR
GS
[0.78257 0 0 0.78197 0 0.22835] CT
1 0 0 RC
1 LJ
0.639 LW
N
63.908 118.556 M
66.045 125.055 L
61.101 120.326 L
S
GR
GS
[0.78257 0 0 0.78197 0 0.22835] CT
1 0 0 RC
1 LJ
0.639 LW
N
60.353 96.883 M
61.436 101.135 L
58.479 97.893 L
S
GR
GS
[0.78257 0 0 0.78197 0 0.22835] CT
1 0 0 RC
1 LJ
0.639 LW
N
77.251 191.553 M
76.454 187.036 L
79.283 190.647 L
S
GR
GS
[0.78257 0 0 0.78197 0 0.22835] CT
1 0 0 RC
1 LJ
0.639 LW
N
85.403 175.644 M
88.014 173.71 L
86.621 176.645 L
S
GR
GS
[0.78257 0 0 0.78197 0 0.22835] CT
1 0 0 RC
1 LJ
0.639 LW
N
93.384 161.873 M
98.934 163.495 L
93.273 164.676 L
S
GR
GS
[0.78257 0 0 0.78197 0 0.22835] CT
1 0 0 RC
1 LJ
0.639 LW
N
97.827 148.346 M
104.61 152.999 L
96.435 152.085 L
S
GR
GS
[0.78257 0 0 0.78197 0 0.22835] CT
1 0 0 RC
1 LJ
0.639 LW
N
96.859 133.066 M
102.647 138.946 L
94.773 136.482 L
S
GR
GS
[0.78257 0 0 0.78197 0 0.22835] CT
1 0 0 RC
1 LJ
0.639 LW
N
90.888 114.776 M
93.874 119.561 L
88.988 116.744 L
S
GR
GS
[0.78257 0 0 0.78197 0 0.22835] CT
1 0 0 RC
1 LJ
0.639 LW
N
82.433 93.488 M
81.99 95.319 L
81.519 93.495 L
S
GR
GS
[0.78257 0 0 0.78197 0 0.22835] CT
1 0 0 RC
1 LJ
0.639 LW
N
99.746 197.454 M
95.936 194.963 L
100.47 195.368 L
S
GR
GS
[0.78257 0 0 0.78197 0 0.22835] CT
1 0 0 RC
1 LJ
0.639 LW
N
109.498 182.375 M
109.697 183.146 L
109.158 182.559 L
S
GR
GS
[0.78257 0 0 0.78197 0 0.22835] CT
1 0 0 RC
1 LJ
0.639 LW
N
118.668 166.777 M
122.697 170.461 L
117.408 169.107 L
S
GR
GS
[0.78257 0 0 0.78197 0 0.22835] CT
1 0 0 RC
1 LJ
0.639 LW
N
123.389 149.538 M
129.453 154.557 L
121.74 152.982 L
S
GR
GS
[0.78257 0 0 0.78197 0 0.22835] CT
1 0 0 RC
1 LJ
0.639 LW
N
121.67 130.225 M
127.117 134.439 L
120.328 133.284 L
S
GR
GS
[0.78257 0 0 0.78197 0 0.22835] CT
1 0 0 RC
1 LJ
0.639 LW
N
114.237 109.283 M
116.673 110.89 L
113.767 110.618 L
S
GR
GS
[0.78257 0 0 0.78197 0 0.22835] CT
1 0 0 RC
1 LJ
0.639 LW
N
104.223 87.841 M
102.526 86.141 L
104.824 86.842 L
S
GR
GS
[0.78257 0 0 0.78197 0 0.22835] CT
1 0 0 RC
1 LJ
0.639 LW
N
125.778 202.621 M
120.75 202.451 L
125.266 200.235 L
S
GR
GS
[0.78257 0 0 0.78197 0 0.22835] CT
1 0 0 RC
1 LJ
0.639 LW
N
133.234 188.794 M
130.909 192.06 L
131.423 188.085 L
S
GR
GS
[0.78257 0 0 0.78197 0 0.22835] CT
1 0 0 RC
1 LJ
0.639 LW
N
139.931 171.914 M
140.506 177.042 L
137.586 172.788 L
S
GR
GS
[0.78257 0 0 0.78197 0 0.22835] CT
1 0 0 RC
1 LJ
0.639 LW
N
143.046 151.398 M
145.494 156.029 L
141.155 153.095 L
S
GR
GS
[0.78257 0 0 0.78197 0 0.22835] CT
1 0 0 RC
1 LJ
0.639 LW
N
141.265 128.196 M
143.769 130.182 L
140.625 129.608 L
S
GR
GS
[0.78257 0 0 0.78197 0 0.22835] CT
1 0 0 RC
1 LJ
0.639 LW
N
135.338 104.392 M
136.059 102.699 L
136.22 104.532 L
S
GR
GS
[0.78257 0 0 0.78197 0 0.22835] CT
1 0 0 RC
1 LJ
0.639 LW
N
127.766 82.324 M
125.615 77.47 L
129.797 80.741 L
S
GR
GS
[0.78257 0 0 0.78197 0 0.22835] CT
1 0 0 RC
1 LJ
0.639 LW
N
155.598 204.875 M
151.662 206.343 L
154.445 203.196 L
S
GR
GS
[0.78257 0 0 0.78197 0 0.22835] CT
1 0 0 RC
1 LJ
0.639 LW
N
157.832 192.196 M
153.935 196.693 L
155.257 190.891 L
S
GR
GS
[0.78257 0 0 0.78197 0 0.22835] CT
1 0 0 RC
1 LJ
0.639 LW
N
159.438 175.118 M
156.082 180.462 L
156.528 174.167 L
S
GR
GS
[0.78257 0 0 0.78197 0 0.22835] CT
1 0 0 RC
1 LJ
0.639 LW
N
159.739 153.142 M
157.198 156.794 L
157.721 152.376 L
S
GR
GS
[0.78257 0 0 0.78197 0 0.22835] CT
1 0 0 RC
1 LJ
0.639 LW
N
158.609 127.835 M
156.812 127.969 L
158.334 127.005 L
S
GR
GS
[0.78257 0 0 0.78197 0 0.22835] CT
1 0 0 RC
1 LJ
0.639 LW
N
156.524 102.167 M
155.087 98.442 L
158.108 101.053 L
S
GR
GS
[0.78257 0 0 0.78197 0 0.22835] CT
1 0 0 RC
1 LJ
0.639 LW
N
154.363 79.263 M
152.75 72.963 L
157.138 77.763 L
S
GR
GS
[0.78257 0 0 0.78197 0 0.22835] CT
1 0 0 RC
1 LJ
0.639 LW
N
187.863 203.266 M
186.867 204.997 L
186.932 203.001 L
S
GR
GS
[0.78257 0 0 0.78197 0 0.22835] CT
1 0 0 RC
1 LJ
0.639 LW
N
184.149 191.145 M
180.295 195.091 L
181.839 189.795 L
S
GR
GS
[0.78257 0 0 0.78197 0 0.22835] CT
1 0 0 RC
1 LJ
0.639 LW
N
180.192 175.037 M
174.087 179.279 L
177.477 172.663 L
S
GR
GS
[0.78257 0 0 0.78197 0 0.22835] CT
1 0 0 RC
1 LJ
0.639 LW
N
177.66 154.035 M
170.86 156.53 L
175.686 151.128 L
S
GR
GS
[0.78257 0 0 0.78197 0 0.22835] CT
1 0 0 RC
1 LJ
0.639 LW
N
177.621 129.293 M
171.976 128.735 L
177.22 126.571 L
S
GR
GS
[0.78257 0 0 0.78197 0 0.22835] CT
1 0 0 RC
1 LJ
0.639 LW
N
180.092 103.546 M
176.964 99.914 L
181.433 101.647 L
S
GR
GS
[0.78257 0 0 0.78197 0 0.22835] CT
1 0 0 RC
1 LJ
0.639 LW
N
184.03 79.949 M
183.72 74.522 L
186.548 79.165 L
S
GR
GS
[0.78257 0 0 0.78197 0 0.22835] CT
1 0 0 RC
1 LJ
0.639 LW
N
220.197 198.472 M
222.75 198.981 L
220.258 199.734 L
S
GR
GS
[0.78257 0 0 0.78197 0 0.22835] CT
1 0 0 RC
1 LJ
0.639 LW
N
212.319 186.084 M
210.105 187.929 L
211.191 185.259 L
S
GR
GS
[0.78257 0 0 0.78197 0 0.22835] CT
1 0 0 RC
1 LJ
0.639 LW
N
204.673 171.706 M
198.159 173.992 L
202.83 168.91 L
S
GR
GS
[0.78257 0 0 0.78197 0 0.22835] CT
1 0 0 RC
1 LJ
0.639 LW
N
200.481 153.699 M
191.951 155.347 L
198.702 149.879 L
S
GR
GS
[0.78257 0 0 0.78197 0 0.22835] CT
1 0 0 RC
1 LJ
0.639 LW
N
201.513 131.957 M
194.098 132.155 L
200.548 128.491 L
S
GR
GS
[0.78257 0 0 0.78197 0 0.22835] CT
1 0 0 RC
1 LJ
0.639 LW
N
207.333 107.947 M
203.695 106.495 L
207.588 106.064 L
S
GR
GS
[0.78257 0 0 0.78197 0 0.22835] CT
1 0 0 RC
1 LJ
0.639 LW
N
215.486 84.093 M
216.695 81.488 L
216.854 84.355 L
S
GR
GS
[0.78257 0 0 0.78197 0 0.22835] CT
1 0 0 RC
1 LJ
0.639 LW
N
250.194 192.515 M
255.409 190.832 L
251.6 194.771 L
S
GR
GS
[0.78257 0 0 0.78197 0 0.22835] CT
1 0 0 RC
1 LJ
0.639 LW
N
241.693 179.149 M
242.023 178.228 L
242.165 179.196 L
S
GR
GS
[0.78257 0 0 0.78197 0 0.22835] CT
1 0 0 RC
1 LJ
0.639 LW
N
233.787 166.529 M
229.378 166.831 L
233.126 164.49 L
S
GR
GS
[0.78257 0 0 0.78197 0 0.22835] CT
1 0 0 RC
1 LJ
0.639 LW
N
229.81 152.277 M
222.806 153.745 L
228.296 149.154 L
S
GR
GS
[0.78257 0 0 0.78197 0 0.22835] CT
1 0 0 RC
1 LJ
0.639 LW
N
231.441 134.702 M
225.079 136.788 L
229.711 131.954 L
S
GR
GS
[0.78257 0 0 0.78197 0 0.22835] CT
1 0 0 RC
1 LJ
0.639 LW
N
237.99 113.514 M
235.238 115.409 L
236.775 112.442 L
S
GR
GS
[0.78257 0 0 0.78197 0 0.22835] CT
1 0 0 RC
1 LJ
0.639 LW
N
246.697 89.947 M
248.999 90.924 L
246.508 91.146 L
S
GR
GS
[0.78257 0 0 0.78197 0 0.22835] CT
1 0 0 RC
1 LJ
0.639 LW
N
276.436 187.907 M
282.302 183.987 L
278.971 190.206 L
S
GR
GS
[0.78257 0 0 0.78197 0 0.22835] CT
1 0 0 RC
1 LJ
0.639 LW
N
271.113 173.263 M
273.821 170.079 L
272.93 174.162 L
S
GR
GS
[0.78257 0 0 0.78197 0 0.22835] CT
1 0 0 RC
1 LJ
0.639 LW
N
266.487 161.69 M
265.809 160.815 L
266.819 161.268 L
S
GR
GS
[0.78257 0 0 0.78197 0 0.22835] CT
1 0 0 RC
1 LJ
0.639 LW
N
264.51 150.369 M
261.645 152.399 L
263.217 149.259 L
S
GR
GS
[0.78257 0 0 0.78197 0 0.22835] CT
1 0 0 RC
1 LJ
0.639 LW
N
266.014 136.371 M
263.085 140.679 L
263.642 135.5 L
S
GR
GS
[0.78257 0 0 0.78197 0 0.22835] CT
1 0 0 RC
1 LJ
0.639 LW
N
270.366 117.9 M
269.521 122.897 L
267.915 118.09 L
S
GR
GS
[0.78257 0 0 0.78197 0 0.22835] CT
1 0 0 RC
1 LJ
0.639 LW
N
275.731 95.043 M
278.24 98.851 L
274.234 96.672 L
S
GR
GS
[0.78257 0 0 0.78197 0 0.22835] CT
1 0 0 RC
1 LJ
0.639 LW
N
55.316 199.35 M
59.289 182.014 L
S
GR
GS
[0.78257 0 0 0.78197 0 0.22835] CT
1 0 0 RC
1 LJ
0.639 LW
N
55.316 181.089 M
63.772 167.731 L
S
GR
GS
[0.78257 0 0 0.78197 0 0.22835] CT
1 0 0 RC
1 LJ
0.639 LW
N
55.316 162.827 M
68.008 159.081 L
S
GR
GS
[0.78257 0 0 0.78197 0 0.22835] CT
1 0 0 RC
1 LJ
0.639 LW
N
55.316 144.565 M
70.209 152.011 L
S
GR
GS
[0.78257 0 0 0.78197 0 0.22835] CT
1 0 0 RC
1 LJ
0.639 LW
N
55.316 126.304 M
69.448 141.801 L
S
GR
GS
[0.78257 0 0 0.78197 0 0.22835] CT
1 0 0 RC
1 LJ
0.639 LW
N
55.316 108.042 M
66.045 125.055 L
S
GR
GS
[0.78257 0 0 0.78197 0 0.22835] CT
1 0 0 RC
1 LJ
0.639 LW
N
55.316 89.78 M
61.436 101.135 L
S
GR
GS
[0.78257 0 0 0.78197 0 0.22835] CT
1 0 0 RC
1 LJ
0.639 LW
N
81.947 199.35 M
76.454 187.036 L
S
GR
GS
[0.78257 0 0 0.78197 0 0.22835] CT
1 0 0 RC
1 LJ
0.639 LW
N
81.947 181.089 M
88.014 173.71 L
S
GR
GS
[0.78257 0 0 0.78197 0 0.22835] CT
1 0 0 RC
1 LJ
0.639 LW
N
81.947 162.827 M
98.934 163.495 L
S
GR
GS
[0.78257 0 0 0.78197 0 0.22835] CT
1 0 0 RC
1 LJ
0.639 LW
N
81.947 144.565 M
104.61 152.999 L
S
GR
GS
[0.78257 0 0 0.78197 0 0.22835] CT
1 0 0 RC
1 LJ
0.639 LW
N
81.947 126.304 M
102.647 138.946 L
S
GR
GS
[0.78257 0 0 0.78197 0 0.22835] CT
1 0 0 RC
1 LJ
0.639 LW
N
81.947 108.042 M
93.874 119.561 L
S
GR
GS
[0.78257 0 0 0.78197 0 0.22835] CT
1 0 0 RC
1 LJ
0.639 LW
N
81.947 89.78 M
81.99 95.319 L
S
GR
GS
[0.78257 0 0 0.78197 0 0.22835] CT
1 0 0 RC
1 LJ
0.639 LW
N
108.579 199.35 M
95.936 194.963 L
S
GR
GS
[0.78257 0 0 0.78197 0 0.22835] CT
1 0 0 RC
1 LJ
0.639 LW
N
108.579 181.089 M
109.697 183.146 L
S
GR
GS
[0.78257 0 0 0.78197 0 0.22835] CT
1 0 0 RC
1 LJ
0.639 LW
N
108.579 162.827 M
122.697 170.461 L
S
GR
GS
[0.78257 0 0 0.78197 0 0.22835] CT
1 0 0 RC
1 LJ
0.639 LW
N
108.579 144.565 M
129.453 154.557 L
S
GR
GS
[0.78257 0 0 0.78197 0 0.22835] CT
1 0 0 RC
1 LJ
0.639 LW
N
108.579 126.304 M
127.117 134.439 L
S
GR
GS
[0.78257 0 0 0.78197 0 0.22835] CT
1 0 0 RC
1 LJ
0.639 LW
N
108.579 108.042 M
116.673 110.89 L
S
GR
GS
[0.78257 0 0 0.78197 0 0.22835] CT
1 0 0 RC
1 LJ
0.639 LW
N
108.579 89.78 M
102.526 86.141 L
S
GR
GS
[0.78257 0 0 0.78197 0 0.22835] CT
1 0 0 RC
1 LJ
0.639 LW
N
135.211 199.35 M
120.75 202.451 L
S
GR
GS
[0.78257 0 0 0.78197 0 0.22835] CT
1 0 0 RC
1 LJ
0.639 LW
N
135.211 181.089 M
130.909 192.06 L
S
GR
GS
[0.78257 0 0 0.78197 0 0.22835] CT
1 0 0 RC
1 LJ
0.639 LW
N
135.211 162.827 M
140.506 177.042 L
S
GR
GS
[0.78257 0 0 0.78197 0 0.22835] CT
1 0 0 RC
1 LJ
0.639 LW
N
135.211 144.565 M
145.494 156.029 L
S
GR
GS
[0.78257 0 0 0.78197 0 0.22835] CT
1 0 0 RC
1 LJ
0.639 LW
N
135.211 126.304 M
143.769 130.182 L
S
GR
GS
[0.78257 0 0 0.78197 0 0.22835] CT
1 0 0 RC
1 LJ
0.639 LW
N
135.211 108.042 M
136.059 102.699 L
S
GR
GS
[0.78257 0 0 0.78197 0 0.22835] CT
1 0 0 RC
1 LJ
0.639 LW
N
135.211 89.78 M
125.615 77.47 L
S
GR
GS
[0.78257 0 0 0.78197 0 0.22835] CT
1 0 0 RC
1 LJ
0.639 LW
N
161.842 199.35 M
151.662 206.343 L
S
GR
GS
[0.78257 0 0 0.78197 0 0.22835] CT
1 0 0 RC
1 LJ
0.639 LW
N
161.842 181.089 M
153.935 196.693 L
S
GR
GS
[0.78257 0 0 0.78197 0 0.22835] CT
1 0 0 RC
1 LJ
0.639 LW
N
161.842 162.827 M
156.082 180.462 L
S
GR
GS
[0.78257 0 0 0.78197 0 0.22835] CT
1 0 0 RC
1 LJ
0.639 LW
N
161.842 144.565 M
157.198 156.794 L
S
GR
GS
[0.78257 0 0 0.78197 0 0.22835] CT
1 0 0 RC
1 LJ
0.639 LW
N
161.842 126.304 M
156.812 127.969 L
S
GR
GS
[0.78257 0 0 0.78197 0 0.22835] CT
1 0 0 RC
1 LJ
0.639 LW
N
161.842 108.042 M
155.087 98.442 L
S
GR
GS
[0.78257 0 0 0.78197 0 0.22835] CT
1 0 0 RC
1 LJ
0.639 LW
N
161.842 89.78 M
152.75 72.963 L
S
GR
GS
[0.78257 0 0 0.78197 0 0.22835] CT
1 0 0 RC
1 LJ
0.639 LW
N
188.474 199.35 M
186.867 204.997 L
S
GR
GS
[0.78257 0 0 0.78197 0 0.22835] CT
1 0 0 RC
1 LJ
0.639 LW
N
188.474 181.089 M
180.295 195.091 L
S
GR
GS
[0.78257 0 0 0.78197 0 0.22835] CT
1 0 0 RC
1 LJ
0.639 LW
N
188.474 162.827 M
174.087 179.279 L
S
GR
GS
[0.78257 0 0 0.78197 0 0.22835] CT
1 0 0 RC
1 LJ
0.639 LW
N
188.474 144.565 M
170.86 156.53 L
S
GR
GS
[0.78257 0 0 0.78197 0 0.22835] CT
1 0 0 RC
1 LJ
0.639 LW
N
188.474 126.304 M
171.976 128.735 L
S
GR
GS
[0.78257 0 0 0.78197 0 0.22835] CT
1 0 0 RC
1 LJ
0.639 LW
N
188.474 108.042 M
176.964 99.914 L
S
GR
GS
[0.78257 0 0 0.78197 0 0.22835] CT
1 0 0 RC
1 LJ
0.639 LW
N
188.474 89.78 M
183.72 74.522 L
S
GR
GS
[0.78257 0 0 0.78197 0 0.22835] CT
1 0 0 RC
1 LJ
0.639 LW
N
215.105 199.35 M
222.75 198.981 L
S
GR
GS
[0.78257 0 0 0.78197 0 0.22835] CT
1 0 0 RC
1 LJ
0.639 LW
N
215.105 181.089 M
210.105 187.929 L
S
GR
GS
[0.78257 0 0 0.78197 0 0.22835] CT
1 0 0 RC
1 LJ
0.639 LW
N
215.105 162.827 M
198.159 173.992 L
S
GR
GS
[0.78257 0 0 0.78197 0 0.22835] CT
1 0 0 RC
1 LJ
0.639 LW
N
215.105 144.565 M
191.951 155.347 L
S
GR
GS
[0.78257 0 0 0.78197 0 0.22835] CT
1 0 0 RC
1 LJ
0.639 LW
N
215.105 126.304 M
194.098 132.155 L
S
GR
GS
[0.78257 0 0 0.78197 0 0.22835] CT
1 0 0 RC
1 LJ
0.639 LW
N
215.105 108.042 M
203.695 106.495 L
S
GR
GS
[0.78257 0 0 0.78197 0 0.22835] CT
1 0 0 RC
1 LJ
0.639 LW
N
215.105 89.78 M
216.695 81.488 L
S
GR
GS
[0.78257 0 0 0.78197 0 0.22835] CT
1 0 0 RC
1 LJ
0.639 LW
N
241.737 199.35 M
255.409 190.832 L
S
GR
GS
[0.78257 0 0 0.78197 0 0.22835] CT
1 0 0 RC
1 LJ
0.639 LW
N
241.737 181.089 M
242.023 178.228 L
S
GR
GS
[0.78257 0 0 0.78197 0 0.22835] CT
1 0 0 RC
1 LJ
0.639 LW
N
241.737 162.827 M
229.378 166.831 L
S
GR
GS
[0.78257 0 0 0.78197 0 0.22835] CT
1 0 0 RC
1 LJ
0.639 LW
N
241.737 144.565 M
222.806 153.745 L
S
GR
GS
[0.78257 0 0 0.78197 0 0.22835] CT
1 0 0 RC
1 LJ
0.639 LW
N
241.737 126.304 M
225.079 136.788 L
S
GR
GS
[0.78257 0 0 0.78197 0 0.22835] CT
1 0 0 RC
1 LJ
0.639 LW
N
241.737 108.042 M
235.238 115.409 L
S
GR
GS
[0.78257 0 0 0.78197 0 0.22835] CT
1 0 0 RC
1 LJ
0.639 LW
N
241.737 89.78 M
248.999 90.924 L
S
GR
GS
[0.78257 0 0 0.78197 0 0.22835] CT
1 0 0 RC
1 LJ
0.639 LW
N
268.368 199.35 M
282.302 183.987 L
S
GR
GS
[0.78257 0 0 0.78197 0 0.22835] CT
1 0 0 RC
1 LJ
0.639 LW
N
268.368 181.089 M
273.821 170.079 L
S
GR
GS
[0.78257 0 0 0.78197 0 0.22835] CT
1 0 0 RC
1 LJ
0.639 LW
N
268.368 162.827 M
265.809 160.815 L
S
GR
GS
[0.78257 0 0 0.78197 0 0.22835] CT
1 0 0 RC
1 LJ
0.639 LW
N
268.368 144.565 M
261.645 152.399 L
S
GR
GS
[0.78257 0 0 0.78197 0 0.22835] CT
1 0 0 RC
1 LJ
0.639 LW
N
268.368 126.304 M
263.085 140.679 L
S
GR
GS
[0.78257 0 0 0.78197 0 0.22835] CT
1 0 0 RC
1 LJ
0.639 LW
N
268.368 108.042 M
269.521 122.897 L
S
GR
GS
[0.78257 0 0 0.78197 0 0.22835] CT
1 0 0 RC
1 LJ
0.639 LW
N
268.368 89.78 M
278.24 98.851 L
S
GR
GS
[0.78257 0 0 0.78197 0 0.22835] CT
0.149 GC
2 setlinecap
1 LJ
0.639 LW
N
42 226.743 M
295 226.743 L
S
GR
GS
[0.78257 0 0 0.78197 0 0.22835] CT
0.149 GC
2 setlinecap
1 LJ
0.639 LW
N
42 53.257 M
295 53.257 L
S
GR
GS
[0.78257 0 0 0.78197 0 0.22835] CT
0.149 GC
2 setlinecap
1 LJ
0.639 LW
N
42 226.743 M
42 53.257 L
S
GR
GS
[0.78257 0 0 0.78197 0 0.22835] CT
0.149 GC
2 setlinecap
1 LJ
0.639 LW
N
295 226.743 M
295 53.257 L
S
GR
%%Trailer
%%Pages: 1
%%EOF
