%!PS-Adobe-3.0 EPSF-3.0
%%Creator: (MATLAB, The Mathworks, Inc. Version 9.10.0.1684407 \(R2021a\) Update 3. Operating System: Linux)
%%Title: /home/adoan/Code/PRoSA_PI-ESN_Git/pi-esn/Results/MFE_results/Figures/FIG7_DOWN_A.eps
%%CreationDate: 2021-07-21T18:43:39
%%Pages: (atend)
%%BoundingBox:     0     0   255   227
%%LanguageLevel: 3
%%EndComments
%%BeginProlog
%%BeginResource: procset (Apache XML Graphics Std ProcSet) 1.2 0
%%Version: 1.2 0
%%Copyright: (Copyright 2001-2003,2010 The Apache Software Foundation. License terms: http://www.apache.org/licenses/LICENSE-2.0)
/bd{bind def}bind def
/ld{load def}bd
/GR/grestore ld
/GS/gsave ld
/RM/rmoveto ld
/C/curveto ld
/t/show ld
/L/lineto ld
/ML/setmiterlimit ld
/CT/concat ld
/f/fill ld
/N/newpath ld
/S/stroke ld
/CC/setcmykcolor ld
/A/ashow ld
/cp/closepath ld
/RC/setrgbcolor ld
/LJ/setlinejoin ld
/GC/setgray ld
/LW/setlinewidth ld
/M/moveto ld
/re {4 2 roll M
1 index 0 rlineto
0 exch rlineto
neg 0 rlineto
cp } bd
/_ctm matrix def
/_tm matrix def
/BT { _ctm currentmatrix pop matrix _tm copy pop 0 0 moveto } bd
/ET { _ctm setmatrix } bd
/iTm { _ctm setmatrix _tm concat } bd
/Tm { _tm astore pop iTm 0 0 moveto } bd
/ux 0.0 def
/uy 0.0 def
/F {
  /Tp exch def
  /Tf exch def
  Tf findfont Tp scalefont setfont
  /cf Tf def  /cs Tp def
} bd
/ULS {currentpoint /uy exch def /ux exch def} bd
/ULE {
  /Tcx currentpoint pop def
  gsave
  newpath
  cf findfont cs scalefont dup
  /FontMatrix get 0 get /Ts exch def /FontInfo get dup
  /UnderlinePosition get Ts mul /To exch def
  /UnderlineThickness get Ts mul /Tt exch def
  ux uy To add moveto  Tcx uy To add lineto
  Tt setlinewidth stroke
  grestore
} bd
/OLE {
  /Tcx currentpoint pop def
  gsave
  newpath
  cf findfont cs scalefont dup
  /FontMatrix get 0 get /Ts exch def /FontInfo get dup
  /UnderlinePosition get Ts mul /To exch def
  /UnderlineThickness get Ts mul /Tt exch def
  ux uy To add cs add moveto Tcx uy To add cs add lineto
  Tt setlinewidth stroke
  grestore
} bd
/SOE {
  /Tcx currentpoint pop def
  gsave
  newpath
  cf findfont cs scalefont dup
  /FontMatrix get 0 get /Ts exch def /FontInfo get dup
  /UnderlinePosition get Ts mul /To exch def
  /UnderlineThickness get Ts mul /Tt exch def
  ux uy To add cs 10 mul 26 idiv add moveto Tcx uy To add cs 10 mul 26 idiv add lineto
  Tt setlinewidth stroke
  grestore
} bd
/QT {
/Y22 exch store
/X22 exch store
/Y21 exch store
/X21 exch store
currentpoint
/Y21 load 2 mul add 3 div exch
/X21 load 2 mul add 3 div exch
/X21 load 2 mul /X22 load add 3 div
/Y21 load 2 mul /Y22 load add 3 div
/X22 load /Y22 load curveto
} bd
/SSPD {
dup length /d exch dict def
{
/v exch def
/k exch def
currentpagedevice k known {
/cpdv currentpagedevice k get def
v cpdv ne {
/upd false def
/nullv v type /nulltype eq def
/nullcpdv cpdv type /nulltype eq def
nullv nullcpdv or
{
/upd true def
} {
/sametype v type cpdv type eq def
sametype {
v type /arraytype eq {
/vlen v length def
/cpdvlen cpdv length def
vlen cpdvlen eq {
0 1 vlen 1 sub {
/i exch def
/obj v i get def
/cpdobj cpdv i get def
obj cpdobj ne {
/upd true def
exit
} if
} for
} {
/upd true def
} ifelse
} {
v type /dicttype eq {
v {
/dv exch def
/dk exch def
/cpddv cpdv dk get def
dv cpddv ne {
/upd true def
exit
} if
} forall
} {
/upd true def
} ifelse
} ifelse
} if
} ifelse
upd true eq {
d k v put
} if
} if
} if
} forall
d length 0 gt {
d setpagedevice
} if
} bd
/RE { % /NewFontName [NewEncodingArray] /FontName RE -
  findfont dup length dict begin
  {
    1 index /FID ne
    {def} {pop pop} ifelse
  } forall
  /Encoding exch def
  /FontName 1 index def
  currentdict definefont pop
  end
} bind def
%%EndResource
%%BeginResource: procset (Apache XML Graphics EPS ProcSet) 1.0 0
%%Version: 1.0 0
%%Copyright: (Copyright 2002-2003 The Apache Software Foundation. License terms: http://www.apache.org/licenses/LICENSE-2.0)
/BeginEPSF { %def
/b4_Inc_state save def         % Save state for cleanup
/dict_count countdictstack def % Count objects on dict stack
/op_count count 1 sub def      % Count objects on operand stack
userdict begin                 % Push userdict on dict stack
/showpage { } def              % Redefine showpage, { } = null proc
0 setgray 0 setlinecap         % Prepare graphics state
1 setlinewidth 0 setlinejoin
10 setmiterlimit [ ] 0 setdash newpath
/languagelevel where           % If level not equal to 1 then
{pop languagelevel             % set strokeadjust and
1 ne                           % overprint to their defaults.
{false setstrokeadjust false setoverprint
} if
} if
} bd
/EndEPSF { %def
count op_count sub {pop} repeat            % Clean up stacks
countdictstack dict_count sub {end} repeat
b4_Inc_state restore
} bd
%%EndResource
%FOPBeginFontDict
%%IncludeResource: font Courier-Oblique
%%IncludeResource: font Courier-BoldOblique
%%IncludeResource: font Courier-Bold
%%IncludeResource: font ZapfDingbats
%%IncludeResource: font Symbol
%%IncludeResource: font Helvetica
%%IncludeResource: font Helvetica-Oblique
%%IncludeResource: font Helvetica-Bold
%%IncludeResource: font Helvetica-BoldOblique
%%IncludeResource: font Times-Roman
%%IncludeResource: font Times-Italic
%%IncludeResource: font Times-Bold
%%IncludeResource: font Times-BoldItalic
%%IncludeResource: font Courier
%FOPEndFontDict
%%BeginResource: encoding WinAnsiEncoding
/WinAnsiEncoding [
/.notdef /.notdef /.notdef /.notdef /.notdef
/.notdef /.notdef /.notdef /.notdef /.notdef
/.notdef /.notdef /.notdef /.notdef /.notdef
/.notdef /.notdef /.notdef /.notdef /.notdef
/.notdef /.notdef /.notdef /.notdef /.notdef
/.notdef /.notdef /.notdef /.notdef /.notdef
/.notdef /.notdef /space /exclam /quotedbl
/numbersign /dollar /percent /ampersand /quotesingle
/parenleft /parenright /asterisk /plus /comma
/hyphen /period /slash /zero /one
/two /three /four /five /six
/seven /eight /nine /colon /semicolon
/less /equal /greater /question /at
/A /B /C /D /E
/F /G /H /I /J
/K /L /M /N /O
/P /Q /R /S /T
/U /V /W /X /Y
/Z /bracketleft /backslash /bracketright /asciicircum
/underscore /quoteleft /a /b /c
/d /e /f /g /h
/i /j /k /l /m
/n /o /p /q /r
/s /t /u /v /w
/x /y /z /braceleft /bar
/braceright /asciitilde /bullet /Euro /bullet
/quotesinglbase /florin /quotedblbase /ellipsis /dagger
/daggerdbl /circumflex /perthousand /Scaron /guilsinglleft
/OE /bullet /Zcaron /bullet /bullet
/quoteleft /quoteright /quotedblleft /quotedblright /bullet
/endash /emdash /asciitilde /trademark /scaron
/guilsinglright /oe /bullet /zcaron /Ydieresis
/space /exclamdown /cent /sterling /currency
/yen /brokenbar /section /dieresis /copyright
/ordfeminine /guillemotleft /logicalnot /sfthyphen /registered
/macron /degree /plusminus /twosuperior /threesuperior
/acute /mu /paragraph /middot /cedilla
/onesuperior /ordmasculine /guillemotright /onequarter /onehalf
/threequarters /questiondown /Agrave /Aacute /Acircumflex
/Atilde /Adieresis /Aring /AE /Ccedilla
/Egrave /Eacute /Ecircumflex /Edieresis /Igrave
/Iacute /Icircumflex /Idieresis /Eth /Ntilde
/Ograve /Oacute /Ocircumflex /Otilde /Odieresis
/multiply /Oslash /Ugrave /Uacute /Ucircumflex
/Udieresis /Yacute /Thorn /germandbls /agrave
/aacute /acircumflex /atilde /adieresis /aring
/ae /ccedilla /egrave /eacute /ecircumflex
/edieresis /igrave /iacute /icircumflex /idieresis
/eth /ntilde /ograve /oacute /ocircumflex
/otilde /odieresis /divide /oslash /ugrave
/uacute /ucircumflex /udieresis /yacute /thorn
/ydieresis
] def
%%EndResource
%FOPBeginFontReencode
/Courier-Oblique findfont
dup length dict begin
  {1 index /FID ne {def} {pop pop} ifelse} forall
  /Encoding WinAnsiEncoding def
  currentdict
end
/Courier-Oblique exch definefont pop
/Courier-BoldOblique findfont
dup length dict begin
  {1 index /FID ne {def} {pop pop} ifelse} forall
  /Encoding WinAnsiEncoding def
  currentdict
end
/Courier-BoldOblique exch definefont pop
/Courier-Bold findfont
dup length dict begin
  {1 index /FID ne {def} {pop pop} ifelse} forall
  /Encoding WinAnsiEncoding def
  currentdict
end
/Courier-Bold exch definefont pop
/Helvetica findfont
dup length dict begin
  {1 index /FID ne {def} {pop pop} ifelse} forall
  /Encoding WinAnsiEncoding def
  currentdict
end
/Helvetica exch definefont pop
/Helvetica-Oblique findfont
dup length dict begin
  {1 index /FID ne {def} {pop pop} ifelse} forall
  /Encoding WinAnsiEncoding def
  currentdict
end
/Helvetica-Oblique exch definefont pop
/Helvetica-Bold findfont
dup length dict begin
  {1 index /FID ne {def} {pop pop} ifelse} forall
  /Encoding WinAnsiEncoding def
  currentdict
end
/Helvetica-Bold exch definefont pop
/Helvetica-BoldOblique findfont
dup length dict begin
  {1 index /FID ne {def} {pop pop} ifelse} forall
  /Encoding WinAnsiEncoding def
  currentdict
end
/Helvetica-BoldOblique exch definefont pop
/Times-Roman findfont
dup length dict begin
  {1 index /FID ne {def} {pop pop} ifelse} forall
  /Encoding WinAnsiEncoding def
  currentdict
end
/Times-Roman exch definefont pop
/Times-Italic findfont
dup length dict begin
  {1 index /FID ne {def} {pop pop} ifelse} forall
  /Encoding WinAnsiEncoding def
  currentdict
end
/Times-Italic exch definefont pop
/Times-Bold findfont
dup length dict begin
  {1 index /FID ne {def} {pop pop} ifelse} forall
  /Encoding WinAnsiEncoding def
  currentdict
end
/Times-Bold exch definefont pop
/Times-BoldItalic findfont
dup length dict begin
  {1 index /FID ne {def} {pop pop} ifelse} forall
  /Encoding WinAnsiEncoding def
  currentdict
end
/Times-BoldItalic exch definefont pop
/Courier findfont
dup length dict begin
  {1 index /FID ne {def} {pop pop} ifelse} forall
  /Encoding WinAnsiEncoding def
  currentdict
end
/Courier exch definefont pop
%FOPEndFontReencode
%%EndProlog
%%Page: 1 1
%%PageBoundingBox: 0 0 255 227
%%BeginPageSetup
[1 0 0 -1 0 227] CT
%%EndPageSetup
GS
[0.78257 0 0 0.78197 0 0.22835] CT
1 GC
N
0 0 326 290 re
f
GR
GS
[0.78257 0 0 0.78197 0 0.22835] CT
1 GC
N
0 0 326 290 re
f
GR
GS
[0.78257 0 0 0.78197 0 0.22835] CT
1 GC
N
42 226.743 M
295 226.743 L
295 53.257 L
42 53.257 L
cp
f
GR
GS
[0.78257 0 0 0.78197 0 0.22835] CT
0.259 0.408 0.992 RC
N
237.237 217.612 M
233.286 226.743 L
241.737 226.743 L
255.053 226.743 L
268.368 226.743 L
281.684 226.743 L
283.033 226.743 L
281.998 217.612 L
281.684 216.753 L
273.37 208.481 L
268.368 206.78 L
255.053 207.897 L
253.39 208.481 L
241.737 213.951 L
cp
53.01 162.827 M
55.316 166.137 L
68.632 170.054 L
81.947 168.271 L
95.263 164.229 L
98.162 162.827 L
108.579 156.148 L
111.164 153.696 L
116.022 144.565 L
116.022 135.435 L
111.164 126.304 L
108.579 123.852 L
98.162 117.173 L
95.263 115.771 L
81.947 111.729 L
68.632 109.946 L
55.316 113.863 L
53.01 117.173 L
50.153 126.304 L
49.17 135.435 L
49.17 144.565 L
50.153 153.696 L
cp
253.39 71.519 M
255.053 72.103 L
268.368 73.22 L
273.37 71.519 L
281.684 63.247 L
281.998 62.388 L
283.033 53.257 L
281.684 53.257 L
268.368 53.257 L
255.053 53.257 L
241.737 53.257 L
233.286 53.257 L
237.237 62.388 L
241.737 66.049 L
cp
f
GR
GS
[0.78257 0 0 0.78197 0 0.22835] CT
0.173 0.549 0.949 RC
N
42 217.612 M
42 226.743 L
51.708 226.743 L
52.211 217.612 L
54.01 208.481 L
55.316 205.193 L
57.965 199.35 L
67.232 190.22 L
68.632 189.43 L
81.947 182.92 L
86.134 181.089 L
95.263 177.544 L
108.127 171.958 L
108.579 171.737 L
121.895 163.03 L
122.136 162.827 L
129.22 153.696 L
132.396 144.565 L
132.396 135.435 L
129.22 126.304 L
122.136 117.173 L
121.895 116.97 L
108.579 108.263 L
108.127 108.042 L
95.263 102.456 L
86.134 98.911 L
81.947 97.08 L
68.632 90.57 L
67.232 89.78 L
57.965 80.65 L
55.316 74.807 L
54.01 71.519 L
52.211 62.388 L
51.708 53.257 L
42 53.257 L
42 62.388 L
42 71.519 L
42 80.65 L
42 89.78 L
42 98.911 L
42 108.042 L
42 117.173 L
42 126.304 L
42 135.435 L
42 144.565 L
42 153.696 L
42 162.827 L
42 171.958 L
42 181.089 L
42 190.22 L
42 199.35 L
42 208.481 L
cp
213.577 217.612 M
211.582 226.743 L
215.105 226.743 L
228.421 226.743 L
233.286 226.743 L
237.237 217.612 L
241.737 213.951 L
253.39 208.481 L
255.053 207.897 L
268.368 206.78 L
273.37 208.481 L
281.684 216.753 L
281.998 217.612 L
283.033 226.743 L
295 226.743 L
295 217.612 L
295 208.481 L
295 199.35 L
295 190.22 L
295 181.089 L
295 171.958 L
295 162.827 L
295 153.696 L
295 144.565 L
295 135.435 L
295 126.304 L
295 117.173 L
295 108.042 L
295 98.911 L
295 89.78 L
295 80.65 L
295 71.519 L
295 62.388 L
295 53.257 L
283.033 53.257 L
281.998 62.388 L
281.684 63.247 L
273.37 71.519 L
268.368 73.22 L
255.053 72.103 L
253.39 71.519 L
241.737 66.049 L
237.237 62.388 L
233.286 53.257 L
228.421 53.257 L
215.105 53.257 L
211.582 53.257 L
213.577 62.388 L
215.105 64.681 L
220.888 71.519 L
228.421 76.813 L
235.49 80.65 L
241.737 83.45 L
255.053 88.812 L
257.674 89.78 L
268.368 94.728 L
275.252 98.911 L
281.684 106.512 L
282.672 108.042 L
286.08 117.173 L
287.584 126.304 L
288.191 135.435 L
288.191 144.565 L
287.584 153.696 L
286.08 162.827 L
282.672 171.958 L
281.684 173.488 L
275.252 181.089 L
268.368 185.272 L
257.674 190.22 L
255.053 191.188 L
241.737 196.55 L
235.49 199.35 L
228.421 203.187 L
220.888 208.481 L
215.105 215.319 L
cp
55.316 166.137 M
53.01 162.827 L
50.153 153.696 L
49.17 144.565 L
49.17 135.435 L
50.153 126.304 L
53.01 117.173 L
55.316 113.863 L
68.632 109.946 L
81.947 111.729 L
95.263 115.771 L
98.162 117.173 L
108.579 123.852 L
111.164 126.304 L
116.022 135.435 L
116.022 144.565 L
111.164 153.696 L
108.579 156.148 L
98.162 162.827 L
95.263 164.229 L
81.947 168.271 L
68.632 170.054 L
cp
f
GR
GS
[0.78257 0 0 0.78197 0 0.22835] CT
0.106 0.667 0.871 RC
N
52.211 217.612 M
51.708 226.743 L
55.316 226.743 L
66.362 226.743 L
67.468 217.612 L
68.632 214.559 L
71.269 208.481 L
79.152 199.35 L
81.947 197.304 L
93.878 190.22 L
95.263 189.567 L
108.579 183.622 L
114.215 181.089 L
121.895 177.227 L
130.505 171.958 L
135.211 167.808 L
139.714 162.827 L
144.31 153.696 L
146.26 144.565 L
146.26 135.435 L
144.31 126.304 L
139.714 117.173 L
135.211 112.192 L
130.505 108.042 L
121.895 102.773 L
114.215 98.911 L
108.579 96.378 L
95.263 90.433 L
93.878 89.78 L
81.947 82.696 L
79.152 80.65 L
71.269 71.519 L
68.632 65.441 L
67.468 62.388 L
66.362 53.257 L
55.316 53.257 L
51.708 53.257 L
52.211 62.388 L
54.01 71.519 L
55.316 74.807 L
57.965 80.65 L
67.232 89.78 L
68.632 90.57 L
81.947 97.08 L
86.134 98.911 L
95.263 102.456 L
108.127 108.042 L
108.579 108.263 L
121.895 116.97 L
122.136 117.173 L
129.22 126.304 L
132.396 135.435 L
132.396 144.565 L
129.22 153.696 L
122.136 162.827 L
121.895 163.03 L
108.579 171.737 L
108.127 171.958 L
95.263 177.544 L
86.134 181.089 L
81.947 182.92 L
68.632 189.43 L
67.232 190.22 L
57.965 199.35 L
55.316 205.193 L
54.01 208.481 L
cp
196.335 217.612 M
195.036 226.743 L
201.789 226.743 L
211.582 226.743 L
213.577 217.612 L
215.105 215.319 L
220.888 208.481 L
228.421 203.187 L
235.49 199.35 L
241.737 196.55 L
255.053 191.188 L
257.674 190.22 L
268.368 185.272 L
275.252 181.089 L
281.684 173.488 L
282.672 171.958 L
286.08 162.827 L
287.584 153.696 L
288.191 144.565 L
288.191 135.435 L
287.584 126.304 L
286.08 117.173 L
282.672 108.042 L
281.684 106.512 L
275.252 98.911 L
268.368 94.728 L
257.674 89.78 L
255.053 88.812 L
241.737 83.45 L
235.49 80.65 L
228.421 76.813 L
220.888 71.519 L
215.105 64.681 L
213.577 62.388 L
211.582 53.257 L
201.789 53.257 L
195.036 53.257 L
196.335 62.388 L
200.787 71.519 L
201.789 72.656 L
210.368 80.65 L
215.105 83.499 L
227.535 89.78 L
228.421 90.159 L
241.737 95.889 L
248.13 98.911 L
255.053 102.807 L
262.331 108.042 L
268.368 114.896 L
269.971 117.173 L
273.782 126.304 L
275.387 135.435 L
275.387 144.565 L
273.782 153.696 L
269.971 162.827 L
268.368 165.104 L
262.331 171.958 L
255.053 177.193 L
248.13 181.089 L
241.737 184.111 L
228.421 189.841 L
227.535 190.22 L
215.105 196.501 L
210.368 199.35 L
201.789 207.344 L
200.787 208.481 L
cp
f
GR
GS
[0.78257 0 0 0.78197 0 0.22835] CT
0.075 0.745 0.722 RC
N
67.468 217.612 M
66.362 226.743 L
68.632 226.743 L
81.212 226.743 L
81.947 222.626 L
83.013 217.612 L
89.103 208.481 L
95.263 203.255 L
101.294 199.35 L
108.579 195.664 L
121.281 190.22 L
121.895 189.956 L
135.211 184.435 L
142.037 181.089 L
148.526 176.034 L
152.552 171.958 L
157.071 162.827 L
159.065 153.696 L
159.869 144.565 L
159.869 135.435 L
159.065 126.304 L
157.071 117.173 L
152.552 108.042 L
148.526 103.966 L
142.037 98.911 L
135.211 95.565 L
121.895 90.044 L
121.281 89.78 L
108.579 84.336 L
101.294 80.65 L
95.263 76.745 L
89.103 71.519 L
83.013 62.388 L
81.947 57.374 L
81.212 53.257 L
68.632 53.257 L
66.362 53.257 L
67.468 62.388 L
68.632 65.441 L
71.269 71.519 L
79.152 80.65 L
81.947 82.696 L
93.878 89.78 L
95.263 90.433 L
108.579 96.378 L
114.215 98.911 L
121.895 102.773 L
130.505 108.042 L
135.211 112.192 L
139.714 117.173 L
144.31 126.304 L
146.26 135.435 L
146.26 144.565 L
144.31 153.696 L
139.714 162.827 L
135.211 167.808 L
130.505 171.958 L
121.895 177.227 L
114.215 181.089 L
108.579 183.622 L
95.263 189.567 L
93.878 190.22 L
81.947 197.304 L
79.152 199.35 L
71.269 208.481 L
68.632 214.559 L
cp
179.485 217.612 M
178.919 226.743 L
188.474 226.743 L
195.036 226.743 L
196.335 217.612 L
200.787 208.481 L
201.789 207.344 L
210.368 199.35 L
215.105 196.501 L
227.535 190.22 L
228.421 189.841 L
241.737 184.111 L
248.13 181.089 L
255.053 177.193 L
262.331 171.958 L
268.368 165.104 L
269.971 162.827 L
273.782 153.696 L
275.387 144.565 L
275.387 135.435 L
273.782 126.304 L
269.971 117.173 L
268.368 114.896 L
262.331 108.042 L
255.053 102.807 L
248.13 98.911 L
241.737 95.889 L
228.421 90.159 L
227.535 89.78 L
215.105 83.499 L
210.368 80.65 L
201.789 72.656 L
200.787 71.519 L
196.335 62.388 L
195.036 53.257 L
188.474 53.257 L
178.919 53.257 L
179.485 62.388 L
181.515 71.519 L
186.625 80.65 L
188.474 82.396 L
198.531 89.78 L
201.789 91.203 L
215.105 96.633 L
220.747 98.911 L
228.421 101.839 L
241.69 108.042 L
241.737 108.068 L
253.645 117.173 L
255.053 118.872 L
259.796 126.304 L
262.423 135.435 L
262.423 144.565 L
259.796 153.696 L
255.053 161.128 L
253.645 162.827 L
241.737 171.932 L
241.69 171.958 L
228.421 178.161 L
220.747 181.089 L
215.105 183.367 L
201.789 188.797 L
198.531 190.22 L
188.474 197.604 L
186.625 199.35 L
181.515 208.481 L
cp
f
GR
GS
[0.78257 0 0 0.78197 0 0.22835] CT
0.278 0.796 0.525 RC
N
81.947 222.626 M
81.212 226.743 L
81.947 226.743 L
95.263 226.743 L
99.622 226.743 L
102.658 217.612 L
108.579 211.565 L
113.46 208.481 L
121.895 204.729 L
135.211 201.435 L
148.526 201.86 L
156.123 208.481 L
159.309 217.612 L
160.07 226.743 L
161.842 226.743 L
175.158 226.743 L
178.919 226.743 L
179.485 217.612 L
181.515 208.481 L
186.625 199.35 L
188.474 197.604 L
198.531 190.22 L
201.789 188.797 L
215.105 183.367 L
220.747 181.089 L
228.421 178.161 L
241.69 171.958 L
241.737 171.932 L
253.645 162.827 L
255.053 161.128 L
259.796 153.696 L
262.423 144.565 L
262.423 135.435 L
259.796 126.304 L
255.053 118.872 L
253.645 117.173 L
241.737 108.068 L
241.69 108.042 L
228.421 101.839 L
220.747 98.911 L
215.105 96.633 L
201.789 91.203 L
198.531 89.78 L
188.474 82.396 L
186.625 80.65 L
181.515 71.519 L
179.485 62.388 L
178.919 53.257 L
175.158 53.257 L
161.842 53.257 L
160.07 53.257 L
159.309 62.388 L
156.123 71.519 L
148.526 78.14 L
135.211 78.565 L
121.895 75.271 L
113.46 71.519 L
108.579 68.435 L
102.658 62.388 L
99.622 53.257 L
95.263 53.257 L
81.947 53.257 L
81.212 53.257 L
81.947 57.374 L
83.013 62.388 L
89.103 71.519 L
95.263 76.745 L
101.294 80.65 L
108.579 84.336 L
121.281 89.78 L
121.895 90.044 L
135.211 95.565 L
142.037 98.911 L
148.526 103.966 L
152.552 108.042 L
157.071 117.173 L
159.065 126.304 L
159.869 135.435 L
159.869 144.565 L
159.065 153.696 L
157.071 162.827 L
152.552 171.958 L
148.526 176.034 L
142.037 181.089 L
135.211 184.435 L
121.895 189.956 L
121.281 190.22 L
108.579 195.664 L
101.294 199.35 L
95.263 203.255 L
89.103 208.481 L
83.013 217.612 L
cp
188.474 172.479 M
187.292 171.958 L
178.325 162.827 L
175.718 153.696 L
175.158 148.318 L
174.892 144.565 L
174.892 135.435 L
175.158 131.682 L
175.718 126.304 L
178.325 117.173 L
187.292 108.042 L
188.474 107.521 L
201.789 107.141 L
206.113 108.042 L
215.105 109.785 L
228.421 114.669 L
232.891 117.173 L
241.737 124.114 L
243.665 126.304 L
247.657 135.435 L
247.657 144.565 L
243.665 153.696 L
241.737 155.886 L
232.891 162.827 L
228.421 165.331 L
215.105 170.215 L
206.113 171.958 L
201.789 172.859 L
cp
f
GR
GS
[0.78257 0 0 0.78197 0 0.22835] CT
0.627 0.784 0.251 RC
N
102.658 217.612 M
99.622 226.743 L
108.579 226.743 L
121.895 226.743 L
135.211 226.743 L
148.526 226.743 L
160.07 226.743 L
159.309 217.612 L
156.123 208.481 L
148.526 201.86 L
135.211 201.435 L
121.895 204.729 L
113.46 208.481 L
108.579 211.565 L
cp
187.292 171.958 M
188.474 172.479 L
201.789 172.859 L
206.113 171.958 L
215.105 170.215 L
228.421 165.331 L
232.891 162.827 L
241.737 155.886 L
243.665 153.696 L
247.657 144.565 L
247.657 135.435 L
243.665 126.304 L
241.737 124.114 L
232.891 117.173 L
228.421 114.669 L
215.105 109.785 L
206.113 108.042 L
201.789 107.141 L
188.474 107.521 L
187.292 108.042 L
178.325 117.173 L
175.718 126.304 L
175.158 131.682 L
174.892 135.435 L
174.892 144.565 L
175.158 148.318 L
175.718 153.696 L
178.325 162.827 L
cp
201.789 148.969 M
198.754 144.565 L
198.754 135.435 L
201.789 131.031 L
215.105 128.732 L
224.313 135.435 L
224.313 144.565 L
215.105 151.268 L
cp
113.46 71.519 M
121.895 75.271 L
135.211 78.565 L
148.526 78.14 L
156.123 71.519 L
159.309 62.388 L
160.07 53.257 L
148.526 53.257 L
135.211 53.257 L
121.895 53.257 L
108.579 53.257 L
99.622 53.257 L
102.658 62.388 L
108.579 68.435 L
cp
f
GR
GS
[0.78257 0 0 0.78197 0 0.22835] CT
0.925 0.729 0.196 RC
N
198.754 144.565 M
201.789 148.969 L
215.105 151.268 L
224.313 144.565 L
224.313 135.435 L
215.105 128.732 L
201.789 131.031 L
198.754 135.435 L
cp
f
GR
GS
[0.78257 0 0 0.78197 0 0.22835] CT
1 LJ
0.639 LW
N
233.286 226.743 M
237.237 217.612 L
S
GR
GS
[0.78257 0 0 0.78197 0 0.22835] CT
1 LJ
0.639 LW
N
281.998 217.612 M
283.033 226.743 L
S
GR
GS
[0.78257 0 0 0.78197 0 0.22835] CT
1 LJ
0.639 LW
N
237.237 217.612 M
241.737 213.951 L
253.39 208.481 L
S
GR
GS
[0.78257 0 0 0.78197 0 0.22835] CT
1 LJ
0.639 LW
N
273.37 208.481 M
281.684 216.753 L
281.998 217.612 L
S
GR
GS
[0.78257 0 0 0.78197 0 0.22835] CT
1 LJ
0.639 LW
N
253.39 208.481 M
255.053 207.897 L
268.368 206.78 L
273.37 208.481 L
S
GR
GS
[0.78257 0 0 0.78197 0 0.22835] CT
1 LJ
0.639 LW
N
98.162 162.827 M
95.263 164.229 L
81.947 168.271 L
68.632 170.054 L
55.316 166.137 L
53.01 162.827 L
S
GR
GS
[0.78257 0 0 0.78197 0 0.22835] CT
1 LJ
0.639 LW
N
53.01 162.827 M
50.153 153.696 L
S
GR
GS
[0.78257 0 0 0.78197 0 0.22835] CT
1 LJ
0.639 LW
N
111.164 153.696 M
108.579 156.148 L
98.162 162.827 L
S
GR
GS
[0.78257 0 0 0.78197 0 0.22835] CT
1 LJ
0.639 LW
N
50.153 153.696 M
49.17 144.565 L
S
GR
GS
[0.78257 0 0 0.78197 0 0.22835] CT
1 LJ
0.639 LW
N
116.022 144.565 M
111.164 153.696 L
S
GR
GS
[0.78257 0 0 0.78197 0 0.22835] CT
1 LJ
0.639 LW
N
49.17 144.565 M
49.17 135.435 L
S
GR
GS
[0.78257 0 0 0.78197 0 0.22835] CT
1 LJ
0.639 LW
N
116.022 135.435 M
116.022 144.565 L
S
GR
GS
[0.78257 0 0 0.78197 0 0.22835] CT
1 LJ
0.639 LW
N
49.17 135.435 M
50.153 126.304 L
S
GR
GS
[0.78257 0 0 0.78197 0 0.22835] CT
1 LJ
0.639 LW
N
111.164 126.304 M
116.022 135.435 L
S
GR
GS
[0.78257 0 0 0.78197 0 0.22835] CT
1 LJ
0.639 LW
N
50.153 126.304 M
53.01 117.173 L
S
GR
GS
[0.78257 0 0 0.78197 0 0.22835] CT
1 LJ
0.639 LW
N
98.162 117.173 M
108.579 123.852 L
111.164 126.304 L
S
GR
GS
[0.78257 0 0 0.78197 0 0.22835] CT
1 LJ
0.639 LW
N
53.01 117.173 M
55.316 113.863 L
68.632 109.946 L
81.947 111.729 L
95.263 115.771 L
98.162 117.173 L
S
GR
GS
[0.78257 0 0 0.78197 0 0.22835] CT
1 LJ
0.639 LW
N
273.37 71.519 M
268.368 73.22 L
255.053 72.103 L
253.39 71.519 L
S
GR
GS
[0.78257 0 0 0.78197 0 0.22835] CT
1 LJ
0.639 LW
N
253.39 71.519 M
241.737 66.049 L
237.237 62.388 L
S
GR
GS
[0.78257 0 0 0.78197 0 0.22835] CT
1 LJ
0.639 LW
N
281.998 62.388 M
281.684 63.247 L
273.37 71.519 L
S
GR
GS
[0.78257 0 0 0.78197 0 0.22835] CT
1 LJ
0.639 LW
N
237.237 62.388 M
233.286 53.257 L
S
GR
GS
[0.78257 0 0 0.78197 0 0.22835] CT
1 LJ
0.639 LW
N
283.033 53.257 M
281.998 62.388 L
S
GR
GS
[0.78257 0 0 0.78197 0 0.22835] CT
1 LJ
0.639 LW
N
52.211 217.612 M
51.708 226.743 L
S
GR
GS
[0.78257 0 0 0.78197 0 0.22835] CT
1 LJ
0.639 LW
N
211.582 226.743 M
213.577 217.612 L
S
GR
GS
[0.78257 0 0 0.78197 0 0.22835] CT
1 LJ
0.639 LW
N
54.01 208.481 M
52.211 217.612 L
S
GR
GS
[0.78257 0 0 0.78197 0 0.22835] CT
1 LJ
0.639 LW
N
213.577 217.612 M
215.105 215.319 L
220.888 208.481 L
S
GR
GS
[0.78257 0 0 0.78197 0 0.22835] CT
1 LJ
0.639 LW
N
57.965 199.35 M
55.316 205.193 L
54.01 208.481 L
S
GR
GS
[0.78257 0 0 0.78197 0 0.22835] CT
1 LJ
0.639 LW
N
220.888 208.481 M
228.421 203.187 L
235.49 199.35 L
S
GR
GS
[0.78257 0 0 0.78197 0 0.22835] CT
1 LJ
0.639 LW
N
67.232 190.22 M
57.965 199.35 L
S
GR
GS
[0.78257 0 0 0.78197 0 0.22835] CT
1 LJ
0.639 LW
N
235.49 199.35 M
241.737 196.55 L
255.053 191.188 L
257.674 190.22 L
S
GR
GS
[0.78257 0 0 0.78197 0 0.22835] CT
1 LJ
0.639 LW
N
86.134 181.089 M
81.947 182.92 L
68.632 189.43 L
67.232 190.22 L
S
GR
GS
[0.78257 0 0 0.78197 0 0.22835] CT
1 LJ
0.639 LW
N
257.674 190.22 M
268.368 185.272 L
275.252 181.089 L
S
GR
GS
[0.78257 0 0 0.78197 0 0.22835] CT
1 LJ
0.639 LW
N
108.127 171.958 M
95.263 177.544 L
86.134 181.089 L
S
GR
GS
[0.78257 0 0 0.78197 0 0.22835] CT
1 LJ
0.639 LW
N
275.252 181.089 M
281.684 173.488 L
282.672 171.958 L
S
GR
GS
[0.78257 0 0 0.78197 0 0.22835] CT
1 LJ
0.639 LW
N
122.136 162.827 M
121.895 163.03 L
108.579 171.737 L
108.127 171.958 L
S
GR
GS
[0.78257 0 0 0.78197 0 0.22835] CT
1 LJ
0.639 LW
N
282.672 171.958 M
286.08 162.827 L
S
GR
GS
[0.78257 0 0 0.78197 0 0.22835] CT
1 LJ
0.639 LW
N
129.22 153.696 M
122.136 162.827 L
S
GR
GS
[0.78257 0 0 0.78197 0 0.22835] CT
1 LJ
0.639 LW
N
286.08 162.827 M
287.584 153.696 L
S
GR
GS
[0.78257 0 0 0.78197 0 0.22835] CT
1 LJ
0.639 LW
N
132.396 144.565 M
129.22 153.696 L
S
GR
GS
[0.78257 0 0 0.78197 0 0.22835] CT
1 LJ
0.639 LW
N
287.584 153.696 M
288.191 144.565 L
S
GR
GS
[0.78257 0 0 0.78197 0 0.22835] CT
1 LJ
0.639 LW
N
132.396 135.435 M
132.396 144.565 L
S
GR
GS
[0.78257 0 0 0.78197 0 0.22835] CT
1 LJ
0.639 LW
N
288.191 144.565 M
288.191 135.435 L
S
GR
GS
[0.78257 0 0 0.78197 0 0.22835] CT
1 LJ
0.639 LW
N
129.22 126.304 M
132.396 135.435 L
S
GR
GS
[0.78257 0 0 0.78197 0 0.22835] CT
1 LJ
0.639 LW
N
288.191 135.435 M
287.584 126.304 L
S
GR
GS
[0.78257 0 0 0.78197 0 0.22835] CT
1 LJ
0.639 LW
N
122.136 117.173 M
129.22 126.304 L
S
GR
GS
[0.78257 0 0 0.78197 0 0.22835] CT
1 LJ
0.639 LW
N
287.584 126.304 M
286.08 117.173 L
S
GR
GS
[0.78257 0 0 0.78197 0 0.22835] CT
1 LJ
0.639 LW
N
108.127 108.042 M
108.579 108.263 L
121.895 116.97 L
122.136 117.173 L
S
GR
GS
[0.78257 0 0 0.78197 0 0.22835] CT
1 LJ
0.639 LW
N
286.08 117.173 M
282.672 108.042 L
S
GR
GS
[0.78257 0 0 0.78197 0 0.22835] CT
1 LJ
0.639 LW
N
86.134 98.911 M
95.263 102.456 L
108.127 108.042 L
S
GR
GS
[0.78257 0 0 0.78197 0 0.22835] CT
1 LJ
0.639 LW
N
282.672 108.042 M
281.684 106.512 L
275.252 98.911 L
S
GR
GS
[0.78257 0 0 0.78197 0 0.22835] CT
1 LJ
0.639 LW
N
67.232 89.78 M
68.632 90.57 L
81.947 97.08 L
86.134 98.911 L
S
GR
GS
[0.78257 0 0 0.78197 0 0.22835] CT
1 LJ
0.639 LW
N
275.252 98.911 M
268.368 94.728 L
257.674 89.78 L
S
GR
GS
[0.78257 0 0 0.78197 0 0.22835] CT
1 LJ
0.639 LW
N
57.965 80.65 M
67.232 89.78 L
S
GR
GS
[0.78257 0 0 0.78197 0 0.22835] CT
1 LJ
0.639 LW
N
257.674 89.78 M
255.053 88.812 L
241.737 83.45 L
235.49 80.65 L
S
GR
GS
[0.78257 0 0 0.78197 0 0.22835] CT
1 LJ
0.639 LW
N
54.01 71.519 M
55.316 74.807 L
57.965 80.65 L
S
GR
GS
[0.78257 0 0 0.78197 0 0.22835] CT
1 LJ
0.639 LW
N
235.49 80.65 M
228.421 76.813 L
220.888 71.519 L
S
GR
GS
[0.78257 0 0 0.78197 0 0.22835] CT
1 LJ
0.639 LW
N
52.211 62.388 M
54.01 71.519 L
S
GR
GS
[0.78257 0 0 0.78197 0 0.22835] CT
1 LJ
0.639 LW
N
220.888 71.519 M
215.105 64.681 L
213.577 62.388 L
S
GR
GS
[0.78257 0 0 0.78197 0 0.22835] CT
1 LJ
0.639 LW
N
51.708 53.257 M
52.211 62.388 L
S
GR
GS
[0.78257 0 0 0.78197 0 0.22835] CT
1 LJ
0.639 LW
N
213.577 62.388 M
211.582 53.257 L
S
GR
GS
[0.78257 0 0 0.78197 0 0.22835] CT
1 LJ
0.639 LW
N
67.468 217.612 M
66.362 226.743 L
S
GR
GS
[0.78257 0 0 0.78197 0 0.22835] CT
1 LJ
0.639 LW
N
195.036 226.743 M
196.335 217.612 L
S
GR
GS
[0.78257 0 0 0.78197 0 0.22835] CT
1 LJ
0.639 LW
N
71.269 208.481 M
68.632 214.559 L
67.468 217.612 L
S
GR
GS
[0.78257 0 0 0.78197 0 0.22835] CT
1 LJ
0.639 LW
N
196.335 217.612 M
200.787 208.481 L
S
GR
GS
[0.78257 0 0 0.78197 0 0.22835] CT
1 LJ
0.639 LW
N
79.152 199.35 M
71.269 208.481 L
S
GR
GS
[0.78257 0 0 0.78197 0 0.22835] CT
1 LJ
0.639 LW
N
200.787 208.481 M
201.789 207.344 L
210.368 199.35 L
S
GR
GS
[0.78257 0 0 0.78197 0 0.22835] CT
1 LJ
0.639 LW
N
93.878 190.22 M
81.947 197.304 L
79.152 199.35 L
S
GR
GS
[0.78257 0 0 0.78197 0 0.22835] CT
1 LJ
0.639 LW
N
210.368 199.35 M
215.105 196.501 L
227.535 190.22 L
S
GR
GS
[0.78257 0 0 0.78197 0 0.22835] CT
1 LJ
0.639 LW
N
114.215 181.089 M
108.579 183.622 L
95.263 189.567 L
93.878 190.22 L
S
GR
GS
[0.78257 0 0 0.78197 0 0.22835] CT
1 LJ
0.639 LW
N
227.535 190.22 M
228.421 189.841 L
241.737 184.111 L
248.13 181.089 L
S
GR
GS
[0.78257 0 0 0.78197 0 0.22835] CT
1 LJ
0.639 LW
N
130.505 171.958 M
121.895 177.227 L
114.215 181.089 L
S
GR
GS
[0.78257 0 0 0.78197 0 0.22835] CT
1 LJ
0.639 LW
N
248.13 181.089 M
255.053 177.193 L
262.331 171.958 L
S
GR
GS
[0.78257 0 0 0.78197 0 0.22835] CT
1 LJ
0.639 LW
N
139.714 162.827 M
135.211 167.808 L
130.505 171.958 L
S
GR
GS
[0.78257 0 0 0.78197 0 0.22835] CT
1 LJ
0.639 LW
N
262.331 171.958 M
268.368 165.104 L
269.971 162.827 L
S
GR
GS
[0.78257 0 0 0.78197 0 0.22835] CT
1 LJ
0.639 LW
N
144.31 153.696 M
139.714 162.827 L
S
GR
GS
[0.78257 0 0 0.78197 0 0.22835] CT
1 LJ
0.639 LW
N
269.971 162.827 M
273.782 153.696 L
S
GR
GS
[0.78257 0 0 0.78197 0 0.22835] CT
1 LJ
0.639 LW
N
146.26 144.565 M
144.31 153.696 L
S
GR
GS
[0.78257 0 0 0.78197 0 0.22835] CT
1 LJ
0.639 LW
N
273.782 153.696 M
275.387 144.565 L
S
GR
GS
[0.78257 0 0 0.78197 0 0.22835] CT
1 LJ
0.639 LW
N
146.26 135.435 M
146.26 144.565 L
S
GR
GS
[0.78257 0 0 0.78197 0 0.22835] CT
1 LJ
0.639 LW
N
275.387 144.565 M
275.387 135.435 L
S
GR
GS
[0.78257 0 0 0.78197 0 0.22835] CT
1 LJ
0.639 LW
N
144.31 126.304 M
146.26 135.435 L
S
GR
GS
[0.78257 0 0 0.78197 0 0.22835] CT
1 LJ
0.639 LW
N
275.387 135.435 M
273.782 126.304 L
S
GR
GS
[0.78257 0 0 0.78197 0 0.22835] CT
1 LJ
0.639 LW
N
139.714 117.173 M
144.31 126.304 L
S
GR
GS
[0.78257 0 0 0.78197 0 0.22835] CT
1 LJ
0.639 LW
N
273.782 126.304 M
269.971 117.173 L
S
GR
GS
[0.78257 0 0 0.78197 0 0.22835] CT
1 LJ
0.639 LW
N
130.505 108.042 M
135.211 112.192 L
139.714 117.173 L
S
GR
GS
[0.78257 0 0 0.78197 0 0.22835] CT
1 LJ
0.639 LW
N
269.971 117.173 M
268.368 114.896 L
262.331 108.042 L
S
GR
GS
[0.78257 0 0 0.78197 0 0.22835] CT
1 LJ
0.639 LW
N
114.215 98.911 M
121.895 102.773 L
130.505 108.042 L
S
GR
GS
[0.78257 0 0 0.78197 0 0.22835] CT
1 LJ
0.639 LW
N
262.331 108.042 M
255.053 102.807 L
248.13 98.911 L
S
GR
GS
[0.78257 0 0 0.78197 0 0.22835] CT
1 LJ
0.639 LW
N
93.878 89.78 M
95.263 90.433 L
108.579 96.378 L
114.215 98.911 L
S
GR
GS
[0.78257 0 0 0.78197 0 0.22835] CT
1 LJ
0.639 LW
N
248.13 98.911 M
241.737 95.889 L
228.421 90.159 L
227.535 89.78 L
S
GR
GS
[0.78257 0 0 0.78197 0 0.22835] CT
1 LJ
0.639 LW
N
79.152 80.65 M
81.947 82.696 L
93.878 89.78 L
S
GR
GS
[0.78257 0 0 0.78197 0 0.22835] CT
1 LJ
0.639 LW
N
227.535 89.78 M
215.105 83.499 L
210.368 80.65 L
S
GR
GS
[0.78257 0 0 0.78197 0 0.22835] CT
1 LJ
0.639 LW
N
71.269 71.519 M
79.152 80.65 L
S
GR
GS
[0.78257 0 0 0.78197 0 0.22835] CT
1 LJ
0.639 LW
N
210.368 80.65 M
201.789 72.656 L
200.787 71.519 L
S
GR
GS
[0.78257 0 0 0.78197 0 0.22835] CT
1 LJ
0.639 LW
N
67.468 62.388 M
68.632 65.441 L
71.269 71.519 L
S
GR
GS
[0.78257 0 0 0.78197 0 0.22835] CT
1 LJ
0.639 LW
N
200.787 71.519 M
196.335 62.388 L
S
GR
GS
[0.78257 0 0 0.78197 0 0.22835] CT
1 LJ
0.639 LW
N
66.362 53.257 M
67.468 62.388 L
S
GR
GS
[0.78257 0 0 0.78197 0 0.22835] CT
1 LJ
0.639 LW
N
196.335 62.388 M
195.036 53.257 L
S
GR
GS
[0.78257 0 0 0.78197 0 0.22835] CT
1 LJ
0.639 LW
N
83.013 217.612 M
81.947 222.626 L
81.212 226.743 L
S
GR
GS
[0.78257 0 0 0.78197 0 0.22835] CT
1 LJ
0.639 LW
N
178.919 226.743 M
179.485 217.612 L
S
GR
GS
[0.78257 0 0 0.78197 0 0.22835] CT
1 LJ
0.639 LW
N
89.103 208.481 M
83.013 217.612 L
S
GR
GS
[0.78257 0 0 0.78197 0 0.22835] CT
1 LJ
0.639 LW
N
179.485 217.612 M
181.515 208.481 L
S
GR
GS
[0.78257 0 0 0.78197 0 0.22835] CT
1 LJ
0.639 LW
N
101.294 199.35 M
95.263 203.255 L
89.103 208.481 L
S
GR
GS
[0.78257 0 0 0.78197 0 0.22835] CT
1 LJ
0.639 LW
N
181.515 208.481 M
186.625 199.35 L
S
GR
GS
[0.78257 0 0 0.78197 0 0.22835] CT
1 LJ
0.639 LW
N
121.281 190.22 M
108.579 195.664 L
101.294 199.35 L
S
GR
GS
[0.78257 0 0 0.78197 0 0.22835] CT
1 LJ
0.639 LW
N
186.625 199.35 M
188.474 197.604 L
198.531 190.22 L
S
GR
GS
[0.78257 0 0 0.78197 0 0.22835] CT
1 LJ
0.639 LW
N
142.037 181.089 M
135.211 184.435 L
121.895 189.956 L
121.281 190.22 L
S
GR
GS
[0.78257 0 0 0.78197 0 0.22835] CT
1 LJ
0.639 LW
N
198.531 190.22 M
201.789 188.797 L
215.105 183.367 L
220.747 181.089 L
S
GR
GS
[0.78257 0 0 0.78197 0 0.22835] CT
1 LJ
0.639 LW
N
152.552 171.958 M
148.526 176.034 L
142.037 181.089 L
S
GR
GS
[0.78257 0 0 0.78197 0 0.22835] CT
1 LJ
0.639 LW
N
220.747 181.089 M
228.421 178.161 L
241.69 171.958 L
S
GR
GS
[0.78257 0 0 0.78197 0 0.22835] CT
1 LJ
0.639 LW
N
157.071 162.827 M
152.552 171.958 L
S
GR
GS
[0.78257 0 0 0.78197 0 0.22835] CT
1 LJ
0.639 LW
N
241.69 171.958 M
241.737 171.932 L
253.645 162.827 L
S
GR
GS
[0.78257 0 0 0.78197 0 0.22835] CT
1 LJ
0.639 LW
N
159.065 153.696 M
157.071 162.827 L
S
GR
GS
[0.78257 0 0 0.78197 0 0.22835] CT
1 LJ
0.639 LW
N
253.645 162.827 M
255.053 161.128 L
259.796 153.696 L
S
GR
GS
[0.78257 0 0 0.78197 0 0.22835] CT
1 LJ
0.639 LW
N
159.869 144.565 M
159.065 153.696 L
S
GR
GS
[0.78257 0 0 0.78197 0 0.22835] CT
1 LJ
0.639 LW
N
259.796 153.696 M
262.423 144.565 L
S
GR
GS
[0.78257 0 0 0.78197 0 0.22835] CT
1 LJ
0.639 LW
N
159.869 135.435 M
159.869 144.565 L
S
GR
GS
[0.78257 0 0 0.78197 0 0.22835] CT
1 LJ
0.639 LW
N
262.423 144.565 M
262.423 135.435 L
S
GR
GS
[0.78257 0 0 0.78197 0 0.22835] CT
1 LJ
0.639 LW
N
159.065 126.304 M
159.869 135.435 L
S
GR
GS
[0.78257 0 0 0.78197 0 0.22835] CT
1 LJ
0.639 LW
N
262.423 135.435 M
259.796 126.304 L
S
GR
GS
[0.78257 0 0 0.78197 0 0.22835] CT
1 LJ
0.639 LW
N
157.071 117.173 M
159.065 126.304 L
S
GR
GS
[0.78257 0 0 0.78197 0 0.22835] CT
1 LJ
0.639 LW
N
259.796 126.304 M
255.053 118.872 L
253.645 117.173 L
S
GR
GS
[0.78257 0 0 0.78197 0 0.22835] CT
1 LJ
0.639 LW
N
152.552 108.042 M
157.071 117.173 L
S
GR
GS
[0.78257 0 0 0.78197 0 0.22835] CT
1 LJ
0.639 LW
N
253.645 117.173 M
241.737 108.068 L
241.69 108.042 L
S
GR
GS
[0.78257 0 0 0.78197 0 0.22835] CT
1 LJ
0.639 LW
N
142.037 98.911 M
148.526 103.966 L
152.552 108.042 L
S
GR
GS
[0.78257 0 0 0.78197 0 0.22835] CT
1 LJ
0.639 LW
N
241.69 108.042 M
228.421 101.839 L
220.747 98.911 L
S
GR
GS
[0.78257 0 0 0.78197 0 0.22835] CT
1 LJ
0.639 LW
N
121.281 89.78 M
121.895 90.044 L
135.211 95.565 L
142.037 98.911 L
S
GR
GS
[0.78257 0 0 0.78197 0 0.22835] CT
1 LJ
0.639 LW
N
220.747 98.911 M
215.105 96.633 L
201.789 91.203 L
198.531 89.78 L
S
GR
GS
[0.78257 0 0 0.78197 0 0.22835] CT
1 LJ
0.639 LW
N
101.294 80.65 M
108.579 84.336 L
121.281 89.78 L
S
GR
GS
[0.78257 0 0 0.78197 0 0.22835] CT
1 LJ
0.639 LW
N
198.531 89.78 M
188.474 82.396 L
186.625 80.65 L
S
GR
GS
[0.78257 0 0 0.78197 0 0.22835] CT
1 LJ
0.639 LW
N
89.103 71.519 M
95.263 76.745 L
101.294 80.65 L
S
GR
GS
[0.78257 0 0 0.78197 0 0.22835] CT
1 LJ
0.639 LW
N
186.625 80.65 M
181.515 71.519 L
S
GR
GS
[0.78257 0 0 0.78197 0 0.22835] CT
1 LJ
0.639 LW
N
83.013 62.388 M
89.103 71.519 L
S
GR
GS
[0.78257 0 0 0.78197 0 0.22835] CT
1 LJ
0.639 LW
N
181.515 71.519 M
179.485 62.388 L
S
GR
GS
[0.78257 0 0 0.78197 0 0.22835] CT
1 LJ
0.639 LW
N
81.212 53.257 M
81.947 57.374 L
83.013 62.388 L
S
GR
GS
[0.78257 0 0 0.78197 0 0.22835] CT
1 LJ
0.639 LW
N
179.485 62.388 M
178.919 53.257 L
S
GR
GS
[0.78257 0 0 0.78197 0 0.22835] CT
1 LJ
0.639 LW
N
102.658 217.612 M
99.622 226.743 L
S
GR
GS
[0.78257 0 0 0.78197 0 0.22835] CT
1 LJ
0.639 LW
N
160.07 226.743 M
159.309 217.612 L
S
GR
GS
[0.78257 0 0 0.78197 0 0.22835] CT
1 LJ
0.639 LW
N
113.46 208.481 M
108.579 211.565 L
102.658 217.612 L
S
GR
GS
[0.78257 0 0 0.78197 0 0.22835] CT
1 LJ
0.639 LW
N
159.309 217.612 M
156.123 208.481 L
S
GR
GS
[0.78257 0 0 0.78197 0 0.22835] CT
1 LJ
0.639 LW
N
156.123 208.481 M
148.526 201.86 L
135.211 201.435 L
121.895 204.729 L
113.46 208.481 L
S
GR
GS
[0.78257 0 0 0.78197 0 0.22835] CT
1 LJ
0.639 LW
N
187.292 171.958 M
188.474 172.479 L
201.789 172.859 L
206.113 171.958 L
S
GR
GS
[0.78257 0 0 0.78197 0 0.22835] CT
1 LJ
0.639 LW
N
178.325 162.827 M
187.292 171.958 L
S
GR
GS
[0.78257 0 0 0.78197 0 0.22835] CT
1 LJ
0.639 LW
N
206.113 171.958 M
215.105 170.215 L
228.421 165.331 L
232.891 162.827 L
S
GR
GS
[0.78257 0 0 0.78197 0 0.22835] CT
1 LJ
0.639 LW
N
175.718 153.696 M
178.325 162.827 L
S
GR
GS
[0.78257 0 0 0.78197 0 0.22835] CT
1 LJ
0.639 LW
N
232.891 162.827 M
241.737 155.886 L
243.665 153.696 L
S
GR
GS
[0.78257 0 0 0.78197 0 0.22835] CT
1 LJ
0.639 LW
N
174.892 144.565 M
175.158 148.318 L
175.718 153.696 L
S
GR
GS
[0.78257 0 0 0.78197 0 0.22835] CT
1 LJ
0.639 LW
N
243.665 153.696 M
247.657 144.565 L
S
GR
GS
[0.78257 0 0 0.78197 0 0.22835] CT
1 LJ
0.639 LW
N
174.892 135.435 M
174.892 144.565 L
S
GR
GS
[0.78257 0 0 0.78197 0 0.22835] CT
1 LJ
0.639 LW
N
247.657 144.565 M
247.657 135.435 L
S
GR
GS
[0.78257 0 0 0.78197 0 0.22835] CT
1 LJ
0.639 LW
N
175.718 126.304 M
175.158 131.682 L
174.892 135.435 L
S
GR
GS
[0.78257 0 0 0.78197 0 0.22835] CT
1 LJ
0.639 LW
N
247.657 135.435 M
243.665 126.304 L
S
GR
GS
[0.78257 0 0 0.78197 0 0.22835] CT
1 LJ
0.639 LW
N
178.325 117.173 M
175.718 126.304 L
S
GR
GS
[0.78257 0 0 0.78197 0 0.22835] CT
1 LJ
0.639 LW
N
243.665 126.304 M
241.737 124.114 L
232.891 117.173 L
S
GR
GS
[0.78257 0 0 0.78197 0 0.22835] CT
1 LJ
0.639 LW
N
187.292 108.042 M
178.325 117.173 L
S
GR
GS
[0.78257 0 0 0.78197 0 0.22835] CT
1 LJ
0.639 LW
N
232.891 117.173 M
228.421 114.669 L
215.105 109.785 L
206.113 108.042 L
S
GR
GS
[0.78257 0 0 0.78197 0 0.22835] CT
1 LJ
0.639 LW
N
206.113 108.042 M
201.789 107.141 L
188.474 107.521 L
187.292 108.042 L
S
GR
GS
[0.78257 0 0 0.78197 0 0.22835] CT
1 LJ
0.639 LW
N
113.46 71.519 M
121.895 75.271 L
135.211 78.565 L
148.526 78.14 L
156.123 71.519 L
S
GR
GS
[0.78257 0 0 0.78197 0 0.22835] CT
1 LJ
0.639 LW
N
102.658 62.388 M
108.579 68.435 L
113.46 71.519 L
S
GR
GS
[0.78257 0 0 0.78197 0 0.22835] CT
1 LJ
0.639 LW
N
156.123 71.519 M
159.309 62.388 L
S
GR
GS
[0.78257 0 0 0.78197 0 0.22835] CT
1 LJ
0.639 LW
N
99.622 53.257 M
102.658 62.388 L
S
GR
GS
[0.78257 0 0 0.78197 0 0.22835] CT
1 LJ
0.639 LW
N
159.309 62.388 M
160.07 53.257 L
S
GR
GS
[0.78257 0 0 0.78197 0 0.22835] CT
1 LJ
0.639 LW
N
198.754 144.565 M
201.789 148.969 L
215.105 151.268 L
224.313 144.565 L
S
GR
GS
[0.78257 0 0 0.78197 0 0.22835] CT
1 LJ
0.639 LW
N
198.754 135.435 M
198.754 144.565 L
S
GR
GS
[0.78257 0 0 0.78197 0 0.22835] CT
1 LJ
0.639 LW
N
224.313 144.565 M
224.313 135.435 L
S
GR
GS
[0.78257 0 0 0.78197 0 0.22835] CT
1 LJ
0.639 LW
N
224.313 135.435 M
215.105 128.732 L
201.789 131.031 L
198.754 135.435 L
S
GR
GS
[0.78257 0 0 0.78197 0 0.22835] CT
1 0 0 RC
1 LJ
0.639 LW
N
64.895 195.117 M
70.166 194.861 L
65.636 197.568 L
S
GR
GS
[0.78257 0 0 0.78197 0 0.22835] CT
1 0 0 RC
1 LJ
0.639 LW
N
66.534 172.356 M
73.39 170.28 L
68.317 175.338 L
S
GR
GS
[0.78257 0 0 0.78197 0 0.22835] CT
1 0 0 RC
1 LJ
0.639 LW
N
68.429 152.663 M
76.435 150.258 L
70.503 156.148 L
S
GR
GS
[0.78257 0 0 0.78197 0 0.22835] CT
1 0 0 RC
1 LJ
0.639 LW
N
69.781 136.643 M
78.018 135.536 L
71.271 140.389 L
S
GR
GS
[0.78257 0 0 0.78197 0 0.22835] CT
1 0 0 RC
1 LJ
0.639 LW
N
70.021 123.349 M
77.471 124.622 L
70.298 127.005 L
S
GR
GS
[0.78257 0 0 0.78197 0 0.22835] CT
1 0 0 RC
1 LJ
0.639 LW
N
69.046 110.688 M
75.024 114.418 L
67.994 113.94 L
S
GR
GS
[0.78257 0 0 0.78197 0 0.22835] CT
1 0 0 RC
1 LJ
0.639 LW
N
67.269 96.296 M
71.71 101.524 L
65.331 99.001 L
S
GR
GS
[0.78257 0 0 0.78197 0 0.22835] CT
1 0 0 RC
1 LJ
0.639 LW
N
83.876 198.516 M
84.933 198.472 L
84.02 199.008 L
S
GR
GS
[0.78257 0 0 0.78197 0 0.22835] CT
1 0 0 RC
1 LJ
0.639 LW
N
88.98 175.795 M
93.245 174.579 L
90.054 177.659 L
S
GR
GS
[0.78257 0 0 0.78197 0 0.22835] CT
1 0 0 RC
1 LJ
0.639 LW
N
94.002 154.952 M
101.097 153.431 L
95.553 158.112 L
S
GR
GS
[0.78257 0 0 0.78197 0 0.22835] CT
1 0 0 RC
1 LJ
0.639 LW
N
96.825 137.075 M
105.178 136.246 L
98.198 140.908 L
S
GR
GS
[0.78257 0 0 0.78197 0 0.22835] CT
1 0 0 RC
1 LJ
0.639 LW
N
96.258 122.001 M
103.767 122.569 L
96.874 125.602 L
S
GR
GS
[0.78257 0 0 0.78197 0 0.22835] CT
1 0 0 RC
1 LJ
0.639 LW
N
92.54 108.387 M
97.458 110.467 L
92.14 110.947 L
S
GR
GS
[0.78257 0 0 0.78197 0 0.22835] CT
1 0 0 RC
1 LJ
0.639 LW
N
87.239 94.272 M
88.914 97.343 L
85.991 95.422 L
S
GR
GS
[0.78257 0 0 0.78197 0 0.22835] CT
1 0 0 RC
1 LJ
0.639 LW
N
102.184 203.417 M
98.441 204.171 L
101.389 201.744 L
S
GR
GS
[0.78257 0 0 0.78197 0 0.22835] CT
1 0 0 RC
1 LJ
0.639 LW
N
108.439 181.293 M
108.336 181.364 L
108.393 181.253 L
S
GR
GS
[0.78257 0 0 0.78197 0 0.22835] CT
1 0 0 RC
1 LJ
0.639 LW
N
114.317 159.137 M
117.683 158.44 L
115.04 160.639 L
S
GR
GS
[0.78257 0 0 0.78197 0 0.22835] CT
1 0 0 RC
1 LJ
0.639 LW
N
117.339 138.59 M
122.541 137.366 L
118.527 140.894 L
S
GR
GS
[0.78257 0 0 0.78197 0 0.22835] CT
1 0 0 RC
1 LJ
0.639 LW
N
116.232 120.617 M
120.861 119.329 L
117.383 122.644 L
S
GR
GS
[0.78257 0 0 0.78197 0 0.22835] CT
1 0 0 RC
1 LJ
0.639 LW
N
111.462 105.096 M
113.351 104.233 L
112.091 105.883 L
S
GR
GS
[0.78257 0 0 0.78197 0 0.22835] CT
1 0 0 RC
1 LJ
0.639 LW
N
105.041 90.871 M
103.179 90.743 L
104.882 89.98 L
S
GR
GS
[0.78257 0 0 0.78197 0 0.22835] CT
1 0 0 RC
1 LJ
0.639 LW
N
123.332 207.754 M
116.224 209.556 L
121.648 204.622 L
S
GR
GS
[0.78257 0 0 0.78197 0 0.22835] CT
1 0 0 RC
1 LJ
0.639 LW
N
127.935 186.531 M
123.529 187.773 L
126.832 184.604 L
S
GR
GS
[0.78257 0 0 0.78197 0 0.22835] CT
1 0 0 RC
1 LJ
0.639 LW
N
132.036 163.452 M
130.429 163.172 L
131.979 162.664 L
S
GR
GS
[0.78257 0 0 0.78197 0 0.22835] CT
1 0 0 RC
1 LJ
0.639 LW
N
133.903 140.55 M
134.016 138.425 L
134.917 140.353 L
S
GR
GS
[0.78257 0 0 0.78197 0 0.22835] CT
1 0 0 RC
1 LJ
0.639 LW
N
132.751 119.781 M
132.775 116.268 L
134.407 119.379 L
S
GR
GS
[0.78257 0 0 0.78197 0 0.22835] CT
1 0 0 RC
1 LJ
0.639 LW
N
129.065 102.202 M
127.232 98.343 L
130.665 100.885 L
S
GR
GS
[0.78257 0 0 0.78197 0 0.22835] CT
1 0 0 RC
1 LJ
0.639 LW
N
124.398 87.526 M
119.722 84.508 L
125.268 84.97 L
S
GR
GS
[0.78257 0 0 0.78197 0 0.22835] CT
1 0 0 RC
1 LJ
0.639 LW
N
149.63 209.699 M
142.014 212.354 L
147.485 206.427 L
S
GR
GS
[0.78257 0 0 0.78197 0 0.22835] CT
1 0 0 RC
1 LJ
0.639 LW
N
150.479 189.3 M
143.648 191.104 L
148.826 186.298 L
S
GR
GS
[0.78257 0 0 0.78197 0 0.22835] CT
1 0 0 RC
1 LJ
0.639 LW
N
150.918 166.079 M
145.192 165.631 L
150.455 163.332 L
S
GR
GS
[0.78257 0 0 0.78197 0 0.22835] CT
1 0 0 RC
1 LJ
0.639 LW
N
150.763 142.127 M
145.995 138.975 L
151.685 139.513 L
S
GR
GS
[0.78257 0 0 0.78197 0 0.22835] CT
1 0 0 RC
1 LJ
0.639 LW
N
150.079 119.844 M
145.717 114.677 L
151.998 117.183 L
S
GR
GS
[0.78257 0 0 0.78197 0 0.22835] CT
1 0 0 RC
1 LJ
0.639 LW
N
149.155 100.925 M
144.477 95.282 L
151.26 98.06 L
S
GR
GS
[0.78257 0 0 0.78197 0 0.22835] CT
1 0 0 RC
1 LJ
0.639 LW
N
148.38 85.648 M
142.797 81.268 L
149.784 82.506 L
S
GR
GS
[0.78257 0 0 0.78197 0 0.22835] CT
1 0 0 RC
1 LJ
0.639 LW
N
181.22 208.43 M
176.166 211.386 L
179.235 206.399 L
S
GR
GS
[0.78257 0 0 0.78197 0 0.22835] CT
1 0 0 RC
1 LJ
0.639 LW
N
177.793 188.433 M
171.441 189.952 L
176.33 185.622 L
S
GR
GS
[0.78257 0 0 0.78197 0 0.22835] CT
1 0 0 RC
1 LJ
0.639 LW
N
174.232 165.909 M
166.977 164.781 L
173.909 162.362 L
S
GR
GS
[0.78257 0 0 0.78197 0 0.22835] CT
1 0 0 RC
1 LJ
0.639 LW
N
172.039 142.657 M
164.657 138.785 L
172.993 138.728 L
S
GR
GS
[0.78257 0 0 0.78197 0 0.22835] CT
1 0 0 RC
1 LJ
0.639 LW
N
172.14 120.781 M
165.459 115.227 L
173.968 116.984 L
S
GR
GS
[0.78257 0 0 0.78197 0 0.22835] CT
1 0 0 RC
1 LJ
0.639 LW
N
174.491 101.805 M
169.045 96.34 L
176.422 98.599 L
S
GR
GS
[0.78257 0 0 0.78197 0 0.22835] CT
1 0 0 RC
1 LJ
0.639 LW
N
178.102 86.03 M
173.903 82.389 L
179.321 83.626 L
S
GR
GS
[0.78257 0 0 0.78197 0 0.22835] CT
1 0 0 RC
1 LJ
0.639 LW
N
216.011 204.483 M
215.508 207.061 L
214.739 204.549 L
S
GR
GS
[0.78257 0 0 0.78197 0 0.22835] CT
1 0 0 RC
1 LJ
0.639 LW
N
209.59 184.294 M
206.416 184.803 L
208.977 182.86 L
S
GR
GS
[0.78257 0 0 0.78197 0 0.22835] CT
1 0 0 RC
1 LJ
0.639 LW
N
203.376 163.014 M
197.827 160.979 L
203.681 160.163 L
S
GR
GS
[0.78257 0 0 0.78197 0 0.22835] CT
1 0 0 RC
1 LJ
0.639 LW
N
199.991 141.916 M
193.363 137.934 L
201.085 138.329 L
S
GR
GS
[0.78257 0 0 0.78197 0 0.22835] CT
1 0 0 RC
1 LJ
0.639 LW
N
200.861 122.196 M
194.907 117.686 L
202.283 118.864 L
S
GR
GS
[0.78257 0 0 0.78197 0 0.22835] CT
1 0 0 RC
1 LJ
0.639 LW
N
205.62 104.469 M
201.807 101.072 L
206.77 102.275 L
S
GR
GS
[0.78257 0 0 0.78197 0 0.22835] CT
1 0 0 RC
1 LJ
0.639 LW
N
212.261 88.51 M
211.154 87.398 L
212.655 87.858 L
S
GR
GS
[0.78257 0 0 0.78197 0 0.22835] CT
1 0 0 RC
1 LJ
0.639 LW
N
250.562 199.523 M
254.68 201.201 L
250.256 201.658 L
S
GR
GS
[0.78257 0 0 0.78197 0 0.22835] CT
1 0 0 RC
1 LJ
0.639 LW
N
243.691 178.63 M
245.056 177.828 L
244.229 179.178 L
S
GR
GS
[0.78257 0 0 0.78197 0 0.22835] CT
1 0 0 RC
1 LJ
0.639 LW
N
237.291 158.615 M
235.964 155.83 L
238.446 157.663 L
S
GR
GS
[0.78257 0 0 0.78197 0 0.22835] CT
1 0 0 RC
1 LJ
0.639 LW
N
234.061 140.217 M
231.238 136.782 L
235.345 138.485 L
S
GR
GS
[0.78257 0 0 0.78197 0 0.22835] CT
1 0 0 RC
1 LJ
0.639 LW
N
235.361 123.493 M
232.872 121.017 L
236.234 122.031 L
S
GR
GS
[0.78257 0 0 0.78197 0 0.22835] CT
1 0 0 RC
1 LJ
0.639 LW
N
240.645 107.795 M
240.177 107.482 L
240.738 107.538 L
S
GR
GS
[0.78257 0 0 0.78197 0 0.22835] CT
1 0 0 RC
1 LJ
0.639 LW
N
247.684 92.042 M
250.071 94.182 L
246.958 93.417 L
S
GR
GS
[0.78257 0 0 0.78197 0 0.22835] CT
1 0 0 RC
1 LJ
0.639 LW
N
281.532 195.641 M
288.394 196.279 L
282.039 198.945 L
S
GR
GS
[0.78257 0 0 0.78197 0 0.22835] CT
1 0 0 RC
1 LJ
0.639 LW
N
276.947 173.829 M
282.296 171.969 L
278.452 176.127 L
S
GR
GS
[0.78257 0 0 0.78197 0 0.22835] CT
1 0 0 RC
1 LJ
0.639 LW
N
272.906 154.567 M
276.535 151.504 L
274.774 155.914 L
S
GR
GS
[0.78257 0 0 0.78197 0 0.22835] CT
1 0 0 RC
1 LJ
0.639 LW
N
271.112 138.276 M
273.541 135.815 L
272.556 139.129 L
S
GR
GS
[0.78257 0 0 0.78197 0 0.22835] CT
1 0 0 RC
1 LJ
0.639 LW
N
272.323 124.125 M
274.576 123.816 L
272.733 125.149 L
S
GR
GS
[0.78257 0 0 0.78197 0 0.22835] CT
1 0 0 RC
1 LJ
0.639 LW
N
276.027 110.38 M
279.205 112.866 L
275.231 112.168 L
S
GR
GS
[0.78257 0 0 0.78197 0 0.22835] CT
1 0 0 RC
1 LJ
0.639 LW
N
280.662 95.137 M
285.474 99.882 L
278.996 97.96 L
S
GR
GS
[0.78257 0 0 0.78197 0 0.22835] CT
1 0 0 RC
1 LJ
0.639 LW
N
55.316 199.35 M
70.166 194.861 L
S
GR
GS
[0.78257 0 0 0.78197 0 0.22835] CT
1 0 0 RC
1 LJ
0.639 LW
N
55.316 181.089 M
73.39 170.28 L
S
GR
GS
[0.78257 0 0 0.78197 0 0.22835] CT
1 0 0 RC
1 LJ
0.639 LW
N
55.316 162.827 M
76.435 150.258 L
S
GR
GS
[0.78257 0 0 0.78197 0 0.22835] CT
1 0 0 RC
1 LJ
0.639 LW
N
55.316 144.565 M
78.018 135.536 L
S
GR
GS
[0.78257 0 0 0.78197 0 0.22835] CT
1 0 0 RC
1 LJ
0.639 LW
N
55.316 126.304 M
77.471 124.622 L
S
GR
GS
[0.78257 0 0 0.78197 0 0.22835] CT
1 0 0 RC
1 LJ
0.639 LW
N
55.316 108.042 M
75.024 114.418 L
S
GR
GS
[0.78257 0 0 0.78197 0 0.22835] CT
1 0 0 RC
1 LJ
0.639 LW
N
55.316 89.78 M
71.71 101.524 L
S
GR
GS
[0.78257 0 0 0.78197 0 0.22835] CT
1 0 0 RC
1 LJ
0.639 LW
N
81.947 199.35 M
84.933 198.472 L
S
GR
GS
[0.78257 0 0 0.78197 0 0.22835] CT
1 0 0 RC
1 LJ
0.639 LW
N
81.947 181.089 M
93.245 174.579 L
S
GR
GS
[0.78257 0 0 0.78197 0 0.22835] CT
1 0 0 RC
1 LJ
0.639 LW
N
81.947 162.827 M
101.097 153.431 L
S
GR
GS
[0.78257 0 0 0.78197 0 0.22835] CT
1 0 0 RC
1 LJ
0.639 LW
N
81.947 144.565 M
105.178 136.246 L
S
GR
GS
[0.78257 0 0 0.78197 0 0.22835] CT
1 0 0 RC
1 LJ
0.639 LW
N
81.947 126.304 M
103.767 122.569 L
S
GR
GS
[0.78257 0 0 0.78197 0 0.22835] CT
1 0 0 RC
1 LJ
0.639 LW
N
81.947 108.042 M
97.458 110.467 L
S
GR
GS
[0.78257 0 0 0.78197 0 0.22835] CT
1 0 0 RC
1 LJ
0.639 LW
N
81.947 89.78 M
88.914 97.343 L
S
GR
GS
[0.78257 0 0 0.78197 0 0.22835] CT
1 0 0 RC
1 LJ
0.639 LW
N
108.579 199.35 M
98.441 204.171 L
S
GR
GS
[0.78257 0 0 0.78197 0 0.22835] CT
1 0 0 RC
1 LJ
0.639 LW
N
108.579 181.089 M
108.336 181.364 L
S
GR
GS
[0.78257 0 0 0.78197 0 0.22835] CT
1 0 0 RC
1 LJ
0.639 LW
N
108.579 162.827 M
117.683 158.44 L
S
GR
GS
[0.78257 0 0 0.78197 0 0.22835] CT
1 0 0 RC
1 LJ
0.639 LW
N
108.579 144.565 M
122.541 137.366 L
S
GR
GS
[0.78257 0 0 0.78197 0 0.22835] CT
1 0 0 RC
1 LJ
0.639 LW
N
108.579 126.304 M
120.861 119.329 L
S
GR
GS
[0.78257 0 0 0.78197 0 0.22835] CT
1 0 0 RC
1 LJ
0.639 LW
N
108.579 108.042 M
113.351 104.233 L
S
GR
GS
[0.78257 0 0 0.78197 0 0.22835] CT
1 0 0 RC
1 LJ
0.639 LW
N
108.579 89.78 M
103.179 90.743 L
S
GR
GS
[0.78257 0 0 0.78197 0 0.22835] CT
1 0 0 RC
1 LJ
0.639 LW
N
135.211 199.35 M
116.224 209.556 L
S
GR
GS
[0.78257 0 0 0.78197 0 0.22835] CT
1 0 0 RC
1 LJ
0.639 LW
N
135.211 181.089 M
123.529 187.773 L
S
GR
GS
[0.78257 0 0 0.78197 0 0.22835] CT
1 0 0 RC
1 LJ
0.639 LW
N
135.211 162.827 M
130.429 163.172 L
S
GR
GS
[0.78257 0 0 0.78197 0 0.22835] CT
1 0 0 RC
1 LJ
0.639 LW
N
135.211 144.565 M
134.016 138.425 L
S
GR
GS
[0.78257 0 0 0.78197 0 0.22835] CT
1 0 0 RC
1 LJ
0.639 LW
N
135.211 126.304 M
132.775 116.268 L
S
GR
GS
[0.78257 0 0 0.78197 0 0.22835] CT
1 0 0 RC
1 LJ
0.639 LW
N
135.211 108.042 M
127.232 98.343 L
S
GR
GS
[0.78257 0 0 0.78197 0 0.22835] CT
1 0 0 RC
1 LJ
0.639 LW
N
135.211 89.78 M
119.722 84.508 L
S
GR
GS
[0.78257 0 0 0.78197 0 0.22835] CT
1 0 0 RC
1 LJ
0.639 LW
N
161.842 199.35 M
142.014 212.354 L
S
GR
GS
[0.78257 0 0 0.78197 0 0.22835] CT
1 0 0 RC
1 LJ
0.639 LW
N
161.842 181.089 M
143.648 191.104 L
S
GR
GS
[0.78257 0 0 0.78197 0 0.22835] CT
1 0 0 RC
1 LJ
0.639 LW
N
161.842 162.827 M
145.192 165.631 L
S
GR
GS
[0.78257 0 0 0.78197 0 0.22835] CT
1 0 0 RC
1 LJ
0.639 LW
N
161.842 144.565 M
145.995 138.975 L
S
GR
GS
[0.78257 0 0 0.78197 0 0.22835] CT
1 0 0 RC
1 LJ
0.639 LW
N
161.842 126.304 M
145.717 114.677 L
S
GR
GS
[0.78257 0 0 0.78197 0 0.22835] CT
1 0 0 RC
1 LJ
0.639 LW
N
161.842 108.042 M
144.477 95.282 L
S
GR
GS
[0.78257 0 0 0.78197 0 0.22835] CT
1 0 0 RC
1 LJ
0.639 LW
N
161.842 89.78 M
142.797 81.268 L
S
GR
GS
[0.78257 0 0 0.78197 0 0.22835] CT
1 0 0 RC
1 LJ
0.639 LW
N
188.474 199.35 M
176.166 211.386 L
S
GR
GS
[0.78257 0 0 0.78197 0 0.22835] CT
1 0 0 RC
1 LJ
0.639 LW
N
188.474 181.089 M
171.441 189.952 L
S
GR
GS
[0.78257 0 0 0.78197 0 0.22835] CT
1 0 0 RC
1 LJ
0.639 LW
N
188.474 162.827 M
166.977 164.781 L
S
GR
GS
[0.78257 0 0 0.78197 0 0.22835] CT
1 0 0 RC
1 LJ
0.639 LW
N
188.474 144.565 M
164.657 138.785 L
S
GR
GS
[0.78257 0 0 0.78197 0 0.22835] CT
1 0 0 RC
1 LJ
0.639 LW
N
188.474 126.304 M
165.459 115.227 L
S
GR
GS
[0.78257 0 0 0.78197 0 0.22835] CT
1 0 0 RC
1 LJ
0.639 LW
N
188.474 108.042 M
169.045 96.34 L
S
GR
GS
[0.78257 0 0 0.78197 0 0.22835] CT
1 0 0 RC
1 LJ
0.639 LW
N
188.474 89.78 M
173.903 82.389 L
S
GR
GS
[0.78257 0 0 0.78197 0 0.22835] CT
1 0 0 RC
1 LJ
0.639 LW
N
215.105 199.35 M
215.508 207.061 L
S
GR
GS
[0.78257 0 0 0.78197 0 0.22835] CT
1 0 0 RC
1 LJ
0.639 LW
N
215.105 181.089 M
206.416 184.803 L
S
GR
GS
[0.78257 0 0 0.78197 0 0.22835] CT
1 0 0 RC
1 LJ
0.639 LW
N
215.105 162.827 M
197.827 160.979 L
S
GR
GS
[0.78257 0 0 0.78197 0 0.22835] CT
1 0 0 RC
1 LJ
0.639 LW
N
215.105 144.565 M
193.363 137.934 L
S
GR
GS
[0.78257 0 0 0.78197 0 0.22835] CT
1 0 0 RC
1 LJ
0.639 LW
N
215.105 126.304 M
194.907 117.686 L
S
GR
GS
[0.78257 0 0 0.78197 0 0.22835] CT
1 0 0 RC
1 LJ
0.639 LW
N
215.105 108.042 M
201.807 101.072 L
S
GR
GS
[0.78257 0 0 0.78197 0 0.22835] CT
1 0 0 RC
1 LJ
0.639 LW
N
215.105 89.78 M
211.154 87.398 L
S
GR
GS
[0.78257 0 0 0.78197 0 0.22835] CT
1 0 0 RC
1 LJ
0.639 LW
N
241.737 199.35 M
254.68 201.201 L
S
GR
GS
[0.78257 0 0 0.78197 0 0.22835] CT
1 0 0 RC
1 LJ
0.639 LW
N
241.737 181.089 M
245.056 177.828 L
S
GR
GS
[0.78257 0 0 0.78197 0 0.22835] CT
1 0 0 RC
1 LJ
0.639 LW
N
241.737 162.827 M
235.964 155.83 L
S
GR
GS
[0.78257 0 0 0.78197 0 0.22835] CT
1 0 0 RC
1 LJ
0.639 LW
N
241.737 144.565 M
231.238 136.782 L
S
GR
GS
[0.78257 0 0 0.78197 0 0.22835] CT
1 0 0 RC
1 LJ
0.639 LW
N
241.737 126.304 M
232.872 121.017 L
S
GR
GS
[0.78257 0 0 0.78197 0 0.22835] CT
1 0 0 RC
1 LJ
0.639 LW
N
241.737 108.042 M
240.177 107.482 L
S
GR
GS
[0.78257 0 0 0.78197 0 0.22835] CT
1 0 0 RC
1 LJ
0.639 LW
N
241.737 89.78 M
250.071 94.182 L
S
GR
GS
[0.78257 0 0 0.78197 0 0.22835] CT
1 0 0 RC
1 LJ
0.639 LW
N
268.368 199.35 M
288.394 196.279 L
S
GR
GS
[0.78257 0 0 0.78197 0 0.22835] CT
1 0 0 RC
1 LJ
0.639 LW
N
268.368 181.089 M
282.296 171.969 L
S
GR
GS
[0.78257 0 0 0.78197 0 0.22835] CT
1 0 0 RC
1 LJ
0.639 LW
N
268.368 162.827 M
276.535 151.504 L
S
GR
GS
[0.78257 0 0 0.78197 0 0.22835] CT
1 0 0 RC
1 LJ
0.639 LW
N
268.368 144.565 M
273.541 135.815 L
S
GR
GS
[0.78257 0 0 0.78197 0 0.22835] CT
1 0 0 RC
1 LJ
0.639 LW
N
268.368 126.304 M
274.576 123.816 L
S
GR
GS
[0.78257 0 0 0.78197 0 0.22835] CT
1 0 0 RC
1 LJ
0.639 LW
N
268.368 108.042 M
279.205 112.866 L
S
GR
GS
[0.78257 0 0 0.78197 0 0.22835] CT
1 0 0 RC
1 LJ
0.639 LW
N
268.368 89.78 M
285.474 99.882 L
S
GR
GS
[0.78257 0 0 0.78197 0 0.22835] CT
0.149 GC
2 setlinecap
1 LJ
0.639 LW
N
42 226.743 M
295 226.743 L
S
GR
GS
[0.78257 0 0 0.78197 0 0.22835] CT
0.149 GC
2 setlinecap
1 LJ
0.639 LW
N
42 53.257 M
295 53.257 L
S
GR
GS
[0.78257 0 0 0.78197 0 0.22835] CT
0.149 GC
2 setlinecap
1 LJ
0.639 LW
N
42 226.743 M
42 53.257 L
S
GR
GS
[0.78257 0 0 0.78197 0 0.22835] CT
0.149 GC
2 setlinecap
1 LJ
0.639 LW
N
295 226.743 M
295 53.257 L
S
GR
%%Trailer
%%Pages: 1
%%EOF
