%!PS-Adobe-3.0 EPSF-3.0
%%Creator: (MATLAB, The Mathworks, Inc. Version 9.10.0.1684407 \(R2021a\) Update 3. Operating System: Linux)
%%Title: /home/adoan/Code/PRoSA_PI-ESN_Git/pi-esn/Results/MFE_results/Figures/FIG7_UP_C.eps
%%CreationDate: 2021-07-21T18:43:12
%%Pages: (atend)
%%BoundingBox:     0     0   255   227
%%LanguageLevel: 3
%%EndComments
%%BeginProlog
%%BeginResource: procset (Apache XML Graphics Std ProcSet) 1.2 0
%%Version: 1.2 0
%%Copyright: (Copyright 2001-2003,2010 The Apache Software Foundation. License terms: http://www.apache.org/licenses/LICENSE-2.0)
/bd{bind def}bind def
/ld{load def}bd
/GR/grestore ld
/GS/gsave ld
/RM/rmoveto ld
/C/curveto ld
/t/show ld
/L/lineto ld
/ML/setmiterlimit ld
/CT/concat ld
/f/fill ld
/N/newpath ld
/S/stroke ld
/CC/setcmykcolor ld
/A/ashow ld
/cp/closepath ld
/RC/setrgbcolor ld
/LJ/setlinejoin ld
/GC/setgray ld
/LW/setlinewidth ld
/M/moveto ld
/re {4 2 roll M
1 index 0 rlineto
0 exch rlineto
neg 0 rlineto
cp } bd
/_ctm matrix def
/_tm matrix def
/BT { _ctm currentmatrix pop matrix _tm copy pop 0 0 moveto } bd
/ET { _ctm setmatrix } bd
/iTm { _ctm setmatrix _tm concat } bd
/Tm { _tm astore pop iTm 0 0 moveto } bd
/ux 0.0 def
/uy 0.0 def
/F {
  /Tp exch def
  /Tf exch def
  Tf findfont Tp scalefont setfont
  /cf Tf def  /cs Tp def
} bd
/ULS {currentpoint /uy exch def /ux exch def} bd
/ULE {
  /Tcx currentpoint pop def
  gsave
  newpath
  cf findfont cs scalefont dup
  /FontMatrix get 0 get /Ts exch def /FontInfo get dup
  /UnderlinePosition get Ts mul /To exch def
  /UnderlineThickness get Ts mul /Tt exch def
  ux uy To add moveto  Tcx uy To add lineto
  Tt setlinewidth stroke
  grestore
} bd
/OLE {
  /Tcx currentpoint pop def
  gsave
  newpath
  cf findfont cs scalefont dup
  /FontMatrix get 0 get /Ts exch def /FontInfo get dup
  /UnderlinePosition get Ts mul /To exch def
  /UnderlineThickness get Ts mul /Tt exch def
  ux uy To add cs add moveto Tcx uy To add cs add lineto
  Tt setlinewidth stroke
  grestore
} bd
/SOE {
  /Tcx currentpoint pop def
  gsave
  newpath
  cf findfont cs scalefont dup
  /FontMatrix get 0 get /Ts exch def /FontInfo get dup
  /UnderlinePosition get Ts mul /To exch def
  /UnderlineThickness get Ts mul /Tt exch def
  ux uy To add cs 10 mul 26 idiv add moveto Tcx uy To add cs 10 mul 26 idiv add lineto
  Tt setlinewidth stroke
  grestore
} bd
/QT {
/Y22 exch store
/X22 exch store
/Y21 exch store
/X21 exch store
currentpoint
/Y21 load 2 mul add 3 div exch
/X21 load 2 mul add 3 div exch
/X21 load 2 mul /X22 load add 3 div
/Y21 load 2 mul /Y22 load add 3 div
/X22 load /Y22 load curveto
} bd
/SSPD {
dup length /d exch dict def
{
/v exch def
/k exch def
currentpagedevice k known {
/cpdv currentpagedevice k get def
v cpdv ne {
/upd false def
/nullv v type /nulltype eq def
/nullcpdv cpdv type /nulltype eq def
nullv nullcpdv or
{
/upd true def
} {
/sametype v type cpdv type eq def
sametype {
v type /arraytype eq {
/vlen v length def
/cpdvlen cpdv length def
vlen cpdvlen eq {
0 1 vlen 1 sub {
/i exch def
/obj v i get def
/cpdobj cpdv i get def
obj cpdobj ne {
/upd true def
exit
} if
} for
} {
/upd true def
} ifelse
} {
v type /dicttype eq {
v {
/dv exch def
/dk exch def
/cpddv cpdv dk get def
dv cpddv ne {
/upd true def
exit
} if
} forall
} {
/upd true def
} ifelse
} ifelse
} if
} ifelse
upd true eq {
d k v put
} if
} if
} if
} forall
d length 0 gt {
d setpagedevice
} if
} bd
/RE { % /NewFontName [NewEncodingArray] /FontName RE -
  findfont dup length dict begin
  {
    1 index /FID ne
    {def} {pop pop} ifelse
  } forall
  /Encoding exch def
  /FontName 1 index def
  currentdict definefont pop
  end
} bind def
%%EndResource
%%BeginResource: procset (Apache XML Graphics EPS ProcSet) 1.0 0
%%Version: 1.0 0
%%Copyright: (Copyright 2002-2003 The Apache Software Foundation. License terms: http://www.apache.org/licenses/LICENSE-2.0)
/BeginEPSF { %def
/b4_Inc_state save def         % Save state for cleanup
/dict_count countdictstack def % Count objects on dict stack
/op_count count 1 sub def      % Count objects on operand stack
userdict begin                 % Push userdict on dict stack
/showpage { } def              % Redefine showpage, { } = null proc
0 setgray 0 setlinecap         % Prepare graphics state
1 setlinewidth 0 setlinejoin
10 setmiterlimit [ ] 0 setdash newpath
/languagelevel where           % If level not equal to 1 then
{pop languagelevel             % set strokeadjust and
1 ne                           % overprint to their defaults.
{false setstrokeadjust false setoverprint
} if
} if
} bd
/EndEPSF { %def
count op_count sub {pop} repeat            % Clean up stacks
countdictstack dict_count sub {end} repeat
b4_Inc_state restore
} bd
%%EndResource
%FOPBeginFontDict
%%IncludeResource: font Courier-Oblique
%%IncludeResource: font Courier-BoldOblique
%%IncludeResource: font Courier-Bold
%%IncludeResource: font ZapfDingbats
%%IncludeResource: font Symbol
%%IncludeResource: font Helvetica
%%IncludeResource: font Helvetica-Oblique
%%IncludeResource: font Helvetica-Bold
%%IncludeResource: font Helvetica-BoldOblique
%%IncludeResource: font Times-Roman
%%IncludeResource: font Times-Italic
%%IncludeResource: font Times-Bold
%%IncludeResource: font Times-BoldItalic
%%IncludeResource: font Courier
%FOPEndFontDict
%%BeginResource: encoding WinAnsiEncoding
/WinAnsiEncoding [
/.notdef /.notdef /.notdef /.notdef /.notdef
/.notdef /.notdef /.notdef /.notdef /.notdef
/.notdef /.notdef /.notdef /.notdef /.notdef
/.notdef /.notdef /.notdef /.notdef /.notdef
/.notdef /.notdef /.notdef /.notdef /.notdef
/.notdef /.notdef /.notdef /.notdef /.notdef
/.notdef /.notdef /space /exclam /quotedbl
/numbersign /dollar /percent /ampersand /quotesingle
/parenleft /parenright /asterisk /plus /comma
/hyphen /period /slash /zero /one
/two /three /four /five /six
/seven /eight /nine /colon /semicolon
/less /equal /greater /question /at
/A /B /C /D /E
/F /G /H /I /J
/K /L /M /N /O
/P /Q /R /S /T
/U /V /W /X /Y
/Z /bracketleft /backslash /bracketright /asciicircum
/underscore /quoteleft /a /b /c
/d /e /f /g /h
/i /j /k /l /m
/n /o /p /q /r
/s /t /u /v /w
/x /y /z /braceleft /bar
/braceright /asciitilde /bullet /Euro /bullet
/quotesinglbase /florin /quotedblbase /ellipsis /dagger
/daggerdbl /circumflex /perthousand /Scaron /guilsinglleft
/OE /bullet /Zcaron /bullet /bullet
/quoteleft /quoteright /quotedblleft /quotedblright /bullet
/endash /emdash /asciitilde /trademark /scaron
/guilsinglright /oe /bullet /zcaron /Ydieresis
/space /exclamdown /cent /sterling /currency
/yen /brokenbar /section /dieresis /copyright
/ordfeminine /guillemotleft /logicalnot /sfthyphen /registered
/macron /degree /plusminus /twosuperior /threesuperior
/acute /mu /paragraph /middot /cedilla
/onesuperior /ordmasculine /guillemotright /onequarter /onehalf
/threequarters /questiondown /Agrave /Aacute /Acircumflex
/Atilde /Adieresis /Aring /AE /Ccedilla
/Egrave /Eacute /Ecircumflex /Edieresis /Igrave
/Iacute /Icircumflex /Idieresis /Eth /Ntilde
/Ograve /Oacute /Ocircumflex /Otilde /Odieresis
/multiply /Oslash /Ugrave /Uacute /Ucircumflex
/Udieresis /Yacute /Thorn /germandbls /agrave
/aacute /acircumflex /atilde /adieresis /aring
/ae /ccedilla /egrave /eacute /ecircumflex
/edieresis /igrave /iacute /icircumflex /idieresis
/eth /ntilde /ograve /oacute /ocircumflex
/otilde /odieresis /divide /oslash /ugrave
/uacute /ucircumflex /udieresis /yacute /thorn
/ydieresis
] def
%%EndResource
%FOPBeginFontReencode
/Courier-Oblique findfont
dup length dict begin
  {1 index /FID ne {def} {pop pop} ifelse} forall
  /Encoding WinAnsiEncoding def
  currentdict
end
/Courier-Oblique exch definefont pop
/Courier-BoldOblique findfont
dup length dict begin
  {1 index /FID ne {def} {pop pop} ifelse} forall
  /Encoding WinAnsiEncoding def
  currentdict
end
/Courier-BoldOblique exch definefont pop
/Courier-Bold findfont
dup length dict begin
  {1 index /FID ne {def} {pop pop} ifelse} forall
  /Encoding WinAnsiEncoding def
  currentdict
end
/Courier-Bold exch definefont pop
/Helvetica findfont
dup length dict begin
  {1 index /FID ne {def} {pop pop} ifelse} forall
  /Encoding WinAnsiEncoding def
  currentdict
end
/Helvetica exch definefont pop
/Helvetica-Oblique findfont
dup length dict begin
  {1 index /FID ne {def} {pop pop} ifelse} forall
  /Encoding WinAnsiEncoding def
  currentdict
end
/Helvetica-Oblique exch definefont pop
/Helvetica-Bold findfont
dup length dict begin
  {1 index /FID ne {def} {pop pop} ifelse} forall
  /Encoding WinAnsiEncoding def
  currentdict
end
/Helvetica-Bold exch definefont pop
/Helvetica-BoldOblique findfont
dup length dict begin
  {1 index /FID ne {def} {pop pop} ifelse} forall
  /Encoding WinAnsiEncoding def
  currentdict
end
/Helvetica-BoldOblique exch definefont pop
/Times-Roman findfont
dup length dict begin
  {1 index /FID ne {def} {pop pop} ifelse} forall
  /Encoding WinAnsiEncoding def
  currentdict
end
/Times-Roman exch definefont pop
/Times-Italic findfont
dup length dict begin
  {1 index /FID ne {def} {pop pop} ifelse} forall
  /Encoding WinAnsiEncoding def
  currentdict
end
/Times-Italic exch definefont pop
/Times-Bold findfont
dup length dict begin
  {1 index /FID ne {def} {pop pop} ifelse} forall
  /Encoding WinAnsiEncoding def
  currentdict
end
/Times-Bold exch definefont pop
/Times-BoldItalic findfont
dup length dict begin
  {1 index /FID ne {def} {pop pop} ifelse} forall
  /Encoding WinAnsiEncoding def
  currentdict
end
/Times-BoldItalic exch definefont pop
/Courier findfont
dup length dict begin
  {1 index /FID ne {def} {pop pop} ifelse} forall
  /Encoding WinAnsiEncoding def
  currentdict
end
/Courier exch definefont pop
%FOPEndFontReencode
%%EndProlog
%%Page: 1 1
%%PageBoundingBox: 0 0 255 227
%%BeginPageSetup
[1 0 0 -1 0 227] CT
%%EndPageSetup
GS
[0.78257 0 0 0.78197 0 0.22835] CT
1 GC
N
0 0 326 290 re
f
GR
GS
[0.78257 0 0 0.78197 0 0.22835] CT
1 GC
N
0 0 326 290 re
f
GR
GS
[0.78257 0 0 0.78197 0 0.22835] CT
1 GC
N
42 226.743 M
295 226.743 L
295 53.257 L
42 53.257 L
cp
f
GR
GS
[0.78257 0 0 0.78197 0 0.22835] CT
0.239 0.149 0.659 RC
N
103.221 226.743 M
108.579 226.743 L
121.895 226.743 L
135.211 226.743 L
135.281 226.743 L
148.526 226.743 L
148.926 226.743 L
148.526 223.983 L
147.088 217.612 L
138.738 208.481 L
135.211 206.772 L
121.895 205.319 L
108.579 207.275 L
105.305 208.481 L
95.263 214.362 L
92.027 217.612 L
89.082 226.743 L
95.263 226.743 L
cp
108.579 53.257 M
103.221 53.257 L
95.263 53.257 L
89.082 53.257 L
92.027 62.388 L
95.263 65.638 L
105.305 71.519 L
108.579 72.725 L
121.895 74.681 L
135.211 73.228 L
138.738 71.519 L
147.088 62.388 L
148.526 56.017 L
148.926 53.257 L
148.526 53.257 L
135.281 53.257 L
135.211 53.257 L
121.895 53.257 L
cp
197.615 162.827 M
201.789 164.647 L
215.105 165.98 L
228.421 164.349 L
233.252 162.827 L
241.737 159.082 L
248.568 153.696 L
253.927 144.565 L
253.927 135.435 L
248.568 126.304 L
241.737 120.918 L
233.252 117.173 L
228.421 115.651 L
215.105 114.02 L
201.789 115.353 L
197.615 117.173 L
188.474 125.57 L
188.077 126.304 L
185.808 135.435 L
185.808 144.565 L
188.077 153.696 L
188.474 154.43 L
cp
f
GR
GS
[0.78257 0 0 0.78197 0 0.22835] CT
0.278 0.259 0.902 RC
N
81.063 217.612 M
79.086 226.743 L
81.947 226.743 L
89.082 226.743 L
92.027 217.612 L
95.263 214.362 L
105.305 208.481 L
108.579 207.275 L
121.895 205.319 L
135.211 206.772 L
138.738 208.481 L
147.088 217.612 L
148.526 223.983 L
148.926 226.743 L
158.552 226.743 L
157.833 217.612 L
155.052 208.481 L
148.526 200.958 L
144.236 199.35 L
135.211 197.592 L
121.895 197.943 L
113.108 199.35 L
108.579 200.18 L
95.263 204.992 L
89.342 208.481 L
81.947 216.28 L
cp
195.937 171.958 M
201.789 172.938 L
215.105 172.655 L
219.775 171.958 L
228.421 170.584 L
241.737 166.489 L
248.92 162.827 L
255.053 157.893 L
258.554 153.696 L
262.02 144.565 L
262.02 135.435 L
258.554 126.304 L
255.053 122.107 L
248.92 117.173 L
241.737 113.511 L
228.421 109.416 L
219.775 108.042 L
215.105 107.345 L
201.789 107.062 L
195.937 108.042 L
188.474 110.278 L
181.763 117.173 L
178.453 126.304 L
177.278 135.435 L
177.278 144.565 L
178.453 153.696 L
181.763 162.827 L
188.474 169.722 L
cp
201.789 164.647 M
197.615 162.827 L
188.474 154.43 L
188.077 153.696 L
185.808 144.565 L
185.808 135.435 L
188.077 126.304 L
188.474 125.57 L
197.615 117.173 L
201.789 115.353 L
215.105 114.02 L
228.421 115.651 L
233.252 117.173 L
241.737 120.918 L
248.568 126.304 L
253.927 135.435 L
253.927 144.565 L
248.568 153.696 L
241.737 159.082 L
233.252 162.827 L
228.421 164.349 L
215.105 165.98 L
cp
113.108 80.65 M
121.895 82.057 L
135.211 82.408 L
144.236 80.65 L
148.526 79.042 L
155.052 71.519 L
157.833 62.388 L
158.552 53.257 L
148.926 53.257 L
148.526 56.017 L
147.088 62.388 L
138.738 71.519 L
135.211 73.228 L
121.895 74.681 L
108.579 72.725 L
105.305 71.519 L
95.263 65.638 L
92.027 62.388 L
89.082 53.257 L
81.947 53.257 L
79.086 53.257 L
81.063 62.388 L
81.947 63.72 L
89.342 71.519 L
95.263 75.008 L
108.579 79.82 L
cp
f
GR
GS
[0.78257 0 0 0.78197 0 0.22835] CT
0.263 0.4 0.992 RC
N
72.393 217.612 M
70.765 226.743 L
79.086 226.743 L
81.063 217.612 L
81.947 216.28 L
89.342 208.481 L
95.263 204.992 L
108.579 200.18 L
113.108 199.35 L
121.895 197.943 L
135.211 197.592 L
144.236 199.35 L
148.526 200.958 L
155.052 208.481 L
157.833 217.612 L
158.552 226.743 L
161.842 226.743 L
167.153 226.743 L
167.071 217.612 L
166.764 208.481 L
165.9 199.35 L
161.842 190.36 L
161.428 190.22 L
148.526 188.83 L
135.211 189.9 L
133.144 190.22 L
121.895 191.74 L
108.579 194.317 L
95.263 198.023 L
91.931 199.35 L
81.947 205.081 L
77.975 208.481 L
cp
184.338 181.089 M
188.474 181.295 L
190.312 181.089 L
201.789 180.231 L
215.105 178.515 L
228.421 176.156 L
241.737 172.77 L
243.997 171.958 L
255.053 166.63 L
260.154 162.827 L
266.994 153.696 L
268.368 149.449 L
269.644 144.565 L
269.644 135.435 L
268.368 130.551 L
266.994 126.304 L
260.154 117.173 L
255.053 113.37 L
243.997 108.042 L
241.737 107.23 L
228.421 103.844 L
215.105 101.485 L
201.789 99.769 L
190.312 98.911 L
188.474 98.705 L
184.338 98.911 L
175.158 100.274 L
171.243 108.042 L
170.217 117.173 L
169.848 126.304 L
169.71 135.435 L
169.71 144.565 L
169.848 153.696 L
170.217 162.827 L
171.243 171.958 L
175.158 179.726 L
cp
201.789 172.938 M
195.937 171.958 L
188.474 169.722 L
181.763 162.827 L
178.453 153.696 L
177.278 144.565 L
177.278 135.435 L
178.453 126.304 L
181.763 117.173 L
188.474 110.278 L
195.937 108.042 L
201.789 107.062 L
215.105 107.345 L
219.775 108.042 L
228.421 109.416 L
241.737 113.511 L
248.92 117.173 L
255.053 122.107 L
258.554 126.304 L
262.02 135.435 L
262.02 144.565 L
258.554 153.696 L
255.053 157.893 L
248.92 162.827 L
241.737 166.489 L
228.421 170.584 L
219.775 171.958 L
215.105 172.655 L
cp
133.144 89.78 M
135.211 90.1 L
148.526 91.17 L
161.428 89.78 L
161.842 89.64 L
165.9 80.65 L
166.764 71.519 L
167.071 62.388 L
167.153 53.257 L
161.842 53.257 L
158.552 53.257 L
157.833 62.388 L
155.052 71.519 L
148.526 79.042 L
144.236 80.65 L
135.211 82.408 L
121.895 82.057 L
113.108 80.65 L
108.579 79.82 L
95.263 75.008 L
89.342 71.519 L
81.947 63.72 L
81.063 62.388 L
79.086 53.257 L
70.765 53.257 L
72.393 62.388 L
77.975 71.519 L
81.947 74.919 L
91.931 80.65 L
95.263 81.977 L
108.579 85.683 L
121.895 88.26 L
cp
f
GR
GS
[0.78257 0 0 0.78197 0 0.22835] CT
0.173 0.549 0.949 RC
N
64.259 217.612 M
63.154 226.743 L
68.632 226.743 L
70.765 226.743 L
72.393 217.612 L
77.975 208.481 L
81.947 205.081 L
91.931 199.35 L
95.263 198.023 L
108.579 194.317 L
121.895 191.74 L
133.144 190.22 L
135.211 189.9 L
148.526 188.83 L
161.428 190.22 L
161.842 190.36 L
165.9 199.35 L
166.764 208.481 L
167.071 217.612 L
167.153 226.743 L
175.158 226.743 L
175.22 226.743 L
175.608 217.612 L
177.012 208.481 L
180.645 199.35 L
188.474 192.442 L
192.671 190.22 L
201.789 187.349 L
215.105 184.285 L
228.421 181.528 L
230.324 181.089 L
241.737 178.306 L
255.053 173.766 L
258.773 171.958 L
268.368 164.597 L
269.945 162.827 L
274.598 153.696 L
276.457 144.565 L
276.457 135.435 L
274.598 126.304 L
269.945 117.173 L
268.368 115.403 L
258.773 108.042 L
255.053 106.234 L
241.737 101.694 L
230.324 98.911 L
228.421 98.472 L
215.105 95.715 L
201.789 92.651 L
192.671 89.78 L
188.474 87.558 L
180.645 80.65 L
177.012 71.519 L
175.608 62.388 L
175.22 53.257 L
175.158 53.257 L
167.153 53.257 L
167.071 62.388 L
166.764 71.519 L
165.9 80.65 L
161.842 89.64 L
161.428 89.78 L
148.526 91.17 L
135.211 90.1 L
133.144 89.78 L
121.895 88.26 L
108.579 85.683 L
95.263 81.977 L
91.931 80.65 L
81.947 74.919 L
77.975 71.519 L
72.393 62.388 L
70.765 53.257 L
68.632 53.257 L
63.154 53.257 L
64.259 62.388 L
68.155 71.519 L
68.632 72.129 L
77.915 80.65 L
81.947 82.831 L
95.263 87.836 L
102.472 89.78 L
108.579 91.253 L
121.895 94.083 L
135.211 97.195 L
141.221 98.911 L
148.526 102.227 L
155.804 108.042 L
160.074 117.173 L
161.776 126.304 L
161.842 127.141 L
162.46 135.435 L
162.46 144.565 L
161.842 152.859 L
161.776 153.696 L
160.074 162.827 L
155.804 171.958 L
148.526 177.773 L
141.221 181.089 L
135.211 182.805 L
121.895 185.917 L
108.579 188.747 L
102.472 190.22 L
95.263 192.164 L
81.947 197.169 L
77.915 199.35 L
68.632 207.871 L
68.155 208.481 L
cp
188.474 181.295 M
184.338 181.089 L
175.158 179.726 L
171.243 171.958 L
170.217 162.827 L
169.848 153.696 L
169.71 144.565 L
169.71 135.435 L
169.848 126.304 L
170.217 117.173 L
171.243 108.042 L
175.158 100.274 L
184.338 98.911 L
188.474 98.705 L
190.312 98.911 L
201.789 99.769 L
215.105 101.485 L
228.421 103.844 L
241.737 107.23 L
243.997 108.042 L
255.053 113.37 L
260.154 117.173 L
266.994 126.304 L
268.368 130.551 L
269.644 135.435 L
269.644 144.565 L
268.368 149.449 L
266.994 153.696 L
260.154 162.827 L
255.053 166.63 L
243.997 171.958 L
241.737 172.77 L
228.421 176.156 L
215.105 178.515 L
201.789 180.231 L
190.312 181.089 L
cp
f
GR
GS
[0.78257 0 0 0.78197 0 0.22835] CT
0.106 0.667 0.871 RC
N
56.535 217.612 M
55.788 226.743 L
63.154 226.743 L
64.259 217.612 L
68.155 208.481 L
68.632 207.871 L
77.915 199.35 L
81.947 197.169 L
95.263 192.164 L
102.472 190.22 L
108.579 188.747 L
121.895 185.917 L
135.211 182.805 L
141.221 181.089 L
148.526 177.773 L
155.804 171.958 L
160.074 162.827 L
161.776 153.696 L
161.842 152.859 L
162.46 144.565 L
162.46 135.435 L
161.842 127.141 L
161.776 126.304 L
160.074 117.173 L
155.804 108.042 L
148.526 102.227 L
141.221 98.911 L
135.211 97.195 L
121.895 94.083 L
108.579 91.253 L
102.472 89.78 L
95.263 87.836 L
81.947 82.831 L
77.915 80.65 L
68.632 72.129 L
68.155 71.519 L
64.259 62.388 L
63.154 53.257 L
55.788 53.257 L
56.535 62.388 L
59.171 71.519 L
65.51 80.65 L
68.632 83.052 L
81.947 89.616 L
82.414 89.78 L
95.263 93.378 L
108.579 96.49 L
118.587 98.911 L
121.895 99.807 L
135.211 104.44 L
141.934 108.042 L
148.526 114.364 L
150.571 117.173 L
154.11 126.304 L
155.479 135.435 L
155.479 144.565 L
154.11 153.696 L
150.571 162.827 L
148.526 165.636 L
141.934 171.958 L
135.211 175.56 L
121.895 180.193 L
118.587 181.089 L
108.579 183.51 L
95.263 186.622 L
82.414 190.22 L
81.947 190.384 L
68.632 196.948 L
65.51 199.35 L
59.171 208.481 L
cp
175.608 217.612 M
175.22 226.743 L
182.887 226.743 L
183.694 217.612 L
186.616 208.481 L
188.474 205.607 L
194.035 199.35 L
201.789 194.816 L
214.243 190.22 L
215.105 189.985 L
228.421 186.765 L
241.737 183.766 L
252.088 181.089 L
255.053 180.176 L
268.368 174.337 L
271.817 171.958 L
278.96 162.827 L
281.684 154.943 L
282.035 153.696 L
283.237 144.565 L
283.237 135.435 L
282.035 126.304 L
281.684 125.057 L
278.96 117.173 L
271.817 108.042 L
268.368 105.663 L
255.053 99.824 L
252.088 98.911 L
241.737 96.234 L
228.421 93.235 L
215.105 90.015 L
214.243 89.78 L
201.789 85.184 L
194.035 80.65 L
188.474 74.393 L
186.616 71.519 L
183.694 62.388 L
182.887 53.257 L
175.22 53.257 L
175.608 62.388 L
177.012 71.519 L
180.645 80.65 L
188.474 87.558 L
192.671 89.78 L
201.789 92.651 L
215.105 95.715 L
228.421 98.472 L
230.324 98.911 L
241.737 101.694 L
255.053 106.234 L
258.773 108.042 L
268.368 115.403 L
269.945 117.173 L
274.598 126.304 L
276.457 135.435 L
276.457 144.565 L
274.598 153.696 L
269.945 162.827 L
268.368 164.597 L
258.773 171.958 L
255.053 173.766 L
241.737 178.306 L
230.324 181.089 L
228.421 181.528 L
215.105 184.285 L
201.789 187.349 L
192.671 190.22 L
188.474 192.442 L
180.645 199.35 L
177.012 208.481 L
cp
f
GR
GS
[0.78257 0 0 0.78197 0 0.22835] CT
0.075 0.745 0.722 RC
N
48.828 217.612 M
48.476 226.743 L
55.316 226.743 L
55.788 226.743 L
56.535 217.612 L
59.171 208.481 L
65.51 199.35 L
68.632 196.948 L
81.947 190.384 L
82.414 190.22 L
95.263 186.622 L
108.579 183.51 L
118.587 181.089 L
121.895 180.193 L
135.211 175.56 L
141.934 171.958 L
148.526 165.636 L
150.571 162.827 L
154.11 153.696 L
155.479 144.565 L
155.479 135.435 L
154.11 126.304 L
150.571 117.173 L
148.526 114.364 L
141.934 108.042 L
135.211 104.44 L
121.895 99.807 L
118.587 98.911 L
108.579 96.49 L
95.263 93.378 L
82.414 89.78 L
81.947 89.616 L
68.632 83.052 L
65.51 80.65 L
59.171 71.519 L
56.535 62.388 L
55.788 53.257 L
55.316 53.257 L
48.476 53.257 L
48.828 62.388 L
50.099 71.519 L
53.371 80.65 L
55.316 83.301 L
62.988 89.78 L
68.632 92.096 L
81.947 95.864 L
95.263 98.763 L
95.913 98.911 L
108.579 101.807 L
121.895 105.666 L
127.817 108.042 L
135.211 112.317 L
140.841 117.173 L
146.32 126.304 L
148.523 135.435 L
148.523 144.565 L
146.32 153.696 L
140.841 162.827 L
135.211 167.683 L
127.817 171.958 L
121.895 174.334 L
108.579 178.193 L
95.913 181.089 L
95.263 181.237 L
81.947 184.136 L
68.632 187.904 L
62.988 190.22 L
55.316 196.699 L
53.371 199.35 L
50.099 208.481 L
cp
183.694 217.612 M
182.887 226.743 L
188.474 226.743 L
190.683 226.743 L
191.962 217.612 L
196.465 208.481 L
201.789 203.317 L
207.724 199.35 L
215.105 196.166 L
228.421 192.16 L
236.832 190.22 L
241.737 189.15 L
255.053 186.436 L
268.368 183.02 L
273.78 181.089 L
281.684 175.603 L
284.666 171.958 L
288.038 162.827 L
289.383 153.696 L
289.904 144.565 L
289.904 135.435 L
289.383 126.304 L
288.038 117.173 L
284.666 108.042 L
281.684 104.397 L
273.78 98.911 L
268.368 96.98 L
255.053 93.564 L
241.737 90.85 L
236.832 89.78 L
228.421 87.84 L
215.105 83.834 L
207.724 80.65 L
201.789 76.683 L
196.465 71.519 L
191.962 62.388 L
190.683 53.257 L
188.474 53.257 L
182.887 53.257 L
183.694 62.388 L
186.616 71.519 L
188.474 74.393 L
194.035 80.65 L
201.789 85.184 L
214.243 89.78 L
215.105 90.015 L
228.421 93.235 L
241.737 96.234 L
252.088 98.911 L
255.053 99.824 L
268.368 105.663 L
271.817 108.042 L
278.96 117.173 L
281.684 125.057 L
282.035 126.304 L
283.237 135.435 L
283.237 144.565 L
282.035 153.696 L
281.684 154.943 L
278.96 162.827 L
271.817 171.958 L
268.368 174.337 L
255.053 180.176 L
252.088 181.089 L
241.737 183.766 L
228.421 186.765 L
215.105 189.985 L
214.243 190.22 L
201.789 194.816 L
194.035 199.35 L
188.474 205.607 L
186.616 208.481 L
cp
f
GR
GS
[0.78257 0 0 0.78197 0 0.22835] CT
0.278 0.796 0.525 RC
N
42 217.612 M
42 226.743 L
48.476 226.743 L
48.828 217.612 L
50.099 208.481 L
53.371 199.35 L
55.316 196.699 L
62.988 190.22 L
68.632 187.904 L
81.947 184.136 L
95.263 181.237 L
95.913 181.089 L
108.579 178.193 L
121.895 174.334 L
127.817 171.958 L
135.211 167.683 L
140.841 162.827 L
146.32 153.696 L
148.523 144.565 L
148.523 135.435 L
146.32 126.304 L
140.841 117.173 L
135.211 112.317 L
127.817 108.042 L
121.895 105.666 L
108.579 101.807 L
95.913 98.911 L
95.263 98.763 L
81.947 95.864 L
68.632 92.096 L
62.988 89.78 L
55.316 83.301 L
53.371 80.65 L
50.099 71.519 L
48.828 62.388 L
48.476 53.257 L
42 53.257 L
42 62.388 L
42 71.519 L
42 80.65 L
42 89.78 L
42 98.911 L
42 108.042 L
42 117.173 L
42 126.304 L
42 135.435 L
42 144.565 L
42 153.696 L
42 162.827 L
42 171.958 L
42 181.089 L
42 190.22 L
42 199.35 L
42 208.481 L
cp
191.962 217.612 M
190.683 226.743 L
198.822 226.743 L
200.492 217.612 L
201.789 215.353 L
207.106 208.481 L
215.105 203.108 L
223.767 199.35 L
228.421 197.86 L
241.737 194.916 L
255.053 192.887 L
268.368 191.632 L
281.684 191.97 L
290.229 199.35 L
292.087 208.481 L
292.673 217.612 L
292.825 226.743 L
295 226.743 L
295 217.612 L
295 208.481 L
295 199.35 L
295 190.22 L
295 181.089 L
295 171.958 L
295 162.827 L
295 153.696 L
295 144.565 L
295 135.435 L
295 126.304 L
295 117.173 L
295 108.042 L
295 98.911 L
295 89.78 L
295 80.65 L
295 71.519 L
295 62.388 L
295 53.257 L
292.825 53.257 L
292.673 62.388 L
292.087 71.519 L
290.229 80.65 L
281.684 88.03 L
268.368 88.368 L
255.053 87.113 L
241.737 85.084 L
228.421 82.14 L
223.767 80.65 L
215.105 76.892 L
207.106 71.519 L
201.789 64.647 L
200.492 62.388 L
198.822 53.257 L
190.683 53.257 L
191.962 62.388 L
196.465 71.519 L
201.789 76.683 L
207.724 80.65 L
215.105 83.834 L
228.421 87.84 L
236.832 89.78 L
241.737 90.85 L
255.053 93.564 L
268.368 96.98 L
273.78 98.911 L
281.684 104.397 L
284.666 108.042 L
288.038 117.173 L
289.383 126.304 L
289.904 135.435 L
289.904 144.565 L
289.383 153.696 L
288.038 162.827 L
284.666 171.958 L
281.684 175.603 L
273.78 181.089 L
268.368 183.02 L
255.053 186.436 L
241.737 189.15 L
236.832 190.22 L
228.421 192.16 L
215.105 196.166 L
207.724 199.35 L
201.789 203.317 L
196.465 208.481 L
cp
55.316 180.071 M
44.504 171.958 L
43.4 162.827 L
43.057 153.696 L
42.936 144.565 L
42.936 135.435 L
43.057 126.304 L
43.4 117.173 L
44.504 108.042 L
55.316 99.929 L
68.632 100.641 L
81.947 102.188 L
95.263 104.294 L
108.579 107.191 L
111.376 108.042 L
121.895 112.076 L
130.399 117.173 L
135.211 122.065 L
138.2 126.304 L
141.076 135.435 L
141.076 144.565 L
138.2 153.696 L
135.211 157.935 L
130.399 162.827 L
121.895 167.924 L
111.376 171.958 L
108.579 172.809 L
95.263 175.706 L
81.947 177.812 L
68.632 179.359 L
cp
f
GR
GS
[0.78257 0 0 0.78197 0 0.22835] CT
0.627 0.784 0.251 RC
N
200.492 217.612 M
198.822 226.743 L
201.789 226.743 L
208.006 226.743 L
210.415 217.612 L
215.105 212.11 L
219.854 208.481 L
228.421 204.59 L
241.737 201.124 L
255.053 199.751 L
268.368 201.255 L
278.996 208.481 L
281.684 213.827 L
282.795 217.612 L
283.589 226.743 L
292.825 226.743 L
292.673 217.612 L
292.087 208.481 L
290.229 199.35 L
281.684 191.97 L
268.368 191.632 L
255.053 192.887 L
241.737 194.916 L
228.421 197.86 L
223.767 199.35 L
215.105 203.108 L
207.106 208.481 L
201.789 215.353 L
cp
44.504 171.958 M
55.316 180.071 L
68.632 179.359 L
81.947 177.812 L
95.263 175.706 L
108.579 172.809 L
111.376 171.958 L
121.895 167.924 L
130.399 162.827 L
135.211 157.935 L
138.2 153.696 L
141.076 144.565 L
141.076 135.435 L
138.2 126.304 L
135.211 122.065 L
130.399 117.173 L
121.895 112.076 L
111.376 108.042 L
108.579 107.191 L
95.263 104.294 L
81.947 102.188 L
68.632 100.641 L
55.316 99.929 L
44.504 108.042 L
43.4 117.173 L
43.057 126.304 L
42.936 135.435 L
42.936 144.565 L
43.057 153.696 L
43.4 162.827 L
cp
68.632 170.412 M
55.86 162.827 L
55.316 161.994 L
52.357 153.696 L
51.172 144.565 L
51.172 135.435 L
52.357 126.304 L
55.316 118.006 L
55.86 117.173 L
68.632 109.588 L
81.947 108.686 L
95.263 110.112 L
108.579 113.291 L
118.093 117.173 L
121.895 119.474 L
129.071 126.304 L
133.29 135.435 L
133.29 144.565 L
129.071 153.696 L
121.895 160.526 L
118.093 162.827 L
108.579 166.709 L
95.263 169.888 L
81.947 171.314 L
cp
223.767 80.65 M
228.421 82.14 L
241.737 85.084 L
255.053 87.113 L
268.368 88.368 L
281.684 88.03 L
290.229 80.65 L
292.087 71.519 L
292.673 62.388 L
292.825 53.257 L
283.589 53.257 L
282.795 62.388 L
281.684 66.173 L
278.996 71.519 L
268.368 78.745 L
255.053 80.249 L
241.737 78.876 L
228.421 75.41 L
219.854 71.519 L
215.105 67.89 L
210.415 62.388 L
208.006 53.257 L
201.789 53.257 L
198.822 53.257 L
200.492 62.388 L
201.789 64.647 L
207.106 71.519 L
215.105 76.892 L
cp
f
GR
GS
[0.78257 0 0 0.78197 0 0.22835] CT
0.925 0.729 0.196 RC
N
210.415 217.612 M
208.006 226.743 L
215.105 226.743 L
218.978 226.743 L
222.905 217.612 L
228.421 213.433 L
241.483 208.481 L
241.737 208.417 L
255.053 208.196 L
256.16 208.481 L
268.368 215.105 L
270.193 217.612 L
272.18 226.743 L
281.684 226.743 L
283.589 226.743 L
282.795 217.612 L
281.684 213.827 L
278.996 208.481 L
268.368 201.255 L
255.053 199.751 L
241.737 201.124 L
228.421 204.59 L
219.854 208.481 L
215.105 212.11 L
cp
55.86 162.827 M
68.632 170.412 L
81.947 171.314 L
95.263 169.888 L
108.579 166.709 L
118.093 162.827 L
121.895 160.526 L
129.071 153.696 L
133.29 144.565 L
133.29 135.435 L
129.071 126.304 L
121.895 119.474 L
118.093 117.173 L
108.579 113.291 L
95.263 110.112 L
81.947 108.686 L
68.632 109.588 L
55.86 117.173 L
55.316 118.006 L
52.357 126.304 L
51.172 135.435 L
51.172 144.565 L
52.357 153.696 L
55.316 161.994 L
cp
81.947 163.892 M
77.095 162.827 L
68.632 159.376 L
63.617 153.696 L
60.571 144.565 L
60.571 135.435 L
63.617 126.304 L
68.632 120.624 L
77.095 117.173 L
81.947 116.108 L
95.263 116.521 L
98.088 117.173 L
108.579 120.38 L
118.262 126.304 L
121.895 130.878 L
124.25 135.435 L
124.25 144.565 L
121.895 149.122 L
118.262 153.696 L
108.579 159.62 L
98.088 162.827 L
95.263 163.479 L
cp
219.854 71.519 M
228.421 75.41 L
241.737 78.876 L
255.053 80.249 L
268.368 78.745 L
278.996 71.519 L
281.684 66.173 L
282.795 62.388 L
283.589 53.257 L
281.684 53.257 L
272.18 53.257 L
270.193 62.388 L
268.368 64.895 L
256.16 71.519 L
255.053 71.804 L
241.737 71.583 L
241.483 71.519 L
228.421 66.567 L
222.905 62.388 L
218.978 53.257 L
215.105 53.257 L
208.006 53.257 L
210.415 62.388 L
215.105 67.89 L
cp
f
GR
GS
[0.78257 0 0 0.78197 0 0.22835] CT
0.98 0.831 0.176 RC
N
222.905 217.612 M
218.978 226.743 L
228.421 226.743 L
238.678 226.743 L
241.737 223.525 L
252.365 226.743 L
255.053 226.743 L
268.368 226.743 L
272.18 226.743 L
270.193 217.612 L
268.368 215.105 L
256.16 208.481 L
255.053 208.196 L
241.737 208.417 L
241.483 208.481 L
228.421 213.433 L
cp
77.095 162.827 M
81.947 163.892 L
95.263 163.479 L
98.088 162.827 L
108.579 159.62 L
118.262 153.696 L
121.895 149.122 L
124.25 144.565 L
124.25 135.435 L
121.895 130.878 L
118.262 126.304 L
108.579 120.38 L
98.088 117.173 L
95.263 116.521 L
81.947 116.108 L
77.095 117.173 L
68.632 120.624 L
63.617 126.304 L
60.571 135.435 L
60.571 144.565 L
63.617 153.696 L
68.632 159.376 L
cp
81.947 154.162 M
80.98 153.696 L
72.795 144.565 L
72.795 135.435 L
80.98 126.304 L
81.947 125.838 L
95.263 125.021 L
99.609 126.304 L
108.579 131.174 L
112.092 135.435 L
112.092 144.565 L
108.579 148.826 L
99.609 153.696 L
95.263 154.979 L
cp
241.483 71.519 M
241.737 71.583 L
255.053 71.804 L
256.16 71.519 L
268.368 64.895 L
270.193 62.388 L
272.18 53.257 L
268.368 53.257 L
255.053 53.257 L
252.365 53.257 L
241.737 56.475 L
238.678 53.257 L
228.421 53.257 L
218.978 53.257 L
222.905 62.388 L
228.421 66.567 L
cp
f
GR
GS
[0.78257 0 0 0.78197 0 0.22835] CT
0.976 0.98 0.078 RC
N
241.737 223.525 M
238.678 226.743 L
241.737 226.743 L
252.365 226.743 L
cp
80.98 153.696 M
81.947 154.162 L
95.263 154.979 L
99.609 153.696 L
108.579 148.826 L
112.092 144.565 L
112.092 135.435 L
108.579 131.174 L
99.609 126.304 L
95.263 125.021 L
81.947 125.838 L
80.98 126.304 L
72.795 135.435 L
72.795 144.565 L
cp
241.737 53.257 M
238.678 53.257 L
241.737 56.475 L
252.365 53.257 L
cp
f
GR
GS
[0.78257 0 0 0.78197 0 0.22835] CT
1 LJ
0.639 LW
N
103.221 226.743 M
108.53 217.612 L
S
GR
GS
[0.78257 0 0 0.78197 0 0.22835] CT
1 LJ
0.639 LW
N
127.98 217.612 M
135.211 226.525 L
135.281 226.743 L
S
GR
GS
[0.78257 0 0 0.78197 0 0.22835] CT
1 LJ
0.639 LW
N
108.53 217.612 M
108.579 217.583 L
121.895 215.528 L
127.98 217.612 L
S
GR
GS
[0.78257 0 0 0.78197 0 0.22835] CT
1 LJ
0.639 LW
N
234.463 153.696 M
228.421 156.403 L
215.105 157.877 L
201.789 153.796 L
201.67 153.696 L
S
GR
GS
[0.78257 0 0 0.78197 0 0.22835] CT
1 LJ
0.639 LW
N
201.67 153.696 M
196.68 144.565 L
S
GR
GS
[0.78257 0 0 0.78197 0 0.22835] CT
1 LJ
0.639 LW
N
243.499 144.565 M
241.737 147.358 L
234.463 153.696 L
S
GR
GS
[0.78257 0 0 0.78197 0 0.22835] CT
1 LJ
0.639 LW
N
196.68 144.565 M
196.68 135.435 L
S
GR
GS
[0.78257 0 0 0.78197 0 0.22835] CT
1 LJ
0.639 LW
N
243.499 135.435 M
243.499 144.565 L
S
GR
GS
[0.78257 0 0 0.78197 0 0.22835] CT
1 LJ
0.639 LW
N
196.68 135.435 M
201.67 126.304 L
S
GR
GS
[0.78257 0 0 0.78197 0 0.22835] CT
1 LJ
0.639 LW
N
234.463 126.304 M
241.737 132.642 L
243.499 135.435 L
S
GR
GS
[0.78257 0 0 0.78197 0 0.22835] CT
1 LJ
0.639 LW
N
201.67 126.304 M
201.789 126.204 L
215.105 122.123 L
228.421 123.597 L
234.463 126.304 L
S
GR
GS
[0.78257 0 0 0.78197 0 0.22835] CT
1 LJ
0.639 LW
N
127.98 62.388 M
121.895 64.472 L
108.579 62.417 L
108.53 62.388 L
S
GR
GS
[0.78257 0 0 0.78197 0 0.22835] CT
1 LJ
0.639 LW
N
108.53 62.388 M
103.221 53.257 L
S
GR
GS
[0.78257 0 0 0.78197 0 0.22835] CT
1 LJ
0.639 LW
N
135.281 53.257 M
135.211 53.475 L
127.98 62.388 L
S
GR
GS
[0.78257 0 0 0.78197 0 0.22835] CT
1 LJ
0.639 LW
N
89.082 226.743 M
92.027 217.612 L
S
GR
GS
[0.78257 0 0 0.78197 0 0.22835] CT
1 LJ
0.639 LW
N
147.088 217.612 M
148.526 223.983 L
148.926 226.743 L
S
GR
GS
[0.78257 0 0 0.78197 0 0.22835] CT
1 LJ
0.639 LW
N
92.027 217.612 M
95.263 214.362 L
105.305 208.481 L
S
GR
GS
[0.78257 0 0 0.78197 0 0.22835] CT
1 LJ
0.639 LW
N
138.738 208.481 M
147.088 217.612 L
S
GR
GS
[0.78257 0 0 0.78197 0 0.22835] CT
1 LJ
0.639 LW
N
105.305 208.481 M
108.579 207.275 L
121.895 205.319 L
135.211 206.772 L
138.738 208.481 L
S
GR
GS
[0.78257 0 0 0.78197 0 0.22835] CT
1 LJ
0.639 LW
N
233.252 162.827 M
228.421 164.349 L
215.105 165.98 L
201.789 164.647 L
197.615 162.827 L
S
GR
GS
[0.78257 0 0 0.78197 0 0.22835] CT
1 LJ
0.639 LW
N
197.615 162.827 M
188.474 154.43 L
188.077 153.696 L
S
GR
GS
[0.78257 0 0 0.78197 0 0.22835] CT
1 LJ
0.639 LW
N
248.568 153.696 M
241.737 159.082 L
233.252 162.827 L
S
GR
GS
[0.78257 0 0 0.78197 0 0.22835] CT
1 LJ
0.639 LW
N
188.077 153.696 M
185.808 144.565 L
S
GR
GS
[0.78257 0 0 0.78197 0 0.22835] CT
1 LJ
0.639 LW
N
253.927 144.565 M
248.568 153.696 L
S
GR
GS
[0.78257 0 0 0.78197 0 0.22835] CT
1 LJ
0.639 LW
N
185.808 144.565 M
185.808 135.435 L
S
GR
GS
[0.78257 0 0 0.78197 0 0.22835] CT
1 LJ
0.639 LW
N
253.927 135.435 M
253.927 144.565 L
S
GR
GS
[0.78257 0 0 0.78197 0 0.22835] CT
1 LJ
0.639 LW
N
185.808 135.435 M
188.077 126.304 L
S
GR
GS
[0.78257 0 0 0.78197 0 0.22835] CT
1 LJ
0.639 LW
N
248.568 126.304 M
253.927 135.435 L
S
GR
GS
[0.78257 0 0 0.78197 0 0.22835] CT
1 LJ
0.639 LW
N
188.077 126.304 M
188.474 125.57 L
197.615 117.173 L
S
GR
GS
[0.78257 0 0 0.78197 0 0.22835] CT
1 LJ
0.639 LW
N
233.252 117.173 M
241.737 120.918 L
248.568 126.304 L
S
GR
GS
[0.78257 0 0 0.78197 0 0.22835] CT
1 LJ
0.639 LW
N
197.615 117.173 M
201.789 115.353 L
215.105 114.02 L
228.421 115.651 L
233.252 117.173 L
S
GR
GS
[0.78257 0 0 0.78197 0 0.22835] CT
1 LJ
0.639 LW
N
138.738 71.519 M
135.211 73.228 L
121.895 74.681 L
108.579 72.725 L
105.305 71.519 L
S
GR
GS
[0.78257 0 0 0.78197 0 0.22835] CT
1 LJ
0.639 LW
N
105.305 71.519 M
95.263 65.638 L
92.027 62.388 L
S
GR
GS
[0.78257 0 0 0.78197 0 0.22835] CT
1 LJ
0.639 LW
N
147.088 62.388 M
138.738 71.519 L
S
GR
GS
[0.78257 0 0 0.78197 0 0.22835] CT
1 LJ
0.639 LW
N
92.027 62.388 M
89.082 53.257 L
S
GR
GS
[0.78257 0 0 0.78197 0 0.22835] CT
1 LJ
0.639 LW
N
148.926 53.257 M
148.526 56.017 L
147.088 62.388 L
S
GR
GS
[0.78257 0 0 0.78197 0 0.22835] CT
1 LJ
0.639 LW
N
79.086 226.743 M
81.063 217.612 L
S
GR
GS
[0.78257 0 0 0.78197 0 0.22835] CT
1 LJ
0.639 LW
N
157.833 217.612 M
158.552 226.743 L
S
GR
GS
[0.78257 0 0 0.78197 0 0.22835] CT
1 LJ
0.639 LW
N
81.063 217.612 M
81.947 216.28 L
89.342 208.481 L
S
GR
GS
[0.78257 0 0 0.78197 0 0.22835] CT
1 LJ
0.639 LW
N
155.052 208.481 M
157.833 217.612 L
S
GR
GS
[0.78257 0 0 0.78197 0 0.22835] CT
1 LJ
0.639 LW
N
89.342 208.481 M
95.263 204.992 L
108.579 200.18 L
113.108 199.35 L
S
GR
GS
[0.78257 0 0 0.78197 0 0.22835] CT
1 LJ
0.639 LW
N
144.236 199.35 M
148.526 200.958 L
155.052 208.481 L
S
GR
GS
[0.78257 0 0 0.78197 0 0.22835] CT
1 LJ
0.639 LW
N
113.108 199.35 M
121.895 197.943 L
135.211 197.592 L
144.236 199.35 L
S
GR
GS
[0.78257 0 0 0.78197 0 0.22835] CT
1 LJ
0.639 LW
N
219.775 171.958 M
215.105 172.655 L
201.789 172.938 L
195.937 171.958 L
S
GR
GS
[0.78257 0 0 0.78197 0 0.22835] CT
1 LJ
0.639 LW
N
195.937 171.958 M
188.474 169.722 L
181.763 162.827 L
S
GR
GS
[0.78257 0 0 0.78197 0 0.22835] CT
1 LJ
0.639 LW
N
248.92 162.827 M
241.737 166.489 L
228.421 170.584 L
219.775 171.958 L
S
GR
GS
[0.78257 0 0 0.78197 0 0.22835] CT
1 LJ
0.639 LW
N
181.763 162.827 M
178.453 153.696 L
S
GR
GS
[0.78257 0 0 0.78197 0 0.22835] CT
1 LJ
0.639 LW
N
258.554 153.696 M
255.053 157.893 L
248.92 162.827 L
S
GR
GS
[0.78257 0 0 0.78197 0 0.22835] CT
1 LJ
0.639 LW
N
178.453 153.696 M
177.278 144.565 L
S
GR
GS
[0.78257 0 0 0.78197 0 0.22835] CT
1 LJ
0.639 LW
N
262.02 144.565 M
258.554 153.696 L
S
GR
GS
[0.78257 0 0 0.78197 0 0.22835] CT
1 LJ
0.639 LW
N
177.278 144.565 M
177.278 135.435 L
S
GR
GS
[0.78257 0 0 0.78197 0 0.22835] CT
1 LJ
0.639 LW
N
262.02 135.435 M
262.02 144.565 L
S
GR
GS
[0.78257 0 0 0.78197 0 0.22835] CT
1 LJ
0.639 LW
N
177.278 135.435 M
178.453 126.304 L
S
GR
GS
[0.78257 0 0 0.78197 0 0.22835] CT
1 LJ
0.639 LW
N
258.554 126.304 M
262.02 135.435 L
S
GR
GS
[0.78257 0 0 0.78197 0 0.22835] CT
1 LJ
0.639 LW
N
178.453 126.304 M
181.763 117.173 L
S
GR
GS
[0.78257 0 0 0.78197 0 0.22835] CT
1 LJ
0.639 LW
N
248.92 117.173 M
255.053 122.107 L
258.554 126.304 L
S
GR
GS
[0.78257 0 0 0.78197 0 0.22835] CT
1 LJ
0.639 LW
N
181.763 117.173 M
188.474 110.278 L
195.937 108.042 L
S
GR
GS
[0.78257 0 0 0.78197 0 0.22835] CT
1 LJ
0.639 LW
N
219.775 108.042 M
228.421 109.416 L
241.737 113.511 L
248.92 117.173 L
S
GR
GS
[0.78257 0 0 0.78197 0 0.22835] CT
1 LJ
0.639 LW
N
195.937 108.042 M
201.789 107.062 L
215.105 107.345 L
219.775 108.042 L
S
GR
GS
[0.78257 0 0 0.78197 0 0.22835] CT
1 LJ
0.639 LW
N
144.236 80.65 M
135.211 82.408 L
121.895 82.057 L
113.108 80.65 L
S
GR
GS
[0.78257 0 0 0.78197 0 0.22835] CT
1 LJ
0.639 LW
N
113.108 80.65 M
108.579 79.82 L
95.263 75.008 L
89.342 71.519 L
S
GR
GS
[0.78257 0 0 0.78197 0 0.22835] CT
1 LJ
0.639 LW
N
155.052 71.519 M
148.526 79.042 L
144.236 80.65 L
S
GR
GS
[0.78257 0 0 0.78197 0 0.22835] CT
1 LJ
0.639 LW
N
89.342 71.519 M
81.947 63.72 L
81.063 62.388 L
S
GR
GS
[0.78257 0 0 0.78197 0 0.22835] CT
1 LJ
0.639 LW
N
157.833 62.388 M
155.052 71.519 L
S
GR
GS
[0.78257 0 0 0.78197 0 0.22835] CT
1 LJ
0.639 LW
N
81.063 62.388 M
79.086 53.257 L
S
GR
GS
[0.78257 0 0 0.78197 0 0.22835] CT
1 LJ
0.639 LW
N
158.552 53.257 M
157.833 62.388 L
S
GR
GS
[0.78257 0 0 0.78197 0 0.22835] CT
1 LJ
0.639 LW
N
70.765 226.743 M
72.393 217.612 L
S
GR
GS
[0.78257 0 0 0.78197 0 0.22835] CT
1 LJ
0.639 LW
N
167.071 217.612 M
167.153 226.743 L
S
GR
GS
[0.78257 0 0 0.78197 0 0.22835] CT
1 LJ
0.639 LW
N
72.393 217.612 M
77.975 208.481 L
S
GR
GS
[0.78257 0 0 0.78197 0 0.22835] CT
1 LJ
0.639 LW
N
166.764 208.481 M
167.071 217.612 L
S
GR
GS
[0.78257 0 0 0.78197 0 0.22835] CT
1 LJ
0.639 LW
N
77.975 208.481 M
81.947 205.081 L
91.931 199.35 L
S
GR
GS
[0.78257 0 0 0.78197 0 0.22835] CT
1 LJ
0.639 LW
N
165.9 199.35 M
166.764 208.481 L
S
GR
GS
[0.78257 0 0 0.78197 0 0.22835] CT
1 LJ
0.639 LW
N
91.931 199.35 M
95.263 198.023 L
108.579 194.317 L
121.895 191.74 L
133.144 190.22 L
S
GR
GS
[0.78257 0 0 0.78197 0 0.22835] CT
1 LJ
0.639 LW
N
161.428 190.22 M
161.842 190.36 L
165.9 199.35 L
S
GR
GS
[0.78257 0 0 0.78197 0 0.22835] CT
1 LJ
0.639 LW
N
133.144 190.22 M
135.211 189.9 L
148.526 188.83 L
161.428 190.22 L
S
GR
GS
[0.78257 0 0 0.78197 0 0.22835] CT
1 LJ
0.639 LW
N
190.312 181.089 M
188.474 181.295 L
184.338 181.089 L
S
GR
GS
[0.78257 0 0 0.78197 0 0.22835] CT
1 LJ
0.639 LW
N
184.338 181.089 M
175.158 179.726 L
171.243 171.958 L
S
GR
GS
[0.78257 0 0 0.78197 0 0.22835] CT
1 LJ
0.639 LW
N
243.997 171.958 M
241.737 172.77 L
228.421 176.156 L
215.105 178.515 L
201.789 180.231 L
190.312 181.089 L
S
GR
GS
[0.78257 0 0 0.78197 0 0.22835] CT
1 LJ
0.639 LW
N
171.243 171.958 M
170.217 162.827 L
S
GR
GS
[0.78257 0 0 0.78197 0 0.22835] CT
1 LJ
0.639 LW
N
260.154 162.827 M
255.053 166.63 L
243.997 171.958 L
S
GR
GS
[0.78257 0 0 0.78197 0 0.22835] CT
1 LJ
0.639 LW
N
170.217 162.827 M
169.848 153.696 L
S
GR
GS
[0.78257 0 0 0.78197 0 0.22835] CT
1 LJ
0.639 LW
N
266.994 153.696 M
260.154 162.827 L
S
GR
GS
[0.78257 0 0 0.78197 0 0.22835] CT
1 LJ
0.639 LW
N
169.848 153.696 M
169.71 144.565 L
S
GR
GS
[0.78257 0 0 0.78197 0 0.22835] CT
1 LJ
0.639 LW
N
269.644 144.565 M
268.368 149.449 L
266.994 153.696 L
S
GR
GS
[0.78257 0 0 0.78197 0 0.22835] CT
1 LJ
0.639 LW
N
169.71 144.565 M
169.71 135.435 L
S
GR
GS
[0.78257 0 0 0.78197 0 0.22835] CT
1 LJ
0.639 LW
N
269.644 135.435 M
269.644 144.565 L
S
GR
GS
[0.78257 0 0 0.78197 0 0.22835] CT
1 LJ
0.639 LW
N
169.71 135.435 M
169.848 126.304 L
S
GR
GS
[0.78257 0 0 0.78197 0 0.22835] CT
1 LJ
0.639 LW
N
266.994 126.304 M
268.368 130.551 L
269.644 135.435 L
S
GR
GS
[0.78257 0 0 0.78197 0 0.22835] CT
1 LJ
0.639 LW
N
169.848 126.304 M
170.217 117.173 L
S
GR
GS
[0.78257 0 0 0.78197 0 0.22835] CT
1 LJ
0.639 LW
N
260.154 117.173 M
266.994 126.304 L
S
GR
GS
[0.78257 0 0 0.78197 0 0.22835] CT
1 LJ
0.639 LW
N
170.217 117.173 M
171.243 108.042 L
S
GR
GS
[0.78257 0 0 0.78197 0 0.22835] CT
1 LJ
0.639 LW
N
243.997 108.042 M
255.053 113.37 L
260.154 117.173 L
S
GR
GS
[0.78257 0 0 0.78197 0 0.22835] CT
1 LJ
0.639 LW
N
171.243 108.042 M
175.158 100.274 L
184.338 98.911 L
S
GR
GS
[0.78257 0 0 0.78197 0 0.22835] CT
1 LJ
0.639 LW
N
190.312 98.911 M
201.789 99.769 L
215.105 101.485 L
228.421 103.844 L
241.737 107.23 L
243.997 108.042 L
S
GR
GS
[0.78257 0 0 0.78197 0 0.22835] CT
1 LJ
0.639 LW
N
161.428 89.78 M
148.526 91.17 L
135.211 90.1 L
133.144 89.78 L
S
GR
GS
[0.78257 0 0 0.78197 0 0.22835] CT
1 LJ
0.639 LW
N
184.338 98.911 M
188.474 98.705 L
190.312 98.911 L
S
GR
GS
[0.78257 0 0 0.78197 0 0.22835] CT
1 LJ
0.639 LW
N
133.144 89.78 M
121.895 88.26 L
108.579 85.683 L
95.263 81.977 L
91.931 80.65 L
S
GR
GS
[0.78257 0 0 0.78197 0 0.22835] CT
1 LJ
0.639 LW
N
165.9 80.65 M
161.842 89.64 L
161.428 89.78 L
S
GR
GS
[0.78257 0 0 0.78197 0 0.22835] CT
1 LJ
0.639 LW
N
91.931 80.65 M
81.947 74.919 L
77.975 71.519 L
S
GR
GS
[0.78257 0 0 0.78197 0 0.22835] CT
1 LJ
0.639 LW
N
166.764 71.519 M
165.9 80.65 L
S
GR
GS
[0.78257 0 0 0.78197 0 0.22835] CT
1 LJ
0.639 LW
N
77.975 71.519 M
72.393 62.388 L
S
GR
GS
[0.78257 0 0 0.78197 0 0.22835] CT
1 LJ
0.639 LW
N
167.071 62.388 M
166.764 71.519 L
S
GR
GS
[0.78257 0 0 0.78197 0 0.22835] CT
1 LJ
0.639 LW
N
72.393 62.388 M
70.765 53.257 L
S
GR
GS
[0.78257 0 0 0.78197 0 0.22835] CT
1 LJ
0.639 LW
N
167.153 53.257 M
167.071 62.388 L
S
GR
GS
[0.78257 0 0 0.78197 0 0.22835] CT
1 LJ
0.639 LW
N
63.154 226.743 M
64.259 217.612 L
S
GR
GS
[0.78257 0 0 0.78197 0 0.22835] CT
1 LJ
0.639 LW
N
175.608 217.612 M
175.22 226.743 L
S
GR
GS
[0.78257 0 0 0.78197 0 0.22835] CT
1 LJ
0.639 LW
N
64.259 217.612 M
68.155 208.481 L
S
GR
GS
[0.78257 0 0 0.78197 0 0.22835] CT
1 LJ
0.639 LW
N
177.012 208.481 M
175.608 217.612 L
S
GR
GS
[0.78257 0 0 0.78197 0 0.22835] CT
1 LJ
0.639 LW
N
68.155 208.481 M
68.632 207.871 L
77.915 199.35 L
S
GR
GS
[0.78257 0 0 0.78197 0 0.22835] CT
1 LJ
0.639 LW
N
180.645 199.35 M
177.012 208.481 L
S
GR
GS
[0.78257 0 0 0.78197 0 0.22835] CT
1 LJ
0.639 LW
N
77.915 199.35 M
81.947 197.169 L
95.263 192.164 L
102.472 190.22 L
S
GR
GS
[0.78257 0 0 0.78197 0 0.22835] CT
1 LJ
0.639 LW
N
192.671 190.22 M
188.474 192.442 L
180.645 199.35 L
S
GR
GS
[0.78257 0 0 0.78197 0 0.22835] CT
1 LJ
0.639 LW
N
102.472 190.22 M
108.579 188.747 L
121.895 185.917 L
135.211 182.805 L
141.221 181.089 L
S
GR
GS
[0.78257 0 0 0.78197 0 0.22835] CT
1 LJ
0.639 LW
N
230.324 181.089 M
228.421 181.528 L
215.105 184.285 L
201.789 187.349 L
192.671 190.22 L
S
GR
GS
[0.78257 0 0 0.78197 0 0.22835] CT
1 LJ
0.639 LW
N
141.221 181.089 M
148.526 177.773 L
155.804 171.958 L
S
GR
GS
[0.78257 0 0 0.78197 0 0.22835] CT
1 LJ
0.639 LW
N
258.773 171.958 M
255.053 173.766 L
241.737 178.306 L
230.324 181.089 L
S
GR
GS
[0.78257 0 0 0.78197 0 0.22835] CT
1 LJ
0.639 LW
N
155.804 171.958 M
160.074 162.827 L
S
GR
GS
[0.78257 0 0 0.78197 0 0.22835] CT
1 LJ
0.639 LW
N
269.945 162.827 M
268.368 164.597 L
258.773 171.958 L
S
GR
GS
[0.78257 0 0 0.78197 0 0.22835] CT
1 LJ
0.639 LW
N
160.074 162.827 M
161.776 153.696 L
S
GR
GS
[0.78257 0 0 0.78197 0 0.22835] CT
1 LJ
0.639 LW
N
274.598 153.696 M
269.945 162.827 L
S
GR
GS
[0.78257 0 0 0.78197 0 0.22835] CT
1 LJ
0.639 LW
N
161.776 153.696 M
161.842 152.859 L
162.46 144.565 L
S
GR
GS
[0.78257 0 0 0.78197 0 0.22835] CT
1 LJ
0.639 LW
N
276.457 144.565 M
274.598 153.696 L
S
GR
GS
[0.78257 0 0 0.78197 0 0.22835] CT
1 LJ
0.639 LW
N
162.46 144.565 M
162.46 135.435 L
S
GR
GS
[0.78257 0 0 0.78197 0 0.22835] CT
1 LJ
0.639 LW
N
276.457 135.435 M
276.457 144.565 L
S
GR
GS
[0.78257 0 0 0.78197 0 0.22835] CT
1 LJ
0.639 LW
N
162.46 135.435 M
161.842 127.141 L
161.776 126.304 L
S
GR
GS
[0.78257 0 0 0.78197 0 0.22835] CT
1 LJ
0.639 LW
N
274.598 126.304 M
276.457 135.435 L
S
GR
GS
[0.78257 0 0 0.78197 0 0.22835] CT
1 LJ
0.639 LW
N
161.776 126.304 M
160.074 117.173 L
S
GR
GS
[0.78257 0 0 0.78197 0 0.22835] CT
1 LJ
0.639 LW
N
269.945 117.173 M
274.598 126.304 L
S
GR
GS
[0.78257 0 0 0.78197 0 0.22835] CT
1 LJ
0.639 LW
N
160.074 117.173 M
155.804 108.042 L
S
GR
GS
[0.78257 0 0 0.78197 0 0.22835] CT
1 LJ
0.639 LW
N
258.773 108.042 M
268.368 115.403 L
269.945 117.173 L
S
GR
GS
[0.78257 0 0 0.78197 0 0.22835] CT
1 LJ
0.639 LW
N
155.804 108.042 M
148.526 102.227 L
141.221 98.911 L
S
GR
GS
[0.78257 0 0 0.78197 0 0.22835] CT
1 LJ
0.639 LW
N
230.324 98.911 M
241.737 101.694 L
255.053 106.234 L
258.773 108.042 L
S
GR
GS
[0.78257 0 0 0.78197 0 0.22835] CT
1 LJ
0.639 LW
N
141.221 98.911 M
135.211 97.195 L
121.895 94.083 L
108.579 91.253 L
102.472 89.78 L
S
GR
GS
[0.78257 0 0 0.78197 0 0.22835] CT
1 LJ
0.639 LW
N
192.671 89.78 M
201.789 92.651 L
215.105 95.715 L
228.421 98.472 L
230.324 98.911 L
S
GR
GS
[0.78257 0 0 0.78197 0 0.22835] CT
1 LJ
0.639 LW
N
102.472 89.78 M
95.263 87.836 L
81.947 82.831 L
77.915 80.65 L
S
GR
GS
[0.78257 0 0 0.78197 0 0.22835] CT
1 LJ
0.639 LW
N
180.645 80.65 M
188.474 87.558 L
192.671 89.78 L
S
GR
GS
[0.78257 0 0 0.78197 0 0.22835] CT
1 LJ
0.639 LW
N
77.915 80.65 M
68.632 72.129 L
68.155 71.519 L
S
GR
GS
[0.78257 0 0 0.78197 0 0.22835] CT
1 LJ
0.639 LW
N
177.012 71.519 M
180.645 80.65 L
S
GR
GS
[0.78257 0 0 0.78197 0 0.22835] CT
1 LJ
0.639 LW
N
68.155 71.519 M
64.259 62.388 L
S
GR
GS
[0.78257 0 0 0.78197 0 0.22835] CT
1 LJ
0.639 LW
N
175.608 62.388 M
177.012 71.519 L
S
GR
GS
[0.78257 0 0 0.78197 0 0.22835] CT
1 LJ
0.639 LW
N
64.259 62.388 M
63.154 53.257 L
S
GR
GS
[0.78257 0 0 0.78197 0 0.22835] CT
1 LJ
0.639 LW
N
175.22 53.257 M
175.608 62.388 L
S
GR
GS
[0.78257 0 0 0.78197 0 0.22835] CT
1 LJ
0.639 LW
N
55.788 226.743 M
56.535 217.612 L
S
GR
GS
[0.78257 0 0 0.78197 0 0.22835] CT
1 LJ
0.639 LW
N
183.694 217.612 M
182.887 226.743 L
S
GR
GS
[0.78257 0 0 0.78197 0 0.22835] CT
1 LJ
0.639 LW
N
56.535 217.612 M
59.171 208.481 L
S
GR
GS
[0.78257 0 0 0.78197 0 0.22835] CT
1 LJ
0.639 LW
N
186.616 208.481 M
183.694 217.612 L
S
GR
GS
[0.78257 0 0 0.78197 0 0.22835] CT
1 LJ
0.639 LW
N
59.171 208.481 M
65.51 199.35 L
S
GR
GS
[0.78257 0 0 0.78197 0 0.22835] CT
1 LJ
0.639 LW
N
194.035 199.35 M
188.474 205.607 L
186.616 208.481 L
S
GR
GS
[0.78257 0 0 0.78197 0 0.22835] CT
1 LJ
0.639 LW
N
65.51 199.35 M
68.632 196.948 L
81.947 190.384 L
82.414 190.22 L
S
GR
GS
[0.78257 0 0 0.78197 0 0.22835] CT
1 LJ
0.639 LW
N
214.243 190.22 M
201.789 194.816 L
194.035 199.35 L
S
GR
GS
[0.78257 0 0 0.78197 0 0.22835] CT
1 LJ
0.639 LW
N
82.414 190.22 M
95.263 186.622 L
108.579 183.51 L
118.587 181.089 L
S
GR
GS
[0.78257 0 0 0.78197 0 0.22835] CT
1 LJ
0.639 LW
N
252.088 181.089 M
241.737 183.766 L
228.421 186.765 L
215.105 189.985 L
214.243 190.22 L
S
GR
GS
[0.78257 0 0 0.78197 0 0.22835] CT
1 LJ
0.639 LW
N
118.587 181.089 M
121.895 180.193 L
135.211 175.56 L
141.934 171.958 L
S
GR
GS
[0.78257 0 0 0.78197 0 0.22835] CT
1 LJ
0.639 LW
N
271.817 171.958 M
268.368 174.337 L
255.053 180.176 L
252.088 181.089 L
S
GR
GS
[0.78257 0 0 0.78197 0 0.22835] CT
1 LJ
0.639 LW
N
141.934 171.958 M
148.526 165.636 L
150.571 162.827 L
S
GR
GS
[0.78257 0 0 0.78197 0 0.22835] CT
1 LJ
0.639 LW
N
278.96 162.827 M
271.817 171.958 L
S
GR
GS
[0.78257 0 0 0.78197 0 0.22835] CT
1 LJ
0.639 LW
N
150.571 162.827 M
154.11 153.696 L
S
GR
GS
[0.78257 0 0 0.78197 0 0.22835] CT
1 LJ
0.639 LW
N
282.035 153.696 M
281.684 154.943 L
278.96 162.827 L
S
GR
GS
[0.78257 0 0 0.78197 0 0.22835] CT
1 LJ
0.639 LW
N
154.11 153.696 M
155.479 144.565 L
S
GR
GS
[0.78257 0 0 0.78197 0 0.22835] CT
1 LJ
0.639 LW
N
283.237 144.565 M
282.035 153.696 L
S
GR
GS
[0.78257 0 0 0.78197 0 0.22835] CT
1 LJ
0.639 LW
N
155.479 144.565 M
155.479 135.435 L
S
GR
GS
[0.78257 0 0 0.78197 0 0.22835] CT
1 LJ
0.639 LW
N
283.237 135.435 M
283.237 144.565 L
S
GR
GS
[0.78257 0 0 0.78197 0 0.22835] CT
1 LJ
0.639 LW
N
155.479 135.435 M
154.11 126.304 L
S
GR
GS
[0.78257 0 0 0.78197 0 0.22835] CT
1 LJ
0.639 LW
N
282.035 126.304 M
283.237 135.435 L
S
GR
GS
[0.78257 0 0 0.78197 0 0.22835] CT
1 LJ
0.639 LW
N
154.11 126.304 M
150.571 117.173 L
S
GR
GS
[0.78257 0 0 0.78197 0 0.22835] CT
1 LJ
0.639 LW
N
278.96 117.173 M
281.684 125.057 L
282.035 126.304 L
S
GR
GS
[0.78257 0 0 0.78197 0 0.22835] CT
1 LJ
0.639 LW
N
150.571 117.173 M
148.526 114.364 L
141.934 108.042 L
S
GR
GS
[0.78257 0 0 0.78197 0 0.22835] CT
1 LJ
0.639 LW
N
271.817 108.042 M
278.96 117.173 L
S
GR
GS
[0.78257 0 0 0.78197 0 0.22835] CT
1 LJ
0.639 LW
N
141.934 108.042 M
135.211 104.44 L
121.895 99.807 L
118.587 98.911 L
S
GR
GS
[0.78257 0 0 0.78197 0 0.22835] CT
1 LJ
0.639 LW
N
252.088 98.911 M
255.053 99.824 L
268.368 105.663 L
271.817 108.042 L
S
GR
GS
[0.78257 0 0 0.78197 0 0.22835] CT
1 LJ
0.639 LW
N
118.587 98.911 M
108.579 96.49 L
95.263 93.378 L
82.414 89.78 L
S
GR
GS
[0.78257 0 0 0.78197 0 0.22835] CT
1 LJ
0.639 LW
N
214.243 89.78 M
215.105 90.015 L
228.421 93.235 L
241.737 96.234 L
252.088 98.911 L
S
GR
GS
[0.78257 0 0 0.78197 0 0.22835] CT
1 LJ
0.639 LW
N
82.414 89.78 M
81.947 89.616 L
68.632 83.052 L
65.51 80.65 L
S
GR
GS
[0.78257 0 0 0.78197 0 0.22835] CT
1 LJ
0.639 LW
N
194.035 80.65 M
201.789 85.184 L
214.243 89.78 L
S
GR
GS
[0.78257 0 0 0.78197 0 0.22835] CT
1 LJ
0.639 LW
N
65.51 80.65 M
59.171 71.519 L
S
GR
GS
[0.78257 0 0 0.78197 0 0.22835] CT
1 LJ
0.639 LW
N
186.616 71.519 M
188.474 74.393 L
194.035 80.65 L
S
GR
GS
[0.78257 0 0 0.78197 0 0.22835] CT
1 LJ
0.639 LW
N
59.171 71.519 M
56.535 62.388 L
S
GR
GS
[0.78257 0 0 0.78197 0 0.22835] CT
1 LJ
0.639 LW
N
183.694 62.388 M
186.616 71.519 L
S
GR
GS
[0.78257 0 0 0.78197 0 0.22835] CT
1 LJ
0.639 LW
N
56.535 62.388 M
55.788 53.257 L
S
GR
GS
[0.78257 0 0 0.78197 0 0.22835] CT
1 LJ
0.639 LW
N
182.887 53.257 M
183.694 62.388 L
S
GR
GS
[0.78257 0 0 0.78197 0 0.22835] CT
1 LJ
0.639 LW
N
48.476 226.743 M
48.828 217.612 L
S
GR
GS
[0.78257 0 0 0.78197 0 0.22835] CT
1 LJ
0.639 LW
N
191.962 217.612 M
190.683 226.743 L
S
GR
GS
[0.78257 0 0 0.78197 0 0.22835] CT
1 LJ
0.639 LW
N
48.828 217.612 M
50.099 208.481 L
S
GR
GS
[0.78257 0 0 0.78197 0 0.22835] CT
1 LJ
0.639 LW
N
196.465 208.481 M
191.962 217.612 L
S
GR
GS
[0.78257 0 0 0.78197 0 0.22835] CT
1 LJ
0.639 LW
N
50.099 208.481 M
53.371 199.35 L
S
GR
GS
[0.78257 0 0 0.78197 0 0.22835] CT
1 LJ
0.639 LW
N
207.724 199.35 M
201.789 203.317 L
196.465 208.481 L
S
GR
GS
[0.78257 0 0 0.78197 0 0.22835] CT
1 LJ
0.639 LW
N
53.371 199.35 M
55.316 196.699 L
62.988 190.22 L
S
GR
GS
[0.78257 0 0 0.78197 0 0.22835] CT
1 LJ
0.639 LW
N
236.832 190.22 M
228.421 192.16 L
215.105 196.166 L
207.724 199.35 L
S
GR
GS
[0.78257 0 0 0.78197 0 0.22835] CT
1 LJ
0.639 LW
N
62.988 190.22 M
68.632 187.904 L
81.947 184.136 L
95.263 181.237 L
95.913 181.089 L
S
GR
GS
[0.78257 0 0 0.78197 0 0.22835] CT
1 LJ
0.639 LW
N
273.78 181.089 M
268.368 183.02 L
255.053 186.436 L
241.737 189.15 L
236.832 190.22 L
S
GR
GS
[0.78257 0 0 0.78197 0 0.22835] CT
1 LJ
0.639 LW
N
95.913 181.089 M
108.579 178.193 L
121.895 174.334 L
127.817 171.958 L
S
GR
GS
[0.78257 0 0 0.78197 0 0.22835] CT
1 LJ
0.639 LW
N
284.666 171.958 M
281.684 175.603 L
273.78 181.089 L
S
GR
GS
[0.78257 0 0 0.78197 0 0.22835] CT
1 LJ
0.639 LW
N
127.817 171.958 M
135.211 167.683 L
140.841 162.827 L
S
GR
GS
[0.78257 0 0 0.78197 0 0.22835] CT
1 LJ
0.639 LW
N
288.038 162.827 M
284.666 171.958 L
S
GR
GS
[0.78257 0 0 0.78197 0 0.22835] CT
1 LJ
0.639 LW
N
140.841 162.827 M
146.32 153.696 L
S
GR
GS
[0.78257 0 0 0.78197 0 0.22835] CT
1 LJ
0.639 LW
N
289.383 153.696 M
288.038 162.827 L
S
GR
GS
[0.78257 0 0 0.78197 0 0.22835] CT
1 LJ
0.639 LW
N
146.32 153.696 M
148.523 144.565 L
S
GR
GS
[0.78257 0 0 0.78197 0 0.22835] CT
1 LJ
0.639 LW
N
289.904 144.565 M
289.383 153.696 L
S
GR
GS
[0.78257 0 0 0.78197 0 0.22835] CT
1 LJ
0.639 LW
N
148.523 144.565 M
148.523 135.435 L
S
GR
GS
[0.78257 0 0 0.78197 0 0.22835] CT
1 LJ
0.639 LW
N
289.904 135.435 M
289.904 144.565 L
S
GR
GS
[0.78257 0 0 0.78197 0 0.22835] CT
1 LJ
0.639 LW
N
148.523 135.435 M
146.32 126.304 L
S
GR
GS
[0.78257 0 0 0.78197 0 0.22835] CT
1 LJ
0.639 LW
N
289.383 126.304 M
289.904 135.435 L
S
GR
GS
[0.78257 0 0 0.78197 0 0.22835] CT
1 LJ
0.639 LW
N
146.32 126.304 M
140.841 117.173 L
S
GR
GS
[0.78257 0 0 0.78197 0 0.22835] CT
1 LJ
0.639 LW
N
288.038 117.173 M
289.383 126.304 L
S
GR
GS
[0.78257 0 0 0.78197 0 0.22835] CT
1 LJ
0.639 LW
N
140.841 117.173 M
135.211 112.317 L
127.817 108.042 L
S
GR
GS
[0.78257 0 0 0.78197 0 0.22835] CT
1 LJ
0.639 LW
N
284.666 108.042 M
288.038 117.173 L
S
GR
GS
[0.78257 0 0 0.78197 0 0.22835] CT
1 LJ
0.639 LW
N
127.817 108.042 M
121.895 105.666 L
108.579 101.807 L
95.913 98.911 L
S
GR
GS
[0.78257 0 0 0.78197 0 0.22835] CT
1 LJ
0.639 LW
N
273.78 98.911 M
281.684 104.397 L
284.666 108.042 L
S
GR
GS
[0.78257 0 0 0.78197 0 0.22835] CT
1 LJ
0.639 LW
N
95.913 98.911 M
95.263 98.763 L
81.947 95.864 L
68.632 92.096 L
62.988 89.78 L
S
GR
GS
[0.78257 0 0 0.78197 0 0.22835] CT
1 LJ
0.639 LW
N
236.832 89.78 M
241.737 90.85 L
255.053 93.564 L
268.368 96.98 L
273.78 98.911 L
S
GR
GS
[0.78257 0 0 0.78197 0 0.22835] CT
1 LJ
0.639 LW
N
62.988 89.78 M
55.316 83.301 L
53.371 80.65 L
S
GR
GS
[0.78257 0 0 0.78197 0 0.22835] CT
1 LJ
0.639 LW
N
207.724 80.65 M
215.105 83.834 L
228.421 87.84 L
236.832 89.78 L
S
GR
GS
[0.78257 0 0 0.78197 0 0.22835] CT
1 LJ
0.639 LW
N
53.371 80.65 M
50.099 71.519 L
S
GR
GS
[0.78257 0 0 0.78197 0 0.22835] CT
1 LJ
0.639 LW
N
196.465 71.519 M
201.789 76.683 L
207.724 80.65 L
S
GR
GS
[0.78257 0 0 0.78197 0 0.22835] CT
1 LJ
0.639 LW
N
50.099 71.519 M
48.828 62.388 L
S
GR
GS
[0.78257 0 0 0.78197 0 0.22835] CT
1 LJ
0.639 LW
N
191.962 62.388 M
196.465 71.519 L
S
GR
GS
[0.78257 0 0 0.78197 0 0.22835] CT
1 LJ
0.639 LW
N
48.828 62.388 M
48.476 53.257 L
S
GR
GS
[0.78257 0 0 0.78197 0 0.22835] CT
1 LJ
0.639 LW
N
190.683 53.257 M
191.962 62.388 L
S
GR
GS
[0.78257 0 0 0.78197 0 0.22835] CT
1 LJ
0.639 LW
N
200.492 217.612 M
198.822 226.743 L
S
GR
GS
[0.78257 0 0 0.78197 0 0.22835] CT
1 LJ
0.639 LW
N
292.825 226.743 M
292.673 217.612 L
S
GR
GS
[0.78257 0 0 0.78197 0 0.22835] CT
1 LJ
0.639 LW
N
207.106 208.481 M
201.789 215.353 L
200.492 217.612 L
S
GR
GS
[0.78257 0 0 0.78197 0 0.22835] CT
1 LJ
0.639 LW
N
292.673 217.612 M
292.087 208.481 L
S
GR
GS
[0.78257 0 0 0.78197 0 0.22835] CT
1 LJ
0.639 LW
N
223.767 199.35 M
215.105 203.108 L
207.106 208.481 L
S
GR
GS
[0.78257 0 0 0.78197 0 0.22835] CT
1 LJ
0.639 LW
N
292.087 208.481 M
290.229 199.35 L
S
GR
GS
[0.78257 0 0 0.78197 0 0.22835] CT
1 LJ
0.639 LW
N
290.229 199.35 M
281.684 191.97 L
268.368 191.632 L
255.053 192.887 L
241.737 194.916 L
228.421 197.86 L
223.767 199.35 L
S
GR
GS
[0.78257 0 0 0.78197 0 0.22835] CT
1 LJ
0.639 LW
N
44.504 171.958 M
55.316 180.071 L
68.632 179.359 L
81.947 177.812 L
95.263 175.706 L
108.579 172.809 L
111.376 171.958 L
S
GR
GS
[0.78257 0 0 0.78197 0 0.22835] CT
1 LJ
0.639 LW
N
43.4 162.827 M
44.504 171.958 L
S
GR
GS
[0.78257 0 0 0.78197 0 0.22835] CT
1 LJ
0.639 LW
N
111.376 171.958 M
121.895 167.924 L
130.399 162.827 L
S
GR
GS
[0.78257 0 0 0.78197 0 0.22835] CT
1 LJ
0.639 LW
N
43.057 153.696 M
43.4 162.827 L
S
GR
GS
[0.78257 0 0 0.78197 0 0.22835] CT
1 LJ
0.639 LW
N
130.399 162.827 M
135.211 157.935 L
138.2 153.696 L
S
GR
GS
[0.78257 0 0 0.78197 0 0.22835] CT
1 LJ
0.639 LW
N
42.936 144.565 M
43.057 153.696 L
S
GR
GS
[0.78257 0 0 0.78197 0 0.22835] CT
1 LJ
0.639 LW
N
138.2 153.696 M
141.076 144.565 L
S
GR
GS
[0.78257 0 0 0.78197 0 0.22835] CT
1 LJ
0.639 LW
N
42.936 135.435 M
42.936 144.565 L
S
GR
GS
[0.78257 0 0 0.78197 0 0.22835] CT
1 LJ
0.639 LW
N
141.076 144.565 M
141.076 135.435 L
S
GR
GS
[0.78257 0 0 0.78197 0 0.22835] CT
1 LJ
0.639 LW
N
43.057 126.304 M
42.936 135.435 L
S
GR
GS
[0.78257 0 0 0.78197 0 0.22835] CT
1 LJ
0.639 LW
N
141.076 135.435 M
138.2 126.304 L
S
GR
GS
[0.78257 0 0 0.78197 0 0.22835] CT
1 LJ
0.639 LW
N
43.4 117.173 M
43.057 126.304 L
S
GR
GS
[0.78257 0 0 0.78197 0 0.22835] CT
1 LJ
0.639 LW
N
138.2 126.304 M
135.211 122.065 L
130.399 117.173 L
S
GR
GS
[0.78257 0 0 0.78197 0 0.22835] CT
1 LJ
0.639 LW
N
44.504 108.042 M
43.4 117.173 L
S
GR
GS
[0.78257 0 0 0.78197 0 0.22835] CT
1 LJ
0.639 LW
N
130.399 117.173 M
121.895 112.076 L
111.376 108.042 L
S
GR
GS
[0.78257 0 0 0.78197 0 0.22835] CT
1 LJ
0.639 LW
N
111.376 108.042 M
108.579 107.191 L
95.263 104.294 L
81.947 102.188 L
68.632 100.641 L
55.316 99.929 L
44.504 108.042 L
S
GR
GS
[0.78257 0 0 0.78197 0 0.22835] CT
1 LJ
0.639 LW
N
223.767 80.65 M
228.421 82.14 L
241.737 85.084 L
255.053 87.113 L
268.368 88.368 L
281.684 88.03 L
290.229 80.65 L
S
GR
GS
[0.78257 0 0 0.78197 0 0.22835] CT
1 LJ
0.639 LW
N
207.106 71.519 M
215.105 76.892 L
223.767 80.65 L
S
GR
GS
[0.78257 0 0 0.78197 0 0.22835] CT
1 LJ
0.639 LW
N
290.229 80.65 M
292.087 71.519 L
S
GR
GS
[0.78257 0 0 0.78197 0 0.22835] CT
1 LJ
0.639 LW
N
200.492 62.388 M
201.789 64.647 L
207.106 71.519 L
S
GR
GS
[0.78257 0 0 0.78197 0 0.22835] CT
1 LJ
0.639 LW
N
292.087 71.519 M
292.673 62.388 L
S
GR
GS
[0.78257 0 0 0.78197 0 0.22835] CT
1 LJ
0.639 LW
N
198.822 53.257 M
200.492 62.388 L
S
GR
GS
[0.78257 0 0 0.78197 0 0.22835] CT
1 LJ
0.639 LW
N
292.673 62.388 M
292.825 53.257 L
S
GR
GS
[0.78257 0 0 0.78197 0 0.22835] CT
1 LJ
0.639 LW
N
210.415 217.612 M
208.006 226.743 L
S
GR
GS
[0.78257 0 0 0.78197 0 0.22835] CT
1 LJ
0.639 LW
N
283.589 226.743 M
282.795 217.612 L
S
GR
GS
[0.78257 0 0 0.78197 0 0.22835] CT
1 LJ
0.639 LW
N
219.854 208.481 M
215.105 212.11 L
210.415 217.612 L
S
GR
GS
[0.78257 0 0 0.78197 0 0.22835] CT
1 LJ
0.639 LW
N
282.795 217.612 M
281.684 213.827 L
278.996 208.481 L
S
GR
GS
[0.78257 0 0 0.78197 0 0.22835] CT
1 LJ
0.639 LW
N
278.996 208.481 M
268.368 201.255 L
255.053 199.751 L
241.737 201.124 L
228.421 204.59 L
219.854 208.481 L
S
GR
GS
[0.78257 0 0 0.78197 0 0.22835] CT
1 LJ
0.639 LW
N
55.86 162.827 M
68.632 170.412 L
81.947 171.314 L
95.263 169.888 L
108.579 166.709 L
118.093 162.827 L
S
GR
GS
[0.78257 0 0 0.78197 0 0.22835] CT
1 LJ
0.639 LW
N
52.357 153.696 M
55.316 161.994 L
55.86 162.827 L
S
GR
GS
[0.78257 0 0 0.78197 0 0.22835] CT
1 LJ
0.639 LW
N
118.093 162.827 M
121.895 160.526 L
129.071 153.696 L
S
GR
GS
[0.78257 0 0 0.78197 0 0.22835] CT
1 LJ
0.639 LW
N
51.172 144.565 M
52.357 153.696 L
S
GR
GS
[0.78257 0 0 0.78197 0 0.22835] CT
1 LJ
0.639 LW
N
129.071 153.696 M
133.29 144.565 L
S
GR
GS
[0.78257 0 0 0.78197 0 0.22835] CT
1 LJ
0.639 LW
N
51.172 135.435 M
51.172 144.565 L
S
GR
GS
[0.78257 0 0 0.78197 0 0.22835] CT
1 LJ
0.639 LW
N
133.29 144.565 M
133.29 135.435 L
S
GR
GS
[0.78257 0 0 0.78197 0 0.22835] CT
1 LJ
0.639 LW
N
52.357 126.304 M
51.172 135.435 L
S
GR
GS
[0.78257 0 0 0.78197 0 0.22835] CT
1 LJ
0.639 LW
N
133.29 135.435 M
129.071 126.304 L
S
GR
GS
[0.78257 0 0 0.78197 0 0.22835] CT
1 LJ
0.639 LW
N
55.86 117.173 M
55.316 118.006 L
52.357 126.304 L
S
GR
GS
[0.78257 0 0 0.78197 0 0.22835] CT
1 LJ
0.639 LW
N
129.071 126.304 M
121.895 119.474 L
118.093 117.173 L
S
GR
GS
[0.78257 0 0 0.78197 0 0.22835] CT
1 LJ
0.639 LW
N
118.093 117.173 M
108.579 113.291 L
95.263 110.112 L
81.947 108.686 L
68.632 109.588 L
55.86 117.173 L
S
GR
GS
[0.78257 0 0 0.78197 0 0.22835] CT
1 LJ
0.639 LW
N
219.854 71.519 M
228.421 75.41 L
241.737 78.876 L
255.053 80.249 L
268.368 78.745 L
278.996 71.519 L
S
GR
GS
[0.78257 0 0 0.78197 0 0.22835] CT
1 LJ
0.639 LW
N
210.415 62.388 M
215.105 67.89 L
219.854 71.519 L
S
GR
GS
[0.78257 0 0 0.78197 0 0.22835] CT
1 LJ
0.639 LW
N
278.996 71.519 M
281.684 66.173 L
282.795 62.388 L
S
GR
GS
[0.78257 0 0 0.78197 0 0.22835] CT
1 LJ
0.639 LW
N
208.006 53.257 M
210.415 62.388 L
S
GR
GS
[0.78257 0 0 0.78197 0 0.22835] CT
1 LJ
0.639 LW
N
282.795 62.388 M
283.589 53.257 L
S
GR
GS
[0.78257 0 0 0.78197 0 0.22835] CT
1 LJ
0.639 LW
N
222.905 217.612 M
218.978 226.743 L
S
GR
GS
[0.78257 0 0 0.78197 0 0.22835] CT
1 LJ
0.639 LW
N
272.18 226.743 M
270.193 217.612 L
S
GR
GS
[0.78257 0 0 0.78197 0 0.22835] CT
1 LJ
0.639 LW
N
241.483 208.481 M
228.421 213.433 L
222.905 217.612 L
S
GR
GS
[0.78257 0 0 0.78197 0 0.22835] CT
1 LJ
0.639 LW
N
270.193 217.612 M
268.368 215.105 L
256.16 208.481 L
S
GR
GS
[0.78257 0 0 0.78197 0 0.22835] CT
1 LJ
0.639 LW
N
256.16 208.481 M
255.053 208.196 L
241.737 208.417 L
241.483 208.481 L
S
GR
GS
[0.78257 0 0 0.78197 0 0.22835] CT
1 LJ
0.639 LW
N
77.095 162.827 M
81.947 163.892 L
95.263 163.479 L
98.088 162.827 L
S
GR
GS
[0.78257 0 0 0.78197 0 0.22835] CT
1 LJ
0.639 LW
N
63.617 153.696 M
68.632 159.376 L
77.095 162.827 L
S
GR
GS
[0.78257 0 0 0.78197 0 0.22835] CT
1 LJ
0.639 LW
N
98.088 162.827 M
108.579 159.62 L
118.262 153.696 L
S
GR
GS
[0.78257 0 0 0.78197 0 0.22835] CT
1 LJ
0.639 LW
N
60.571 144.565 M
63.617 153.696 L
S
GR
GS
[0.78257 0 0 0.78197 0 0.22835] CT
1 LJ
0.639 LW
N
118.262 153.696 M
121.895 149.122 L
124.25 144.565 L
S
GR
GS
[0.78257 0 0 0.78197 0 0.22835] CT
1 LJ
0.639 LW
N
60.571 135.435 M
60.571 144.565 L
S
GR
GS
[0.78257 0 0 0.78197 0 0.22835] CT
1 LJ
0.639 LW
N
124.25 144.565 M
124.25 135.435 L
S
GR
GS
[0.78257 0 0 0.78197 0 0.22835] CT
1 LJ
0.639 LW
N
63.617 126.304 M
60.571 135.435 L
S
GR
GS
[0.78257 0 0 0.78197 0 0.22835] CT
1 LJ
0.639 LW
N
124.25 135.435 M
121.895 130.878 L
118.262 126.304 L
S
GR
GS
[0.78257 0 0 0.78197 0 0.22835] CT
1 LJ
0.639 LW
N
77.095 117.173 M
68.632 120.624 L
63.617 126.304 L
S
GR
GS
[0.78257 0 0 0.78197 0 0.22835] CT
1 LJ
0.639 LW
N
118.262 126.304 M
108.579 120.38 L
98.088 117.173 L
S
GR
GS
[0.78257 0 0 0.78197 0 0.22835] CT
1 LJ
0.639 LW
N
98.088 117.173 M
95.263 116.521 L
81.947 116.108 L
77.095 117.173 L
S
GR
GS
[0.78257 0 0 0.78197 0 0.22835] CT
1 LJ
0.639 LW
N
241.483 71.519 M
241.737 71.583 L
255.053 71.804 L
256.16 71.519 L
S
GR
GS
[0.78257 0 0 0.78197 0 0.22835] CT
1 LJ
0.639 LW
N
222.905 62.388 M
228.421 66.567 L
241.483 71.519 L
S
GR
GS
[0.78257 0 0 0.78197 0 0.22835] CT
1 LJ
0.639 LW
N
256.16 71.519 M
268.368 64.895 L
270.193 62.388 L
S
GR
GS
[0.78257 0 0 0.78197 0 0.22835] CT
1 LJ
0.639 LW
N
218.978 53.257 M
222.905 62.388 L
S
GR
GS
[0.78257 0 0 0.78197 0 0.22835] CT
1 LJ
0.639 LW
N
270.193 62.388 M
272.18 53.257 L
S
GR
GS
[0.78257 0 0 0.78197 0 0.22835] CT
1 LJ
0.639 LW
N
252.365 226.743 M
241.737 223.525 L
238.678 226.743 L
S
GR
GS
[0.78257 0 0 0.78197 0 0.22835] CT
1 LJ
0.639 LW
N
80.98 153.696 M
81.947 154.162 L
95.263 154.979 L
99.609 153.696 L
S
GR
GS
[0.78257 0 0 0.78197 0 0.22835] CT
1 LJ
0.639 LW
N
72.795 144.565 M
80.98 153.696 L
S
GR
GS
[0.78257 0 0 0.78197 0 0.22835] CT
1 LJ
0.639 LW
N
99.609 153.696 M
108.579 148.826 L
112.092 144.565 L
S
GR
GS
[0.78257 0 0 0.78197 0 0.22835] CT
1 LJ
0.639 LW
N
72.795 135.435 M
72.795 144.565 L
S
GR
GS
[0.78257 0 0 0.78197 0 0.22835] CT
1 LJ
0.639 LW
N
112.092 144.565 M
112.092 135.435 L
S
GR
GS
[0.78257 0 0 0.78197 0 0.22835] CT
1 LJ
0.639 LW
N
80.98 126.304 M
72.795 135.435 L
S
GR
GS
[0.78257 0 0 0.78197 0 0.22835] CT
1 LJ
0.639 LW
N
112.092 135.435 M
108.579 131.174 L
99.609 126.304 L
S
GR
GS
[0.78257 0 0 0.78197 0 0.22835] CT
1 LJ
0.639 LW
N
99.609 126.304 M
95.263 125.021 L
81.947 125.838 L
80.98 126.304 L
S
GR
GS
[0.78257 0 0 0.78197 0 0.22835] CT
1 LJ
0.639 LW
N
238.678 53.257 M
241.737 56.475 L
252.365 53.257 L
S
GR
GS
[0.78257 0 0 0.78197 0 0.22835] CT
1 0 0 RC
1 LJ
0.639 LW
N
61.662 211.308 M
62.481 218.08 L
58.571 212.491 L
S
GR
GS
[0.78257 0 0 0.78197 0 0.22835] CT
1 0 0 RC
1 LJ
0.639 LW
N
58.124 190.154 M
57.804 194.925 L
55.841 190.564 L
S
GR
GS
[0.78257 0 0 0.78197 0 0.22835] CT
1 0 0 RC
1 LJ
0.639 LW
N
54.279 165.068 M
53.386 165.934 L
53.766 164.75 L
S
GR
GS
[0.78257 0 0 0.78197 0 0.22835] CT
1 0 0 RC
1 LJ
0.639 LW
N
51.747 138.93 M
51.09 135.633 L
53.221 138.232 L
S
GR
GS
[0.78257 0 0 0.78197 0 0.22835] CT
1 0 0 RC
1 LJ
0.639 LW
N
51.597 115.06 M
51.884 109.099 L
54.436 114.494 L
S
GR
GS
[0.78257 0 0 0.78197 0 0.22835] CT
1 0 0 RC
1 LJ
0.639 LW
N
53.891 95.824 M
55.433 89.821 L
56.898 95.843 L
S
GR
GS
[0.78257 0 0 0.78197 0 0.22835] CT
1 0 0 RC
1 LJ
0.639 LW
N
57.663 81.633 M
60.241 78.226 L
59.569 82.445 L
S
GR
GS
[0.78257 0 0 0.78197 0 0.22835] CT
1 0 0 RC
1 LJ
0.639 LW
N
91.281 207.377 M
94.217 212.842 L
89.055 209.402 L
S
GR
GS
[0.78257 0 0 0.78197 0 0.22835] CT
1 0 0 RC
1 LJ
0.639 LW
N
82.716 186.163 M
82.159 188.688 L
81.462 186.198 L
S
GR
GS
[0.78257 0 0 0.78197 0 0.22835] CT
1 0 0 RC
1 LJ
0.639 LW
N
74.334 162.746 M
70.768 161.33 L
74.581 160.902 L
S
GR
GS
[0.78257 0 0 0.78197 0 0.22835] CT
1 0 0 RC
1 LJ
0.639 LW
N
69.669 139.302 M
64.848 134.603 L
71.313 136.48 L
S
GR
GS
[0.78257 0 0 0.78197 0 0.22835] CT
1 0 0 RC
1 LJ
0.639 LW
N
70.689 118.014 M
66.895 112.078 L
73.036 115.53 L
S
GR
GS
[0.78257 0 0 0.78197 0 0.22835] CT
1 0 0 RC
1 LJ
0.639 LW
N
76.963 100.16 M
76.047 95.551 L
79.024 99.187 L
S
GR
GS
[0.78257 0 0 0.78197 0 0.22835] CT
1 0 0 RC
1 LJ
0.639 LW
N
85.847 85.568 M
88.443 84.293 L
86.752 86.64 L
S
GR
GS
[0.78257 0 0 0.78197 0 0.22835] CT
1 0 0 RC
1 LJ
0.639 LW
N
117.184 201.843 M
120.78 204.573 L
116.323 203.856 L
S
GR
GS
[0.78257 0 0 0.78197 0 0.22835] CT
1 0 0 RC
1 LJ
0.639 LW
N
106.951 179.763 M
106.425 178.845 L
107.321 179.408 L
S
GR
GS
[0.78257 0 0 0.78197 0 0.22835] CT
1 0 0 RC
1 LJ
0.639 LW
N
97.327 158.252 M
92.865 154.064 L
98.773 155.659 L
S
GR
GS
[0.78257 0 0 0.78197 0 0.22835] CT
1 0 0 RC
1 LJ
0.639 LW
N
92.373 138.679 M
85.817 132.978 L
94.285 134.924 L
S
GR
GS
[0.78257 0 0 0.78197 0 0.22835] CT
1 0 0 RC
1 LJ
0.639 LW
N
94.176 121.599 M
88.254 116.779 L
95.747 118.245 L
S
GR
GS
[0.78257 0 0 0.78197 0 0.22835] CT
1 0 0 RC
1 LJ
0.639 LW
N
101.976 106.511 M
99.149 104.596 L
102.545 104.955 L
S
GR
GS
[0.78257 0 0 0.78197 0 0.22835] CT
1 0 0 RC
1 LJ
0.639 LW
N
112.485 92.079 M
113.906 93.867 L
111.811 92.958 L
S
GR
GS
[0.78257 0 0 0.78197 0 0.22835] CT
1 0 0 RC
1 LJ
0.639 LW
N
139.678 197.04 M
142.197 196.762 L
140.105 198.192 L
S
GR
GS
[0.78257 0 0 0.78197 0 0.22835] CT
1 0 0 RC
1 LJ
0.639 LW
N
131.839 173.653 M
131.599 169.547 L
133.743 173.058 L
S
GR
GS
[0.78257 0 0 0.78197 0 0.22835] CT
1 0 0 RC
1 LJ
0.639 LW
N
124.794 153.48 M
121.589 147.199 L
127.373 151.232 L
S
GR
GS
[0.78257 0 0 0.78197 0 0.22835] CT
1 0 0 RC
1 LJ
0.639 LW
N
121.515 137.326 M
116.386 131.442 L
123.681 134.22 L
S
GR
GS
[0.78257 0 0 0.78197 0 0.22835] CT
1 0 0 RC
1 LJ
0.639 LW
N
123.384 124.302 M
118.185 121.219 L
124.223 121.493 L
S
GR
GS
[0.78257 0 0 0.78197 0 0.22835] CT
1 0 0 RC
1 LJ
0.639 LW
N
129.613 112.199 M
126.228 113.141 L
128.771 110.717 L
S
GR
GS
[0.78257 0 0 0.78197 0 0.22835] CT
1 0 0 RC
1 LJ
0.639 LW
N
137.574 98.421 M
137.122 102.912 L
135.408 98.736 L
S
GR
GS
[0.78257 0 0 0.78197 0 0.22835] CT
1 0 0 RC
1 LJ
0.639 LW
N
160.507 194.993 M
160.667 192.702 L
161.603 194.799 L
S
GR
GS
[0.78257 0 0 0.78197 0 0.22835] CT
1 0 0 RC
1 LJ
0.639 LW
N
158.116 170.41 M
158.297 164.714 L
160.817 169.825 L
S
GR
GS
[0.78257 0 0 0.78197 0 0.22835] CT
1 0 0 RC
1 LJ
0.639 LW
N
156.382 150.443 M
156.057 143.631 L
159.55 149.489 L
S
GR
GS
[0.78257 0 0 0.78197 0 0.22835] CT
1 0 0 RC
1 LJ
0.639 LW
N
156.038 135.811 M
154.893 130.644 L
158.335 134.665 L
S
GR
GS
[0.78257 0 0 0.78197 0 0.22835] CT
1 0 0 RC
1 LJ
0.639 LW
N
157.227 124.984 M
155.295 123.527 L
157.685 123.903 L
S
GR
GS
[0.78257 0 0 0.78197 0 0.22835] CT
1 0 0 RC
1 LJ
0.639 LW
N
159.448 114.825 M
157.095 117.582 L
157.874 114.042 L
S
GR
GS
[0.78257 0 0 0.78197 0 0.22835] CT
1 0 0 RC
1 LJ
0.639 LW
N
161.766 101.919 M
159.532 107.613 L
158.823 101.538 L
S
GR
GS
[0.78257 0 0 0.78197 0 0.22835] CT
1 0 0 RC
1 LJ
0.639 LW
N
182.118 196.566 M
179.633 194.106 L
182.983 195.107 L
S
GR
GS
[0.78257 0 0 0.78197 0 0.22835] CT
1 0 0 RC
1 LJ
0.639 LW
N
185.931 171.401 M
186.489 166.385 L
188.357 171.074 L
S
GR
GS
[0.78257 0 0 0.78197 0 0.22835] CT
1 0 0 RC
1 LJ
0.639 LW
N
190.001 150.422 M
192.965 144.865 L
192.965 151.163 L
S
GR
GS
[0.78257 0 0 0.78197 0 0.22835] CT
1 0 0 RC
1 LJ
0.639 LW
N
192.612 134.775 M
196.331 130.92 L
194.864 136.071 L
S
GR
GS
[0.78257 0 0 0.78197 0 0.22835] CT
1 0 0 RC
1 LJ
0.639 LW
N
192.663 123.357 M
195.167 122.729 L
193.253 124.461 L
S
GR
GS
[0.78257 0 0 0.78197 0 0.22835] CT
1 0 0 RC
1 LJ
0.639 LW
N
190.132 113.282 M
189.964 116.046 L
188.812 113.528 L
S
GR
GS
[0.78257 0 0 0.78197 0 0.22835] CT
1 0 0 RC
1 LJ
0.639 LW
N
186.087 101.098 M
182.916 105.987 L
183.413 100.181 L
S
GR
GS
[0.78257 0 0 0.78197 0 0.22835] CT
1 0 0 RC
1 LJ
0.639 LW
N
206.629 201.095 M
202.328 200.382 L
206.459 198.987 L
S
GR
GS
[0.78257 0 0 0.78197 0 0.22835] CT
1 0 0 RC
1 LJ
0.639 LW
N
214.785 176.209 M
215.518 173.856 L
215.979 176.277 L
S
GR
GS
[0.78257 0 0 0.78197 0 0.22835] CT
1 0 0 RC
1 LJ
0.639 LW
N
222.704 153.426 M
227.979 150.38 L
224.758 155.55 L
S
GR
GS
[0.78257 0 0 0.78197 0 0.22835] CT
1 0 0 RC
1 LJ
0.639 LW
N
227.046 134.653 M
234.455 132.154 L
229.094 137.846 L
S
GR
GS
[0.78257 0 0 0.78197 0 0.22835] CT
1 0 0 RC
1 LJ
0.639 LW
N
225.98 120.107 M
232.216 119.161 L
227.158 122.93 L
S
GR
GS
[0.78257 0 0 0.78197 0 0.22835] CT
1 0 0 RC
1 LJ
0.639 LW
N
219.956 108.22 M
222.205 109.181 L
219.768 109.391 L
S
GR
GS
[0.78257 0 0 0.78197 0 0.22835] CT
1 0 0 RC
1 LJ
0.639 LW
N
211.514 96.303 M
208.644 98.721 L
210.039 95.237 L
S
GR
GS
[0.78257 0 0 0.78197 0 0.22835] CT
1 0 0 RC
1 LJ
0.639 LW
N
234.935 206.671 M
230.411 208.882 L
233.362 204.802 L
S
GR
GS
[0.78257 0 0 0.78197 0 0.22835] CT
1 0 0 RC
1 LJ
0.639 LW
N
243.741 182.805 M
244.373 183.975 L
243.265 183.24 L
S
GR
GS
[0.78257 0 0 0.78197 0 0.22835] CT
1 0 0 RC
1 LJ
0.639 LW
N
251.93 158.187 M
257.564 157.85 L
252.752 160.798 L
S
GR
GS
[0.78257 0 0 0.78197 0 0.22835] CT
1 0 0 RC
1 LJ
0.639 LW
N
256.048 135.498 M
264.419 133.825 L
257.82 139.241 L
S
GR
GS
[0.78257 0 0 0.78197 0 0.22835] CT
1 0 0 RC
1 LJ
0.639 LW
N
254.358 116.605 M
262.049 114.329 L
256.334 119.956 L
S
GR
GS
[0.78257 0 0 0.78197 0 0.22835] CT
1 0 0 RC
1 LJ
0.639 LW
N
247.572 101.774 M
251.451 99.883 L
248.919 103.377 L
S
GR
GS
[0.78257 0 0 0.78197 0 0.22835] CT
1 0 0 RC
1 LJ
0.639 LW
N
238.554 89.558 M
237.097 88.878 L
238.703 88.793 L
S
GR
GS
[0.78257 0 0 0.78197 0 0.22835] CT
1 0 0 RC
1 LJ
0.639 LW
N
266.328 210.941 M
263.27 216.023 L
263.577 210.1 L
S
GR
GS
[0.78257 0 0 0.78197 0 0.22835] CT
1 0 0 RC
1 LJ
0.639 LW
N
271.819 188.408 M
272.117 192.475 L
269.94 189.027 L
S
GR
GS
[0.78257 0 0 0.78197 0 0.22835] CT
1 0 0 RC
1 LJ
0.639 LW
N
276.586 162.699 M
280.474 164.126 L
276.372 164.696 L
S
GR
GS
[0.78257 0 0 0.78197 0 0.22835] CT
1 0 0 RC
1 LJ
0.639 LW
N
278.619 136.953 M
284.818 135.229 L
280.16 139.667 L
S
GR
GS
[0.78257 0 0 0.78197 0 0.22835] CT
1 0 0 RC
1 LJ
0.639 LW
N
277.06 114.327 M
283.316 110.269 L
279.706 116.794 L
S
GR
GS
[0.78257 0 0 0.78197 0 0.22835] CT
1 0 0 RC
1 LJ
0.639 LW
N
272.567 96.663 M
276.601 92.072 L
275.202 98.021 L
S
GR
GS
[0.78257 0 0 0.78197 0 0.22835] CT
1 0 0 RC
1 LJ
0.639 LW
N
267.034 83.707 M
267.506 80.609 L
268.547 83.565 L
S
GR
GS
[0.78257 0 0 0.78197 0 0.22835] CT
1 0 0 RC
1 LJ
0.639 LW
N
55.316 199.35 M
62.481 218.08 L
S
GR
GS
[0.78257 0 0 0.78197 0 0.22835] CT
1 0 0 RC
1 LJ
0.639 LW
N
55.316 181.089 M
57.804 194.925 L
S
GR
GS
[0.78257 0 0 0.78197 0 0.22835] CT
1 0 0 RC
1 LJ
0.639 LW
N
55.316 162.827 M
53.386 165.934 L
S
GR
GS
[0.78257 0 0 0.78197 0 0.22835] CT
1 0 0 RC
1 LJ
0.639 LW
N
55.316 144.565 M
51.09 135.633 L
S
GR
GS
[0.78257 0 0 0.78197 0 0.22835] CT
1 0 0 RC
1 LJ
0.639 LW
N
55.316 126.304 M
51.884 109.099 L
S
GR
GS
[0.78257 0 0 0.78197 0 0.22835] CT
1 0 0 RC
1 LJ
0.639 LW
N
55.316 108.042 M
55.433 89.821 L
S
GR
GS
[0.78257 0 0 0.78197 0 0.22835] CT
1 0 0 RC
1 LJ
0.639 LW
N
55.316 89.78 M
60.241 78.226 L
S
GR
GS
[0.78257 0 0 0.78197 0 0.22835] CT
1 0 0 RC
1 LJ
0.639 LW
N
81.947 199.35 M
94.217 212.842 L
S
GR
GS
[0.78257 0 0 0.78197 0 0.22835] CT
1 0 0 RC
1 LJ
0.639 LW
N
81.947 181.089 M
82.159 188.688 L
S
GR
GS
[0.78257 0 0 0.78197 0 0.22835] CT
1 0 0 RC
1 LJ
0.639 LW
N
81.947 162.827 M
70.768 161.33 L
S
GR
GS
[0.78257 0 0 0.78197 0 0.22835] CT
1 0 0 RC
1 LJ
0.639 LW
N
81.947 144.565 M
64.848 134.603 L
S
GR
GS
[0.78257 0 0 0.78197 0 0.22835] CT
1 0 0 RC
1 LJ
0.639 LW
N
81.947 126.304 M
66.895 112.078 L
S
GR
GS
[0.78257 0 0 0.78197 0 0.22835] CT
1 0 0 RC
1 LJ
0.639 LW
N
81.947 108.042 M
76.047 95.551 L
S
GR
GS
[0.78257 0 0 0.78197 0 0.22835] CT
1 0 0 RC
1 LJ
0.639 LW
N
81.947 89.78 M
88.443 84.293 L
S
GR
GS
[0.78257 0 0 0.78197 0 0.22835] CT
1 0 0 RC
1 LJ
0.639 LW
N
108.579 199.35 M
120.78 204.573 L
S
GR
GS
[0.78257 0 0 0.78197 0 0.22835] CT
1 0 0 RC
1 LJ
0.639 LW
N
108.579 181.089 M
106.425 178.845 L
S
GR
GS
[0.78257 0 0 0.78197 0 0.22835] CT
1 0 0 RC
1 LJ
0.639 LW
N
108.579 162.827 M
92.865 154.064 L
S
GR
GS
[0.78257 0 0 0.78197 0 0.22835] CT
1 0 0 RC
1 LJ
0.639 LW
N
108.579 144.565 M
85.817 132.978 L
S
GR
GS
[0.78257 0 0 0.78197 0 0.22835] CT
1 0 0 RC
1 LJ
0.639 LW
N
108.579 126.304 M
88.254 116.779 L
S
GR
GS
[0.78257 0 0 0.78197 0 0.22835] CT
1 0 0 RC
1 LJ
0.639 LW
N
108.579 108.042 M
99.149 104.596 L
S
GR
GS
[0.78257 0 0 0.78197 0 0.22835] CT
1 0 0 RC
1 LJ
0.639 LW
N
108.579 89.78 M
113.906 93.867 L
S
GR
GS
[0.78257 0 0 0.78197 0 0.22835] CT
1 0 0 RC
1 LJ
0.639 LW
N
135.211 199.35 M
142.197 196.762 L
S
GR
GS
[0.78257 0 0 0.78197 0 0.22835] CT
1 0 0 RC
1 LJ
0.639 LW
N
135.211 181.089 M
131.599 169.547 L
S
GR
GS
[0.78257 0 0 0.78197 0 0.22835] CT
1 0 0 RC
1 LJ
0.639 LW
N
135.211 162.827 M
121.589 147.199 L
S
GR
GS
[0.78257 0 0 0.78197 0 0.22835] CT
1 0 0 RC
1 LJ
0.639 LW
N
135.211 144.565 M
116.386 131.442 L
S
GR
GS
[0.78257 0 0 0.78197 0 0.22835] CT
1 0 0 RC
1 LJ
0.639 LW
N
135.211 126.304 M
118.185 121.219 L
S
GR
GS
[0.78257 0 0 0.78197 0 0.22835] CT
1 0 0 RC
1 LJ
0.639 LW
N
135.211 108.042 M
126.228 113.141 L
S
GR
GS
[0.78257 0 0 0.78197 0 0.22835] CT
1 0 0 RC
1 LJ
0.639 LW
N
135.211 89.78 M
137.122 102.912 L
S
GR
GS
[0.78257 0 0 0.78197 0 0.22835] CT
1 0 0 RC
1 LJ
0.639 LW
N
161.842 199.35 M
160.667 192.702 L
S
GR
GS
[0.78257 0 0 0.78197 0 0.22835] CT
1 0 0 RC
1 LJ
0.639 LW
N
161.842 181.089 M
158.297 164.714 L
S
GR
GS
[0.78257 0 0 0.78197 0 0.22835] CT
1 0 0 RC
1 LJ
0.639 LW
N
161.842 162.827 M
156.057 143.631 L
S
GR
GS
[0.78257 0 0 0.78197 0 0.22835] CT
1 0 0 RC
1 LJ
0.639 LW
N
161.842 144.565 M
154.893 130.644 L
S
GR
GS
[0.78257 0 0 0.78197 0 0.22835] CT
1 0 0 RC
1 LJ
0.639 LW
N
161.842 126.304 M
155.295 123.527 L
S
GR
GS
[0.78257 0 0 0.78197 0 0.22835] CT
1 0 0 RC
1 LJ
0.639 LW
N
161.842 108.042 M
157.095 117.582 L
S
GR
GS
[0.78257 0 0 0.78197 0 0.22835] CT
1 0 0 RC
1 LJ
0.639 LW
N
161.842 89.78 M
159.532 107.613 L
S
GR
GS
[0.78257 0 0 0.78197 0 0.22835] CT
1 0 0 RC
1 LJ
0.639 LW
N
188.474 199.35 M
179.633 194.106 L
S
GR
GS
[0.78257 0 0 0.78197 0 0.22835] CT
1 0 0 RC
1 LJ
0.639 LW
N
188.474 181.089 M
186.489 166.385 L
S
GR
GS
[0.78257 0 0 0.78197 0 0.22835] CT
1 0 0 RC
1 LJ
0.639 LW
N
188.474 162.827 M
192.965 144.865 L
S
GR
GS
[0.78257 0 0 0.78197 0 0.22835] CT
1 0 0 RC
1 LJ
0.639 LW
N
188.474 144.565 M
196.331 130.92 L
S
GR
GS
[0.78257 0 0 0.78197 0 0.22835] CT
1 0 0 RC
1 LJ
0.639 LW
N
188.474 126.304 M
195.167 122.729 L
S
GR
GS
[0.78257 0 0 0.78197 0 0.22835] CT
1 0 0 RC
1 LJ
0.639 LW
N
188.474 108.042 M
189.964 116.046 L
S
GR
GS
[0.78257 0 0 0.78197 0 0.22835] CT
1 0 0 RC
1 LJ
0.639 LW
N
188.474 89.78 M
182.916 105.987 L
S
GR
GS
[0.78257 0 0 0.78197 0 0.22835] CT
1 0 0 RC
1 LJ
0.639 LW
N
215.105 199.35 M
202.328 200.382 L
S
GR
GS
[0.78257 0 0 0.78197 0 0.22835] CT
1 0 0 RC
1 LJ
0.639 LW
N
215.105 181.089 M
215.518 173.856 L
S
GR
GS
[0.78257 0 0 0.78197 0 0.22835] CT
1 0 0 RC
1 LJ
0.639 LW
N
215.105 162.827 M
227.979 150.38 L
S
GR
GS
[0.78257 0 0 0.78197 0 0.22835] CT
1 0 0 RC
1 LJ
0.639 LW
N
215.105 144.565 M
234.455 132.154 L
S
GR
GS
[0.78257 0 0 0.78197 0 0.22835] CT
1 0 0 RC
1 LJ
0.639 LW
N
215.105 126.304 M
232.216 119.161 L
S
GR
GS
[0.78257 0 0 0.78197 0 0.22835] CT
1 0 0 RC
1 LJ
0.639 LW
N
215.105 108.042 M
222.205 109.181 L
S
GR
GS
[0.78257 0 0 0.78197 0 0.22835] CT
1 0 0 RC
1 LJ
0.639 LW
N
215.105 89.78 M
208.644 98.721 L
S
GR
GS
[0.78257 0 0 0.78197 0 0.22835] CT
1 0 0 RC
1 LJ
0.639 LW
N
241.737 199.35 M
230.411 208.882 L
S
GR
GS
[0.78257 0 0 0.78197 0 0.22835] CT
1 0 0 RC
1 LJ
0.639 LW
N
241.737 181.089 M
244.373 183.975 L
S
GR
GS
[0.78257 0 0 0.78197 0 0.22835] CT
1 0 0 RC
1 LJ
0.639 LW
N
241.737 162.827 M
257.564 157.85 L
S
GR
GS
[0.78257 0 0 0.78197 0 0.22835] CT
1 0 0 RC
1 LJ
0.639 LW
N
241.737 144.565 M
264.419 133.825 L
S
GR
GS
[0.78257 0 0 0.78197 0 0.22835] CT
1 0 0 RC
1 LJ
0.639 LW
N
241.737 126.304 M
262.049 114.329 L
S
GR
GS
[0.78257 0 0 0.78197 0 0.22835] CT
1 0 0 RC
1 LJ
0.639 LW
N
241.737 108.042 M
251.451 99.883 L
S
GR
GS
[0.78257 0 0 0.78197 0 0.22835] CT
1 0 0 RC
1 LJ
0.639 LW
N
241.737 89.78 M
237.097 88.878 L
S
GR
GS
[0.78257 0 0 0.78197 0 0.22835] CT
1 0 0 RC
1 LJ
0.639 LW
N
268.368 199.35 M
263.27 216.023 L
S
GR
GS
[0.78257 0 0 0.78197 0 0.22835] CT
1 0 0 RC
1 LJ
0.639 LW
N
268.368 181.089 M
272.117 192.475 L
S
GR
GS
[0.78257 0 0 0.78197 0 0.22835] CT
1 0 0 RC
1 LJ
0.639 LW
N
268.368 162.827 M
280.474 164.126 L
S
GR
GS
[0.78257 0 0 0.78197 0 0.22835] CT
1 0 0 RC
1 LJ
0.639 LW
N
268.368 144.565 M
284.818 135.229 L
S
GR
GS
[0.78257 0 0 0.78197 0 0.22835] CT
1 0 0 RC
1 LJ
0.639 LW
N
268.368 126.304 M
283.316 110.269 L
S
GR
GS
[0.78257 0 0 0.78197 0 0.22835] CT
1 0 0 RC
1 LJ
0.639 LW
N
268.368 108.042 M
276.601 92.072 L
S
GR
GS
[0.78257 0 0 0.78197 0 0.22835] CT
1 0 0 RC
1 LJ
0.639 LW
N
268.368 89.78 M
267.506 80.609 L
S
GR
GS
[0.78257 0 0 0.78197 0 0.22835] CT
0.149 GC
2 setlinecap
1 LJ
0.639 LW
N
42 226.743 M
295 226.743 L
S
GR
GS
[0.78257 0 0 0.78197 0 0.22835] CT
0.149 GC
2 setlinecap
1 LJ
0.639 LW
N
42 53.257 M
295 53.257 L
S
GR
GS
[0.78257 0 0 0.78197 0 0.22835] CT
0.149 GC
2 setlinecap
1 LJ
0.639 LW
N
42 226.743 M
42 53.257 L
S
GR
GS
[0.78257 0 0 0.78197 0 0.22835] CT
0.149 GC
2 setlinecap
1 LJ
0.639 LW
N
295 226.743 M
295 53.257 L
S
GR
%%Trailer
%%Pages: 1
%%EOF
