%!PS-Adobe-3.0 EPSF-3.0
%%Creator: (MATLAB, The Mathworks, Inc. Version 9.10.0.1684407 \(R2021a\) Update 3. Operating System: Linux)
%%Title: /home/adoan/Code/PRoSA_PI-ESN_Git/pi-esn/Results/MFE_results/Figures/FIG7_DOWN_B.eps
%%CreationDate: 2021-07-21T18:43:54
%%Pages: (atend)
%%BoundingBox:     0     0   255   227
%%LanguageLevel: 3
%%EndComments
%%BeginProlog
%%BeginResource: procset (Apache XML Graphics Std ProcSet) 1.2 0
%%Version: 1.2 0
%%Copyright: (Copyright 2001-2003,2010 The Apache Software Foundation. License terms: http://www.apache.org/licenses/LICENSE-2.0)
/bd{bind def}bind def
/ld{load def}bd
/GR/grestore ld
/GS/gsave ld
/RM/rmoveto ld
/C/curveto ld
/t/show ld
/L/lineto ld
/ML/setmiterlimit ld
/CT/concat ld
/f/fill ld
/N/newpath ld
/S/stroke ld
/CC/setcmykcolor ld
/A/ashow ld
/cp/closepath ld
/RC/setrgbcolor ld
/LJ/setlinejoin ld
/GC/setgray ld
/LW/setlinewidth ld
/M/moveto ld
/re {4 2 roll M
1 index 0 rlineto
0 exch rlineto
neg 0 rlineto
cp } bd
/_ctm matrix def
/_tm matrix def
/BT { _ctm currentmatrix pop matrix _tm copy pop 0 0 moveto } bd
/ET { _ctm setmatrix } bd
/iTm { _ctm setmatrix _tm concat } bd
/Tm { _tm astore pop iTm 0 0 moveto } bd
/ux 0.0 def
/uy 0.0 def
/F {
  /Tp exch def
  /Tf exch def
  Tf findfont Tp scalefont setfont
  /cf Tf def  /cs Tp def
} bd
/ULS {currentpoint /uy exch def /ux exch def} bd
/ULE {
  /Tcx currentpoint pop def
  gsave
  newpath
  cf findfont cs scalefont dup
  /FontMatrix get 0 get /Ts exch def /FontInfo get dup
  /UnderlinePosition get Ts mul /To exch def
  /UnderlineThickness get Ts mul /Tt exch def
  ux uy To add moveto  Tcx uy To add lineto
  Tt setlinewidth stroke
  grestore
} bd
/OLE {
  /Tcx currentpoint pop def
  gsave
  newpath
  cf findfont cs scalefont dup
  /FontMatrix get 0 get /Ts exch def /FontInfo get dup
  /UnderlinePosition get Ts mul /To exch def
  /UnderlineThickness get Ts mul /Tt exch def
  ux uy To add cs add moveto Tcx uy To add cs add lineto
  Tt setlinewidth stroke
  grestore
} bd
/SOE {
  /Tcx currentpoint pop def
  gsave
  newpath
  cf findfont cs scalefont dup
  /FontMatrix get 0 get /Ts exch def /FontInfo get dup
  /UnderlinePosition get Ts mul /To exch def
  /UnderlineThickness get Ts mul /Tt exch def
  ux uy To add cs 10 mul 26 idiv add moveto Tcx uy To add cs 10 mul 26 idiv add lineto
  Tt setlinewidth stroke
  grestore
} bd
/QT {
/Y22 exch store
/X22 exch store
/Y21 exch store
/X21 exch store
currentpoint
/Y21 load 2 mul add 3 div exch
/X21 load 2 mul add 3 div exch
/X21 load 2 mul /X22 load add 3 div
/Y21 load 2 mul /Y22 load add 3 div
/X22 load /Y22 load curveto
} bd
/SSPD {
dup length /d exch dict def
{
/v exch def
/k exch def
currentpagedevice k known {
/cpdv currentpagedevice k get def
v cpdv ne {
/upd false def
/nullv v type /nulltype eq def
/nullcpdv cpdv type /nulltype eq def
nullv nullcpdv or
{
/upd true def
} {
/sametype v type cpdv type eq def
sametype {
v type /arraytype eq {
/vlen v length def
/cpdvlen cpdv length def
vlen cpdvlen eq {
0 1 vlen 1 sub {
/i exch def
/obj v i get def
/cpdobj cpdv i get def
obj cpdobj ne {
/upd true def
exit
} if
} for
} {
/upd true def
} ifelse
} {
v type /dicttype eq {
v {
/dv exch def
/dk exch def
/cpddv cpdv dk get def
dv cpddv ne {
/upd true def
exit
} if
} forall
} {
/upd true def
} ifelse
} ifelse
} if
} ifelse
upd true eq {
d k v put
} if
} if
} if
} forall
d length 0 gt {
d setpagedevice
} if
} bd
/RE { % /NewFontName [NewEncodingArray] /FontName RE -
  findfont dup length dict begin
  {
    1 index /FID ne
    {def} {pop pop} ifelse
  } forall
  /Encoding exch def
  /FontName 1 index def
  currentdict definefont pop
  end
} bind def
%%EndResource
%%BeginResource: procset (Apache XML Graphics EPS ProcSet) 1.0 0
%%Version: 1.0 0
%%Copyright: (Copyright 2002-2003 The Apache Software Foundation. License terms: http://www.apache.org/licenses/LICENSE-2.0)
/BeginEPSF { %def
/b4_Inc_state save def         % Save state for cleanup
/dict_count countdictstack def % Count objects on dict stack
/op_count count 1 sub def      % Count objects on operand stack
userdict begin                 % Push userdict on dict stack
/showpage { } def              % Redefine showpage, { } = null proc
0 setgray 0 setlinecap         % Prepare graphics state
1 setlinewidth 0 setlinejoin
10 setmiterlimit [ ] 0 setdash newpath
/languagelevel where           % If level not equal to 1 then
{pop languagelevel             % set strokeadjust and
1 ne                           % overprint to their defaults.
{false setstrokeadjust false setoverprint
} if
} if
} bd
/EndEPSF { %def
count op_count sub {pop} repeat            % Clean up stacks
countdictstack dict_count sub {end} repeat
b4_Inc_state restore
} bd
%%EndResource
%FOPBeginFontDict
%%IncludeResource: font Courier-Oblique
%%IncludeResource: font Courier-BoldOblique
%%IncludeResource: font Courier-Bold
%%IncludeResource: font ZapfDingbats
%%IncludeResource: font Symbol
%%IncludeResource: font Helvetica
%%IncludeResource: font Helvetica-Oblique
%%IncludeResource: font Helvetica-Bold
%%IncludeResource: font Helvetica-BoldOblique
%%IncludeResource: font Times-Roman
%%IncludeResource: font Times-Italic
%%IncludeResource: font Times-Bold
%%IncludeResource: font Times-BoldItalic
%%IncludeResource: font Courier
%FOPEndFontDict
%%BeginResource: encoding WinAnsiEncoding
/WinAnsiEncoding [
/.notdef /.notdef /.notdef /.notdef /.notdef
/.notdef /.notdef /.notdef /.notdef /.notdef
/.notdef /.notdef /.notdef /.notdef /.notdef
/.notdef /.notdef /.notdef /.notdef /.notdef
/.notdef /.notdef /.notdef /.notdef /.notdef
/.notdef /.notdef /.notdef /.notdef /.notdef
/.notdef /.notdef /space /exclam /quotedbl
/numbersign /dollar /percent /ampersand /quotesingle
/parenleft /parenright /asterisk /plus /comma
/hyphen /period /slash /zero /one
/two /three /four /five /six
/seven /eight /nine /colon /semicolon
/less /equal /greater /question /at
/A /B /C /D /E
/F /G /H /I /J
/K /L /M /N /O
/P /Q /R /S /T
/U /V /W /X /Y
/Z /bracketleft /backslash /bracketright /asciicircum
/underscore /quoteleft /a /b /c
/d /e /f /g /h
/i /j /k /l /m
/n /o /p /q /r
/s /t /u /v /w
/x /y /z /braceleft /bar
/braceright /asciitilde /bullet /Euro /bullet
/quotesinglbase /florin /quotedblbase /ellipsis /dagger
/daggerdbl /circumflex /perthousand /Scaron /guilsinglleft
/OE /bullet /Zcaron /bullet /bullet
/quoteleft /quoteright /quotedblleft /quotedblright /bullet
/endash /emdash /asciitilde /trademark /scaron
/guilsinglright /oe /bullet /zcaron /Ydieresis
/space /exclamdown /cent /sterling /currency
/yen /brokenbar /section /dieresis /copyright
/ordfeminine /guillemotleft /logicalnot /sfthyphen /registered
/macron /degree /plusminus /twosuperior /threesuperior
/acute /mu /paragraph /middot /cedilla
/onesuperior /ordmasculine /guillemotright /onequarter /onehalf
/threequarters /questiondown /Agrave /Aacute /Acircumflex
/Atilde /Adieresis /Aring /AE /Ccedilla
/Egrave /Eacute /Ecircumflex /Edieresis /Igrave
/Iacute /Icircumflex /Idieresis /Eth /Ntilde
/Ograve /Oacute /Ocircumflex /Otilde /Odieresis
/multiply /Oslash /Ugrave /Uacute /Ucircumflex
/Udieresis /Yacute /Thorn /germandbls /agrave
/aacute /acircumflex /atilde /adieresis /aring
/ae /ccedilla /egrave /eacute /ecircumflex
/edieresis /igrave /iacute /icircumflex /idieresis
/eth /ntilde /ograve /oacute /ocircumflex
/otilde /odieresis /divide /oslash /ugrave
/uacute /ucircumflex /udieresis /yacute /thorn
/ydieresis
] def
%%EndResource
%FOPBeginFontReencode
/Courier-Oblique findfont
dup length dict begin
  {1 index /FID ne {def} {pop pop} ifelse} forall
  /Encoding WinAnsiEncoding def
  currentdict
end
/Courier-Oblique exch definefont pop
/Courier-BoldOblique findfont
dup length dict begin
  {1 index /FID ne {def} {pop pop} ifelse} forall
  /Encoding WinAnsiEncoding def
  currentdict
end
/Courier-BoldOblique exch definefont pop
/Courier-Bold findfont
dup length dict begin
  {1 index /FID ne {def} {pop pop} ifelse} forall
  /Encoding WinAnsiEncoding def
  currentdict
end
/Courier-Bold exch definefont pop
/Helvetica findfont
dup length dict begin
  {1 index /FID ne {def} {pop pop} ifelse} forall
  /Encoding WinAnsiEncoding def
  currentdict
end
/Helvetica exch definefont pop
/Helvetica-Oblique findfont
dup length dict begin
  {1 index /FID ne {def} {pop pop} ifelse} forall
  /Encoding WinAnsiEncoding def
  currentdict
end
/Helvetica-Oblique exch definefont pop
/Helvetica-Bold findfont
dup length dict begin
  {1 index /FID ne {def} {pop pop} ifelse} forall
  /Encoding WinAnsiEncoding def
  currentdict
end
/Helvetica-Bold exch definefont pop
/Helvetica-BoldOblique findfont
dup length dict begin
  {1 index /FID ne {def} {pop pop} ifelse} forall
  /Encoding WinAnsiEncoding def
  currentdict
end
/Helvetica-BoldOblique exch definefont pop
/Times-Roman findfont
dup length dict begin
  {1 index /FID ne {def} {pop pop} ifelse} forall
  /Encoding WinAnsiEncoding def
  currentdict
end
/Times-Roman exch definefont pop
/Times-Italic findfont
dup length dict begin
  {1 index /FID ne {def} {pop pop} ifelse} forall
  /Encoding WinAnsiEncoding def
  currentdict
end
/Times-Italic exch definefont pop
/Times-Bold findfont
dup length dict begin
  {1 index /FID ne {def} {pop pop} ifelse} forall
  /Encoding WinAnsiEncoding def
  currentdict
end
/Times-Bold exch definefont pop
/Times-BoldItalic findfont
dup length dict begin
  {1 index /FID ne {def} {pop pop} ifelse} forall
  /Encoding WinAnsiEncoding def
  currentdict
end
/Times-BoldItalic exch definefont pop
/Courier findfont
dup length dict begin
  {1 index /FID ne {def} {pop pop} ifelse} forall
  /Encoding WinAnsiEncoding def
  currentdict
end
/Courier exch definefont pop
%FOPEndFontReencode
%%EndProlog
%%Page: 1 1
%%PageBoundingBox: 0 0 255 227
%%BeginPageSetup
[1 0 0 -1 0 227] CT
%%EndPageSetup
GS
[0.78257 0 0 0.78197 0 0.22835] CT
1 GC
N
0 0 326 290 re
f
GR
GS
[0.78257 0 0 0.78197 0 0.22835] CT
1 GC
N
0 0 326 290 re
f
GR
GS
[0.78257 0 0 0.78197 0 0.22835] CT
1 GC
N
42 226.743 M
295 226.743 L
295 53.257 L
42 53.257 L
cp
f
GR
GS
[0.78257 0 0 0.78197 0 0.22835] CT
0.275 0.247 0.89 RC
N
95.263 223.474 M
84.845 226.743 L
95.263 226.743 L
97.953 226.743 L
cp
95.263 53.257 M
84.845 53.257 L
95.263 56.526 L
97.953 53.257 L
cp
f
GR
GS
[0.78257 0 0 0.78197 0 0.22835] CT
0.278 0.259 0.902 RC
N
62.962 217.612 M
61.451 226.743 L
68.632 226.743 L
81.947 226.743 L
84.845 226.743 L
95.263 223.474 L
97.953 226.743 L
108.579 226.743 L
121.44 226.743 L
118.079 217.612 L
108.579 209.386 L
106.493 208.481 L
95.263 205.24 L
81.947 204.555 L
69.081 208.481 L
68.632 208.77 L
cp
237.415 153.696 M
241.737 155.145 L
255.053 155.634 L
260.666 153.696 L
268.368 146.841 L
269.482 144.565 L
269.482 135.435 L
268.368 133.159 L
260.666 126.304 L
255.053 124.366 L
241.737 124.855 L
237.415 126.304 L
228.421 131.851 L
225.436 135.435 L
225.436 144.565 L
228.421 148.149 L
cp
69.081 71.519 M
81.947 75.445 L
95.263 74.76 L
106.493 71.519 L
108.579 70.614 L
118.079 62.388 L
121.44 53.257 L
108.579 53.257 L
97.953 53.257 L
95.263 56.526 L
84.845 53.257 L
81.947 53.257 L
68.632 53.257 L
61.451 53.257 L
62.962 62.388 L
68.632 71.23 L
cp
f
GR
GS
[0.78257 0 0 0.78197 0 0.22835] CT
0.263 0.4 0.992 RC
N
48.695 217.612 M
48.31 226.743 L
55.316 226.743 L
61.451 226.743 L
62.962 217.612 L
68.632 208.77 L
69.081 208.481 L
81.947 204.555 L
95.263 205.24 L
106.493 208.481 L
108.579 209.386 L
118.079 217.612 L
121.44 226.743 L
121.895 226.743 L
133.943 226.743 L
132.002 217.612 L
125.543 208.481 L
121.895 205.642 L
109.555 199.35 L
108.579 198.983 L
95.263 195.68 L
81.947 193.802 L
68.632 193.574 L
55.316 198.067 L
54.161 199.35 L
50.131 208.481 L
cp
228.197 162.827 M
228.421 162.918 L
241.737 166.382 L
255.053 168.193 L
268.368 167.976 L
280.343 162.827 L
281.684 161.339 L
284.933 153.696 L
286.277 144.565 L
286.277 135.435 L
284.933 126.304 L
281.684 118.661 L
280.343 117.173 L
268.368 112.024 L
255.053 111.807 L
241.737 113.618 L
228.421 117.082 L
228.197 117.173 L
215.105 125.003 L
213.653 126.304 L
208.768 135.435 L
208.768 144.565 L
213.653 153.696 L
215.105 154.997 L
cp
241.737 155.145 M
237.415 153.696 L
228.421 148.149 L
225.436 144.565 L
225.436 135.435 L
228.421 131.851 L
237.415 126.304 L
241.737 124.855 L
255.053 124.366 L
260.666 126.304 L
268.368 133.159 L
269.482 135.435 L
269.482 144.565 L
268.368 146.841 L
260.666 153.696 L
255.053 155.634 L
cp
54.161 80.65 M
55.316 81.933 L
68.632 86.426 L
81.947 86.198 L
95.263 84.32 L
108.579 81.017 L
109.555 80.65 L
121.895 74.358 L
125.543 71.519 L
132.002 62.388 L
133.943 53.257 L
121.895 53.257 L
121.44 53.257 L
118.079 62.388 L
108.579 70.614 L
106.493 71.519 L
95.263 74.76 L
81.947 75.445 L
69.081 71.519 L
68.632 71.23 L
62.962 62.388 L
61.451 53.257 L
55.316 53.257 L
48.31 53.257 L
48.695 62.388 L
50.131 71.519 L
cp
f
GR
GS
[0.78257 0 0 0.78197 0 0.22835] CT
0.173 0.549 0.949 RC
N
42 217.612 M
42 226.743 L
48.31 226.743 L
48.695 217.612 L
50.131 208.481 L
54.161 199.35 L
55.316 198.067 L
68.632 193.574 L
81.947 193.802 L
95.263 195.68 L
108.579 198.983 L
109.555 199.35 L
121.895 205.642 L
125.543 208.481 L
132.002 217.612 L
133.943 226.743 L
135.211 226.743 L
144.456 226.743 L
143.255 217.612 L
139.132 208.481 L
135.211 204.062 L
129.326 199.35 L
121.895 195.51 L
108.579 190.809 L
106.304 190.22 L
95.263 187.515 L
81.947 184.57 L
68.632 181.115 L
68.532 181.089 L
55.316 174.19 L
53.058 171.958 L
48.915 162.827 L
47.424 153.696 L
46.869 144.565 L
46.869 135.435 L
47.424 126.304 L
48.915 117.173 L
53.058 108.042 L
55.316 105.81 L
68.532 98.911 L
68.632 98.885 L
81.947 95.43 L
95.263 92.485 L
106.304 89.78 L
108.579 89.191 L
121.895 84.49 L
129.326 80.65 L
135.211 75.938 L
139.132 71.519 L
143.255 62.388 L
144.456 53.257 L
135.211 53.257 L
133.943 53.257 L
132.002 62.388 L
125.543 71.519 L
121.895 74.358 L
109.555 80.65 L
108.579 81.017 L
95.263 84.32 L
81.947 86.198 L
68.632 86.426 L
55.316 81.933 L
54.161 80.65 L
50.131 71.519 L
48.695 62.388 L
48.31 53.257 L
42 53.257 L
42 62.388 L
42 71.519 L
42 80.65 L
42 89.78 L
42 98.911 L
42 108.042 L
42 117.173 L
42 126.304 L
42 135.435 L
42 144.565 L
42 153.696 L
42 162.827 L
42 171.958 L
42 181.089 L
42 190.22 L
42 199.35 L
42 208.481 L
cp
291.425 217.612 M
291.588 226.743 L
295 226.743 L
295 217.612 L
295 208.481 L
295 199.35 L
295 190.22 L
295 181.089 L
295 171.958 L
295 162.827 L
295 153.696 L
295 144.565 L
295 135.435 L
295 126.304 L
295 117.173 L
295 108.042 L
295 98.911 L
295 89.78 L
295 80.65 L
295 71.519 L
295 62.388 L
295 53.257 L
291.588 53.257 L
291.425 62.388 L
290.85 71.519 L
289.479 80.65 L
285.619 89.78 L
281.684 93.328 L
268.546 98.911 L
268.368 98.952 L
255.053 102.101 L
241.737 104.919 L
228.787 108.042 L
228.421 108.141 L
215.105 113.187 L
207.967 117.173 L
201.789 123.024 L
199.255 126.304 L
196.088 135.435 L
196.088 144.565 L
199.255 153.696 L
201.789 156.976 L
207.967 162.827 L
215.105 166.813 L
228.421 171.859 L
228.787 171.958 L
241.737 175.081 L
255.053 177.899 L
268.368 181.048 L
268.546 181.089 L
281.684 186.672 L
285.619 190.22 L
289.479 199.35 L
290.85 208.481 L
cp
228.421 162.918 M
228.197 162.827 L
215.105 154.997 L
213.653 153.696 L
208.768 144.565 L
208.768 135.435 L
213.653 126.304 L
215.105 125.003 L
228.197 117.173 L
228.421 117.082 L
241.737 113.618 L
255.053 111.807 L
268.368 112.024 L
280.343 117.173 L
281.684 118.661 L
284.933 126.304 L
286.277 135.435 L
286.277 144.565 L
284.933 153.696 L
281.684 161.339 L
280.343 162.827 L
268.368 167.976 L
255.053 168.193 L
241.737 166.382 L
cp
f
GR
GS
[0.78257 0 0 0.78197 0 0.22835] CT
0.106 0.667 0.871 RC
N
143.255 217.612 M
144.456 226.743 L
148.526 226.743 L
154.397 226.743 L
153.703 217.612 L
151.262 208.481 L
148.526 203.544 L
145.46 199.35 L
135.211 192.064 L
131.331 190.22 L
121.895 186.908 L
108.579 183.251 L
100.165 181.089 L
95.263 179.758 L
81.947 175.476 L
74.127 171.958 L
68.632 168.056 L
63.491 162.827 L
59.121 153.696 L
57.418 144.565 L
57.418 135.435 L
59.121 126.304 L
63.491 117.173 L
68.632 111.944 L
74.127 108.042 L
81.947 104.524 L
95.263 100.242 L
100.165 98.911 L
108.579 96.749 L
121.895 93.092 L
131.331 89.78 L
135.211 87.936 L
145.46 80.65 L
148.526 76.456 L
151.262 71.519 L
153.703 62.388 L
154.397 53.257 L
148.526 53.257 L
144.456 53.257 L
143.255 62.388 L
139.132 71.519 L
135.211 75.938 L
129.326 80.65 L
121.895 84.49 L
108.579 89.191 L
106.304 89.78 L
95.263 92.485 L
81.947 95.43 L
68.632 98.885 L
68.532 98.911 L
55.316 105.81 L
53.058 108.042 L
48.915 117.173 L
47.424 126.304 L
46.869 135.435 L
46.869 144.565 L
47.424 153.696 L
48.915 162.827 L
53.058 171.958 L
55.316 174.19 L
68.532 181.089 L
68.632 181.115 L
81.947 184.57 L
95.263 187.515 L
106.304 190.22 L
108.579 190.809 L
121.895 195.51 L
129.326 199.35 L
135.211 204.062 L
139.132 208.481 L
cp
281.678 217.612 M
281.684 217.694 L
282.287 226.743 L
291.588 226.743 L
291.425 217.612 L
290.85 208.481 L
289.479 199.35 L
285.619 190.22 L
281.684 186.672 L
268.546 181.089 L
268.368 181.048 L
255.053 177.899 L
241.737 175.081 L
228.787 171.958 L
228.421 171.859 L
215.105 166.813 L
207.967 162.827 L
201.789 156.976 L
199.255 153.696 L
196.088 144.565 L
196.088 135.435 L
199.255 126.304 L
201.789 123.024 L
207.967 117.173 L
215.105 113.187 L
228.421 108.141 L
228.787 108.042 L
241.737 104.919 L
255.053 102.101 L
268.368 98.952 L
268.546 98.911 L
281.684 93.328 L
285.619 89.78 L
289.479 80.65 L
290.85 71.519 L
291.425 62.388 L
291.588 53.257 L
282.287 53.257 L
281.684 62.306 L
281.678 62.388 L
279.55 71.519 L
274.73 80.65 L
268.368 86.498 L
263.017 89.78 L
255.053 93.073 L
241.737 97.034 L
234.324 98.911 L
228.421 100.406 L
215.105 104.083 L
204.279 108.042 L
201.789 109.354 L
191.658 117.173 L
188.474 122.351 L
186.559 126.304 L
184.659 135.435 L
184.659 144.565 L
186.559 153.696 L
188.474 157.649 L
191.658 162.827 L
201.789 170.646 L
204.279 171.958 L
215.105 175.917 L
228.421 179.594 L
234.324 181.089 L
241.737 182.966 L
255.053 186.927 L
263.017 190.22 L
268.368 193.502 L
274.73 199.35 L
279.55 208.481 L
cp
f
GR
GS
[0.78257 0 0 0.78197 0 0.22835] CT
0.075 0.745 0.722 RC
N
153.703 217.612 M
154.397 226.743 L
161.842 226.743 L
164.216 226.743 L
163.987 217.612 L
163.161 208.481 L
161.842 202.091 L
161.143 199.35 L
155.727 190.22 L
148.526 185.979 L
135.211 181.741 L
132.788 181.089 L
121.895 178.668 L
108.579 175.59 L
95.738 171.958 L
95.263 171.798 L
81.947 165.388 L
78.307 162.827 L
70.891 153.696 L
68.632 147.045 L
67.934 144.565 L
67.934 135.435 L
68.632 132.955 L
70.891 126.304 L
78.307 117.173 L
81.947 114.612 L
95.263 108.202 L
95.738 108.042 L
108.579 104.41 L
121.895 101.332 L
132.788 98.911 L
135.211 98.259 L
148.526 94.021 L
155.727 89.78 L
161.143 80.65 L
161.842 77.909 L
163.161 71.519 L
163.987 62.388 L
164.216 53.257 L
161.842 53.257 L
154.397 53.257 L
153.703 62.388 L
151.262 71.519 L
148.526 76.456 L
145.46 80.65 L
135.211 87.936 L
131.331 89.78 L
121.895 93.092 L
108.579 96.749 L
100.165 98.911 L
95.263 100.242 L
81.947 104.524 L
74.127 108.042 L
68.632 111.944 L
63.491 117.173 L
59.121 126.304 L
57.418 135.435 L
57.418 144.565 L
59.121 153.696 L
63.491 162.827 L
68.632 168.056 L
74.127 171.958 L
81.947 175.476 L
95.263 179.758 L
100.165 181.089 L
108.579 183.251 L
121.895 186.908 L
131.331 190.22 L
135.211 192.064 L
145.46 199.35 L
148.526 203.544 L
151.262 208.481 L
cp
271.834 217.612 M
272.858 226.743 L
281.684 226.743 L
282.287 226.743 L
281.684 217.694 L
281.678 217.612 L
279.55 208.481 L
274.73 199.35 L
268.368 193.502 L
263.017 190.22 L
255.053 186.927 L
241.737 182.966 L
234.324 181.089 L
228.421 179.594 L
215.105 175.917 L
204.279 171.958 L
201.789 170.646 L
191.658 162.827 L
188.474 157.649 L
186.559 153.696 L
184.659 144.565 L
184.659 135.435 L
186.559 126.304 L
188.474 122.351 L
191.658 117.173 L
201.789 109.354 L
204.279 108.042 L
215.105 104.083 L
228.421 100.406 L
234.324 98.911 L
241.737 97.034 L
255.053 93.073 L
263.017 89.78 L
268.368 86.498 L
274.73 80.65 L
279.55 71.519 L
281.678 62.388 L
281.684 62.306 L
282.287 53.257 L
281.684 53.257 L
272.858 53.257 L
271.834 62.388 L
268.368 71.37 L
268.295 71.519 L
259.77 80.65 L
255.053 83.634 L
241.737 89.271 L
240.019 89.78 L
228.421 92.855 L
215.105 95.768 L
201.789 98.721 L
200.883 98.911 L
188.474 103.04 L
180.616 108.042 L
175.888 117.173 L
175.158 120.586 L
174.121 126.304 L
173.468 135.435 L
173.468 144.565 L
174.121 153.696 L
175.158 159.414 L
175.888 162.827 L
180.616 171.958 L
188.474 176.96 L
200.883 181.089 L
201.789 181.279 L
215.105 184.232 L
228.421 187.145 L
240.019 190.22 L
241.737 190.729 L
255.053 196.366 L
259.77 199.35 L
268.295 208.481 L
268.368 208.63 L
cp
f
GR
GS
[0.78257 0 0 0.78197 0 0.22835] CT
0.278 0.796 0.525 RC
N
163.987 217.612 M
164.216 226.743 L
174.416 226.743 L
174.732 217.612 L
175.158 213.839 L
176.035 208.481 L
179.902 199.35 L
188.474 193.027 L
201.789 191.561 L
215.105 192.598 L
228.421 195.047 L
241.737 199.132 L
242.219 199.35 L
255.053 207.747 L
255.809 208.481 L
261.156 217.612 L
262.744 226.743 L
268.368 226.743 L
272.858 226.743 L
271.834 217.612 L
268.368 208.63 L
268.295 208.481 L
259.77 199.35 L
255.053 196.366 L
241.737 190.729 L
240.019 190.22 L
228.421 187.145 L
215.105 184.232 L
201.789 181.279 L
200.883 181.089 L
188.474 176.96 L
180.616 171.958 L
175.888 162.827 L
175.158 159.414 L
174.121 153.696 L
173.468 144.565 L
173.468 135.435 L
174.121 126.304 L
175.158 120.586 L
175.888 117.173 L
180.616 108.042 L
188.474 103.04 L
200.883 98.911 L
201.789 98.721 L
215.105 95.768 L
228.421 92.855 L
240.019 89.78 L
241.737 89.271 L
255.053 83.634 L
259.77 80.65 L
268.295 71.519 L
268.368 71.37 L
271.834 62.388 L
272.858 53.257 L
268.368 53.257 L
262.744 53.257 L
261.156 62.388 L
255.809 71.519 L
255.053 72.253 L
242.219 80.65 L
241.737 80.868 L
228.421 84.953 L
215.105 87.402 L
201.789 88.439 L
188.474 86.973 L
179.902 80.65 L
176.035 71.519 L
175.158 66.161 L
174.732 62.388 L
174.416 53.257 L
164.216 53.257 L
163.987 62.388 L
163.161 71.519 L
161.842 77.909 L
161.143 80.65 L
155.727 89.78 L
148.526 94.021 L
135.211 98.259 L
132.788 98.911 L
121.895 101.332 L
108.579 104.41 L
95.738 108.042 L
95.263 108.202 L
81.947 114.612 L
78.307 117.173 L
70.891 126.304 L
68.632 132.955 L
67.934 135.435 L
67.934 144.565 L
68.632 147.045 L
70.891 153.696 L
78.307 162.827 L
81.947 165.388 L
95.263 171.798 L
95.738 171.958 L
108.579 175.59 L
121.895 178.668 L
132.788 181.089 L
135.211 181.741 L
148.526 185.979 L
155.727 190.22 L
161.143 199.35 L
161.842 202.091 L
163.161 208.481 L
cp
108.579 167.222 M
95.884 162.827 L
95.263 162.526 L
84.021 153.696 L
81.947 150.129 L
79.572 144.565 L
79.572 135.435 L
81.947 129.871 L
84.021 126.304 L
95.263 117.474 L
95.884 117.173 L
108.579 112.778 L
121.895 110.002 L
135.211 108.804 L
148.526 110.369 L
157.021 117.173 L
160.475 126.304 L
161.597 135.435 L
161.597 144.565 L
160.475 153.696 L
157.021 162.827 L
148.526 169.631 L
135.211 171.196 L
121.895 169.998 L
cp
f
GR
GS
[0.78257 0 0 0.78197 0 0.22835] CT
0.627 0.784 0.251 RC
N
174.732 217.612 M
174.416 226.743 L
175.158 226.743 L
186.398 226.743 L
187.505 217.612 L
188.474 215.13 L
193.207 208.481 L
201.789 203.436 L
215.105 202.018 L
228.421 204.168 L
239.175 208.481 L
241.737 210.114 L
248.483 217.612 L
251.052 226.743 L
255.053 226.743 L
262.744 226.743 L
261.156 217.612 L
255.809 208.481 L
255.053 207.747 L
242.219 199.35 L
241.737 199.132 L
228.421 195.047 L
215.105 192.598 L
201.789 191.561 L
188.474 193.027 L
179.902 199.35 L
176.035 208.481 L
175.158 213.839 L
cp
95.884 162.827 M
108.579 167.222 L
121.895 169.998 L
135.211 171.196 L
148.526 169.631 L
157.021 162.827 L
160.475 153.696 L
161.597 144.565 L
161.597 135.435 L
160.475 126.304 L
157.021 117.173 L
148.526 110.369 L
135.211 108.804 L
121.895 110.002 L
108.579 112.778 L
95.884 117.173 L
95.263 117.474 L
84.021 126.304 L
81.947 129.871 L
79.572 135.435 L
79.572 144.565 L
81.947 150.129 L
84.021 153.696 L
95.263 162.526 L
cp
108.579 156.631 M
102.596 153.696 L
95.263 146.7 L
93.912 144.565 L
93.912 135.435 L
95.263 133.3 L
102.596 126.304 L
108.579 123.369 L
121.895 120.661 L
135.211 122.274 L
141.428 126.304 L
146.621 135.435 L
146.621 144.565 L
141.428 153.696 L
135.211 157.726 L
121.895 159.339 L
cp
179.902 80.65 M
188.474 86.973 L
201.789 88.439 L
215.105 87.402 L
228.421 84.953 L
241.737 80.868 L
242.219 80.65 L
255.053 72.253 L
255.809 71.519 L
261.156 62.388 L
262.744 53.257 L
255.053 53.257 L
251.052 53.257 L
248.483 62.388 L
241.737 69.886 L
239.175 71.519 L
228.421 75.832 L
215.105 77.982 L
201.789 76.564 L
193.207 71.519 L
188.474 64.87 L
187.505 62.388 L
186.398 53.257 L
175.158 53.257 L
174.416 53.257 L
174.732 62.388 L
175.158 66.161 L
176.035 71.519 L
cp
f
GR
GS
[0.78257 0 0 0.78197 0 0.22835] CT
0.925 0.729 0.196 RC
N
187.505 217.612 M
186.398 226.743 L
188.474 226.743 L
201.789 226.743 L
203.907 226.743 L
210.263 217.612 L
215.105 215.604 L
228.421 217.541 L
228.532 217.612 L
233.426 226.743 L
241.737 226.743 L
251.052 226.743 L
248.483 217.612 L
241.737 210.114 L
239.175 208.481 L
228.421 204.168 L
215.105 202.018 L
201.789 203.436 L
193.207 208.481 L
188.474 215.13 L
cp
102.596 153.696 M
108.579 156.631 L
121.895 159.339 L
135.211 157.726 L
141.428 153.696 L
146.621 144.565 L
146.621 135.435 L
141.428 126.304 L
135.211 122.274 L
121.895 120.661 L
108.579 123.369 L
102.596 126.304 L
95.263 133.3 L
93.912 135.435 L
93.912 144.565 L
95.263 146.7 L
cp
193.207 71.519 M
201.789 76.564 L
215.105 77.982 L
228.421 75.832 L
239.175 71.519 L
241.737 69.886 L
248.483 62.388 L
251.052 53.257 L
241.737 53.257 L
233.426 53.257 L
228.532 62.388 L
228.421 62.459 L
215.105 64.396 L
210.263 62.388 L
203.907 53.257 L
201.789 53.257 L
188.474 53.257 L
186.398 53.257 L
187.505 62.388 L
188.474 64.87 L
cp
f
GR
GS
[0.78257 0 0 0.78197 0 0.22835] CT
0.98 0.831 0.176 RC
N
210.263 217.612 M
203.907 226.743 L
215.105 226.743 L
228.421 226.743 L
233.426 226.743 L
228.532 217.612 L
228.421 217.541 L
215.105 215.604 L
cp
210.263 62.388 M
215.105 64.396 L
228.421 62.459 L
228.532 62.388 L
233.426 53.257 L
228.421 53.257 L
215.105 53.257 L
203.907 53.257 L
cp
f
GR
GS
[0.78257 0 0 0.78197 0 0.22835] CT
1 LJ
0.639 LW
N
84.845 226.743 M
95.263 223.474 L
97.953 226.743 L
S
GR
GS
[0.78257 0 0 0.78197 0 0.22835] CT
1 LJ
0.639 LW
N
97.953 53.257 M
95.263 56.526 L
84.845 53.257 L
S
GR
GS
[0.78257 0 0 0.78197 0 0.22835] CT
1 LJ
0.639 LW
N
61.451 226.743 M
62.962 217.612 L
S
GR
GS
[0.78257 0 0 0.78197 0 0.22835] CT
1 LJ
0.639 LW
N
118.079 217.612 M
121.44 226.743 L
S
GR
GS
[0.78257 0 0 0.78197 0 0.22835] CT
1 LJ
0.639 LW
N
62.962 217.612 M
68.632 208.77 L
69.081 208.481 L
S
GR
GS
[0.78257 0 0 0.78197 0 0.22835] CT
1 LJ
0.639 LW
N
106.493 208.481 M
108.579 209.386 L
118.079 217.612 L
S
GR
GS
[0.78257 0 0 0.78197 0 0.22835] CT
1 LJ
0.639 LW
N
69.081 208.481 M
81.947 204.555 L
95.263 205.24 L
106.493 208.481 L
S
GR
GS
[0.78257 0 0 0.78197 0 0.22835] CT
1 LJ
0.639 LW
N
260.666 153.696 M
255.053 155.634 L
241.737 155.145 L
237.415 153.696 L
S
GR
GS
[0.78257 0 0 0.78197 0 0.22835] CT
1 LJ
0.639 LW
N
237.415 153.696 M
228.421 148.149 L
225.436 144.565 L
S
GR
GS
[0.78257 0 0 0.78197 0 0.22835] CT
1 LJ
0.639 LW
N
269.482 144.565 M
268.368 146.841 L
260.666 153.696 L
S
GR
GS
[0.78257 0 0 0.78197 0 0.22835] CT
1 LJ
0.639 LW
N
225.436 144.565 M
225.436 135.435 L
S
GR
GS
[0.78257 0 0 0.78197 0 0.22835] CT
1 LJ
0.639 LW
N
269.482 135.435 M
269.482 144.565 L
S
GR
GS
[0.78257 0 0 0.78197 0 0.22835] CT
1 LJ
0.639 LW
N
225.436 135.435 M
228.421 131.851 L
237.415 126.304 L
S
GR
GS
[0.78257 0 0 0.78197 0 0.22835] CT
1 LJ
0.639 LW
N
260.666 126.304 M
268.368 133.159 L
269.482 135.435 L
S
GR
GS
[0.78257 0 0 0.78197 0 0.22835] CT
1 LJ
0.639 LW
N
237.415 126.304 M
241.737 124.855 L
255.053 124.366 L
260.666 126.304 L
S
GR
GS
[0.78257 0 0 0.78197 0 0.22835] CT
1 LJ
0.639 LW
N
106.493 71.519 M
95.263 74.76 L
81.947 75.445 L
69.081 71.519 L
S
GR
GS
[0.78257 0 0 0.78197 0 0.22835] CT
1 LJ
0.639 LW
N
69.081 71.519 M
68.632 71.23 L
62.962 62.388 L
S
GR
GS
[0.78257 0 0 0.78197 0 0.22835] CT
1 LJ
0.639 LW
N
118.079 62.388 M
108.579 70.614 L
106.493 71.519 L
S
GR
GS
[0.78257 0 0 0.78197 0 0.22835] CT
1 LJ
0.639 LW
N
62.962 62.388 M
61.451 53.257 L
S
GR
GS
[0.78257 0 0 0.78197 0 0.22835] CT
1 LJ
0.639 LW
N
121.44 53.257 M
118.079 62.388 L
S
GR
GS
[0.78257 0 0 0.78197 0 0.22835] CT
1 LJ
0.639 LW
N
48.31 226.743 M
48.695 217.612 L
S
GR
GS
[0.78257 0 0 0.78197 0 0.22835] CT
1 LJ
0.639 LW
N
132.002 217.612 M
133.943 226.743 L
S
GR
GS
[0.78257 0 0 0.78197 0 0.22835] CT
1 LJ
0.639 LW
N
48.695 217.612 M
50.131 208.481 L
S
GR
GS
[0.78257 0 0 0.78197 0 0.22835] CT
1 LJ
0.639 LW
N
125.543 208.481 M
132.002 217.612 L
S
GR
GS
[0.78257 0 0 0.78197 0 0.22835] CT
1 LJ
0.639 LW
N
50.131 208.481 M
54.161 199.35 L
S
GR
GS
[0.78257 0 0 0.78197 0 0.22835] CT
1 LJ
0.639 LW
N
109.555 199.35 M
121.895 205.642 L
125.543 208.481 L
S
GR
GS
[0.78257 0 0 0.78197 0 0.22835] CT
1 LJ
0.639 LW
N
54.161 199.35 M
55.316 198.067 L
68.632 193.574 L
81.947 193.802 L
95.263 195.68 L
108.579 198.983 L
109.555 199.35 L
S
GR
GS
[0.78257 0 0 0.78197 0 0.22835] CT
1 LJ
0.639 LW
N
280.343 162.827 M
268.368 167.976 L
255.053 168.193 L
241.737 166.382 L
228.421 162.918 L
228.197 162.827 L
S
GR
GS
[0.78257 0 0 0.78197 0 0.22835] CT
1 LJ
0.639 LW
N
228.197 162.827 M
215.105 154.997 L
213.653 153.696 L
S
GR
GS
[0.78257 0 0 0.78197 0 0.22835] CT
1 LJ
0.639 LW
N
284.933 153.696 M
281.684 161.339 L
280.343 162.827 L
S
GR
GS
[0.78257 0 0 0.78197 0 0.22835] CT
1 LJ
0.639 LW
N
213.653 153.696 M
208.768 144.565 L
S
GR
GS
[0.78257 0 0 0.78197 0 0.22835] CT
1 LJ
0.639 LW
N
286.277 144.565 M
284.933 153.696 L
S
GR
GS
[0.78257 0 0 0.78197 0 0.22835] CT
1 LJ
0.639 LW
N
208.768 144.565 M
208.768 135.435 L
S
GR
GS
[0.78257 0 0 0.78197 0 0.22835] CT
1 LJ
0.639 LW
N
286.277 135.435 M
286.277 144.565 L
S
GR
GS
[0.78257 0 0 0.78197 0 0.22835] CT
1 LJ
0.639 LW
N
208.768 135.435 M
213.653 126.304 L
S
GR
GS
[0.78257 0 0 0.78197 0 0.22835] CT
1 LJ
0.639 LW
N
284.933 126.304 M
286.277 135.435 L
S
GR
GS
[0.78257 0 0 0.78197 0 0.22835] CT
1 LJ
0.639 LW
N
213.653 126.304 M
215.105 125.003 L
228.197 117.173 L
S
GR
GS
[0.78257 0 0 0.78197 0 0.22835] CT
1 LJ
0.639 LW
N
280.343 117.173 M
281.684 118.661 L
284.933 126.304 L
S
GR
GS
[0.78257 0 0 0.78197 0 0.22835] CT
1 LJ
0.639 LW
N
228.197 117.173 M
228.421 117.082 L
241.737 113.618 L
255.053 111.807 L
268.368 112.024 L
280.343 117.173 L
S
GR
GS
[0.78257 0 0 0.78197 0 0.22835] CT
1 LJ
0.639 LW
N
109.555 80.65 M
108.579 81.017 L
95.263 84.32 L
81.947 86.198 L
68.632 86.426 L
55.316 81.933 L
54.161 80.65 L
S
GR
GS
[0.78257 0 0 0.78197 0 0.22835] CT
1 LJ
0.639 LW
N
54.161 80.65 M
50.131 71.519 L
S
GR
GS
[0.78257 0 0 0.78197 0 0.22835] CT
1 LJ
0.639 LW
N
125.543 71.519 M
121.895 74.358 L
109.555 80.65 L
S
GR
GS
[0.78257 0 0 0.78197 0 0.22835] CT
1 LJ
0.639 LW
N
50.131 71.519 M
48.695 62.388 L
S
GR
GS
[0.78257 0 0 0.78197 0 0.22835] CT
1 LJ
0.639 LW
N
132.002 62.388 M
125.543 71.519 L
S
GR
GS
[0.78257 0 0 0.78197 0 0.22835] CT
1 LJ
0.639 LW
N
48.695 62.388 M
48.31 53.257 L
S
GR
GS
[0.78257 0 0 0.78197 0 0.22835] CT
1 LJ
0.639 LW
N
133.943 53.257 M
132.002 62.388 L
S
GR
GS
[0.78257 0 0 0.78197 0 0.22835] CT
1 LJ
0.639 LW
N
143.255 217.612 M
144.456 226.743 L
S
GR
GS
[0.78257 0 0 0.78197 0 0.22835] CT
1 LJ
0.639 LW
N
291.588 226.743 M
291.425 217.612 L
S
GR
GS
[0.78257 0 0 0.78197 0 0.22835] CT
1 LJ
0.639 LW
N
139.132 208.481 M
143.255 217.612 L
S
GR
GS
[0.78257 0 0 0.78197 0 0.22835] CT
1 LJ
0.639 LW
N
291.425 217.612 M
290.85 208.481 L
S
GR
GS
[0.78257 0 0 0.78197 0 0.22835] CT
1 LJ
0.639 LW
N
129.326 199.35 M
135.211 204.062 L
139.132 208.481 L
S
GR
GS
[0.78257 0 0 0.78197 0 0.22835] CT
1 LJ
0.639 LW
N
290.85 208.481 M
289.479 199.35 L
S
GR
GS
[0.78257 0 0 0.78197 0 0.22835] CT
1 LJ
0.639 LW
N
106.304 190.22 M
108.579 190.809 L
121.895 195.51 L
129.326 199.35 L
S
GR
GS
[0.78257 0 0 0.78197 0 0.22835] CT
1 LJ
0.639 LW
N
289.479 199.35 M
285.619 190.22 L
S
GR
GS
[0.78257 0 0 0.78197 0 0.22835] CT
1 LJ
0.639 LW
N
68.532 181.089 M
68.632 181.115 L
81.947 184.57 L
95.263 187.515 L
106.304 190.22 L
S
GR
GS
[0.78257 0 0 0.78197 0 0.22835] CT
1 LJ
0.639 LW
N
285.619 190.22 M
281.684 186.672 L
268.546 181.089 L
S
GR
GS
[0.78257 0 0 0.78197 0 0.22835] CT
1 LJ
0.639 LW
N
53.058 171.958 M
55.316 174.19 L
68.532 181.089 L
S
GR
GS
[0.78257 0 0 0.78197 0 0.22835] CT
1 LJ
0.639 LW
N
268.546 181.089 M
268.368 181.048 L
255.053 177.899 L
241.737 175.081 L
228.787 171.958 L
S
GR
GS
[0.78257 0 0 0.78197 0 0.22835] CT
1 LJ
0.639 LW
N
48.915 162.827 M
53.058 171.958 L
S
GR
GS
[0.78257 0 0 0.78197 0 0.22835] CT
1 LJ
0.639 LW
N
228.787 171.958 M
228.421 171.859 L
215.105 166.813 L
207.967 162.827 L
S
GR
GS
[0.78257 0 0 0.78197 0 0.22835] CT
1 LJ
0.639 LW
N
47.424 153.696 M
48.915 162.827 L
S
GR
GS
[0.78257 0 0 0.78197 0 0.22835] CT
1 LJ
0.639 LW
N
207.967 162.827 M
201.789 156.976 L
199.255 153.696 L
S
GR
GS
[0.78257 0 0 0.78197 0 0.22835] CT
1 LJ
0.639 LW
N
46.869 144.565 M
47.424 153.696 L
S
GR
GS
[0.78257 0 0 0.78197 0 0.22835] CT
1 LJ
0.639 LW
N
199.255 153.696 M
196.088 144.565 L
S
GR
GS
[0.78257 0 0 0.78197 0 0.22835] CT
1 LJ
0.639 LW
N
46.869 135.435 M
46.869 144.565 L
S
GR
GS
[0.78257 0 0 0.78197 0 0.22835] CT
1 LJ
0.639 LW
N
196.088 144.565 M
196.088 135.435 L
S
GR
GS
[0.78257 0 0 0.78197 0 0.22835] CT
1 LJ
0.639 LW
N
47.424 126.304 M
46.869 135.435 L
S
GR
GS
[0.78257 0 0 0.78197 0 0.22835] CT
1 LJ
0.639 LW
N
196.088 135.435 M
199.255 126.304 L
S
GR
GS
[0.78257 0 0 0.78197 0 0.22835] CT
1 LJ
0.639 LW
N
48.915 117.173 M
47.424 126.304 L
S
GR
GS
[0.78257 0 0 0.78197 0 0.22835] CT
1 LJ
0.639 LW
N
199.255 126.304 M
201.789 123.024 L
207.967 117.173 L
S
GR
GS
[0.78257 0 0 0.78197 0 0.22835] CT
1 LJ
0.639 LW
N
53.058 108.042 M
48.915 117.173 L
S
GR
GS
[0.78257 0 0 0.78197 0 0.22835] CT
1 LJ
0.639 LW
N
207.967 117.173 M
215.105 113.187 L
228.421 108.141 L
228.787 108.042 L
S
GR
GS
[0.78257 0 0 0.78197 0 0.22835] CT
1 LJ
0.639 LW
N
68.532 98.911 M
55.316 105.81 L
53.058 108.042 L
S
GR
GS
[0.78257 0 0 0.78197 0 0.22835] CT
1 LJ
0.639 LW
N
228.787 108.042 M
241.737 104.919 L
255.053 102.101 L
268.368 98.952 L
268.546 98.911 L
S
GR
GS
[0.78257 0 0 0.78197 0 0.22835] CT
1 LJ
0.639 LW
N
106.304 89.78 M
95.263 92.485 L
81.947 95.43 L
68.632 98.885 L
68.532 98.911 L
S
GR
GS
[0.78257 0 0 0.78197 0 0.22835] CT
1 LJ
0.639 LW
N
268.546 98.911 M
281.684 93.328 L
285.619 89.78 L
S
GR
GS
[0.78257 0 0 0.78197 0 0.22835] CT
1 LJ
0.639 LW
N
129.326 80.65 M
121.895 84.49 L
108.579 89.191 L
106.304 89.78 L
S
GR
GS
[0.78257 0 0 0.78197 0 0.22835] CT
1 LJ
0.639 LW
N
285.619 89.78 M
289.479 80.65 L
S
GR
GS
[0.78257 0 0 0.78197 0 0.22835] CT
1 LJ
0.639 LW
N
139.132 71.519 M
135.211 75.938 L
129.326 80.65 L
S
GR
GS
[0.78257 0 0 0.78197 0 0.22835] CT
1 LJ
0.639 LW
N
289.479 80.65 M
290.85 71.519 L
S
GR
GS
[0.78257 0 0 0.78197 0 0.22835] CT
1 LJ
0.639 LW
N
143.255 62.388 M
139.132 71.519 L
S
GR
GS
[0.78257 0 0 0.78197 0 0.22835] CT
1 LJ
0.639 LW
N
290.85 71.519 M
291.425 62.388 L
S
GR
GS
[0.78257 0 0 0.78197 0 0.22835] CT
1 LJ
0.639 LW
N
144.456 53.257 M
143.255 62.388 L
S
GR
GS
[0.78257 0 0 0.78197 0 0.22835] CT
1 LJ
0.639 LW
N
291.425 62.388 M
291.588 53.257 L
S
GR
GS
[0.78257 0 0 0.78197 0 0.22835] CT
1 LJ
0.639 LW
N
153.703 217.612 M
154.397 226.743 L
S
GR
GS
[0.78257 0 0 0.78197 0 0.22835] CT
1 LJ
0.639 LW
N
282.287 226.743 M
281.684 217.694 L
281.678 217.612 L
S
GR
GS
[0.78257 0 0 0.78197 0 0.22835] CT
1 LJ
0.639 LW
N
151.262 208.481 M
153.703 217.612 L
S
GR
GS
[0.78257 0 0 0.78197 0 0.22835] CT
1 LJ
0.639 LW
N
281.678 217.612 M
279.55 208.481 L
S
GR
GS
[0.78257 0 0 0.78197 0 0.22835] CT
1 LJ
0.639 LW
N
145.46 199.35 M
148.526 203.544 L
151.262 208.481 L
S
GR
GS
[0.78257 0 0 0.78197 0 0.22835] CT
1 LJ
0.639 LW
N
279.55 208.481 M
274.73 199.35 L
S
GR
GS
[0.78257 0 0 0.78197 0 0.22835] CT
1 LJ
0.639 LW
N
131.331 190.22 M
135.211 192.064 L
145.46 199.35 L
S
GR
GS
[0.78257 0 0 0.78197 0 0.22835] CT
1 LJ
0.639 LW
N
274.73 199.35 M
268.368 193.502 L
263.017 190.22 L
S
GR
GS
[0.78257 0 0 0.78197 0 0.22835] CT
1 LJ
0.639 LW
N
100.165 181.089 M
108.579 183.251 L
121.895 186.908 L
131.331 190.22 L
S
GR
GS
[0.78257 0 0 0.78197 0 0.22835] CT
1 LJ
0.639 LW
N
263.017 190.22 M
255.053 186.927 L
241.737 182.966 L
234.324 181.089 L
S
GR
GS
[0.78257 0 0 0.78197 0 0.22835] CT
1 LJ
0.639 LW
N
74.127 171.958 M
81.947 175.476 L
95.263 179.758 L
100.165 181.089 L
S
GR
GS
[0.78257 0 0 0.78197 0 0.22835] CT
1 LJ
0.639 LW
N
234.324 181.089 M
228.421 179.594 L
215.105 175.917 L
204.279 171.958 L
S
GR
GS
[0.78257 0 0 0.78197 0 0.22835] CT
1 LJ
0.639 LW
N
63.491 162.827 M
68.632 168.056 L
74.127 171.958 L
S
GR
GS
[0.78257 0 0 0.78197 0 0.22835] CT
1 LJ
0.639 LW
N
204.279 171.958 M
201.789 170.646 L
191.658 162.827 L
S
GR
GS
[0.78257 0 0 0.78197 0 0.22835] CT
1 LJ
0.639 LW
N
59.121 153.696 M
63.491 162.827 L
S
GR
GS
[0.78257 0 0 0.78197 0 0.22835] CT
1 LJ
0.639 LW
N
191.658 162.827 M
188.474 157.649 L
186.559 153.696 L
S
GR
GS
[0.78257 0 0 0.78197 0 0.22835] CT
1 LJ
0.639 LW
N
57.418 144.565 M
59.121 153.696 L
S
GR
GS
[0.78257 0 0 0.78197 0 0.22835] CT
1 LJ
0.639 LW
N
186.559 153.696 M
184.659 144.565 L
S
GR
GS
[0.78257 0 0 0.78197 0 0.22835] CT
1 LJ
0.639 LW
N
57.418 135.435 M
57.418 144.565 L
S
GR
GS
[0.78257 0 0 0.78197 0 0.22835] CT
1 LJ
0.639 LW
N
184.659 144.565 M
184.659 135.435 L
S
GR
GS
[0.78257 0 0 0.78197 0 0.22835] CT
1 LJ
0.639 LW
N
59.121 126.304 M
57.418 135.435 L
S
GR
GS
[0.78257 0 0 0.78197 0 0.22835] CT
1 LJ
0.639 LW
N
184.659 135.435 M
186.559 126.304 L
S
GR
GS
[0.78257 0 0 0.78197 0 0.22835] CT
1 LJ
0.639 LW
N
63.491 117.173 M
59.121 126.304 L
S
GR
GS
[0.78257 0 0 0.78197 0 0.22835] CT
1 LJ
0.639 LW
N
186.559 126.304 M
188.474 122.351 L
191.658 117.173 L
S
GR
GS
[0.78257 0 0 0.78197 0 0.22835] CT
1 LJ
0.639 LW
N
74.127 108.042 M
68.632 111.944 L
63.491 117.173 L
S
GR
GS
[0.78257 0 0 0.78197 0 0.22835] CT
1 LJ
0.639 LW
N
191.658 117.173 M
201.789 109.354 L
204.279 108.042 L
S
GR
GS
[0.78257 0 0 0.78197 0 0.22835] CT
1 LJ
0.639 LW
N
100.165 98.911 M
95.263 100.242 L
81.947 104.524 L
74.127 108.042 L
S
GR
GS
[0.78257 0 0 0.78197 0 0.22835] CT
1 LJ
0.639 LW
N
204.279 108.042 M
215.105 104.083 L
228.421 100.406 L
234.324 98.911 L
S
GR
GS
[0.78257 0 0 0.78197 0 0.22835] CT
1 LJ
0.639 LW
N
131.331 89.78 M
121.895 93.092 L
108.579 96.749 L
100.165 98.911 L
S
GR
GS
[0.78257 0 0 0.78197 0 0.22835] CT
1 LJ
0.639 LW
N
234.324 98.911 M
241.737 97.034 L
255.053 93.073 L
263.017 89.78 L
S
GR
GS
[0.78257 0 0 0.78197 0 0.22835] CT
1 LJ
0.639 LW
N
145.46 80.65 M
135.211 87.936 L
131.331 89.78 L
S
GR
GS
[0.78257 0 0 0.78197 0 0.22835] CT
1 LJ
0.639 LW
N
263.017 89.78 M
268.368 86.498 L
274.73 80.65 L
S
GR
GS
[0.78257 0 0 0.78197 0 0.22835] CT
1 LJ
0.639 LW
N
151.262 71.519 M
148.526 76.456 L
145.46 80.65 L
S
GR
GS
[0.78257 0 0 0.78197 0 0.22835] CT
1 LJ
0.639 LW
N
274.73 80.65 M
279.55 71.519 L
S
GR
GS
[0.78257 0 0 0.78197 0 0.22835] CT
1 LJ
0.639 LW
N
153.703 62.388 M
151.262 71.519 L
S
GR
GS
[0.78257 0 0 0.78197 0 0.22835] CT
1 LJ
0.639 LW
N
279.55 71.519 M
281.678 62.388 L
S
GR
GS
[0.78257 0 0 0.78197 0 0.22835] CT
1 LJ
0.639 LW
N
154.397 53.257 M
153.703 62.388 L
S
GR
GS
[0.78257 0 0 0.78197 0 0.22835] CT
1 LJ
0.639 LW
N
281.678 62.388 M
281.684 62.306 L
282.287 53.257 L
S
GR
GS
[0.78257 0 0 0.78197 0 0.22835] CT
1 LJ
0.639 LW
N
163.987 217.612 M
164.216 226.743 L
S
GR
GS
[0.78257 0 0 0.78197 0 0.22835] CT
1 LJ
0.639 LW
N
272.858 226.743 M
271.834 217.612 L
S
GR
GS
[0.78257 0 0 0.78197 0 0.22835] CT
1 LJ
0.639 LW
N
163.161 208.481 M
163.987 217.612 L
S
GR
GS
[0.78257 0 0 0.78197 0 0.22835] CT
1 LJ
0.639 LW
N
271.834 217.612 M
268.368 208.63 L
268.295 208.481 L
S
GR
GS
[0.78257 0 0 0.78197 0 0.22835] CT
1 LJ
0.639 LW
N
161.143 199.35 M
161.842 202.091 L
163.161 208.481 L
S
GR
GS
[0.78257 0 0 0.78197 0 0.22835] CT
1 LJ
0.639 LW
N
268.295 208.481 M
259.77 199.35 L
S
GR
GS
[0.78257 0 0 0.78197 0 0.22835] CT
1 LJ
0.639 LW
N
155.727 190.22 M
161.143 199.35 L
S
GR
GS
[0.78257 0 0 0.78197 0 0.22835] CT
1 LJ
0.639 LW
N
259.77 199.35 M
255.053 196.366 L
241.737 190.729 L
240.019 190.22 L
S
GR
GS
[0.78257 0 0 0.78197 0 0.22835] CT
1 LJ
0.639 LW
N
132.788 181.089 M
135.211 181.741 L
148.526 185.979 L
155.727 190.22 L
S
GR
GS
[0.78257 0 0 0.78197 0 0.22835] CT
1 LJ
0.639 LW
N
240.019 190.22 M
228.421 187.145 L
215.105 184.232 L
201.789 181.279 L
200.883 181.089 L
S
GR
GS
[0.78257 0 0 0.78197 0 0.22835] CT
1 LJ
0.639 LW
N
95.738 171.958 M
108.579 175.59 L
121.895 178.668 L
132.788 181.089 L
S
GR
GS
[0.78257 0 0 0.78197 0 0.22835] CT
1 LJ
0.639 LW
N
200.883 181.089 M
188.474 176.96 L
180.616 171.958 L
S
GR
GS
[0.78257 0 0 0.78197 0 0.22835] CT
1 LJ
0.639 LW
N
78.307 162.827 M
81.947 165.388 L
95.263 171.798 L
95.738 171.958 L
S
GR
GS
[0.78257 0 0 0.78197 0 0.22835] CT
1 LJ
0.639 LW
N
180.616 171.958 M
175.888 162.827 L
S
GR
GS
[0.78257 0 0 0.78197 0 0.22835] CT
1 LJ
0.639 LW
N
70.891 153.696 M
78.307 162.827 L
S
GR
GS
[0.78257 0 0 0.78197 0 0.22835] CT
1 LJ
0.639 LW
N
175.888 162.827 M
175.158 159.414 L
174.121 153.696 L
S
GR
GS
[0.78257 0 0 0.78197 0 0.22835] CT
1 LJ
0.639 LW
N
67.934 144.565 M
68.632 147.045 L
70.891 153.696 L
S
GR
GS
[0.78257 0 0 0.78197 0 0.22835] CT
1 LJ
0.639 LW
N
174.121 153.696 M
173.468 144.565 L
S
GR
GS
[0.78257 0 0 0.78197 0 0.22835] CT
1 LJ
0.639 LW
N
67.934 135.435 M
67.934 144.565 L
S
GR
GS
[0.78257 0 0 0.78197 0 0.22835] CT
1 LJ
0.639 LW
N
173.468 144.565 M
173.468 135.435 L
S
GR
GS
[0.78257 0 0 0.78197 0 0.22835] CT
1 LJ
0.639 LW
N
70.891 126.304 M
68.632 132.955 L
67.934 135.435 L
S
GR
GS
[0.78257 0 0 0.78197 0 0.22835] CT
1 LJ
0.639 LW
N
173.468 135.435 M
174.121 126.304 L
S
GR
GS
[0.78257 0 0 0.78197 0 0.22835] CT
1 LJ
0.639 LW
N
78.307 117.173 M
70.891 126.304 L
S
GR
GS
[0.78257 0 0 0.78197 0 0.22835] CT
1 LJ
0.639 LW
N
174.121 126.304 M
175.158 120.586 L
175.888 117.173 L
S
GR
GS
[0.78257 0 0 0.78197 0 0.22835] CT
1 LJ
0.639 LW
N
95.738 108.042 M
95.263 108.202 L
81.947 114.612 L
78.307 117.173 L
S
GR
GS
[0.78257 0 0 0.78197 0 0.22835] CT
1 LJ
0.639 LW
N
175.888 117.173 M
180.616 108.042 L
S
GR
GS
[0.78257 0 0 0.78197 0 0.22835] CT
1 LJ
0.639 LW
N
132.788 98.911 M
121.895 101.332 L
108.579 104.41 L
95.738 108.042 L
S
GR
GS
[0.78257 0 0 0.78197 0 0.22835] CT
1 LJ
0.639 LW
N
180.616 108.042 M
188.474 103.04 L
200.883 98.911 L
S
GR
GS
[0.78257 0 0 0.78197 0 0.22835] CT
1 LJ
0.639 LW
N
155.727 89.78 M
148.526 94.021 L
135.211 98.259 L
132.788 98.911 L
S
GR
GS
[0.78257 0 0 0.78197 0 0.22835] CT
1 LJ
0.639 LW
N
200.883 98.911 M
201.789 98.721 L
215.105 95.768 L
228.421 92.855 L
240.019 89.78 L
S
GR
GS
[0.78257 0 0 0.78197 0 0.22835] CT
1 LJ
0.639 LW
N
161.143 80.65 M
155.727 89.78 L
S
GR
GS
[0.78257 0 0 0.78197 0 0.22835] CT
1 LJ
0.639 LW
N
240.019 89.78 M
241.737 89.271 L
255.053 83.634 L
259.77 80.65 L
S
GR
GS
[0.78257 0 0 0.78197 0 0.22835] CT
1 LJ
0.639 LW
N
163.161 71.519 M
161.842 77.909 L
161.143 80.65 L
S
GR
GS
[0.78257 0 0 0.78197 0 0.22835] CT
1 LJ
0.639 LW
N
259.77 80.65 M
268.295 71.519 L
S
GR
GS
[0.78257 0 0 0.78197 0 0.22835] CT
1 LJ
0.639 LW
N
163.987 62.388 M
163.161 71.519 L
S
GR
GS
[0.78257 0 0 0.78197 0 0.22835] CT
1 LJ
0.639 LW
N
268.295 71.519 M
268.368 71.37 L
271.834 62.388 L
S
GR
GS
[0.78257 0 0 0.78197 0 0.22835] CT
1 LJ
0.639 LW
N
164.216 53.257 M
163.987 62.388 L
S
GR
GS
[0.78257 0 0 0.78197 0 0.22835] CT
1 LJ
0.639 LW
N
271.834 62.388 M
272.858 53.257 L
S
GR
GS
[0.78257 0 0 0.78197 0 0.22835] CT
1 LJ
0.639 LW
N
174.732 217.612 M
174.416 226.743 L
S
GR
GS
[0.78257 0 0 0.78197 0 0.22835] CT
1 LJ
0.639 LW
N
262.744 226.743 M
261.156 217.612 L
S
GR
GS
[0.78257 0 0 0.78197 0 0.22835] CT
1 LJ
0.639 LW
N
176.035 208.481 M
175.158 213.839 L
174.732 217.612 L
S
GR
GS
[0.78257 0 0 0.78197 0 0.22835] CT
1 LJ
0.639 LW
N
261.156 217.612 M
255.809 208.481 L
S
GR
GS
[0.78257 0 0 0.78197 0 0.22835] CT
1 LJ
0.639 LW
N
179.902 199.35 M
176.035 208.481 L
S
GR
GS
[0.78257 0 0 0.78197 0 0.22835] CT
1 LJ
0.639 LW
N
255.809 208.481 M
255.053 207.747 L
242.219 199.35 L
S
GR
GS
[0.78257 0 0 0.78197 0 0.22835] CT
1 LJ
0.639 LW
N
242.219 199.35 M
241.737 199.132 L
228.421 195.047 L
215.105 192.598 L
201.789 191.561 L
188.474 193.027 L
179.902 199.35 L
S
GR
GS
[0.78257 0 0 0.78197 0 0.22835] CT
1 LJ
0.639 LW
N
95.884 162.827 M
108.579 167.222 L
121.895 169.998 L
135.211 171.196 L
148.526 169.631 L
157.021 162.827 L
S
GR
GS
[0.78257 0 0 0.78197 0 0.22835] CT
1 LJ
0.639 LW
N
84.021 153.696 M
95.263 162.526 L
95.884 162.827 L
S
GR
GS
[0.78257 0 0 0.78197 0 0.22835] CT
1 LJ
0.639 LW
N
157.021 162.827 M
160.475 153.696 L
S
GR
GS
[0.78257 0 0 0.78197 0 0.22835] CT
1 LJ
0.639 LW
N
79.572 144.565 M
81.947 150.129 L
84.021 153.696 L
S
GR
GS
[0.78257 0 0 0.78197 0 0.22835] CT
1 LJ
0.639 LW
N
160.475 153.696 M
161.597 144.565 L
S
GR
GS
[0.78257 0 0 0.78197 0 0.22835] CT
1 LJ
0.639 LW
N
79.572 135.435 M
79.572 144.565 L
S
GR
GS
[0.78257 0 0 0.78197 0 0.22835] CT
1 LJ
0.639 LW
N
161.597 144.565 M
161.597 135.435 L
S
GR
GS
[0.78257 0 0 0.78197 0 0.22835] CT
1 LJ
0.639 LW
N
84.021 126.304 M
81.947 129.871 L
79.572 135.435 L
S
GR
GS
[0.78257 0 0 0.78197 0 0.22835] CT
1 LJ
0.639 LW
N
161.597 135.435 M
160.475 126.304 L
S
GR
GS
[0.78257 0 0 0.78197 0 0.22835] CT
1 LJ
0.639 LW
N
95.884 117.173 M
95.263 117.474 L
84.021 126.304 L
S
GR
GS
[0.78257 0 0 0.78197 0 0.22835] CT
1 LJ
0.639 LW
N
160.475 126.304 M
157.021 117.173 L
S
GR
GS
[0.78257 0 0 0.78197 0 0.22835] CT
1 LJ
0.639 LW
N
157.021 117.173 M
148.526 110.369 L
135.211 108.804 L
121.895 110.002 L
108.579 112.778 L
95.884 117.173 L
S
GR
GS
[0.78257 0 0 0.78197 0 0.22835] CT
1 LJ
0.639 LW
N
179.902 80.65 M
188.474 86.973 L
201.789 88.439 L
215.105 87.402 L
228.421 84.953 L
241.737 80.868 L
242.219 80.65 L
S
GR
GS
[0.78257 0 0 0.78197 0 0.22835] CT
1 LJ
0.639 LW
N
176.035 71.519 M
179.902 80.65 L
S
GR
GS
[0.78257 0 0 0.78197 0 0.22835] CT
1 LJ
0.639 LW
N
242.219 80.65 M
255.053 72.253 L
255.809 71.519 L
S
GR
GS
[0.78257 0 0 0.78197 0 0.22835] CT
1 LJ
0.639 LW
N
174.732 62.388 M
175.158 66.161 L
176.035 71.519 L
S
GR
GS
[0.78257 0 0 0.78197 0 0.22835] CT
1 LJ
0.639 LW
N
255.809 71.519 M
261.156 62.388 L
S
GR
GS
[0.78257 0 0 0.78197 0 0.22835] CT
1 LJ
0.639 LW
N
174.416 53.257 M
174.732 62.388 L
S
GR
GS
[0.78257 0 0 0.78197 0 0.22835] CT
1 LJ
0.639 LW
N
261.156 62.388 M
262.744 53.257 L
S
GR
GS
[0.78257 0 0 0.78197 0 0.22835] CT
1 LJ
0.639 LW
N
187.505 217.612 M
186.398 226.743 L
S
GR
GS
[0.78257 0 0 0.78197 0 0.22835] CT
1 LJ
0.639 LW
N
251.052 226.743 M
248.483 217.612 L
S
GR
GS
[0.78257 0 0 0.78197 0 0.22835] CT
1 LJ
0.639 LW
N
193.207 208.481 M
188.474 215.13 L
187.505 217.612 L
S
GR
GS
[0.78257 0 0 0.78197 0 0.22835] CT
1 LJ
0.639 LW
N
248.483 217.612 M
241.737 210.114 L
239.175 208.481 L
S
GR
GS
[0.78257 0 0 0.78197 0 0.22835] CT
1 LJ
0.639 LW
N
239.175 208.481 M
228.421 204.168 L
215.105 202.018 L
201.789 203.436 L
193.207 208.481 L
S
GR
GS
[0.78257 0 0 0.78197 0 0.22835] CT
1 LJ
0.639 LW
N
102.596 153.696 M
108.579 156.631 L
121.895 159.339 L
135.211 157.726 L
141.428 153.696 L
S
GR
GS
[0.78257 0 0 0.78197 0 0.22835] CT
1 LJ
0.639 LW
N
93.912 144.565 M
95.263 146.7 L
102.596 153.696 L
S
GR
GS
[0.78257 0 0 0.78197 0 0.22835] CT
1 LJ
0.639 LW
N
141.428 153.696 M
146.621 144.565 L
S
GR
GS
[0.78257 0 0 0.78197 0 0.22835] CT
1 LJ
0.639 LW
N
93.912 135.435 M
93.912 144.565 L
S
GR
GS
[0.78257 0 0 0.78197 0 0.22835] CT
1 LJ
0.639 LW
N
146.621 144.565 M
146.621 135.435 L
S
GR
GS
[0.78257 0 0 0.78197 0 0.22835] CT
1 LJ
0.639 LW
N
102.596 126.304 M
95.263 133.3 L
93.912 135.435 L
S
GR
GS
[0.78257 0 0 0.78197 0 0.22835] CT
1 LJ
0.639 LW
N
146.621 135.435 M
141.428 126.304 L
S
GR
GS
[0.78257 0 0 0.78197 0 0.22835] CT
1 LJ
0.639 LW
N
141.428 126.304 M
135.211 122.274 L
121.895 120.661 L
108.579 123.369 L
102.596 126.304 L
S
GR
GS
[0.78257 0 0 0.78197 0 0.22835] CT
1 LJ
0.639 LW
N
193.207 71.519 M
201.789 76.564 L
215.105 77.982 L
228.421 75.832 L
239.175 71.519 L
S
GR
GS
[0.78257 0 0 0.78197 0 0.22835] CT
1 LJ
0.639 LW
N
187.505 62.388 M
188.474 64.87 L
193.207 71.519 L
S
GR
GS
[0.78257 0 0 0.78197 0 0.22835] CT
1 LJ
0.639 LW
N
239.175 71.519 M
241.737 69.886 L
248.483 62.388 L
S
GR
GS
[0.78257 0 0 0.78197 0 0.22835] CT
1 LJ
0.639 LW
N
186.398 53.257 M
187.505 62.388 L
S
GR
GS
[0.78257 0 0 0.78197 0 0.22835] CT
1 LJ
0.639 LW
N
248.483 62.388 M
251.052 53.257 L
S
GR
GS
[0.78257 0 0 0.78197 0 0.22835] CT
1 LJ
0.639 LW
N
210.263 217.612 M
203.907 226.743 L
S
GR
GS
[0.78257 0 0 0.78197 0 0.22835] CT
1 LJ
0.639 LW
N
233.426 226.743 M
228.532 217.612 L
S
GR
GS
[0.78257 0 0 0.78197 0 0.22835] CT
1 LJ
0.639 LW
N
228.532 217.612 M
228.421 217.541 L
215.105 215.604 L
210.263 217.612 L
S
GR
GS
[0.78257 0 0 0.78197 0 0.22835] CT
1 LJ
0.639 LW
N
210.263 62.388 M
215.105 64.396 L
228.421 62.459 L
228.532 62.388 L
S
GR
GS
[0.78257 0 0 0.78197 0 0.22835] CT
1 LJ
0.639 LW
N
203.907 53.257 M
210.263 62.388 L
S
GR
GS
[0.78257 0 0 0.78197 0 0.22835] CT
1 LJ
0.639 LW
N
228.532 62.388 M
233.426 53.257 L
S
GR
GS
[0.78257 0 0 0.78197 0 0.22835] CT
1 0 0 RC
1 LJ
0.639 LW
N
61.207 188.031 M
66.027 183.774 L
63.777 189.798 L
S
GR
GS
[0.78257 0 0 0.78197 0 0.22835] CT
1 0 0 RC
1 LJ
0.639 LW
N
64.174 172.006 M
69.984 169.339 L
66.113 174.426 L
S
GR
GS
[0.78257 0 0 0.78197 0 0.22835] CT
1 0 0 RC
1 LJ
0.639 LW
N
67.404 159.319 M
73.723 159.858 L
67.894 162.356 L
S
GR
GS
[0.78257 0 0 0.78197 0 0.22835] CT
1 0 0 RC
1 LJ
0.639 LW
N
69.533 147.619 M
75.666 151.629 L
68.368 150.977 L
S
GR
GS
[0.78257 0 0 0.78197 0 0.22835] CT
1 0 0 RC
1 LJ
0.639 LW
N
69.665 134.139 M
74.994 140.422 L
67.336 137.386 L
S
GR
GS
[0.78257 0 0 0.78197 0 0.22835] CT
1 0 0 RC
1 LJ
0.639 LW
N
67.743 116.863 M
71.991 123.261 L
65.232 119.614 L
S
GR
GS
[0.78257 0 0 0.78197 0 0.22835] CT
1 0 0 RC
1 LJ
0.639 LW
N
64.579 95.374 M
67.922 99.681 L
62.945 97.454 L
S
GR
GS
[0.78257 0 0 0.78197 0 0.22835] CT
1 0 0 RC
1 LJ
0.639 LW
N
80.57 191.941 M
81.264 188.208 L
82.409 191.829 L
S
GR
GS
[0.78257 0 0 0.78197 0 0.22835] CT
1 0 0 RC
1 LJ
0.639 LW
N
87.792 175.967 M
91.468 174.616 L
88.86 177.538 L
S
GR
GS
[0.78257 0 0 0.78197 0 0.22835] CT
1 0 0 RC
1 LJ
0.639 LW
N
94.862 161.867 M
101.108 163.754 L
94.709 165.029 L
S
GR
GS
[0.78257 0 0 0.78197 0 0.22835] CT
1 0 0 RC
1 LJ
0.639 LW
N
98.796 147.888 M
106.118 152.501 L
97.487 151.876 L
S
GR
GS
[0.78257 0 0 0.78197 0 0.22835] CT
1 0 0 RC
1 LJ
0.639 LW
N
97.938 132.223 M
104.385 137.901 L
96.024 135.925 L
S
GR
GS
[0.78257 0 0 0.78197 0 0.22835] CT
1 0 0 RC
1 LJ
0.639 LW
N
92.647 113.777 M
96.641 118.411 L
90.937 116.201 L
S
GR
GS
[0.78257 0 0 0.78197 0 0.22835] CT
1 0 0 RC
1 LJ
0.639 LW
N
85.157 92.628 M
86.151 94.548 L
84.37 93.321 L
S
GR
GS
[0.78257 0 0 0.78197 0 0.22835] CT
1 0 0 RC
1 LJ
0.639 LW
N
100.338 197.546 M
96.79 195.205 L
101.022 195.6 L
S
GR
GS
[0.78257 0 0 0.78197 0 0.22835] CT
1 0 0 RC
1 LJ
0.639 LW
N
108.972 182.303 M
108.937 182.946 L
108.666 182.363 L
S
GR
GS
[0.78257 0 0 0.78197 0 0.22835] CT
1 0 0 RC
1 LJ
0.639 LW
N
117.091 166.592 M
120.412 169.903 L
115.924 168.544 L
S
GR
GS
[0.78257 0 0 0.78197 0 0.22835] CT
1 0 0 RC
1 LJ
0.639 LW
N
121.271 149.336 M
126.376 153.877 L
119.735 152.272 L
S
GR
GS
[0.78257 0 0 0.78197 0 0.22835] CT
1 0 0 RC
1 LJ
0.639 LW
N
119.75 130.111 M
124.314 133.923 L
118.493 132.707 L
S
GR
GS
[0.78257 0 0 0.78197 0 0.22835] CT
1 0 0 RC
1 LJ
0.639 LW
N
113.168 109.323 M
115.095 110.757 L
112.721 110.398 L
S
GR
GS
[0.78257 0 0 0.78197 0 0.22835] CT
1 0 0 RC
1 LJ
0.639 LW
N
104.302 88.038 M
102.607 86.445 L
104.853 87.053 L
S
GR
GS
[0.78257 0 0 0.78197 0 0.22835] CT
1 0 0 RC
1 LJ
0.639 LW
N
123.405 202.48 M
117.287 201.815 L
122.998 199.523 L
S
GR
GS
[0.78257 0 0 0.78197 0 0.22835] CT
1 0 0 RC
1 LJ
0.639 LW
N
130.013 188.344 M
126.255 190.815 L
128.408 186.866 L
S
GR
GS
[0.78257 0 0 0.78197 0 0.22835] CT
1 0 0 RC
1 LJ
0.639 LW
N
135.949 171.5 M
134.726 175.713 L
133.823 171.42 L
S
GR
GS
[0.78257 0 0 0.78197 0 0.22835] CT
1 0 0 RC
1 LJ
0.639 LW
N
138.712 151.351 M
139.129 155.176 L
136.961 151.998 L
S
GR
GS
[0.78257 0 0 0.78197 0 0.22835] CT
1 0 0 RC
1 LJ
0.639 LW
N
137.135 128.693 M
137.607 130.165 L
136.497 129.089 L
S
GR
GS
[0.78257 0 0 0.78197 0 0.22835] CT
1 0 0 RC
1 LJ
0.639 LW
N
131.883 105.38 M
130.801 103.526 L
132.628 104.652 L
S
GR
GS
[0.78257 0 0 0.78197 0 0.22835] CT
1 0 0 RC
1 LJ
0.639 LW
N
125.172 83.542 M
121.581 78.791 L
126.986 81.293 L
S
GR
GS
[0.78257 0 0 0.78197 0 0.22835] CT
1 0 0 RC
1 LJ
0.639 LW
N
151.274 204.665 M
145.343 205.251 L
150.301 201.942 L
S
GR
GS
[0.78257 0 0 0.78197 0 0.22835] CT
1 0 0 RC
1 LJ
0.639 LW
N
153.272 191.541 M
147.349 194.904 L
150.992 189.149 L
S
GR
GS
[0.78257 0 0 0.78197 0 0.22835] CT
1 0 0 RC
1 LJ
0.639 LW
N
154.714 174.522 M
149.245 178.732 L
152.09 172.444 L
S
GR
GS
[0.78257 0 0 0.78197 0 0.22835] CT
1 0 0 RC
1 LJ
0.639 LW
N
154.993 153.085 M
150.23 155.852 L
153.131 151.169 L
S
GR
GS
[0.78257 0 0 0.78197 0 0.22835] CT
1 0 0 RC
1 LJ
0.639 LW
N
153.991 128.569 M
149.889 128.212 L
153.676 126.596 L
S
GR
GS
[0.78257 0 0 0.78197 0 0.22835] CT
1 0 0 RC
1 LJ
0.639 LW
N
152.131 103.61 M
148.366 99.768 L
153.496 101.387 L
S
GR
GS
[0.78257 0 0 0.78197 0 0.22835] CT
1 0 0 RC
1 LJ
0.639 LW
N
150.197 81.034 M
146.304 74.813 L
152.666 78.47 L
S
GR
GS
[0.78257 0 0 0.78197 0 0.22835] CT
1 0 0 RC
1 LJ
0.639 LW
N
183.424 203.177 M
180.357 204.063 L
182.647 201.838 L
S
GR
GS
[0.78257 0 0 0.78197 0 0.22835] CT
1 0 0 RC
1 LJ
0.639 LW
N
180.172 190.546 M
174.556 193.49 L
178.126 188.249 L
S
GR
GS
[0.78257 0 0 0.78197 0 0.22835] CT
1 0 0 RC
1 LJ
0.639 LW
N
176.703 174.384 M
169.075 177.688 L
174.251 171.183 L
S
GR
GS
[0.78257 0 0 0.78197 0 0.22835] CT
1 0 0 RC
1 LJ
0.639 LW
N
174.48 153.806 M
166.227 155.618 L
172.657 150.135 L
S
GR
GS
[0.78257 0 0 0.78197 0 0.22835] CT
1 0 0 RC
1 LJ
0.639 LW
N
174.442 129.789 M
167.212 128.888 L
174.015 126.281 L
S
GR
GS
[0.78257 0 0 0.78197 0 0.22835] CT
1 0 0 RC
1 LJ
0.639 LW
N
176.603 104.76 M
171.615 101.067 L
177.754 101.978 L
S
GR
GS
[0.78257 0 0 0.78197 0 0.22835] CT
1 0 0 RC
1 LJ
0.639 LW
N
180.053 81.573 M
177.579 76.189 L
182.296 79.775 L
S
GR
GS
[0.78257 0 0 0.78197 0 0.22835] CT
1 0 0 RC
1 LJ
0.639 LW
N
217.527 198.645 M
218.794 198.752 L
217.626 199.254 L
S
GR
GS
[0.78257 0 0 0.78197 0 0.22835] CT
1 0 0 RC
1 LJ
0.639 LW
N
210.6 185.779 M
207.632 187.168 L
209.596 184.545 L
S
GR
GS
[0.78257 0 0 0.78197 0 0.22835] CT
1 0 0 RC
1 LJ
0.639 LW
N
203.874 171.143 M
197.087 173.021 L
202.192 168.17 L
S
GR
GS
[0.78257 0 0 0.78197 0 0.22835] CT
1 0 0 RC
1 LJ
0.639 LW
N
200.187 153.21 M
191.606 154.574 L
198.535 149.333 L
S
GR
GS
[0.78257 0 0 0.78197 0 0.22835] CT
1 0 0 RC
1 LJ
0.639 LW
N
201.093 131.84 M
193.502 131.907 L
200.169 128.276 L
S
GR
GS
[0.78257 0 0 0.78197 0 0.22835] CT
1 0 0 RC
1 LJ
0.639 LW
N
206.211 108.345 M
201.973 106.877 L
206.403 106.178 L
S
GR
GS
[0.78257 0 0 0.78197 0 0.22835] CT
1 0 0 RC
1 LJ
0.639 LW
N
213.381 84.931 M
213.449 82.338 L
214.609 84.657 L
S
GR
GS
[0.78257 0 0 0.78197 0 0.22835] CT
1 0 0 RC
1 LJ
0.639 LW
N
250.433 192.98 M
255.675 191.559 L
251.718 195.28 L
S
GR
GS
[0.78257 0 0 0.78197 0 0.22835] CT
1 0 0 RC
1 LJ
0.639 LW
N
242.954 179.25 M
243.859 178.605 L
243.364 179.6 L
S
GR
GS
[0.78257 0 0 0.78197 0 0.22835] CT
1 0 0 RC
1 LJ
0.639 LW
N
236 166.167 M
232.697 166.699 L
235.361 164.675 L
S
GR
GS
[0.78257 0 0 0.78197 0 0.22835] CT
1 0 0 RC
1 LJ
0.639 LW
N
232.502 151.548 M
226.896 153.16 L
231.084 149.099 L
S
GR
GS
[0.78257 0 0 0.78197 0 0.22835] CT
1 0 0 RC
1 LJ
0.639 LW
N
233.937 133.857 M
228.902 135.996 L
232.338 131.739 L
S
GR
GS
[0.78257 0 0 0.78197 0 0.22835] CT
1 0 0 RC
1 LJ
0.639 LW
N
239.699 112.852 M
237.87 114.745 L
238.593 112.214 L
S
GR
GS
[0.78257 0 0 0.78197 0 0.22835] CT
1 0 0 RC
1 LJ
0.639 LW
N
247.358 89.692 M
250.017 90.668 L
247.211 91.058 L
S
GR
GS
[0.78257 0 0 0.78197 0 0.22835] CT
1 0 0 RC
1 LJ
0.639 LW
N
279.495 188.571 M
286.679 185.516 L
281.778 191.592 L
S
GR
GS
[0.78257 0 0 0.78197 0 0.22835] CT
1 0 0 RC
1 LJ
0.639 LW
N
274.822 173.712 M
279.192 171.412 L
276.419 175.498 L
S
GR
GS
[0.78257 0 0 0.78197 0 0.22835] CT
1 0 0 RC
1 LJ
0.639 LW
N
270.763 161.554 M
272.119 161.388 L
271 162.173 L
S
GR
GS
[0.78257 0 0 0.78197 0 0.22835] CT
1 0 0 RC
1 LJ
0.639 LW
N
269.03 149.521 M
268.444 151.972 L
267.808 149.534 L
S
GR
GS
[0.78257 0 0 0.78197 0 0.22835] CT
1 0 0 RC
1 LJ
0.639 LW
N
270.354 134.989 M
269.715 139.432 L
268.187 135.211 L
S
GR
GS
[0.78257 0 0 0.78197 0 0.22835] CT
1 0 0 RC
1 LJ
0.639 LW
N
274.176 116.382 M
275.397 121.356 L
271.979 117.542 L
S
GR
GS
[0.78257 0 0 0.78197 0 0.22835] CT
1 0 0 RC
1 LJ
0.639 LW
N
278.885 93.848 M
283.093 97.665 L
277.584 96.278 L
S
GR
GS
[0.78257 0 0 0.78197 0 0.22835] CT
1 0 0 RC
1 LJ
0.639 LW
N
55.316 199.35 M
66.027 183.774 L
S
GR
GS
[0.78257 0 0 0.78197 0 0.22835] CT
1 0 0 RC
1 LJ
0.639 LW
N
55.316 181.089 M
69.984 169.339 L
S
GR
GS
[0.78257 0 0 0.78197 0 0.22835] CT
1 0 0 RC
1 LJ
0.639 LW
N
55.316 162.827 M
73.723 159.858 L
S
GR
GS
[0.78257 0 0 0.78197 0 0.22835] CT
1 0 0 RC
1 LJ
0.639 LW
N
55.316 144.565 M
75.666 151.629 L
S
GR
GS
[0.78257 0 0 0.78197 0 0.22835] CT
1 0 0 RC
1 LJ
0.639 LW
N
55.316 126.304 M
74.994 140.422 L
S
GR
GS
[0.78257 0 0 0.78197 0 0.22835] CT
1 0 0 RC
1 LJ
0.639 LW
N
55.316 108.042 M
71.991 123.261 L
S
GR
GS
[0.78257 0 0 0.78197 0 0.22835] CT
1 0 0 RC
1 LJ
0.639 LW
N
55.316 89.78 M
67.922 99.681 L
S
GR
GS
[0.78257 0 0 0.78197 0 0.22835] CT
1 0 0 RC
1 LJ
0.639 LW
N
81.947 199.35 M
81.264 188.208 L
S
GR
GS
[0.78257 0 0 0.78197 0 0.22835] CT
1 0 0 RC
1 LJ
0.639 LW
N
81.947 181.089 M
91.468 174.616 L
S
GR
GS
[0.78257 0 0 0.78197 0 0.22835] CT
1 0 0 RC
1 LJ
0.639 LW
N
81.947 162.827 M
101.108 163.754 L
S
GR
GS
[0.78257 0 0 0.78197 0 0.22835] CT
1 0 0 RC
1 LJ
0.639 LW
N
81.947 144.565 M
106.118 152.501 L
S
GR
GS
[0.78257 0 0 0.78197 0 0.22835] CT
1 0 0 RC
1 LJ
0.639 LW
N
81.947 126.304 M
104.385 137.901 L
S
GR
GS
[0.78257 0 0 0.78197 0 0.22835] CT
1 0 0 RC
1 LJ
0.639 LW
N
81.947 108.042 M
96.641 118.411 L
S
GR
GS
[0.78257 0 0 0.78197 0 0.22835] CT
1 0 0 RC
1 LJ
0.639 LW
N
81.947 89.78 M
86.151 94.548 L
S
GR
GS
[0.78257 0 0 0.78197 0 0.22835] CT
1 0 0 RC
1 LJ
0.639 LW
N
108.579 199.35 M
96.79 195.205 L
S
GR
GS
[0.78257 0 0 0.78197 0 0.22835] CT
1 0 0 RC
1 LJ
0.639 LW
N
108.579 181.089 M
108.937 182.946 L
S
GR
GS
[0.78257 0 0 0.78197 0 0.22835] CT
1 0 0 RC
1 LJ
0.639 LW
N
108.579 162.827 M
120.412 169.903 L
S
GR
GS
[0.78257 0 0 0.78197 0 0.22835] CT
1 0 0 RC
1 LJ
0.639 LW
N
108.579 144.565 M
126.376 153.877 L
S
GR
GS
[0.78257 0 0 0.78197 0 0.22835] CT
1 0 0 RC
1 LJ
0.639 LW
N
108.579 126.304 M
124.314 133.923 L
S
GR
GS
[0.78257 0 0 0.78197 0 0.22835] CT
1 0 0 RC
1 LJ
0.639 LW
N
108.579 108.042 M
115.095 110.757 L
S
GR
GS
[0.78257 0 0 0.78197 0 0.22835] CT
1 0 0 RC
1 LJ
0.639 LW
N
108.579 89.78 M
102.607 86.445 L
S
GR
GS
[0.78257 0 0 0.78197 0 0.22835] CT
1 0 0 RC
1 LJ
0.639 LW
N
135.211 199.35 M
117.287 201.815 L
S
GR
GS
[0.78257 0 0 0.78197 0 0.22835] CT
1 0 0 RC
1 LJ
0.639 LW
N
135.211 181.089 M
126.255 190.815 L
S
GR
GS
[0.78257 0 0 0.78197 0 0.22835] CT
1 0 0 RC
1 LJ
0.639 LW
N
135.211 162.827 M
134.726 175.713 L
S
GR
GS
[0.78257 0 0 0.78197 0 0.22835] CT
1 0 0 RC
1 LJ
0.639 LW
N
135.211 144.565 M
139.129 155.176 L
S
GR
GS
[0.78257 0 0 0.78197 0 0.22835] CT
1 0 0 RC
1 LJ
0.639 LW
N
135.211 126.304 M
137.607 130.165 L
S
GR
GS
[0.78257 0 0 0.78197 0 0.22835] CT
1 0 0 RC
1 LJ
0.639 LW
N
135.211 108.042 M
130.801 103.526 L
S
GR
GS
[0.78257 0 0 0.78197 0 0.22835] CT
1 0 0 RC
1 LJ
0.639 LW
N
135.211 89.78 M
121.581 78.791 L
S
GR
GS
[0.78257 0 0 0.78197 0 0.22835] CT
1 0 0 RC
1 LJ
0.639 LW
N
161.842 199.35 M
145.343 205.251 L
S
GR
GS
[0.78257 0 0 0.78197 0 0.22835] CT
1 0 0 RC
1 LJ
0.639 LW
N
161.842 181.089 M
147.349 194.904 L
S
GR
GS
[0.78257 0 0 0.78197 0 0.22835] CT
1 0 0 RC
1 LJ
0.639 LW
N
161.842 162.827 M
149.245 178.732 L
S
GR
GS
[0.78257 0 0 0.78197 0 0.22835] CT
1 0 0 RC
1 LJ
0.639 LW
N
161.842 144.565 M
150.23 155.852 L
S
GR
GS
[0.78257 0 0 0.78197 0 0.22835] CT
1 0 0 RC
1 LJ
0.639 LW
N
161.842 126.304 M
149.889 128.212 L
S
GR
GS
[0.78257 0 0 0.78197 0 0.22835] CT
1 0 0 RC
1 LJ
0.639 LW
N
161.842 108.042 M
148.366 99.768 L
S
GR
GS
[0.78257 0 0 0.78197 0 0.22835] CT
1 0 0 RC
1 LJ
0.639 LW
N
161.842 89.78 M
146.304 74.813 L
S
GR
GS
[0.78257 0 0 0.78197 0 0.22835] CT
1 0 0 RC
1 LJ
0.639 LW
N
188.474 199.35 M
180.357 204.063 L
S
GR
GS
[0.78257 0 0 0.78197 0 0.22835] CT
1 0 0 RC
1 LJ
0.639 LW
N
188.474 181.089 M
174.556 193.49 L
S
GR
GS
[0.78257 0 0 0.78197 0 0.22835] CT
1 0 0 RC
1 LJ
0.639 LW
N
188.474 162.827 M
169.075 177.688 L
S
GR
GS
[0.78257 0 0 0.78197 0 0.22835] CT
1 0 0 RC
1 LJ
0.639 LW
N
188.474 144.565 M
166.227 155.618 L
S
GR
GS
[0.78257 0 0 0.78197 0 0.22835] CT
1 0 0 RC
1 LJ
0.639 LW
N
188.474 126.304 M
167.212 128.888 L
S
GR
GS
[0.78257 0 0 0.78197 0 0.22835] CT
1 0 0 RC
1 LJ
0.639 LW
N
188.474 108.042 M
171.615 101.067 L
S
GR
GS
[0.78257 0 0 0.78197 0 0.22835] CT
1 0 0 RC
1 LJ
0.639 LW
N
188.474 89.78 M
177.579 76.189 L
S
GR
GS
[0.78257 0 0 0.78197 0 0.22835] CT
1 0 0 RC
1 LJ
0.639 LW
N
215.105 199.35 M
218.794 198.752 L
S
GR
GS
[0.78257 0 0 0.78197 0 0.22835] CT
1 0 0 RC
1 LJ
0.639 LW
N
215.105 181.089 M
207.632 187.168 L
S
GR
GS
[0.78257 0 0 0.78197 0 0.22835] CT
1 0 0 RC
1 LJ
0.639 LW
N
215.105 162.827 M
197.087 173.021 L
S
GR
GS
[0.78257 0 0 0.78197 0 0.22835] CT
1 0 0 RC
1 LJ
0.639 LW
N
215.105 144.565 M
191.606 154.574 L
S
GR
GS
[0.78257 0 0 0.78197 0 0.22835] CT
1 0 0 RC
1 LJ
0.639 LW
N
215.105 126.304 M
193.502 131.907 L
S
GR
GS
[0.78257 0 0 0.78197 0 0.22835] CT
1 0 0 RC
1 LJ
0.639 LW
N
215.105 108.042 M
201.973 106.877 L
S
GR
GS
[0.78257 0 0 0.78197 0 0.22835] CT
1 0 0 RC
1 LJ
0.639 LW
N
215.105 89.78 M
213.449 82.338 L
S
GR
GS
[0.78257 0 0 0.78197 0 0.22835] CT
1 0 0 RC
1 LJ
0.639 LW
N
241.737 199.35 M
255.675 191.559 L
S
GR
GS
[0.78257 0 0 0.78197 0 0.22835] CT
1 0 0 RC
1 LJ
0.639 LW
N
241.737 181.089 M
243.859 178.605 L
S
GR
GS
[0.78257 0 0 0.78197 0 0.22835] CT
1 0 0 RC
1 LJ
0.639 LW
N
241.737 162.827 M
232.697 166.699 L
S
GR
GS
[0.78257 0 0 0.78197 0 0.22835] CT
1 0 0 RC
1 LJ
0.639 LW
N
241.737 144.565 M
226.896 153.16 L
S
GR
GS
[0.78257 0 0 0.78197 0 0.22835] CT
1 0 0 RC
1 LJ
0.639 LW
N
241.737 126.304 M
228.902 135.996 L
S
GR
GS
[0.78257 0 0 0.78197 0 0.22835] CT
1 0 0 RC
1 LJ
0.639 LW
N
241.737 108.042 M
237.87 114.745 L
S
GR
GS
[0.78257 0 0 0.78197 0 0.22835] CT
1 0 0 RC
1 LJ
0.639 LW
N
241.737 89.78 M
250.017 90.668 L
S
GR
GS
[0.78257 0 0 0.78197 0 0.22835] CT
1 0 0 RC
1 LJ
0.639 LW
N
268.368 199.35 M
286.679 185.516 L
S
GR
GS
[0.78257 0 0 0.78197 0 0.22835] CT
1 0 0 RC
1 LJ
0.639 LW
N
268.368 181.089 M
279.192 171.412 L
S
GR
GS
[0.78257 0 0 0.78197 0 0.22835] CT
1 0 0 RC
1 LJ
0.639 LW
N
268.368 162.827 M
272.119 161.388 L
S
GR
GS
[0.78257 0 0 0.78197 0 0.22835] CT
1 0 0 RC
1 LJ
0.639 LW
N
268.368 144.565 M
268.444 151.972 L
S
GR
GS
[0.78257 0 0 0.78197 0 0.22835] CT
1 0 0 RC
1 LJ
0.639 LW
N
268.368 126.304 M
269.715 139.432 L
S
GR
GS
[0.78257 0 0 0.78197 0 0.22835] CT
1 0 0 RC
1 LJ
0.639 LW
N
268.368 108.042 M
275.397 121.356 L
S
GR
GS
[0.78257 0 0 0.78197 0 0.22835] CT
1 0 0 RC
1 LJ
0.639 LW
N
268.368 89.78 M
283.093 97.665 L
S
GR
GS
[0.78257 0 0 0.78197 0 0.22835] CT
0.149 GC
2 setlinecap
1 LJ
0.639 LW
N
42 226.743 M
295 226.743 L
S
GR
GS
[0.78257 0 0 0.78197 0 0.22835] CT
0.149 GC
2 setlinecap
1 LJ
0.639 LW
N
42 53.257 M
295 53.257 L
S
GR
GS
[0.78257 0 0 0.78197 0 0.22835] CT
0.149 GC
2 setlinecap
1 LJ
0.639 LW
N
42 226.743 M
42 53.257 L
S
GR
GS
[0.78257 0 0 0.78197 0 0.22835] CT
0.149 GC
2 setlinecap
1 LJ
0.639 LW
N
295 226.743 M
295 53.257 L
S
GR
%%Trailer
%%Pages: 1
%%EOF
