%!PS-Adobe-3.0 EPSF-3.0
%%Creator: (MATLAB, The Mathworks, Inc. Version 9.10.0.1684407 \(R2021a\) Update 3. Operating System: Linux)
%%Title: /home/adoan/Code/PRoSA_PI-ESN_Git/pi-esn/Results/MFE_results/Figures/FIG7_UP_E.eps
%%CreationDate: 2021-07-21T18:43:05
%%Pages: (atend)
%%BoundingBox:     0     0   255   227
%%LanguageLevel: 3
%%EndComments
%%BeginProlog
%%BeginResource: procset (Apache XML Graphics Std ProcSet) 1.2 0
%%Version: 1.2 0
%%Copyright: (Copyright 2001-2003,2010 The Apache Software Foundation. License terms: http://www.apache.org/licenses/LICENSE-2.0)
/bd{bind def}bind def
/ld{load def}bd
/GR/grestore ld
/GS/gsave ld
/RM/rmoveto ld
/C/curveto ld
/t/show ld
/L/lineto ld
/ML/setmiterlimit ld
/CT/concat ld
/f/fill ld
/N/newpath ld
/S/stroke ld
/CC/setcmykcolor ld
/A/ashow ld
/cp/closepath ld
/RC/setrgbcolor ld
/LJ/setlinejoin ld
/GC/setgray ld
/LW/setlinewidth ld
/M/moveto ld
/re {4 2 roll M
1 index 0 rlineto
0 exch rlineto
neg 0 rlineto
cp } bd
/_ctm matrix def
/_tm matrix def
/BT { _ctm currentmatrix pop matrix _tm copy pop 0 0 moveto } bd
/ET { _ctm setmatrix } bd
/iTm { _ctm setmatrix _tm concat } bd
/Tm { _tm astore pop iTm 0 0 moveto } bd
/ux 0.0 def
/uy 0.0 def
/F {
  /Tp exch def
  /Tf exch def
  Tf findfont Tp scalefont setfont
  /cf Tf def  /cs Tp def
} bd
/ULS {currentpoint /uy exch def /ux exch def} bd
/ULE {
  /Tcx currentpoint pop def
  gsave
  newpath
  cf findfont cs scalefont dup
  /FontMatrix get 0 get /Ts exch def /FontInfo get dup
  /UnderlinePosition get Ts mul /To exch def
  /UnderlineThickness get Ts mul /Tt exch def
  ux uy To add moveto  Tcx uy To add lineto
  Tt setlinewidth stroke
  grestore
} bd
/OLE {
  /Tcx currentpoint pop def
  gsave
  newpath
  cf findfont cs scalefont dup
  /FontMatrix get 0 get /Ts exch def /FontInfo get dup
  /UnderlinePosition get Ts mul /To exch def
  /UnderlineThickness get Ts mul /Tt exch def
  ux uy To add cs add moveto Tcx uy To add cs add lineto
  Tt setlinewidth stroke
  grestore
} bd
/SOE {
  /Tcx currentpoint pop def
  gsave
  newpath
  cf findfont cs scalefont dup
  /FontMatrix get 0 get /Ts exch def /FontInfo get dup
  /UnderlinePosition get Ts mul /To exch def
  /UnderlineThickness get Ts mul /Tt exch def
  ux uy To add cs 10 mul 26 idiv add moveto Tcx uy To add cs 10 mul 26 idiv add lineto
  Tt setlinewidth stroke
  grestore
} bd
/QT {
/Y22 exch store
/X22 exch store
/Y21 exch store
/X21 exch store
currentpoint
/Y21 load 2 mul add 3 div exch
/X21 load 2 mul add 3 div exch
/X21 load 2 mul /X22 load add 3 div
/Y21 load 2 mul /Y22 load add 3 div
/X22 load /Y22 load curveto
} bd
/SSPD {
dup length /d exch dict def
{
/v exch def
/k exch def
currentpagedevice k known {
/cpdv currentpagedevice k get def
v cpdv ne {
/upd false def
/nullv v type /nulltype eq def
/nullcpdv cpdv type /nulltype eq def
nullv nullcpdv or
{
/upd true def
} {
/sametype v type cpdv type eq def
sametype {
v type /arraytype eq {
/vlen v length def
/cpdvlen cpdv length def
vlen cpdvlen eq {
0 1 vlen 1 sub {
/i exch def
/obj v i get def
/cpdobj cpdv i get def
obj cpdobj ne {
/upd true def
exit
} if
} for
} {
/upd true def
} ifelse
} {
v type /dicttype eq {
v {
/dv exch def
/dk exch def
/cpddv cpdv dk get def
dv cpddv ne {
/upd true def
exit
} if
} forall
} {
/upd true def
} ifelse
} ifelse
} if
} ifelse
upd true eq {
d k v put
} if
} if
} if
} forall
d length 0 gt {
d setpagedevice
} if
} bd
/RE { % /NewFontName [NewEncodingArray] /FontName RE -
  findfont dup length dict begin
  {
    1 index /FID ne
    {def} {pop pop} ifelse
  } forall
  /Encoding exch def
  /FontName 1 index def
  currentdict definefont pop
  end
} bind def
%%EndResource
%%BeginResource: procset (Apache XML Graphics EPS ProcSet) 1.0 0
%%Version: 1.0 0
%%Copyright: (Copyright 2002-2003 The Apache Software Foundation. License terms: http://www.apache.org/licenses/LICENSE-2.0)
/BeginEPSF { %def
/b4_Inc_state save def         % Save state for cleanup
/dict_count countdictstack def % Count objects on dict stack
/op_count count 1 sub def      % Count objects on operand stack
userdict begin                 % Push userdict on dict stack
/showpage { } def              % Redefine showpage, { } = null proc
0 setgray 0 setlinecap         % Prepare graphics state
1 setlinewidth 0 setlinejoin
10 setmiterlimit [ ] 0 setdash newpath
/languagelevel where           % If level not equal to 1 then
{pop languagelevel             % set strokeadjust and
1 ne                           % overprint to their defaults.
{false setstrokeadjust false setoverprint
} if
} if
} bd
/EndEPSF { %def
count op_count sub {pop} repeat            % Clean up stacks
countdictstack dict_count sub {end} repeat
b4_Inc_state restore
} bd
%%EndResource
%FOPBeginFontDict
%%IncludeResource: font Courier-Oblique
%%IncludeResource: font Courier-BoldOblique
%%IncludeResource: font Courier-Bold
%%IncludeResource: font ZapfDingbats
%%IncludeResource: font Symbol
%%IncludeResource: font Helvetica
%%IncludeResource: font Helvetica-Oblique
%%IncludeResource: font Helvetica-Bold
%%IncludeResource: font Helvetica-BoldOblique
%%IncludeResource: font Times-Roman
%%IncludeResource: font Times-Italic
%%IncludeResource: font Times-Bold
%%IncludeResource: font Times-BoldItalic
%%IncludeResource: font Courier
%FOPEndFontDict
%%BeginResource: encoding WinAnsiEncoding
/WinAnsiEncoding [
/.notdef /.notdef /.notdef /.notdef /.notdef
/.notdef /.notdef /.notdef /.notdef /.notdef
/.notdef /.notdef /.notdef /.notdef /.notdef
/.notdef /.notdef /.notdef /.notdef /.notdef
/.notdef /.notdef /.notdef /.notdef /.notdef
/.notdef /.notdef /.notdef /.notdef /.notdef
/.notdef /.notdef /space /exclam /quotedbl
/numbersign /dollar /percent /ampersand /quotesingle
/parenleft /parenright /asterisk /plus /comma
/hyphen /period /slash /zero /one
/two /three /four /five /six
/seven /eight /nine /colon /semicolon
/less /equal /greater /question /at
/A /B /C /D /E
/F /G /H /I /J
/K /L /M /N /O
/P /Q /R /S /T
/U /V /W /X /Y
/Z /bracketleft /backslash /bracketright /asciicircum
/underscore /quoteleft /a /b /c
/d /e /f /g /h
/i /j /k /l /m
/n /o /p /q /r
/s /t /u /v /w
/x /y /z /braceleft /bar
/braceright /asciitilde /bullet /Euro /bullet
/quotesinglbase /florin /quotedblbase /ellipsis /dagger
/daggerdbl /circumflex /perthousand /Scaron /guilsinglleft
/OE /bullet /Zcaron /bullet /bullet
/quoteleft /quoteright /quotedblleft /quotedblright /bullet
/endash /emdash /asciitilde /trademark /scaron
/guilsinglright /oe /bullet /zcaron /Ydieresis
/space /exclamdown /cent /sterling /currency
/yen /brokenbar /section /dieresis /copyright
/ordfeminine /guillemotleft /logicalnot /sfthyphen /registered
/macron /degree /plusminus /twosuperior /threesuperior
/acute /mu /paragraph /middot /cedilla
/onesuperior /ordmasculine /guillemotright /onequarter /onehalf
/threequarters /questiondown /Agrave /Aacute /Acircumflex
/Atilde /Adieresis /Aring /AE /Ccedilla
/Egrave /Eacute /Ecircumflex /Edieresis /Igrave
/Iacute /Icircumflex /Idieresis /Eth /Ntilde
/Ograve /Oacute /Ocircumflex /Otilde /Odieresis
/multiply /Oslash /Ugrave /Uacute /Ucircumflex
/Udieresis /Yacute /Thorn /germandbls /agrave
/aacute /acircumflex /atilde /adieresis /aring
/ae /ccedilla /egrave /eacute /ecircumflex
/edieresis /igrave /iacute /icircumflex /idieresis
/eth /ntilde /ograve /oacute /ocircumflex
/otilde /odieresis /divide /oslash /ugrave
/uacute /ucircumflex /udieresis /yacute /thorn
/ydieresis
] def
%%EndResource
%FOPBeginFontReencode
/Courier-Oblique findfont
dup length dict begin
  {1 index /FID ne {def} {pop pop} ifelse} forall
  /Encoding WinAnsiEncoding def
  currentdict
end
/Courier-Oblique exch definefont pop
/Courier-BoldOblique findfont
dup length dict begin
  {1 index /FID ne {def} {pop pop} ifelse} forall
  /Encoding WinAnsiEncoding def
  currentdict
end
/Courier-BoldOblique exch definefont pop
/Courier-Bold findfont
dup length dict begin
  {1 index /FID ne {def} {pop pop} ifelse} forall
  /Encoding WinAnsiEncoding def
  currentdict
end
/Courier-Bold exch definefont pop
/Helvetica findfont
dup length dict begin
  {1 index /FID ne {def} {pop pop} ifelse} forall
  /Encoding WinAnsiEncoding def
  currentdict
end
/Helvetica exch definefont pop
/Helvetica-Oblique findfont
dup length dict begin
  {1 index /FID ne {def} {pop pop} ifelse} forall
  /Encoding WinAnsiEncoding def
  currentdict
end
/Helvetica-Oblique exch definefont pop
/Helvetica-Bold findfont
dup length dict begin
  {1 index /FID ne {def} {pop pop} ifelse} forall
  /Encoding WinAnsiEncoding def
  currentdict
end
/Helvetica-Bold exch definefont pop
/Helvetica-BoldOblique findfont
dup length dict begin
  {1 index /FID ne {def} {pop pop} ifelse} forall
  /Encoding WinAnsiEncoding def
  currentdict
end
/Helvetica-BoldOblique exch definefont pop
/Times-Roman findfont
dup length dict begin
  {1 index /FID ne {def} {pop pop} ifelse} forall
  /Encoding WinAnsiEncoding def
  currentdict
end
/Times-Roman exch definefont pop
/Times-Italic findfont
dup length dict begin
  {1 index /FID ne {def} {pop pop} ifelse} forall
  /Encoding WinAnsiEncoding def
  currentdict
end
/Times-Italic exch definefont pop
/Times-Bold findfont
dup length dict begin
  {1 index /FID ne {def} {pop pop} ifelse} forall
  /Encoding WinAnsiEncoding def
  currentdict
end
/Times-Bold exch definefont pop
/Times-BoldItalic findfont
dup length dict begin
  {1 index /FID ne {def} {pop pop} ifelse} forall
  /Encoding WinAnsiEncoding def
  currentdict
end
/Times-BoldItalic exch definefont pop
/Courier findfont
dup length dict begin
  {1 index /FID ne {def} {pop pop} ifelse} forall
  /Encoding WinAnsiEncoding def
  currentdict
end
/Courier exch definefont pop
%FOPEndFontReencode
%%EndProlog
%%Page: 1 1
%%PageBoundingBox: 0 0 255 227
%%BeginPageSetup
[1 0 0 -1 0 227] CT
%%EndPageSetup
GS
[0.78257 0 0 0.78197 0 0.22835] CT
1 GC
N
0 0 326 290 re
f
GR
GS
[0.78257 0 0 0.78197 0 0.22835] CT
1 GC
N
0 0 326 290 re
f
GR
GS
[0.78257 0 0 0.78197 0 0.22835] CT
1 GC
N
42 226.743 M
295 226.743 L
295 53.257 L
42 53.257 L
cp
f
GR
GS
[0.78257 0 0 0.78197 0 0.22835] CT
0.239 0.149 0.659 RC
N
157.619 217.612 M
157.759 226.743 L
161.842 226.743 L
164.217 226.743 L
163.982 217.612 L
163.132 208.481 L
161.842 202.405 L
159.88 199.35 L
154.462 190.22 L
148.526 187.258 L
135.211 184.853 L
123.579 190.22 L
135.211 194.348 L
143.354 199.35 L
148.526 205.464 L
156.376 208.481 L
cp
280.62 217.612 M
281.342 226.743 L
281.684 226.743 L
282.764 226.743 L
284.449 217.612 L
287.455 208.481 L
288.774 199.35 L
283.635 190.22 L
281.684 188.731 L
268.368 183.884 L
255.186 190.22 L
268.368 196.379 L
272.94 199.35 L
278.086 208.481 L
cp
72.107 181.089 M
81.947 182.898 L
95.263 184.966 L
108.579 184.148 L
119.157 181.089 L
108.579 179.467 L
95.263 177.087 L
81.947 176.343 L
77.323 171.958 L
68.632 166.86 L
63.373 162.827 L
59.498 153.696 L
57.655 144.565 L
57.655 135.435 L
59.498 126.304 L
63.373 117.173 L
68.632 113.14 L
77.323 108.042 L
81.947 103.657 L
95.263 102.913 L
108.579 100.533 L
119.157 98.911 L
108.579 95.852 L
95.263 95.034 L
81.947 97.102 L
72.107 98.911 L
68.632 100.454 L
55.316 105.833 L
52.976 108.042 L
48.744 117.173 L
49.502 126.304 L
50.999 135.435 L
50.999 144.565 L
49.502 153.696 L
48.744 162.827 L
52.976 171.958 L
55.316 174.167 L
68.632 179.546 L
cp
204.271 181.089 M
215.105 182.787 L
228.421 184.757 L
241.737 184.447 L
254.638 181.089 L
241.737 179.169 L
228.421 177.213 L
215.105 177.244 L
206.995 171.958 L
201.789 169.737 L
192.042 162.827 L
188.474 157.498 L
180.551 153.696 L
179.557 144.565 L
179.557 135.435 L
180.551 126.304 L
188.474 122.502 L
192.042 117.173 L
201.789 110.263 L
206.995 108.042 L
215.105 102.756 L
228.421 102.787 L
241.737 100.831 L
254.638 98.911 L
241.737 95.553 L
228.421 95.243 L
215.105 97.213 L
204.271 98.911 L
201.789 100.793 L
188.474 102.994 L
180.212 108.042 L
176.445 117.173 L
175.158 118.821 L
173.839 126.304 L
173.234 135.435 L
173.234 144.565 L
173.839 153.696 L
175.158 161.179 L
176.445 162.827 L
180.212 171.958 L
188.474 177.006 L
201.789 179.207 L
cp
123.579 89.78 M
135.211 95.147 L
148.526 92.742 L
154.462 89.78 L
159.88 80.65 L
161.842 77.595 L
163.132 71.519 L
163.982 62.388 L
164.217 53.257 L
161.842 53.257 L
157.759 53.257 L
157.619 62.388 L
156.376 71.519 L
148.526 74.536 L
143.354 80.65 L
135.211 85.652 L
cp
255.186 89.78 M
268.368 96.116 L
281.684 91.269 L
283.635 89.78 L
288.774 80.65 L
287.455 71.519 L
284.449 62.388 L
282.764 53.257 L
281.684 53.257 L
281.342 53.257 L
280.62 62.388 L
278.086 71.519 L
272.94 80.65 L
268.368 83.621 L
cp
f
GR
GS
[0.78257 0 0 0.78197 0 0.22835] CT
0.263 0.196 0.792 RC
N
42 217.612 M
42 226.743 L
42.771 226.743 L
42.817 217.612 L
42.987 208.481 L
43.456 199.35 L
45.567 190.22 L
55.316 185.983 L
68.632 186.364 L
81.947 187.408 L
95.263 188.861 L
104.161 190.22 L
108.579 190.934 L
121.895 194.226 L
134.097 199.35 L
135.211 200.075 L
143.561 208.481 L
147.514 217.612 L
148.526 225.75 L
148.713 226.743 L
157.759 226.743 L
157.619 217.612 L
156.376 208.481 L
148.526 205.464 L
143.354 199.35 L
135.211 194.348 L
123.579 190.22 L
135.211 184.853 L
148.526 187.258 L
154.462 190.22 L
159.88 199.35 L
161.842 202.405 L
163.132 208.481 L
163.982 217.612 L
164.217 226.743 L
169.478 226.743 L
169.532 217.612 L
169.726 208.481 L
170.23 199.35 L
172.038 190.22 L
175.158 186.458 L
188.474 185.049 L
201.789 185.736 L
215.105 186.91 L
228.421 188.546 L
237.944 190.22 L
241.737 190.965 L
255.053 195.082 L
263.177 199.35 L
268.368 203.978 L
271.779 208.481 L
275.175 217.612 L
276.143 226.743 L
281.342 226.743 L
280.62 217.612 L
278.086 208.481 L
272.94 199.35 L
268.368 196.379 L
255.186 190.22 L
268.368 183.884 L
281.684 188.731 L
283.635 190.22 L
288.774 199.35 L
287.455 208.481 L
284.449 217.612 L
282.764 226.743 L
295 226.743 L
295 217.612 L
295 208.481 L
295 199.35 L
295 190.22 L
295 181.089 L
295 171.958 L
295 162.827 L
295 153.696 L
295 144.565 L
295 135.435 L
295 126.304 L
295 117.173 L
295 108.042 L
295 98.911 L
295 89.78 L
295 80.65 L
295 71.519 L
295 62.388 L
295 53.257 L
282.764 53.257 L
284.449 62.388 L
287.455 71.519 L
288.774 80.65 L
283.635 89.78 L
281.684 91.269 L
268.368 96.116 L
255.186 89.78 L
268.368 83.621 L
272.94 80.65 L
278.086 71.519 L
280.62 62.388 L
281.342 53.257 L
276.143 53.257 L
275.175 62.388 L
271.779 71.519 L
268.368 76.022 L
263.177 80.65 L
255.053 84.918 L
241.737 89.035 L
237.944 89.78 L
228.421 91.454 L
215.105 93.09 L
201.789 94.264 L
188.474 94.951 L
175.158 93.542 L
172.038 89.78 L
170.23 80.65 L
169.726 71.519 L
169.532 62.388 L
169.478 53.257 L
164.217 53.257 L
163.982 62.388 L
163.132 71.519 L
161.842 77.595 L
159.88 80.65 L
154.462 89.78 L
148.526 92.742 L
135.211 95.147 L
123.579 89.78 L
135.211 85.652 L
143.354 80.65 L
148.526 74.536 L
156.376 71.519 L
157.619 62.388 L
157.759 53.257 L
148.713 53.257 L
148.526 54.25 L
147.514 62.388 L
143.561 71.519 L
135.211 79.925 L
134.097 80.65 L
121.895 85.774 L
108.579 89.066 L
104.161 89.78 L
95.263 91.139 L
81.947 92.592 L
68.632 93.636 L
55.316 94.017 L
45.567 89.78 L
43.456 80.65 L
42.987 71.519 L
42.817 62.388 L
42.771 53.257 L
42 53.257 L
42 62.388 L
42 71.519 L
42 80.65 L
42 89.78 L
42 98.911 L
42 108.042 L
42 117.173 L
42 126.304 L
42 135.435 L
42 144.565 L
42 153.696 L
42 162.827 L
42 171.958 L
42 181.089 L
42 190.22 L
42 199.35 L
42 208.481 L
cp
81.947 182.898 M
72.107 181.089 L
68.632 179.546 L
55.316 174.167 L
52.976 171.958 L
48.744 162.827 L
49.502 153.696 L
50.999 144.565 L
50.999 135.435 L
49.502 126.304 L
48.744 117.173 L
52.976 108.042 L
55.316 105.833 L
68.632 100.454 L
72.107 98.911 L
81.947 97.102 L
95.263 95.034 L
108.579 95.852 L
119.157 98.911 L
108.579 100.533 L
95.263 102.913 L
81.947 103.657 L
77.323 108.042 L
68.632 113.14 L
63.373 117.173 L
59.498 126.304 L
57.655 135.435 L
57.655 144.565 L
59.498 153.696 L
63.373 162.827 L
68.632 166.86 L
77.323 171.958 L
81.947 176.343 L
95.263 177.087 L
108.579 179.467 L
119.157 181.089 L
108.579 184.148 L
95.263 184.966 L
cp
215.105 182.787 M
204.271 181.089 L
201.789 179.207 L
188.474 177.006 L
180.212 171.958 L
176.445 162.827 L
175.158 161.179 L
173.839 153.696 L
173.234 144.565 L
173.234 135.435 L
173.839 126.304 L
175.158 118.821 L
176.445 117.173 L
180.212 108.042 L
188.474 102.994 L
201.789 100.793 L
204.271 98.911 L
215.105 97.213 L
228.421 95.243 L
241.737 95.553 L
254.638 98.911 L
241.737 100.831 L
228.421 102.787 L
215.105 102.756 L
206.995 108.042 L
201.789 110.263 L
192.042 117.173 L
188.474 122.502 L
180.551 126.304 L
179.557 135.435 L
179.557 144.565 L
180.551 153.696 L
188.474 157.498 L
192.042 162.827 L
201.789 169.737 L
206.995 171.958 L
215.105 177.244 L
228.421 177.213 L
241.737 179.169 L
254.638 181.089 L
241.737 184.447 L
228.421 184.757 L
cp
95.263 173.068 M
91.201 171.958 L
81.947 168.579 L
72.563 162.827 L
68.632 158.35 L
65.725 153.696 L
63.282 144.565 L
63.282 135.435 L
65.725 126.304 L
68.632 121.65 L
72.563 117.173 L
81.947 111.421 L
91.201 108.042 L
95.263 106.932 L
108.579 104.428 L
121.895 102.693 L
135.211 101.451 L
148.526 100.723 L
161.842 102.161 L
165.656 108.042 L
166.892 117.173 L
167.28 126.304 L
167.418 135.435 L
167.418 144.565 L
167.28 153.696 L
166.892 162.827 L
165.656 171.958 L
161.842 177.839 L
148.526 179.277 L
135.211 178.549 L
121.895 177.307 L
108.579 175.572 L
cp
228.421 173.21 M
222.839 171.958 L
215.105 169.83 L
201.789 163.628 L
200.659 162.827 L
193.329 153.696 L
190.527 144.565 L
190.527 135.435 L
193.329 126.304 L
200.659 117.173 L
201.789 116.372 L
215.105 110.17 L
222.839 108.042 L
228.421 106.79 L
241.737 104.835 L
255.053 103.476 L
268.368 102.663 L
281.684 103.009 L
289.991 108.042 L
292.467 117.173 L
293.141 126.304 L
293.37 135.435 L
293.37 144.565 L
293.141 153.696 L
292.467 162.827 L
289.991 171.958 L
281.684 176.991 L
268.368 177.337 L
255.053 176.524 L
241.737 175.165 L
cp
f
GR
GS
[0.78257 0 0 0.78197 0 0.22835] CT
0.278 0.259 0.902 RC
N
42.817 217.612 M
42.771 226.743 L
48.551 226.743 L
48.941 217.612 L
50.388 208.481 L
54.377 199.35 L
55.316 198.262 L
68.632 192.713 L
81.947 192.067 L
95.263 192.979 L
108.579 195.056 L
121.895 198.712 L
123.414 199.35 L
135.211 207.026 L
136.656 208.481 L
141.539 217.612 L
142.935 226.743 L
148.526 226.743 L
148.713 226.743 L
148.526 225.75 L
147.514 217.612 L
143.561 208.481 L
135.211 200.075 L
134.097 199.35 L
121.895 194.226 L
108.579 190.934 L
104.161 190.22 L
95.263 188.861 L
81.947 187.408 L
68.632 186.364 L
55.316 185.983 L
45.567 190.22 L
43.456 199.35 L
42.987 208.481 L
cp
169.532 217.612 M
169.478 226.743 L
174.74 226.743 L
175.081 217.612 L
175.158 216.951 L
176.511 208.481 L
180.465 199.35 L
188.474 193.225 L
201.789 190.925 L
215.105 191.104 L
228.421 192.521 L
241.737 195.204 L
253.489 199.35 L
255.053 200.146 L
265.016 208.481 L
268.368 214.391 L
269.731 217.612 L
270.945 226.743 L
276.143 226.743 L
275.175 217.612 L
271.779 208.481 L
268.368 203.978 L
263.177 199.35 L
255.053 195.082 L
241.737 190.965 L
237.944 190.22 L
228.421 188.546 L
215.105 186.91 L
201.789 185.736 L
188.474 185.049 L
175.158 186.458 L
172.038 190.22 L
170.23 199.35 L
169.726 208.481 L
cp
91.201 171.958 M
95.263 173.068 L
108.579 175.572 L
121.895 177.307 L
135.211 178.549 L
148.526 179.277 L
161.842 177.839 L
165.656 171.958 L
166.892 162.827 L
167.28 153.696 L
167.418 144.565 L
167.418 135.435 L
167.28 126.304 L
166.892 117.173 L
165.656 108.042 L
161.842 102.161 L
148.526 100.723 L
135.211 101.451 L
121.895 102.693 L
108.579 104.428 L
95.263 106.932 L
91.201 108.042 L
81.947 111.421 L
72.563 117.173 L
68.632 121.65 L
65.725 126.304 L
63.282 135.435 L
63.282 144.565 L
65.725 153.696 L
68.632 158.35 L
72.563 162.827 L
81.947 168.579 L
cp
121.895 173.069 M
111.448 171.958 L
108.579 171.633 L
95.263 168.602 L
81.947 163.211 L
81.321 162.827 L
72.465 153.696 L
68.956 144.565 L
68.956 135.435 L
72.465 126.304 L
81.321 117.173 L
81.947 116.789 L
95.263 111.398 L
108.579 108.367 L
111.448 108.042 L
121.895 106.931 L
135.211 106.726 L
144.648 108.042 L
148.526 109.01 L
157.514 117.173 L
160.538 126.304 L
161.567 135.435 L
161.567 144.565 L
160.538 153.696 L
157.514 162.827 L
148.526 170.99 L
144.648 171.958 L
135.211 173.274 L
cp
222.839 171.958 M
228.421 173.21 L
241.737 175.165 L
255.053 176.524 L
268.368 177.337 L
281.684 176.991 L
289.991 171.958 L
292.467 162.827 L
293.141 153.696 L
293.37 144.565 L
293.37 135.435 L
293.141 126.304 L
292.467 117.173 L
289.991 108.042 L
281.684 103.009 L
268.368 102.663 L
255.053 103.476 L
241.737 104.835 L
228.421 106.79 L
222.839 108.042 L
215.105 110.17 L
201.789 116.372 L
200.659 117.173 L
193.329 126.304 L
190.527 135.435 L
190.527 144.565 L
193.329 153.696 L
200.659 162.827 L
201.789 163.628 L
215.105 169.83 L
cp
215.105 164.922 M
210.718 162.827 L
201.789 155.593 L
200.22 153.696 L
196.758 144.565 L
196.758 135.435 L
200.22 126.304 L
201.789 124.407 L
210.718 117.173 L
215.105 115.078 L
228.421 111.141 L
241.737 108.964 L
255.053 108.123 L
268.368 109.13 L
281.684 116.055 L
282.49 117.173 L
285.819 126.304 L
286.952 135.435 L
286.952 144.565 L
285.819 153.696 L
282.49 162.827 L
281.684 163.945 L
268.368 170.87 L
255.053 171.877 L
241.737 171.036 L
228.421 168.859 L
cp
45.567 89.78 M
55.316 94.017 L
68.632 93.636 L
81.947 92.592 L
95.263 91.139 L
104.161 89.78 L
108.579 89.066 L
121.895 85.774 L
134.097 80.65 L
135.211 79.925 L
143.561 71.519 L
147.514 62.388 L
148.526 54.25 L
148.713 53.257 L
148.526 53.257 L
142.935 53.257 L
141.539 62.388 L
136.656 71.519 L
135.211 72.974 L
123.414 80.65 L
121.895 81.288 L
108.579 84.944 L
95.263 87.021 L
81.947 87.933 L
68.632 87.287 L
55.316 81.738 L
54.377 80.65 L
50.388 71.519 L
48.941 62.388 L
48.551 53.257 L
42.771 53.257 L
42.817 62.388 L
42.987 71.519 L
43.456 80.65 L
cp
172.038 89.78 M
175.158 93.542 L
188.474 94.951 L
201.789 94.264 L
215.105 93.09 L
228.421 91.454 L
237.944 89.78 L
241.737 89.035 L
255.053 84.918 L
263.177 80.65 L
268.368 76.022 L
271.779 71.519 L
275.175 62.388 L
276.143 53.257 L
270.945 53.257 L
269.731 62.388 L
268.368 65.609 L
265.016 71.519 L
255.053 79.854 L
253.489 80.65 L
241.737 84.796 L
228.421 87.479 L
215.105 88.896 L
201.789 89.075 L
188.474 86.775 L
180.465 80.65 L
176.511 71.519 L
175.158 63.049 L
175.081 62.388 L
174.74 53.257 L
169.478 53.257 L
169.532 62.388 L
169.726 71.519 L
170.23 80.65 L
cp
f
GR
GS
[0.78257 0 0 0.78197 0 0.22835] CT
0.278 0.329 0.961 RC
N
48.941 217.612 M
48.551 226.743 L
54.331 226.743 L
55.066 217.612 L
55.316 216.62 L
58.443 208.481 L
68.632 199.415 L
68.842 199.35 L
81.947 196.975 L
95.263 197.218 L
108.579 199.179 L
109.195 199.35 L
121.895 204.14 L
128.496 208.481 L
135.211 216.976 L
135.564 217.612 L
137.226 226.743 L
142.935 226.743 L
141.539 217.612 L
136.656 208.481 L
135.211 207.026 L
123.414 199.35 L
121.895 198.712 L
108.579 195.056 L
95.263 192.979 L
81.947 192.067 L
68.632 192.713 L
55.316 198.262 L
54.377 199.35 L
50.388 208.481 L
cp
175.081 217.612 M
174.74 226.743 L
175.158 226.743 L
180.68 226.743 L
181.426 217.612 L
184.183 208.481 L
188.474 202.471 L
193.313 199.35 L
201.789 196.509 L
215.105 195.591 L
228.421 196.643 L
241.313 199.35 L
241.737 199.464 L
255.053 206.254 L
257.714 208.481 L
263.572 217.612 L
265.274 226.743 L
268.368 226.743 L
270.945 226.743 L
269.731 217.612 L
268.368 214.391 L
265.016 208.481 L
255.053 200.146 L
253.489 199.35 L
241.737 195.204 L
228.421 192.521 L
215.105 191.104 L
201.789 190.925 L
188.474 193.225 L
180.465 199.35 L
176.511 208.481 L
175.158 216.951 L
cp
111.448 171.958 M
121.895 173.069 L
135.211 173.274 L
144.648 171.958 L
148.526 170.99 L
157.514 162.827 L
160.538 153.696 L
161.567 144.565 L
161.567 135.435 L
160.538 126.304 L
157.514 117.173 L
148.526 109.01 L
144.648 108.042 L
135.211 106.726 L
121.895 106.931 L
111.448 108.042 L
108.579 108.367 L
95.263 111.398 L
81.947 116.789 L
81.321 117.173 L
72.465 126.304 L
68.956 135.435 L
68.956 144.565 L
72.465 153.696 L
81.321 162.827 L
81.947 163.211 L
95.263 168.602 L
108.579 171.633 L
cp
95.263 163.966 M
92.477 162.827 L
81.947 156.033 L
79.652 153.696 L
75.52 144.565 L
75.52 135.435 L
79.652 126.304 L
81.947 123.967 L
92.477 117.173 L
95.263 116.034 L
108.579 112.877 L
121.895 111.663 L
135.211 112.627 L
146.474 117.173 L
148.526 118.918 L
152.906 126.304 L
154.876 135.435 L
154.876 144.565 L
152.906 153.696 L
148.526 161.082 L
146.474 162.827 L
135.211 167.373 L
121.895 168.337 L
108.579 167.123 L
cp
210.718 162.827 M
215.105 164.922 L
228.421 168.859 L
241.737 171.036 L
255.053 171.877 L
268.368 170.87 L
281.684 163.945 L
282.49 162.827 L
285.819 153.696 L
286.952 144.565 L
286.952 135.435 L
285.819 126.304 L
282.49 117.173 L
281.684 116.055 L
268.368 109.13 L
255.053 108.123 L
241.737 108.964 L
228.421 111.141 L
215.105 115.078 L
210.718 117.173 L
201.789 124.407 L
200.22 126.304 L
196.758 135.435 L
196.758 144.565 L
200.22 153.696 L
201.789 155.593 L
cp
228.421 164.35 M
223.484 162.827 L
215.105 158.994 L
208.363 153.696 L
203.291 144.565 L
203.291 135.435 L
208.363 126.304 L
215.105 121.006 L
223.484 117.173 L
228.421 115.65 L
241.737 113.601 L
255.053 113.492 L
268.368 116.448 L
269.665 117.173 L
277.687 126.304 L
280.261 135.435 L
280.261 144.565 L
277.687 153.696 L
269.665 162.827 L
268.368 163.552 L
255.053 166.508 L
241.737 166.399 L
cp
54.377 80.65 M
55.316 81.738 L
68.632 87.287 L
81.947 87.933 L
95.263 87.021 L
108.579 84.944 L
121.895 81.288 L
123.414 80.65 L
135.211 72.974 L
136.656 71.519 L
141.539 62.388 L
142.935 53.257 L
137.226 53.257 L
135.564 62.388 L
135.211 63.024 L
128.496 71.519 L
121.895 75.86 L
109.195 80.65 L
108.579 80.821 L
95.263 82.782 L
81.947 83.025 L
68.842 80.65 L
68.632 80.585 L
58.443 71.519 L
55.316 63.38 L
55.066 62.388 L
54.331 53.257 L
48.551 53.257 L
48.941 62.388 L
50.388 71.519 L
cp
180.465 80.65 M
188.474 86.775 L
201.789 89.075 L
215.105 88.896 L
228.421 87.479 L
241.737 84.796 L
253.489 80.65 L
255.053 79.854 L
265.016 71.519 L
268.368 65.609 L
269.731 62.388 L
270.945 53.257 L
268.368 53.257 L
265.274 53.257 L
263.572 62.388 L
257.714 71.519 L
255.053 73.746 L
241.737 80.536 L
241.313 80.65 L
228.421 83.357 L
215.105 84.409 L
201.789 83.491 L
193.313 80.65 L
188.474 77.529 L
184.183 71.519 L
181.426 62.388 L
180.68 53.257 L
175.158 53.257 L
174.74 53.257 L
175.081 62.388 L
175.158 63.049 L
176.511 71.519 L
cp
f
GR
GS
[0.78257 0 0 0.78197 0 0.22835] CT
0.263 0.4 0.992 RC
N
55.066 217.612 M
54.331 226.743 L
55.316 226.743 L
61.213 226.743 L
62.583 217.612 L
67.8 208.481 L
68.632 207.741 L
81.947 202.502 L
95.263 201.971 L
108.579 204.269 L
119.054 208.481 L
121.895 210.403 L
128.156 217.612 L
130.548 226.743 L
135.211 226.743 L
137.226 226.743 L
135.564 217.612 L
135.211 216.976 L
128.496 208.481 L
121.895 204.14 L
109.195 199.35 L
108.579 199.179 L
95.263 197.218 L
81.947 196.975 L
68.842 199.35 L
68.632 199.415 L
58.443 208.481 L
55.316 216.62 L
cp
181.426 217.612 M
180.68 226.743 L
186.679 226.743 L
187.781 217.612 L
188.474 215.801 L
193.12 208.481 L
201.789 202.765 L
215.105 200.255 L
228.421 201.112 L
241.737 204.74 L
248.76 208.481 L
255.053 214.482 L
257.174 217.612 L
259.138 226.743 L
265.274 226.743 L
263.572 217.612 L
257.714 208.481 L
255.053 206.254 L
241.737 199.464 L
241.313 199.35 L
228.421 196.643 L
215.105 195.591 L
201.789 196.509 L
193.313 199.35 L
188.474 202.471 L
184.183 208.481 L
cp
92.477 162.827 M
95.263 163.966 L
108.579 167.123 L
121.895 168.337 L
135.211 167.373 L
146.474 162.827 L
148.526 161.082 L
152.906 153.696 L
154.876 144.565 L
154.876 135.435 L
152.906 126.304 L
148.526 118.918 L
146.474 117.173 L
135.211 112.627 L
121.895 111.663 L
108.579 112.877 L
95.263 116.034 L
92.477 117.173 L
81.947 123.967 L
79.652 126.304 L
75.52 135.435 L
75.52 144.565 L
79.652 153.696 L
81.947 156.033 L
cp
121.895 163.429 M
112.284 162.827 L
108.579 162.536 L
95.263 158.061 L
88.557 153.696 L
82.137 144.565 L
82.137 135.435 L
88.557 126.304 L
95.263 121.939 L
108.579 117.464 L
112.284 117.173 L
121.895 116.571 L
126.211 117.173 L
135.211 119.303 L
144.048 126.304 L
148.064 135.435 L
148.064 144.565 L
144.048 153.696 L
135.211 160.697 L
126.211 162.827 L
cp
223.484 162.827 M
228.421 164.35 L
241.737 166.399 L
255.053 166.508 L
268.368 163.552 L
269.665 162.827 L
277.687 153.696 L
280.261 144.565 L
280.261 135.435 L
277.687 126.304 L
269.665 117.173 L
268.368 116.448 L
255.053 113.492 L
241.737 113.601 L
228.421 115.65 L
223.484 117.173 L
215.105 121.006 L
208.363 126.304 L
203.291 135.435 L
203.291 144.565 L
208.363 153.696 L
215.105 158.994 L
cp
228.421 158.756 M
217.792 153.696 L
215.105 151.064 L
211.097 144.565 L
211.097 135.435 L
215.105 128.936 L
217.792 126.304 L
228.421 121.244 L
241.737 118.623 L
255.053 119.473 L
268.368 126.158 L
268.503 126.304 L
272.325 135.435 L
272.325 144.565 L
268.503 153.696 L
268.368 153.842 L
255.053 160.527 L
241.737 161.377 L
cp
68.842 80.65 M
81.947 83.025 L
95.263 82.782 L
108.579 80.821 L
109.195 80.65 L
121.895 75.86 L
128.496 71.519 L
135.211 63.024 L
135.564 62.388 L
137.226 53.257 L
135.211 53.257 L
130.548 53.257 L
128.156 62.388 L
121.895 69.597 L
119.054 71.519 L
108.579 75.731 L
95.263 78.029 L
81.947 77.498 L
68.632 72.259 L
67.8 71.519 L
62.583 62.388 L
61.213 53.257 L
55.316 53.257 L
54.331 53.257 L
55.066 62.388 L
55.316 63.38 L
58.443 71.519 L
68.632 80.585 L
cp
193.313 80.65 M
201.789 83.491 L
215.105 84.409 L
228.421 83.357 L
241.313 80.65 L
241.737 80.536 L
255.053 73.746 L
257.714 71.519 L
263.572 62.388 L
265.274 53.257 L
259.138 53.257 L
257.174 62.388 L
255.053 65.518 L
248.76 71.519 L
241.737 75.26 L
228.421 78.888 L
215.105 79.745 L
201.789 77.235 L
193.12 71.519 L
188.474 64.199 L
187.781 62.388 L
186.679 53.257 L
180.68 53.257 L
181.426 62.388 L
184.183 71.519 L
188.474 77.529 L
cp
f
GR
GS
[0.78257 0 0 0.78197 0 0.22835] CT
0.2 0.478 0.988 RC
N
62.583 217.612 M
61.213 226.743 L
68.321 226.743 L
68.632 225.119 L
70.972 217.612 L
81.947 208.682 L
83.056 208.481 L
95.263 207.246 L
102.807 208.481 L
108.579 209.902 L
119.963 217.612 L
121.895 221.729 L
123.342 226.743 L
130.548 226.743 L
128.156 217.612 L
121.895 210.403 L
119.054 208.481 L
108.579 204.269 L
95.263 201.971 L
81.947 202.502 L
68.632 207.741 L
67.8 208.481 L
cp
187.781 217.612 M
186.679 226.743 L
188.474 226.743 L
194.072 226.743 L
196.063 217.612 L
201.789 210.389 L
205.424 208.481 L
215.105 205.839 L
228.421 206.244 L
236.409 208.481 L
241.737 210.852 L
249.108 217.612 L
252.183 226.743 L
255.053 226.743 L
259.138 226.743 L
257.174 217.612 L
255.053 214.482 L
248.76 208.481 L
241.737 204.74 L
228.421 201.112 L
215.105 200.255 L
201.789 202.765 L
193.12 208.481 L
188.474 215.801 L
cp
112.284 162.827 M
121.895 163.429 L
126.211 162.827 L
135.211 160.697 L
144.048 153.696 L
148.064 144.565 L
148.064 135.435 L
144.048 126.304 L
135.211 119.303 L
126.211 117.173 L
121.895 116.571 L
112.284 117.173 L
108.579 117.464 L
95.263 121.939 L
88.557 126.304 L
82.137 135.435 L
82.137 144.565 L
88.557 153.696 L
95.263 158.061 L
108.579 162.536 L
cp
108.579 156.39 M
100.773 153.696 L
95.263 149.999 L
91.161 144.565 L
91.161 135.435 L
95.263 130.001 L
100.773 126.304 L
108.579 123.61 L
121.895 123.041 L
131.934 126.304 L
135.211 128.81 L
139.016 135.435 L
139.016 144.565 L
135.211 151.19 L
131.934 153.696 L
121.895 156.959 L
cp
217.792 153.696 M
228.421 158.756 L
241.737 161.377 L
255.053 160.527 L
268.368 153.842 L
268.503 153.696 L
272.325 144.565 L
272.325 135.435 L
268.503 126.304 L
268.368 126.158 L
255.053 119.473 L
241.737 118.623 L
228.421 121.244 L
217.792 126.304 L
215.105 128.936 L
211.097 135.435 L
211.097 144.565 L
215.105 151.064 L
cp
241.737 155.058 M
234.424 153.696 L
228.421 151.639 L
221.021 144.565 L
221.021 135.435 L
228.421 128.361 L
234.424 126.304 L
241.737 124.942 L
251.914 126.304 L
255.053 127.224 L
262.269 135.435 L
262.269 144.565 L
255.053 152.776 L
251.914 153.696 L
cp
67.8 71.519 M
68.632 72.259 L
81.947 77.498 L
95.263 78.029 L
108.579 75.731 L
119.054 71.519 L
121.895 69.597 L
128.156 62.388 L
130.548 53.257 L
123.342 53.257 L
121.895 58.271 L
119.963 62.388 L
108.579 70.098 L
102.807 71.519 L
95.263 72.754 L
83.056 71.519 L
81.947 71.318 L
70.972 62.388 L
68.632 54.881 L
68.321 53.257 L
61.213 53.257 L
62.583 62.388 L
cp
193.12 71.519 M
201.789 77.235 L
215.105 79.745 L
228.421 78.888 L
241.737 75.26 L
248.76 71.519 L
255.053 65.518 L
257.174 62.388 L
259.138 53.257 L
255.053 53.257 L
252.183 53.257 L
249.108 62.388 L
241.737 69.148 L
236.409 71.519 L
228.421 73.756 L
215.105 74.161 L
205.424 71.519 L
201.789 69.611 L
196.063 62.388 L
194.072 53.257 L
188.474 53.257 L
186.679 53.257 L
187.781 62.388 L
188.474 64.199 L
cp
f
GR
GS
[0.78257 0 0 0.78197 0 0.22835] CT
0.176 0.545 0.953 RC
N
68.632 225.119 M
68.321 226.743 L
68.632 226.743 L
78.931 226.743 L
81.947 219.095 L
83.719 217.612 L
95.263 214.727 L
107.603 217.612 L
108.579 218.254 L
112.794 226.743 L
121.895 226.743 L
123.342 226.743 L
121.895 221.729 L
119.963 217.612 L
108.579 209.902 L
102.807 208.481 L
95.263 207.246 L
83.056 208.481 L
81.947 208.682 L
70.972 217.612 L
cp
196.063 217.612 M
194.072 226.743 L
201.789 226.743 L
202.275 226.743 L
206.873 217.612 L
215.105 213.03 L
228.421 212.955 L
238.732 217.612 L
241.737 221.647 L
243.593 226.743 L
252.183 226.743 L
249.108 217.612 L
241.737 210.852 L
236.409 208.481 L
228.421 206.244 L
215.105 205.839 L
205.424 208.481 L
201.789 210.389 L
cp
100.773 153.696 M
108.579 156.39 L
121.895 156.959 L
131.934 153.696 L
135.211 151.19 L
139.016 144.565 L
139.016 135.435 L
135.211 128.81 L
131.934 126.304 L
121.895 123.041 L
108.579 123.61 L
100.773 126.304 L
95.263 130.001 L
91.161 135.435 L
91.161 144.565 L
95.263 149.999 L
cp
234.424 153.696 M
241.737 155.058 L
251.914 153.696 L
255.053 152.776 L
262.269 144.565 L
262.269 135.435 L
255.053 127.224 L
251.914 126.304 L
241.737 124.942 L
234.424 126.304 L
228.421 128.361 L
221.021 135.435 L
221.021 144.565 L
228.421 151.639 L
cp
108.579 147.164 M
104.709 144.565 L
104.709 135.435 L
108.579 132.836 L
121.895 132.786 L
125.429 135.435 L
125.429 144.565 L
121.895 147.214 L
cp
83.056 71.519 M
95.263 72.754 L
102.807 71.519 L
108.579 70.098 L
119.963 62.388 L
121.895 58.271 L
123.342 53.257 L
121.895 53.257 L
112.794 53.257 L
108.579 61.746 L
107.603 62.388 L
95.263 65.273 L
83.719 62.388 L
81.947 60.905 L
78.931 53.257 L
68.632 53.257 L
68.321 53.257 L
68.632 54.881 L
70.972 62.388 L
81.947 71.318 L
cp
205.424 71.519 M
215.105 74.161 L
228.421 73.756 L
236.409 71.519 L
241.737 69.148 L
249.108 62.388 L
252.183 53.257 L
243.593 53.257 L
241.737 58.353 L
238.732 62.388 L
228.421 67.045 L
215.105 66.97 L
206.873 62.388 L
202.275 53.257 L
201.789 53.257 L
194.072 53.257 L
196.063 62.388 L
201.789 69.611 L
cp
f
GR
GS
[0.78257 0 0 0.78197 0 0.22835] CT
0.145 0.608 0.906 RC
N
81.947 219.095 M
78.931 226.743 L
81.947 226.743 L
95.263 226.743 L
108.579 226.743 L
112.794 226.743 L
108.579 218.254 L
107.603 217.612 L
95.263 214.727 L
83.719 217.612 L
cp
206.873 217.612 M
202.275 226.743 L
215.105 226.743 L
228.421 226.743 L
241.737 226.743 L
243.593 226.743 L
241.737 221.647 L
238.732 217.612 L
228.421 212.955 L
215.105 213.03 L
cp
104.709 144.565 M
108.579 147.164 L
121.895 147.214 L
125.429 144.565 L
125.429 135.435 L
121.895 132.786 L
108.579 132.836 L
104.709 135.435 L
cp
83.719 62.388 M
95.263 65.273 L
107.603 62.388 L
108.579 61.746 L
112.794 53.257 L
108.579 53.257 L
95.263 53.257 L
81.947 53.257 L
78.931 53.257 L
81.947 60.905 L
cp
206.873 62.388 M
215.105 66.97 L
228.421 67.045 L
238.732 62.388 L
241.737 58.353 L
243.593 53.257 L
241.737 53.257 L
228.421 53.257 L
215.105 53.257 L
202.275 53.257 L
cp
f
GR
GS
[0.78257 0 0 0.78197 0 0.22835] CT
1 LJ
0.639 LW
N
157.759 226.743 M
157.619 217.612 L
S
GR
GS
[0.78257 0 0 0.78197 0 0.22835] CT
1 LJ
0.639 LW
N
163.982 217.612 M
164.217 226.743 L
S
GR
GS
[0.78257 0 0 0.78197 0 0.22835] CT
1 LJ
0.639 LW
N
281.342 226.743 M
280.62 217.612 L
S
GR
GS
[0.78257 0 0 0.78197 0 0.22835] CT
1 LJ
0.639 LW
N
284.449 217.612 M
282.764 226.743 L
S
GR
GS
[0.78257 0 0 0.78197 0 0.22835] CT
1 LJ
0.639 LW
N
157.619 217.612 M
156.376 208.481 L
S
GR
GS
[0.78257 0 0 0.78197 0 0.22835] CT
1 LJ
0.639 LW
N
163.132 208.481 M
163.982 217.612 L
S
GR
GS
[0.78257 0 0 0.78197 0 0.22835] CT
1 LJ
0.639 LW
N
280.62 217.612 M
278.086 208.481 L
S
GR
GS
[0.78257 0 0 0.78197 0 0.22835] CT
1 LJ
0.639 LW
N
287.455 208.481 M
284.449 217.612 L
S
GR
GS
[0.78257 0 0 0.78197 0 0.22835] CT
1 LJ
0.639 LW
N
156.376 208.481 M
148.526 205.464 L
143.354 199.35 L
S
GR
GS
[0.78257 0 0 0.78197 0 0.22835] CT
1 LJ
0.639 LW
N
159.88 199.35 M
161.842 202.405 L
163.132 208.481 L
S
GR
GS
[0.78257 0 0 0.78197 0 0.22835] CT
1 LJ
0.639 LW
N
278.086 208.481 M
272.94 199.35 L
S
GR
GS
[0.78257 0 0 0.78197 0 0.22835] CT
1 LJ
0.639 LW
N
288.774 199.35 M
287.455 208.481 L
S
GR
GS
[0.78257 0 0 0.78197 0 0.22835] CT
1 LJ
0.639 LW
N
143.354 199.35 M
135.211 194.348 L
123.579 190.22 L
S
GR
GS
[0.78257 0 0 0.78197 0 0.22835] CT
1 LJ
0.639 LW
N
154.462 190.22 M
159.88 199.35 L
S
GR
GS
[0.78257 0 0 0.78197 0 0.22835] CT
1 LJ
0.639 LW
N
272.94 199.35 M
268.368 196.379 L
255.186 190.22 L
S
GR
GS
[0.78257 0 0 0.78197 0 0.22835] CT
1 LJ
0.639 LW
N
283.635 190.22 M
288.774 199.35 L
S
GR
GS
[0.78257 0 0 0.78197 0 0.22835] CT
1 LJ
0.639 LW
N
119.157 181.089 M
108.579 184.148 L
95.263 184.966 L
81.947 182.898 L
72.107 181.089 L
S
GR
GS
[0.78257 0 0 0.78197 0 0.22835] CT
1 LJ
0.639 LW
N
123.579 190.22 M
135.211 184.853 L
148.526 187.258 L
154.462 190.22 L
S
GR
GS
[0.78257 0 0 0.78197 0 0.22835] CT
1 LJ
0.639 LW
N
254.638 181.089 M
241.737 184.447 L
228.421 184.757 L
215.105 182.787 L
204.271 181.089 L
S
GR
GS
[0.78257 0 0 0.78197 0 0.22835] CT
1 LJ
0.639 LW
N
255.186 190.22 M
268.368 183.884 L
281.684 188.731 L
283.635 190.22 L
S
GR
GS
[0.78257 0 0 0.78197 0 0.22835] CT
1 LJ
0.639 LW
N
72.107 181.089 M
68.632 179.546 L
55.316 174.167 L
52.976 171.958 L
S
GR
GS
[0.78257 0 0 0.78197 0 0.22835] CT
1 LJ
0.639 LW
N
77.323 171.958 M
81.947 176.343 L
95.263 177.087 L
108.579 179.467 L
119.157 181.089 L
S
GR
GS
[0.78257 0 0 0.78197 0 0.22835] CT
1 LJ
0.639 LW
N
204.271 181.089 M
201.789 179.207 L
188.474 177.006 L
180.212 171.958 L
S
GR
GS
[0.78257 0 0 0.78197 0 0.22835] CT
1 LJ
0.639 LW
N
206.995 171.958 M
215.105 177.244 L
228.421 177.213 L
241.737 179.169 L
254.638 181.089 L
S
GR
GS
[0.78257 0 0 0.78197 0 0.22835] CT
1 LJ
0.639 LW
N
52.976 171.958 M
48.744 162.827 L
S
GR
GS
[0.78257 0 0 0.78197 0 0.22835] CT
1 LJ
0.639 LW
N
63.373 162.827 M
68.632 166.86 L
77.323 171.958 L
S
GR
GS
[0.78257 0 0 0.78197 0 0.22835] CT
1 LJ
0.639 LW
N
180.212 171.958 M
176.445 162.827 L
S
GR
GS
[0.78257 0 0 0.78197 0 0.22835] CT
1 LJ
0.639 LW
N
192.042 162.827 M
201.789 169.737 L
206.995 171.958 L
S
GR
GS
[0.78257 0 0 0.78197 0 0.22835] CT
1 LJ
0.639 LW
N
48.744 162.827 M
49.502 153.696 L
S
GR
GS
[0.78257 0 0 0.78197 0 0.22835] CT
1 LJ
0.639 LW
N
59.498 153.696 M
63.373 162.827 L
S
GR
GS
[0.78257 0 0 0.78197 0 0.22835] CT
1 LJ
0.639 LW
N
176.445 162.827 M
175.158 161.179 L
173.839 153.696 L
S
GR
GS
[0.78257 0 0 0.78197 0 0.22835] CT
1 LJ
0.639 LW
N
180.551 153.696 M
188.474 157.498 L
192.042 162.827 L
S
GR
GS
[0.78257 0 0 0.78197 0 0.22835] CT
1 LJ
0.639 LW
N
49.502 153.696 M
50.999 144.565 L
S
GR
GS
[0.78257 0 0 0.78197 0 0.22835] CT
1 LJ
0.639 LW
N
57.655 144.565 M
59.498 153.696 L
S
GR
GS
[0.78257 0 0 0.78197 0 0.22835] CT
1 LJ
0.639 LW
N
173.839 153.696 M
173.234 144.565 L
S
GR
GS
[0.78257 0 0 0.78197 0 0.22835] CT
1 LJ
0.639 LW
N
179.557 144.565 M
180.551 153.696 L
S
GR
GS
[0.78257 0 0 0.78197 0 0.22835] CT
1 LJ
0.639 LW
N
50.999 144.565 M
50.999 135.435 L
S
GR
GS
[0.78257 0 0 0.78197 0 0.22835] CT
1 LJ
0.639 LW
N
57.655 135.435 M
57.655 144.565 L
S
GR
GS
[0.78257 0 0 0.78197 0 0.22835] CT
1 LJ
0.639 LW
N
173.234 144.565 M
173.234 135.435 L
S
GR
GS
[0.78257 0 0 0.78197 0 0.22835] CT
1 LJ
0.639 LW
N
179.557 135.435 M
179.557 144.565 L
S
GR
GS
[0.78257 0 0 0.78197 0 0.22835] CT
1 LJ
0.639 LW
N
50.999 135.435 M
49.502 126.304 L
S
GR
GS
[0.78257 0 0 0.78197 0 0.22835] CT
1 LJ
0.639 LW
N
59.498 126.304 M
57.655 135.435 L
S
GR
GS
[0.78257 0 0 0.78197 0 0.22835] CT
1 LJ
0.639 LW
N
173.234 135.435 M
173.839 126.304 L
S
GR
GS
[0.78257 0 0 0.78197 0 0.22835] CT
1 LJ
0.639 LW
N
180.551 126.304 M
179.557 135.435 L
S
GR
GS
[0.78257 0 0 0.78197 0 0.22835] CT
1 LJ
0.639 LW
N
49.502 126.304 M
48.744 117.173 L
S
GR
GS
[0.78257 0 0 0.78197 0 0.22835] CT
1 LJ
0.639 LW
N
63.373 117.173 M
59.498 126.304 L
S
GR
GS
[0.78257 0 0 0.78197 0 0.22835] CT
1 LJ
0.639 LW
N
173.839 126.304 M
175.158 118.821 L
176.445 117.173 L
S
GR
GS
[0.78257 0 0 0.78197 0 0.22835] CT
1 LJ
0.639 LW
N
192.042 117.173 M
188.474 122.502 L
180.551 126.304 L
S
GR
GS
[0.78257 0 0 0.78197 0 0.22835] CT
1 LJ
0.639 LW
N
48.744 117.173 M
52.976 108.042 L
S
GR
GS
[0.78257 0 0 0.78197 0 0.22835] CT
1 LJ
0.639 LW
N
77.323 108.042 M
68.632 113.14 L
63.373 117.173 L
S
GR
GS
[0.78257 0 0 0.78197 0 0.22835] CT
1 LJ
0.639 LW
N
176.445 117.173 M
180.212 108.042 L
S
GR
GS
[0.78257 0 0 0.78197 0 0.22835] CT
1 LJ
0.639 LW
N
206.995 108.042 M
201.789 110.263 L
192.042 117.173 L
S
GR
GS
[0.78257 0 0 0.78197 0 0.22835] CT
1 LJ
0.639 LW
N
52.976 108.042 M
55.316 105.833 L
68.632 100.454 L
72.107 98.911 L
S
GR
GS
[0.78257 0 0 0.78197 0 0.22835] CT
1 LJ
0.639 LW
N
119.157 98.911 M
108.579 100.533 L
95.263 102.913 L
81.947 103.657 L
77.323 108.042 L
S
GR
GS
[0.78257 0 0 0.78197 0 0.22835] CT
1 LJ
0.639 LW
N
180.212 108.042 M
188.474 102.994 L
201.789 100.793 L
204.271 98.911 L
S
GR
GS
[0.78257 0 0 0.78197 0 0.22835] CT
1 LJ
0.639 LW
N
254.638 98.911 M
241.737 100.831 L
228.421 102.787 L
215.105 102.756 L
206.995 108.042 L
S
GR
GS
[0.78257 0 0 0.78197 0 0.22835] CT
1 LJ
0.639 LW
N
72.107 98.911 M
81.947 97.102 L
95.263 95.034 L
108.579 95.852 L
119.157 98.911 L
S
GR
GS
[0.78257 0 0 0.78197 0 0.22835] CT
1 LJ
0.639 LW
N
154.462 89.78 M
148.526 92.742 L
135.211 95.147 L
123.579 89.78 L
S
GR
GS
[0.78257 0 0 0.78197 0 0.22835] CT
1 LJ
0.639 LW
N
204.271 98.911 M
215.105 97.213 L
228.421 95.243 L
241.737 95.553 L
254.638 98.911 L
S
GR
GS
[0.78257 0 0 0.78197 0 0.22835] CT
1 LJ
0.639 LW
N
283.635 89.78 M
281.684 91.269 L
268.368 96.116 L
255.186 89.78 L
S
GR
GS
[0.78257 0 0 0.78197 0 0.22835] CT
1 LJ
0.639 LW
N
123.579 89.78 M
135.211 85.652 L
143.354 80.65 L
S
GR
GS
[0.78257 0 0 0.78197 0 0.22835] CT
1 LJ
0.639 LW
N
159.88 80.65 M
154.462 89.78 L
S
GR
GS
[0.78257 0 0 0.78197 0 0.22835] CT
1 LJ
0.639 LW
N
255.186 89.78 M
268.368 83.621 L
272.94 80.65 L
S
GR
GS
[0.78257 0 0 0.78197 0 0.22835] CT
1 LJ
0.639 LW
N
288.774 80.65 M
283.635 89.78 L
S
GR
GS
[0.78257 0 0 0.78197 0 0.22835] CT
1 LJ
0.639 LW
N
143.354 80.65 M
148.526 74.536 L
156.376 71.519 L
S
GR
GS
[0.78257 0 0 0.78197 0 0.22835] CT
1 LJ
0.639 LW
N
163.132 71.519 M
161.842 77.595 L
159.88 80.65 L
S
GR
GS
[0.78257 0 0 0.78197 0 0.22835] CT
1 LJ
0.639 LW
N
272.94 80.65 M
278.086 71.519 L
S
GR
GS
[0.78257 0 0 0.78197 0 0.22835] CT
1 LJ
0.639 LW
N
287.455 71.519 M
288.774 80.65 L
S
GR
GS
[0.78257 0 0 0.78197 0 0.22835] CT
1 LJ
0.639 LW
N
156.376 71.519 M
157.619 62.388 L
S
GR
GS
[0.78257 0 0 0.78197 0 0.22835] CT
1 LJ
0.639 LW
N
163.982 62.388 M
163.132 71.519 L
S
GR
GS
[0.78257 0 0 0.78197 0 0.22835] CT
1 LJ
0.639 LW
N
278.086 71.519 M
280.62 62.388 L
S
GR
GS
[0.78257 0 0 0.78197 0 0.22835] CT
1 LJ
0.639 LW
N
284.449 62.388 M
287.455 71.519 L
S
GR
GS
[0.78257 0 0 0.78197 0 0.22835] CT
1 LJ
0.639 LW
N
157.619 62.388 M
157.759 53.257 L
S
GR
GS
[0.78257 0 0 0.78197 0 0.22835] CT
1 LJ
0.639 LW
N
164.217 53.257 M
163.982 62.388 L
S
GR
GS
[0.78257 0 0 0.78197 0 0.22835] CT
1 LJ
0.639 LW
N
280.62 62.388 M
281.342 53.257 L
S
GR
GS
[0.78257 0 0 0.78197 0 0.22835] CT
1 LJ
0.639 LW
N
282.764 53.257 M
284.449 62.388 L
S
GR
GS
[0.78257 0 0 0.78197 0 0.22835] CT
1 LJ
0.639 LW
N
42.817 217.612 M
42.771 226.743 L
S
GR
GS
[0.78257 0 0 0.78197 0 0.22835] CT
1 LJ
0.639 LW
N
148.713 226.743 M
148.526 225.75 L
147.514 217.612 L
S
GR
GS
[0.78257 0 0 0.78197 0 0.22835] CT
1 LJ
0.639 LW
N
169.532 217.612 M
169.478 226.743 L
S
GR
GS
[0.78257 0 0 0.78197 0 0.22835] CT
1 LJ
0.639 LW
N
276.143 226.743 M
275.175 217.612 L
S
GR
GS
[0.78257 0 0 0.78197 0 0.22835] CT
1 LJ
0.639 LW
N
42.987 208.481 M
42.817 217.612 L
S
GR
GS
[0.78257 0 0 0.78197 0 0.22835] CT
1 LJ
0.639 LW
N
147.514 217.612 M
143.561 208.481 L
S
GR
GS
[0.78257 0 0 0.78197 0 0.22835] CT
1 LJ
0.639 LW
N
169.726 208.481 M
169.532 217.612 L
S
GR
GS
[0.78257 0 0 0.78197 0 0.22835] CT
1 LJ
0.639 LW
N
275.175 217.612 M
271.779 208.481 L
S
GR
GS
[0.78257 0 0 0.78197 0 0.22835] CT
1 LJ
0.639 LW
N
43.456 199.35 M
42.987 208.481 L
S
GR
GS
[0.78257 0 0 0.78197 0 0.22835] CT
1 LJ
0.639 LW
N
143.561 208.481 M
135.211 200.075 L
134.097 199.35 L
S
GR
GS
[0.78257 0 0 0.78197 0 0.22835] CT
1 LJ
0.639 LW
N
170.23 199.35 M
169.726 208.481 L
S
GR
GS
[0.78257 0 0 0.78197 0 0.22835] CT
1 LJ
0.639 LW
N
271.779 208.481 M
268.368 203.978 L
263.177 199.35 L
S
GR
GS
[0.78257 0 0 0.78197 0 0.22835] CT
1 LJ
0.639 LW
N
45.567 190.22 M
43.456 199.35 L
S
GR
GS
[0.78257 0 0 0.78197 0 0.22835] CT
1 LJ
0.639 LW
N
134.097 199.35 M
121.895 194.226 L
108.579 190.934 L
104.161 190.22 L
S
GR
GS
[0.78257 0 0 0.78197 0 0.22835] CT
1 LJ
0.639 LW
N
172.038 190.22 M
170.23 199.35 L
S
GR
GS
[0.78257 0 0 0.78197 0 0.22835] CT
1 LJ
0.639 LW
N
263.177 199.35 M
255.053 195.082 L
241.737 190.965 L
237.944 190.22 L
S
GR
GS
[0.78257 0 0 0.78197 0 0.22835] CT
1 LJ
0.639 LW
N
104.161 190.22 M
95.263 188.861 L
81.947 187.408 L
68.632 186.364 L
55.316 185.983 L
45.567 190.22 L
S
GR
GS
[0.78257 0 0 0.78197 0 0.22835] CT
1 LJ
0.639 LW
N
237.944 190.22 M
228.421 188.546 L
215.105 186.91 L
201.789 185.736 L
188.474 185.049 L
175.158 186.458 L
172.038 190.22 L
S
GR
GS
[0.78257 0 0 0.78197 0 0.22835] CT
1 LJ
0.639 LW
N
91.201 171.958 M
95.263 173.068 L
108.579 175.572 L
121.895 177.307 L
135.211 178.549 L
148.526 179.277 L
161.842 177.839 L
165.656 171.958 L
S
GR
GS
[0.78257 0 0 0.78197 0 0.22835] CT
1 LJ
0.639 LW
N
222.839 171.958 M
228.421 173.21 L
241.737 175.165 L
255.053 176.524 L
268.368 177.337 L
281.684 176.991 L
289.991 171.958 L
S
GR
GS
[0.78257 0 0 0.78197 0 0.22835] CT
1 LJ
0.639 LW
N
72.563 162.827 M
81.947 168.579 L
91.201 171.958 L
S
GR
GS
[0.78257 0 0 0.78197 0 0.22835] CT
1 LJ
0.639 LW
N
165.656 171.958 M
166.892 162.827 L
S
GR
GS
[0.78257 0 0 0.78197 0 0.22835] CT
1 LJ
0.639 LW
N
200.659 162.827 M
201.789 163.628 L
215.105 169.83 L
222.839 171.958 L
S
GR
GS
[0.78257 0 0 0.78197 0 0.22835] CT
1 LJ
0.639 LW
N
289.991 171.958 M
292.467 162.827 L
S
GR
GS
[0.78257 0 0 0.78197 0 0.22835] CT
1 LJ
0.639 LW
N
65.725 153.696 M
68.632 158.35 L
72.563 162.827 L
S
GR
GS
[0.78257 0 0 0.78197 0 0.22835] CT
1 LJ
0.639 LW
N
166.892 162.827 M
167.28 153.696 L
S
GR
GS
[0.78257 0 0 0.78197 0 0.22835] CT
1 LJ
0.639 LW
N
193.329 153.696 M
200.659 162.827 L
S
GR
GS
[0.78257 0 0 0.78197 0 0.22835] CT
1 LJ
0.639 LW
N
292.467 162.827 M
293.141 153.696 L
S
GR
GS
[0.78257 0 0 0.78197 0 0.22835] CT
1 LJ
0.639 LW
N
63.282 144.565 M
65.725 153.696 L
S
GR
GS
[0.78257 0 0 0.78197 0 0.22835] CT
1 LJ
0.639 LW
N
167.28 153.696 M
167.418 144.565 L
S
GR
GS
[0.78257 0 0 0.78197 0 0.22835] CT
1 LJ
0.639 LW
N
190.527 144.565 M
193.329 153.696 L
S
GR
GS
[0.78257 0 0 0.78197 0 0.22835] CT
1 LJ
0.639 LW
N
293.141 153.696 M
293.37 144.565 L
S
GR
GS
[0.78257 0 0 0.78197 0 0.22835] CT
1 LJ
0.639 LW
N
63.282 135.435 M
63.282 144.565 L
S
GR
GS
[0.78257 0 0 0.78197 0 0.22835] CT
1 LJ
0.639 LW
N
167.418 144.565 M
167.418 135.435 L
S
GR
GS
[0.78257 0 0 0.78197 0 0.22835] CT
1 LJ
0.639 LW
N
190.527 135.435 M
190.527 144.565 L
S
GR
GS
[0.78257 0 0 0.78197 0 0.22835] CT
1 LJ
0.639 LW
N
293.37 144.565 M
293.37 135.435 L
S
GR
GS
[0.78257 0 0 0.78197 0 0.22835] CT
1 LJ
0.639 LW
N
65.725 126.304 M
63.282 135.435 L
S
GR
GS
[0.78257 0 0 0.78197 0 0.22835] CT
1 LJ
0.639 LW
N
167.418 135.435 M
167.28 126.304 L
S
GR
GS
[0.78257 0 0 0.78197 0 0.22835] CT
1 LJ
0.639 LW
N
193.329 126.304 M
190.527 135.435 L
S
GR
GS
[0.78257 0 0 0.78197 0 0.22835] CT
1 LJ
0.639 LW
N
293.37 135.435 M
293.141 126.304 L
S
GR
GS
[0.78257 0 0 0.78197 0 0.22835] CT
1 LJ
0.639 LW
N
72.563 117.173 M
68.632 121.65 L
65.725 126.304 L
S
GR
GS
[0.78257 0 0 0.78197 0 0.22835] CT
1 LJ
0.639 LW
N
167.28 126.304 M
166.892 117.173 L
S
GR
GS
[0.78257 0 0 0.78197 0 0.22835] CT
1 LJ
0.639 LW
N
200.659 117.173 M
193.329 126.304 L
S
GR
GS
[0.78257 0 0 0.78197 0 0.22835] CT
1 LJ
0.639 LW
N
293.141 126.304 M
292.467 117.173 L
S
GR
GS
[0.78257 0 0 0.78197 0 0.22835] CT
1 LJ
0.639 LW
N
91.201 108.042 M
81.947 111.421 L
72.563 117.173 L
S
GR
GS
[0.78257 0 0 0.78197 0 0.22835] CT
1 LJ
0.639 LW
N
166.892 117.173 M
165.656 108.042 L
S
GR
GS
[0.78257 0 0 0.78197 0 0.22835] CT
1 LJ
0.639 LW
N
222.839 108.042 M
215.105 110.17 L
201.789 116.372 L
200.659 117.173 L
S
GR
GS
[0.78257 0 0 0.78197 0 0.22835] CT
1 LJ
0.639 LW
N
292.467 117.173 M
289.991 108.042 L
S
GR
GS
[0.78257 0 0 0.78197 0 0.22835] CT
1 LJ
0.639 LW
N
165.656 108.042 M
161.842 102.161 L
148.526 100.723 L
135.211 101.451 L
121.895 102.693 L
108.579 104.428 L
95.263 106.932 L
91.201 108.042 L
S
GR
GS
[0.78257 0 0 0.78197 0 0.22835] CT
1 LJ
0.639 LW
N
289.991 108.042 M
281.684 103.009 L
268.368 102.663 L
255.053 103.476 L
241.737 104.835 L
228.421 106.79 L
222.839 108.042 L
S
GR
GS
[0.78257 0 0 0.78197 0 0.22835] CT
1 LJ
0.639 LW
N
45.567 89.78 M
55.316 94.017 L
68.632 93.636 L
81.947 92.592 L
95.263 91.139 L
104.161 89.78 L
S
GR
GS
[0.78257 0 0 0.78197 0 0.22835] CT
1 LJ
0.639 LW
N
172.038 89.78 M
175.158 93.542 L
188.474 94.951 L
201.789 94.264 L
215.105 93.09 L
228.421 91.454 L
237.944 89.78 L
S
GR
GS
[0.78257 0 0 0.78197 0 0.22835] CT
1 LJ
0.639 LW
N
43.456 80.65 M
45.567 89.78 L
S
GR
GS
[0.78257 0 0 0.78197 0 0.22835] CT
1 LJ
0.639 LW
N
104.161 89.78 M
108.579 89.066 L
121.895 85.774 L
134.097 80.65 L
S
GR
GS
[0.78257 0 0 0.78197 0 0.22835] CT
1 LJ
0.639 LW
N
170.23 80.65 M
172.038 89.78 L
S
GR
GS
[0.78257 0 0 0.78197 0 0.22835] CT
1 LJ
0.639 LW
N
237.944 89.78 M
241.737 89.035 L
255.053 84.918 L
263.177 80.65 L
S
GR
GS
[0.78257 0 0 0.78197 0 0.22835] CT
1 LJ
0.639 LW
N
42.987 71.519 M
43.456 80.65 L
S
GR
GS
[0.78257 0 0 0.78197 0 0.22835] CT
1 LJ
0.639 LW
N
134.097 80.65 M
135.211 79.925 L
143.561 71.519 L
S
GR
GS
[0.78257 0 0 0.78197 0 0.22835] CT
1 LJ
0.639 LW
N
169.726 71.519 M
170.23 80.65 L
S
GR
GS
[0.78257 0 0 0.78197 0 0.22835] CT
1 LJ
0.639 LW
N
263.177 80.65 M
268.368 76.022 L
271.779 71.519 L
S
GR
GS
[0.78257 0 0 0.78197 0 0.22835] CT
1 LJ
0.639 LW
N
42.817 62.388 M
42.987 71.519 L
S
GR
GS
[0.78257 0 0 0.78197 0 0.22835] CT
1 LJ
0.639 LW
N
143.561 71.519 M
147.514 62.388 L
S
GR
GS
[0.78257 0 0 0.78197 0 0.22835] CT
1 LJ
0.639 LW
N
169.532 62.388 M
169.726 71.519 L
S
GR
GS
[0.78257 0 0 0.78197 0 0.22835] CT
1 LJ
0.639 LW
N
271.779 71.519 M
275.175 62.388 L
S
GR
GS
[0.78257 0 0 0.78197 0 0.22835] CT
1 LJ
0.639 LW
N
42.771 53.257 M
42.817 62.388 L
S
GR
GS
[0.78257 0 0 0.78197 0 0.22835] CT
1 LJ
0.639 LW
N
147.514 62.388 M
148.526 54.25 L
148.713 53.257 L
S
GR
GS
[0.78257 0 0 0.78197 0 0.22835] CT
1 LJ
0.639 LW
N
169.478 53.257 M
169.532 62.388 L
S
GR
GS
[0.78257 0 0 0.78197 0 0.22835] CT
1 LJ
0.639 LW
N
275.175 62.388 M
276.143 53.257 L
S
GR
GS
[0.78257 0 0 0.78197 0 0.22835] CT
1 LJ
0.639 LW
N
48.941 217.612 M
48.551 226.743 L
S
GR
GS
[0.78257 0 0 0.78197 0 0.22835] CT
1 LJ
0.639 LW
N
142.935 226.743 M
141.539 217.612 L
S
GR
GS
[0.78257 0 0 0.78197 0 0.22835] CT
1 LJ
0.639 LW
N
175.081 217.612 M
174.74 226.743 L
S
GR
GS
[0.78257 0 0 0.78197 0 0.22835] CT
1 LJ
0.639 LW
N
270.945 226.743 M
269.731 217.612 L
S
GR
GS
[0.78257 0 0 0.78197 0 0.22835] CT
1 LJ
0.639 LW
N
50.388 208.481 M
48.941 217.612 L
S
GR
GS
[0.78257 0 0 0.78197 0 0.22835] CT
1 LJ
0.639 LW
N
141.539 217.612 M
136.656 208.481 L
S
GR
GS
[0.78257 0 0 0.78197 0 0.22835] CT
1 LJ
0.639 LW
N
176.511 208.481 M
175.158 216.951 L
175.081 217.612 L
S
GR
GS
[0.78257 0 0 0.78197 0 0.22835] CT
1 LJ
0.639 LW
N
269.731 217.612 M
268.368 214.391 L
265.016 208.481 L
S
GR
GS
[0.78257 0 0 0.78197 0 0.22835] CT
1 LJ
0.639 LW
N
54.377 199.35 M
50.388 208.481 L
S
GR
GS
[0.78257 0 0 0.78197 0 0.22835] CT
1 LJ
0.639 LW
N
136.656 208.481 M
135.211 207.026 L
123.414 199.35 L
S
GR
GS
[0.78257 0 0 0.78197 0 0.22835] CT
1 LJ
0.639 LW
N
180.465 199.35 M
176.511 208.481 L
S
GR
GS
[0.78257 0 0 0.78197 0 0.22835] CT
1 LJ
0.639 LW
N
265.016 208.481 M
255.053 200.146 L
253.489 199.35 L
S
GR
GS
[0.78257 0 0 0.78197 0 0.22835] CT
1 LJ
0.639 LW
N
123.414 199.35 M
121.895 198.712 L
108.579 195.056 L
95.263 192.979 L
81.947 192.067 L
68.632 192.713 L
55.316 198.262 L
54.377 199.35 L
S
GR
GS
[0.78257 0 0 0.78197 0 0.22835] CT
1 LJ
0.639 LW
N
253.489 199.35 M
241.737 195.204 L
228.421 192.521 L
215.105 191.104 L
201.789 190.925 L
188.474 193.225 L
180.465 199.35 L
S
GR
GS
[0.78257 0 0 0.78197 0 0.22835] CT
1 LJ
0.639 LW
N
111.448 171.958 M
121.895 173.069 L
135.211 173.274 L
144.648 171.958 L
S
GR
GS
[0.78257 0 0 0.78197 0 0.22835] CT
1 LJ
0.639 LW
N
81.321 162.827 M
81.947 163.211 L
95.263 168.602 L
108.579 171.633 L
111.448 171.958 L
S
GR
GS
[0.78257 0 0 0.78197 0 0.22835] CT
1 LJ
0.639 LW
N
144.648 171.958 M
148.526 170.99 L
157.514 162.827 L
S
GR
GS
[0.78257 0 0 0.78197 0 0.22835] CT
1 LJ
0.639 LW
N
210.718 162.827 M
215.105 164.922 L
228.421 168.859 L
241.737 171.036 L
255.053 171.877 L
268.368 170.87 L
281.684 163.945 L
282.49 162.827 L
S
GR
GS
[0.78257 0 0 0.78197 0 0.22835] CT
1 LJ
0.639 LW
N
72.465 153.696 M
81.321 162.827 L
S
GR
GS
[0.78257 0 0 0.78197 0 0.22835] CT
1 LJ
0.639 LW
N
157.514 162.827 M
160.538 153.696 L
S
GR
GS
[0.78257 0 0 0.78197 0 0.22835] CT
1 LJ
0.639 LW
N
200.22 153.696 M
201.789 155.593 L
210.718 162.827 L
S
GR
GS
[0.78257 0 0 0.78197 0 0.22835] CT
1 LJ
0.639 LW
N
282.49 162.827 M
285.819 153.696 L
S
GR
GS
[0.78257 0 0 0.78197 0 0.22835] CT
1 LJ
0.639 LW
N
68.956 144.565 M
72.465 153.696 L
S
GR
GS
[0.78257 0 0 0.78197 0 0.22835] CT
1 LJ
0.639 LW
N
160.538 153.696 M
161.567 144.565 L
S
GR
GS
[0.78257 0 0 0.78197 0 0.22835] CT
1 LJ
0.639 LW
N
196.758 144.565 M
200.22 153.696 L
S
GR
GS
[0.78257 0 0 0.78197 0 0.22835] CT
1 LJ
0.639 LW
N
285.819 153.696 M
286.952 144.565 L
S
GR
GS
[0.78257 0 0 0.78197 0 0.22835] CT
1 LJ
0.639 LW
N
68.956 135.435 M
68.956 144.565 L
S
GR
GS
[0.78257 0 0 0.78197 0 0.22835] CT
1 LJ
0.639 LW
N
161.567 144.565 M
161.567 135.435 L
S
GR
GS
[0.78257 0 0 0.78197 0 0.22835] CT
1 LJ
0.639 LW
N
196.758 135.435 M
196.758 144.565 L
S
GR
GS
[0.78257 0 0 0.78197 0 0.22835] CT
1 LJ
0.639 LW
N
286.952 144.565 M
286.952 135.435 L
S
GR
GS
[0.78257 0 0 0.78197 0 0.22835] CT
1 LJ
0.639 LW
N
72.465 126.304 M
68.956 135.435 L
S
GR
GS
[0.78257 0 0 0.78197 0 0.22835] CT
1 LJ
0.639 LW
N
161.567 135.435 M
160.538 126.304 L
S
GR
GS
[0.78257 0 0 0.78197 0 0.22835] CT
1 LJ
0.639 LW
N
200.22 126.304 M
196.758 135.435 L
S
GR
GS
[0.78257 0 0 0.78197 0 0.22835] CT
1 LJ
0.639 LW
N
286.952 135.435 M
285.819 126.304 L
S
GR
GS
[0.78257 0 0 0.78197 0 0.22835] CT
1 LJ
0.639 LW
N
81.321 117.173 M
72.465 126.304 L
S
GR
GS
[0.78257 0 0 0.78197 0 0.22835] CT
1 LJ
0.639 LW
N
160.538 126.304 M
157.514 117.173 L
S
GR
GS
[0.78257 0 0 0.78197 0 0.22835] CT
1 LJ
0.639 LW
N
210.718 117.173 M
201.789 124.407 L
200.22 126.304 L
S
GR
GS
[0.78257 0 0 0.78197 0 0.22835] CT
1 LJ
0.639 LW
N
285.819 126.304 M
282.49 117.173 L
S
GR
GS
[0.78257 0 0 0.78197 0 0.22835] CT
1 LJ
0.639 LW
N
111.448 108.042 M
108.579 108.367 L
95.263 111.398 L
81.947 116.789 L
81.321 117.173 L
S
GR
GS
[0.78257 0 0 0.78197 0 0.22835] CT
1 LJ
0.639 LW
N
157.514 117.173 M
148.526 109.01 L
144.648 108.042 L
S
GR
GS
[0.78257 0 0 0.78197 0 0.22835] CT
1 LJ
0.639 LW
N
282.49 117.173 M
281.684 116.055 L
268.368 109.13 L
255.053 108.123 L
241.737 108.964 L
228.421 111.141 L
215.105 115.078 L
210.718 117.173 L
S
GR
GS
[0.78257 0 0 0.78197 0 0.22835] CT
1 LJ
0.639 LW
N
144.648 108.042 M
135.211 106.726 L
121.895 106.931 L
111.448 108.042 L
S
GR
GS
[0.78257 0 0 0.78197 0 0.22835] CT
1 LJ
0.639 LW
N
54.377 80.65 M
55.316 81.738 L
68.632 87.287 L
81.947 87.933 L
95.263 87.021 L
108.579 84.944 L
121.895 81.288 L
123.414 80.65 L
S
GR
GS
[0.78257 0 0 0.78197 0 0.22835] CT
1 LJ
0.639 LW
N
180.465 80.65 M
188.474 86.775 L
201.789 89.075 L
215.105 88.896 L
228.421 87.479 L
241.737 84.796 L
253.489 80.65 L
S
GR
GS
[0.78257 0 0 0.78197 0 0.22835] CT
1 LJ
0.639 LW
N
50.388 71.519 M
54.377 80.65 L
S
GR
GS
[0.78257 0 0 0.78197 0 0.22835] CT
1 LJ
0.639 LW
N
123.414 80.65 M
135.211 72.974 L
136.656 71.519 L
S
GR
GS
[0.78257 0 0 0.78197 0 0.22835] CT
1 LJ
0.639 LW
N
176.511 71.519 M
180.465 80.65 L
S
GR
GS
[0.78257 0 0 0.78197 0 0.22835] CT
1 LJ
0.639 LW
N
253.489 80.65 M
255.053 79.854 L
265.016 71.519 L
S
GR
GS
[0.78257 0 0 0.78197 0 0.22835] CT
1 LJ
0.639 LW
N
48.941 62.388 M
50.388 71.519 L
S
GR
GS
[0.78257 0 0 0.78197 0 0.22835] CT
1 LJ
0.639 LW
N
136.656 71.519 M
141.539 62.388 L
S
GR
GS
[0.78257 0 0 0.78197 0 0.22835] CT
1 LJ
0.639 LW
N
175.081 62.388 M
175.158 63.049 L
176.511 71.519 L
S
GR
GS
[0.78257 0 0 0.78197 0 0.22835] CT
1 LJ
0.639 LW
N
265.016 71.519 M
268.368 65.609 L
269.731 62.388 L
S
GR
GS
[0.78257 0 0 0.78197 0 0.22835] CT
1 LJ
0.639 LW
N
48.551 53.257 M
48.941 62.388 L
S
GR
GS
[0.78257 0 0 0.78197 0 0.22835] CT
1 LJ
0.639 LW
N
141.539 62.388 M
142.935 53.257 L
S
GR
GS
[0.78257 0 0 0.78197 0 0.22835] CT
1 LJ
0.639 LW
N
174.74 53.257 M
175.081 62.388 L
S
GR
GS
[0.78257 0 0 0.78197 0 0.22835] CT
1 LJ
0.639 LW
N
269.731 62.388 M
270.945 53.257 L
S
GR
GS
[0.78257 0 0 0.78197 0 0.22835] CT
1 LJ
0.639 LW
N
55.066 217.612 M
54.331 226.743 L
S
GR
GS
[0.78257 0 0 0.78197 0 0.22835] CT
1 LJ
0.639 LW
N
137.226 226.743 M
135.564 217.612 L
S
GR
GS
[0.78257 0 0 0.78197 0 0.22835] CT
1 LJ
0.639 LW
N
181.426 217.612 M
180.68 226.743 L
S
GR
GS
[0.78257 0 0 0.78197 0 0.22835] CT
1 LJ
0.639 LW
N
265.274 226.743 M
263.572 217.612 L
S
GR
GS
[0.78257 0 0 0.78197 0 0.22835] CT
1 LJ
0.639 LW
N
58.443 208.481 M
55.316 216.62 L
55.066 217.612 L
S
GR
GS
[0.78257 0 0 0.78197 0 0.22835] CT
1 LJ
0.639 LW
N
135.564 217.612 M
135.211 216.976 L
128.496 208.481 L
S
GR
GS
[0.78257 0 0 0.78197 0 0.22835] CT
1 LJ
0.639 LW
N
184.183 208.481 M
181.426 217.612 L
S
GR
GS
[0.78257 0 0 0.78197 0 0.22835] CT
1 LJ
0.639 LW
N
263.572 217.612 M
257.714 208.481 L
S
GR
GS
[0.78257 0 0 0.78197 0 0.22835] CT
1 LJ
0.639 LW
N
68.842 199.35 M
68.632 199.415 L
58.443 208.481 L
S
GR
GS
[0.78257 0 0 0.78197 0 0.22835] CT
1 LJ
0.639 LW
N
128.496 208.481 M
121.895 204.14 L
109.195 199.35 L
S
GR
GS
[0.78257 0 0 0.78197 0 0.22835] CT
1 LJ
0.639 LW
N
193.313 199.35 M
188.474 202.471 L
184.183 208.481 L
S
GR
GS
[0.78257 0 0 0.78197 0 0.22835] CT
1 LJ
0.639 LW
N
257.714 208.481 M
255.053 206.254 L
241.737 199.464 L
241.313 199.35 L
S
GR
GS
[0.78257 0 0 0.78197 0 0.22835] CT
1 LJ
0.639 LW
N
109.195 199.35 M
108.579 199.179 L
95.263 197.218 L
81.947 196.975 L
68.842 199.35 L
S
GR
GS
[0.78257 0 0 0.78197 0 0.22835] CT
1 LJ
0.639 LW
N
241.313 199.35 M
228.421 196.643 L
215.105 195.591 L
201.789 196.509 L
193.313 199.35 L
S
GR
GS
[0.78257 0 0 0.78197 0 0.22835] CT
1 LJ
0.639 LW
N
92.477 162.827 M
95.263 163.966 L
108.579 167.123 L
121.895 168.337 L
135.211 167.373 L
146.474 162.827 L
S
GR
GS
[0.78257 0 0 0.78197 0 0.22835] CT
1 LJ
0.639 LW
N
223.484 162.827 M
228.421 164.35 L
241.737 166.399 L
255.053 166.508 L
268.368 163.552 L
269.665 162.827 L
S
GR
GS
[0.78257 0 0 0.78197 0 0.22835] CT
1 LJ
0.639 LW
N
79.652 153.696 M
81.947 156.033 L
92.477 162.827 L
S
GR
GS
[0.78257 0 0 0.78197 0 0.22835] CT
1 LJ
0.639 LW
N
146.474 162.827 M
148.526 161.082 L
152.906 153.696 L
S
GR
GS
[0.78257 0 0 0.78197 0 0.22835] CT
1 LJ
0.639 LW
N
208.363 153.696 M
215.105 158.994 L
223.484 162.827 L
S
GR
GS
[0.78257 0 0 0.78197 0 0.22835] CT
1 LJ
0.639 LW
N
269.665 162.827 M
277.687 153.696 L
S
GR
GS
[0.78257 0 0 0.78197 0 0.22835] CT
1 LJ
0.639 LW
N
75.52 144.565 M
79.652 153.696 L
S
GR
GS
[0.78257 0 0 0.78197 0 0.22835] CT
1 LJ
0.639 LW
N
152.906 153.696 M
154.876 144.565 L
S
GR
GS
[0.78257 0 0 0.78197 0 0.22835] CT
1 LJ
0.639 LW
N
203.291 144.565 M
208.363 153.696 L
S
GR
GS
[0.78257 0 0 0.78197 0 0.22835] CT
1 LJ
0.639 LW
N
277.687 153.696 M
280.261 144.565 L
S
GR
GS
[0.78257 0 0 0.78197 0 0.22835] CT
1 LJ
0.639 LW
N
75.52 135.435 M
75.52 144.565 L
S
GR
GS
[0.78257 0 0 0.78197 0 0.22835] CT
1 LJ
0.639 LW
N
154.876 144.565 M
154.876 135.435 L
S
GR
GS
[0.78257 0 0 0.78197 0 0.22835] CT
1 LJ
0.639 LW
N
203.291 135.435 M
203.291 144.565 L
S
GR
GS
[0.78257 0 0 0.78197 0 0.22835] CT
1 LJ
0.639 LW
N
280.261 144.565 M
280.261 135.435 L
S
GR
GS
[0.78257 0 0 0.78197 0 0.22835] CT
1 LJ
0.639 LW
N
79.652 126.304 M
75.52 135.435 L
S
GR
GS
[0.78257 0 0 0.78197 0 0.22835] CT
1 LJ
0.639 LW
N
154.876 135.435 M
152.906 126.304 L
S
GR
GS
[0.78257 0 0 0.78197 0 0.22835] CT
1 LJ
0.639 LW
N
208.363 126.304 M
203.291 135.435 L
S
GR
GS
[0.78257 0 0 0.78197 0 0.22835] CT
1 LJ
0.639 LW
N
280.261 135.435 M
277.687 126.304 L
S
GR
GS
[0.78257 0 0 0.78197 0 0.22835] CT
1 LJ
0.639 LW
N
92.477 117.173 M
81.947 123.967 L
79.652 126.304 L
S
GR
GS
[0.78257 0 0 0.78197 0 0.22835] CT
1 LJ
0.639 LW
N
152.906 126.304 M
148.526 118.918 L
146.474 117.173 L
S
GR
GS
[0.78257 0 0 0.78197 0 0.22835] CT
1 LJ
0.639 LW
N
223.484 117.173 M
215.105 121.006 L
208.363 126.304 L
S
GR
GS
[0.78257 0 0 0.78197 0 0.22835] CT
1 LJ
0.639 LW
N
277.687 126.304 M
269.665 117.173 L
S
GR
GS
[0.78257 0 0 0.78197 0 0.22835] CT
1 LJ
0.639 LW
N
146.474 117.173 M
135.211 112.627 L
121.895 111.663 L
108.579 112.877 L
95.263 116.034 L
92.477 117.173 L
S
GR
GS
[0.78257 0 0 0.78197 0 0.22835] CT
1 LJ
0.639 LW
N
269.665 117.173 M
268.368 116.448 L
255.053 113.492 L
241.737 113.601 L
228.421 115.65 L
223.484 117.173 L
S
GR
GS
[0.78257 0 0 0.78197 0 0.22835] CT
1 LJ
0.639 LW
N
68.842 80.65 M
81.947 83.025 L
95.263 82.782 L
108.579 80.821 L
109.195 80.65 L
S
GR
GS
[0.78257 0 0 0.78197 0 0.22835] CT
1 LJ
0.639 LW
N
193.313 80.65 M
201.789 83.491 L
215.105 84.409 L
228.421 83.357 L
241.313 80.65 L
S
GR
GS
[0.78257 0 0 0.78197 0 0.22835] CT
1 LJ
0.639 LW
N
58.443 71.519 M
68.632 80.585 L
68.842 80.65 L
S
GR
GS
[0.78257 0 0 0.78197 0 0.22835] CT
1 LJ
0.639 LW
N
109.195 80.65 M
121.895 75.86 L
128.496 71.519 L
S
GR
GS
[0.78257 0 0 0.78197 0 0.22835] CT
1 LJ
0.639 LW
N
184.183 71.519 M
188.474 77.529 L
193.313 80.65 L
S
GR
GS
[0.78257 0 0 0.78197 0 0.22835] CT
1 LJ
0.639 LW
N
241.313 80.65 M
241.737 80.536 L
255.053 73.746 L
257.714 71.519 L
S
GR
GS
[0.78257 0 0 0.78197 0 0.22835] CT
1 LJ
0.639 LW
N
55.066 62.388 M
55.316 63.38 L
58.443 71.519 L
S
GR
GS
[0.78257 0 0 0.78197 0 0.22835] CT
1 LJ
0.639 LW
N
128.496 71.519 M
135.211 63.024 L
135.564 62.388 L
S
GR
GS
[0.78257 0 0 0.78197 0 0.22835] CT
1 LJ
0.639 LW
N
181.426 62.388 M
184.183 71.519 L
S
GR
GS
[0.78257 0 0 0.78197 0 0.22835] CT
1 LJ
0.639 LW
N
257.714 71.519 M
263.572 62.388 L
S
GR
GS
[0.78257 0 0 0.78197 0 0.22835] CT
1 LJ
0.639 LW
N
54.331 53.257 M
55.066 62.388 L
S
GR
GS
[0.78257 0 0 0.78197 0 0.22835] CT
1 LJ
0.639 LW
N
135.564 62.388 M
137.226 53.257 L
S
GR
GS
[0.78257 0 0 0.78197 0 0.22835] CT
1 LJ
0.639 LW
N
180.68 53.257 M
181.426 62.388 L
S
GR
GS
[0.78257 0 0 0.78197 0 0.22835] CT
1 LJ
0.639 LW
N
263.572 62.388 M
265.274 53.257 L
S
GR
GS
[0.78257 0 0 0.78197 0 0.22835] CT
1 LJ
0.639 LW
N
62.583 217.612 M
61.213 226.743 L
S
GR
GS
[0.78257 0 0 0.78197 0 0.22835] CT
1 LJ
0.639 LW
N
130.548 226.743 M
128.156 217.612 L
S
GR
GS
[0.78257 0 0 0.78197 0 0.22835] CT
1 LJ
0.639 LW
N
187.781 217.612 M
186.679 226.743 L
S
GR
GS
[0.78257 0 0 0.78197 0 0.22835] CT
1 LJ
0.639 LW
N
259.138 226.743 M
257.174 217.612 L
S
GR
GS
[0.78257 0 0 0.78197 0 0.22835] CT
1 LJ
0.639 LW
N
67.8 208.481 M
62.583 217.612 L
S
GR
GS
[0.78257 0 0 0.78197 0 0.22835] CT
1 LJ
0.639 LW
N
128.156 217.612 M
121.895 210.403 L
119.054 208.481 L
S
GR
GS
[0.78257 0 0 0.78197 0 0.22835] CT
1 LJ
0.639 LW
N
193.12 208.481 M
188.474 215.801 L
187.781 217.612 L
S
GR
GS
[0.78257 0 0 0.78197 0 0.22835] CT
1 LJ
0.639 LW
N
257.174 217.612 M
255.053 214.482 L
248.76 208.481 L
S
GR
GS
[0.78257 0 0 0.78197 0 0.22835] CT
1 LJ
0.639 LW
N
119.054 208.481 M
108.579 204.269 L
95.263 201.971 L
81.947 202.502 L
68.632 207.741 L
67.8 208.481 L
S
GR
GS
[0.78257 0 0 0.78197 0 0.22835] CT
1 LJ
0.639 LW
N
248.76 208.481 M
241.737 204.74 L
228.421 201.112 L
215.105 200.255 L
201.789 202.765 L
193.12 208.481 L
S
GR
GS
[0.78257 0 0 0.78197 0 0.22835] CT
1 LJ
0.639 LW
N
112.284 162.827 M
121.895 163.429 L
126.211 162.827 L
S
GR
GS
[0.78257 0 0 0.78197 0 0.22835] CT
1 LJ
0.639 LW
N
88.557 153.696 M
95.263 158.061 L
108.579 162.536 L
112.284 162.827 L
S
GR
GS
[0.78257 0 0 0.78197 0 0.22835] CT
1 LJ
0.639 LW
N
126.211 162.827 M
135.211 160.697 L
144.048 153.696 L
S
GR
GS
[0.78257 0 0 0.78197 0 0.22835] CT
1 LJ
0.639 LW
N
217.792 153.696 M
228.421 158.756 L
241.737 161.377 L
255.053 160.527 L
268.368 153.842 L
268.503 153.696 L
S
GR
GS
[0.78257 0 0 0.78197 0 0.22835] CT
1 LJ
0.639 LW
N
82.137 144.565 M
88.557 153.696 L
S
GR
GS
[0.78257 0 0 0.78197 0 0.22835] CT
1 LJ
0.639 LW
N
144.048 153.696 M
148.064 144.565 L
S
GR
GS
[0.78257 0 0 0.78197 0 0.22835] CT
1 LJ
0.639 LW
N
211.097 144.565 M
215.105 151.064 L
217.792 153.696 L
S
GR
GS
[0.78257 0 0 0.78197 0 0.22835] CT
1 LJ
0.639 LW
N
268.503 153.696 M
272.325 144.565 L
S
GR
GS
[0.78257 0 0 0.78197 0 0.22835] CT
1 LJ
0.639 LW
N
82.137 135.435 M
82.137 144.565 L
S
GR
GS
[0.78257 0 0 0.78197 0 0.22835] CT
1 LJ
0.639 LW
N
148.064 144.565 M
148.064 135.435 L
S
GR
GS
[0.78257 0 0 0.78197 0 0.22835] CT
1 LJ
0.639 LW
N
211.097 135.435 M
211.097 144.565 L
S
GR
GS
[0.78257 0 0 0.78197 0 0.22835] CT
1 LJ
0.639 LW
N
272.325 144.565 M
272.325 135.435 L
S
GR
GS
[0.78257 0 0 0.78197 0 0.22835] CT
1 LJ
0.639 LW
N
88.557 126.304 M
82.137 135.435 L
S
GR
GS
[0.78257 0 0 0.78197 0 0.22835] CT
1 LJ
0.639 LW
N
148.064 135.435 M
144.048 126.304 L
S
GR
GS
[0.78257 0 0 0.78197 0 0.22835] CT
1 LJ
0.639 LW
N
217.792 126.304 M
215.105 128.936 L
211.097 135.435 L
S
GR
GS
[0.78257 0 0 0.78197 0 0.22835] CT
1 LJ
0.639 LW
N
272.325 135.435 M
268.503 126.304 L
S
GR
GS
[0.78257 0 0 0.78197 0 0.22835] CT
1 LJ
0.639 LW
N
112.284 117.173 M
108.579 117.464 L
95.263 121.939 L
88.557 126.304 L
S
GR
GS
[0.78257 0 0 0.78197 0 0.22835] CT
1 LJ
0.639 LW
N
144.048 126.304 M
135.211 119.303 L
126.211 117.173 L
S
GR
GS
[0.78257 0 0 0.78197 0 0.22835] CT
1 LJ
0.639 LW
N
268.503 126.304 M
268.368 126.158 L
255.053 119.473 L
241.737 118.623 L
228.421 121.244 L
217.792 126.304 L
S
GR
GS
[0.78257 0 0 0.78197 0 0.22835] CT
1 LJ
0.639 LW
N
126.211 117.173 M
121.895 116.571 L
112.284 117.173 L
S
GR
GS
[0.78257 0 0 0.78197 0 0.22835] CT
1 LJ
0.639 LW
N
67.8 71.519 M
68.632 72.259 L
81.947 77.498 L
95.263 78.029 L
108.579 75.731 L
119.054 71.519 L
S
GR
GS
[0.78257 0 0 0.78197 0 0.22835] CT
1 LJ
0.639 LW
N
193.12 71.519 M
201.789 77.235 L
215.105 79.745 L
228.421 78.888 L
241.737 75.26 L
248.76 71.519 L
S
GR
GS
[0.78257 0 0 0.78197 0 0.22835] CT
1 LJ
0.639 LW
N
62.583 62.388 M
67.8 71.519 L
S
GR
GS
[0.78257 0 0 0.78197 0 0.22835] CT
1 LJ
0.639 LW
N
119.054 71.519 M
121.895 69.597 L
128.156 62.388 L
S
GR
GS
[0.78257 0 0 0.78197 0 0.22835] CT
1 LJ
0.639 LW
N
187.781 62.388 M
188.474 64.199 L
193.12 71.519 L
S
GR
GS
[0.78257 0 0 0.78197 0 0.22835] CT
1 LJ
0.639 LW
N
248.76 71.519 M
255.053 65.518 L
257.174 62.388 L
S
GR
GS
[0.78257 0 0 0.78197 0 0.22835] CT
1 LJ
0.639 LW
N
61.213 53.257 M
62.583 62.388 L
S
GR
GS
[0.78257 0 0 0.78197 0 0.22835] CT
1 LJ
0.639 LW
N
128.156 62.388 M
130.548 53.257 L
S
GR
GS
[0.78257 0 0 0.78197 0 0.22835] CT
1 LJ
0.639 LW
N
186.679 53.257 M
187.781 62.388 L
S
GR
GS
[0.78257 0 0 0.78197 0 0.22835] CT
1 LJ
0.639 LW
N
257.174 62.388 M
259.138 53.257 L
S
GR
GS
[0.78257 0 0 0.78197 0 0.22835] CT
1 LJ
0.639 LW
N
70.972 217.612 M
68.632 225.119 L
68.321 226.743 L
S
GR
GS
[0.78257 0 0 0.78197 0 0.22835] CT
1 LJ
0.639 LW
N
123.342 226.743 M
121.895 221.729 L
119.963 217.612 L
S
GR
GS
[0.78257 0 0 0.78197 0 0.22835] CT
1 LJ
0.639 LW
N
196.063 217.612 M
194.072 226.743 L
S
GR
GS
[0.78257 0 0 0.78197 0 0.22835] CT
1 LJ
0.639 LW
N
252.183 226.743 M
249.108 217.612 L
S
GR
GS
[0.78257 0 0 0.78197 0 0.22835] CT
1 LJ
0.639 LW
N
83.056 208.481 M
81.947 208.682 L
70.972 217.612 L
S
GR
GS
[0.78257 0 0 0.78197 0 0.22835] CT
1 LJ
0.639 LW
N
119.963 217.612 M
108.579 209.902 L
102.807 208.481 L
S
GR
GS
[0.78257 0 0 0.78197 0 0.22835] CT
1 LJ
0.639 LW
N
205.424 208.481 M
201.789 210.389 L
196.063 217.612 L
S
GR
GS
[0.78257 0 0 0.78197 0 0.22835] CT
1 LJ
0.639 LW
N
249.108 217.612 M
241.737 210.852 L
236.409 208.481 L
S
GR
GS
[0.78257 0 0 0.78197 0 0.22835] CT
1 LJ
0.639 LW
N
102.807 208.481 M
95.263 207.246 L
83.056 208.481 L
S
GR
GS
[0.78257 0 0 0.78197 0 0.22835] CT
1 LJ
0.639 LW
N
236.409 208.481 M
228.421 206.244 L
215.105 205.839 L
205.424 208.481 L
S
GR
GS
[0.78257 0 0 0.78197 0 0.22835] CT
1 LJ
0.639 LW
N
100.773 153.696 M
108.579 156.39 L
121.895 156.959 L
131.934 153.696 L
S
GR
GS
[0.78257 0 0 0.78197 0 0.22835] CT
1 LJ
0.639 LW
N
234.424 153.696 M
241.737 155.058 L
251.914 153.696 L
S
GR
GS
[0.78257 0 0 0.78197 0 0.22835] CT
1 LJ
0.639 LW
N
91.161 144.565 M
95.263 149.999 L
100.773 153.696 L
S
GR
GS
[0.78257 0 0 0.78197 0 0.22835] CT
1 LJ
0.639 LW
N
131.934 153.696 M
135.211 151.19 L
139.016 144.565 L
S
GR
GS
[0.78257 0 0 0.78197 0 0.22835] CT
1 LJ
0.639 LW
N
221.021 144.565 M
228.421 151.639 L
234.424 153.696 L
S
GR
GS
[0.78257 0 0 0.78197 0 0.22835] CT
1 LJ
0.639 LW
N
251.914 153.696 M
255.053 152.776 L
262.269 144.565 L
S
GR
GS
[0.78257 0 0 0.78197 0 0.22835] CT
1 LJ
0.639 LW
N
91.161 135.435 M
91.161 144.565 L
S
GR
GS
[0.78257 0 0 0.78197 0 0.22835] CT
1 LJ
0.639 LW
N
139.016 144.565 M
139.016 135.435 L
S
GR
GS
[0.78257 0 0 0.78197 0 0.22835] CT
1 LJ
0.639 LW
N
221.021 135.435 M
221.021 144.565 L
S
GR
GS
[0.78257 0 0 0.78197 0 0.22835] CT
1 LJ
0.639 LW
N
262.269 144.565 M
262.269 135.435 L
S
GR
GS
[0.78257 0 0 0.78197 0 0.22835] CT
1 LJ
0.639 LW
N
100.773 126.304 M
95.263 130.001 L
91.161 135.435 L
S
GR
GS
[0.78257 0 0 0.78197 0 0.22835] CT
1 LJ
0.639 LW
N
139.016 135.435 M
135.211 128.81 L
131.934 126.304 L
S
GR
GS
[0.78257 0 0 0.78197 0 0.22835] CT
1 LJ
0.639 LW
N
234.424 126.304 M
228.421 128.361 L
221.021 135.435 L
S
GR
GS
[0.78257 0 0 0.78197 0 0.22835] CT
1 LJ
0.639 LW
N
262.269 135.435 M
255.053 127.224 L
251.914 126.304 L
S
GR
GS
[0.78257 0 0 0.78197 0 0.22835] CT
1 LJ
0.639 LW
N
131.934 126.304 M
121.895 123.041 L
108.579 123.61 L
100.773 126.304 L
S
GR
GS
[0.78257 0 0 0.78197 0 0.22835] CT
1 LJ
0.639 LW
N
251.914 126.304 M
241.737 124.942 L
234.424 126.304 L
S
GR
GS
[0.78257 0 0 0.78197 0 0.22835] CT
1 LJ
0.639 LW
N
83.056 71.519 M
95.263 72.754 L
102.807 71.519 L
S
GR
GS
[0.78257 0 0 0.78197 0 0.22835] CT
1 LJ
0.639 LW
N
205.424 71.519 M
215.105 74.161 L
228.421 73.756 L
236.409 71.519 L
S
GR
GS
[0.78257 0 0 0.78197 0 0.22835] CT
1 LJ
0.639 LW
N
70.972 62.388 M
81.947 71.318 L
83.056 71.519 L
S
GR
GS
[0.78257 0 0 0.78197 0 0.22835] CT
1 LJ
0.639 LW
N
102.807 71.519 M
108.579 70.098 L
119.963 62.388 L
S
GR
GS
[0.78257 0 0 0.78197 0 0.22835] CT
1 LJ
0.639 LW
N
196.063 62.388 M
201.789 69.611 L
205.424 71.519 L
S
GR
GS
[0.78257 0 0 0.78197 0 0.22835] CT
1 LJ
0.639 LW
N
236.409 71.519 M
241.737 69.148 L
249.108 62.388 L
S
GR
GS
[0.78257 0 0 0.78197 0 0.22835] CT
1 LJ
0.639 LW
N
68.321 53.257 M
68.632 54.881 L
70.972 62.388 L
S
GR
GS
[0.78257 0 0 0.78197 0 0.22835] CT
1 LJ
0.639 LW
N
119.963 62.388 M
121.895 58.271 L
123.342 53.257 L
S
GR
GS
[0.78257 0 0 0.78197 0 0.22835] CT
1 LJ
0.639 LW
N
194.072 53.257 M
196.063 62.388 L
S
GR
GS
[0.78257 0 0 0.78197 0 0.22835] CT
1 LJ
0.639 LW
N
249.108 62.388 M
252.183 53.257 L
S
GR
GS
[0.78257 0 0 0.78197 0 0.22835] CT
1 LJ
0.639 LW
N
83.719 217.612 M
81.947 219.095 L
78.931 226.743 L
S
GR
GS
[0.78257 0 0 0.78197 0 0.22835] CT
1 LJ
0.639 LW
N
112.794 226.743 M
108.579 218.254 L
107.603 217.612 L
S
GR
GS
[0.78257 0 0 0.78197 0 0.22835] CT
1 LJ
0.639 LW
N
206.873 217.612 M
202.275 226.743 L
S
GR
GS
[0.78257 0 0 0.78197 0 0.22835] CT
1 LJ
0.639 LW
N
243.593 226.743 M
241.737 221.647 L
238.732 217.612 L
S
GR
GS
[0.78257 0 0 0.78197 0 0.22835] CT
1 LJ
0.639 LW
N
107.603 217.612 M
95.263 214.727 L
83.719 217.612 L
S
GR
GS
[0.78257 0 0 0.78197 0 0.22835] CT
1 LJ
0.639 LW
N
238.732 217.612 M
228.421 212.955 L
215.105 213.03 L
206.873 217.612 L
S
GR
GS
[0.78257 0 0 0.78197 0 0.22835] CT
1 LJ
0.639 LW
N
104.709 144.565 M
108.579 147.164 L
121.895 147.214 L
125.429 144.565 L
S
GR
GS
[0.78257 0 0 0.78197 0 0.22835] CT
1 LJ
0.639 LW
N
104.709 135.435 M
104.709 144.565 L
S
GR
GS
[0.78257 0 0 0.78197 0 0.22835] CT
1 LJ
0.639 LW
N
125.429 144.565 M
125.429 135.435 L
S
GR
GS
[0.78257 0 0 0.78197 0 0.22835] CT
1 LJ
0.639 LW
N
125.429 135.435 M
121.895 132.786 L
108.579 132.836 L
104.709 135.435 L
S
GR
GS
[0.78257 0 0 0.78197 0 0.22835] CT
1 LJ
0.639 LW
N
83.719 62.388 M
95.263 65.273 L
107.603 62.388 L
S
GR
GS
[0.78257 0 0 0.78197 0 0.22835] CT
1 LJ
0.639 LW
N
206.873 62.388 M
215.105 66.97 L
228.421 67.045 L
238.732 62.388 L
S
GR
GS
[0.78257 0 0 0.78197 0 0.22835] CT
1 LJ
0.639 LW
N
78.931 53.257 M
81.947 60.905 L
83.719 62.388 L
S
GR
GS
[0.78257 0 0 0.78197 0 0.22835] CT
1 LJ
0.639 LW
N
107.603 62.388 M
108.579 61.746 L
112.794 53.257 L
S
GR
GS
[0.78257 0 0 0.78197 0 0.22835] CT
1 LJ
0.639 LW
N
202.275 53.257 M
206.873 62.388 L
S
GR
GS
[0.78257 0 0 0.78197 0 0.22835] CT
1 LJ
0.639 LW
N
238.732 62.388 M
241.737 58.353 L
243.593 53.257 L
S
GR
GS
[0.78257 0 0 0.78197 0 0.22835] CT
1 0 0 RC
1 LJ
0.639 LW
N
62.64 186.64 M
68.385 181.989 L
65.504 188.797 L
S
GR
GS
[0.78257 0 0 0.78197 0 0.22835] CT
1 0 0 RC
1 LJ
0.639 LW
N
59.797 171.029 M
63.726 167.11 L
62.104 172.417 L
S
GR
GS
[0.78257 0 0 0.78197 0 0.22835] CT
1 0 0 RC
1 LJ
0.639 LW
N
57.614 159.347 M
59.325 158.126 L
58.39 160.008 L
S
GR
GS
[0.78257 0 0 0.78197 0 0.22835] CT
1 0 0 RC
1 LJ
0.639 LW
N
55.928 140.029 M
57.037 138.006 L
57.01 140.313 L
S
GR
GS
[0.78257 0 0 0.78197 0 0.22835] CT
1 0 0 RC
1 LJ
0.639 LW
N
55.757 116.011 M
57.828 111.251 L
58.241 116.426 L
S
GR
GS
[0.78257 0 0 0.78197 0 0.22835] CT
1 0 0 RC
1 LJ
0.639 LW
N
57.949 96.02 M
61.364 90.843 L
60.787 97.018 L
S
GR
GS
[0.78257 0 0 0.78197 0 0.22835] CT
1 0 0 RC
1 LJ
0.639 LW
N
61.58 80.785 M
66.154 77.689 L
63.575 82.573 L
S
GR
GS
[0.78257 0 0 0.78197 0 0.22835] CT
1 0 0 RC
1 LJ
0.639 LW
N
91.433 189.924 M
97.6 187.208 L
93.436 192.506 L
S
GR
GS
[0.78257 0 0 0.78197 0 0.22835] CT
1 0 0 RC
1 LJ
0.639 LW
N
83.746 175.585 M
85.588 173.323 L
85.028 176.186 L
S
GR
GS
[0.78257 0 0 0.78197 0 0.22835] CT
1 0 0 RC
1 LJ
0.639 LW
N
87.101 162.114 M
89.654 162.712 L
87.12 163.386 L
S
GR
GS
[0.78257 0 0 0.78197 0 0.22835] CT
1 0 0 RC
1 LJ
0.639 LW
N
90.436 138.361 M
95.551 136.98 L
91.688 140.606 L
S
GR
GS
[0.78257 0 0 0.78197 0 0.22835] CT
1 0 0 RC
1 LJ
0.639 LW
N
88.698 117.252 M
93.512 114.218 L
90.692 119.16 L
S
GR
GS
[0.78257 0 0 0.78197 0 0.22835] CT
1 0 0 RC
1 LJ
0.639 LW
N
82.64 100.142 M
84.395 96.552 L
84.535 100.546 L
S
GR
GS
[0.78257 0 0 0.78197 0 0.22835] CT
1 0 0 RC
1 LJ
0.639 LW
N
88.082 84.911 M
91.848 83.732 L
89.08 86.545 L
S
GR
GS
[0.78257 0 0 0.78197 0 0.22835] CT
1 0 0 RC
1 LJ
0.639 LW
N
116.053 195.774 M
120.215 195.445 L
116.697 197.694 L
S
GR
GS
[0.78257 0 0 0.78197 0 0.22835] CT
1 0 0 RC
1 LJ
0.639 LW
N
110.195 179.503 M
111.242 179.05 L
110.532 179.942 L
S
GR
GS
[0.78257 0 0 0.78197 0 0.22835] CT
1 0 0 RC
1 LJ
0.639 LW
N
118.826 156.72 M
124.75 155.703 L
120.002 159.388 L
S
GR
GS
[0.78257 0 0 0.78197 0 0.22835] CT
1 0 0 RC
1 LJ
0.639 LW
N
123.358 136.485 M
131.771 135.361 L
124.877 140.312 L
S
GR
GS
[0.78257 0 0 0.78197 0 0.22835] CT
1 0 0 RC
1 LJ
0.639 LW
N
121.88 119.631 M
129.343 118.9 L
123.102 123.057 L
S
GR
GS
[0.78257 0 0 0.78197 0 0.22835] CT
1 0 0 RC
1 LJ
0.639 LW
N
115.015 105.563 M
118.491 105.562 L
115.424 107.198 L
S
GR
GS
[0.78257 0 0 0.78197 0 0.22835] CT
1 0 0 RC
1 LJ
0.639 LW
N
111.499 87.048 M
113.367 86.291 L
112.075 87.838 L
S
GR
GS
[0.78257 0 0 0.78197 0 0.22835] CT
1 0 0 RC
1 LJ
0.639 LW
N
136.708 196.53 M
137.922 195.475 L
137.347 196.978 L
S
GR
GS
[0.78257 0 0 0.78197 0 0.22835] CT
1 0 0 RC
1 LJ
0.639 LW
N
139.534 172.869 M
143.055 169.787 L
141.399 174.164 L
S
GR
GS
[0.78257 0 0 0.78197 0 0.22835] CT
1 0 0 RC
1 LJ
0.639 LW
N
145.996 152.003 M
153.027 148.865 L
148.3 154.942 L
S
GR
GS
[0.78257 0 0 0.78197 0 0.22835] CT
1 0 0 RC
1 LJ
0.639 LW
N
149.735 135.476 M
158.21 133.831 L
151.506 139.271 L
S
GR
GS
[0.78257 0 0 0.78197 0 0.22835] CT
1 0 0 RC
1 LJ
0.639 LW
N
149.174 122.558 M
156.418 123.324 L
149.665 126.057 L
S
GR
GS
[0.78257 0 0 0.78197 0 0.22835] CT
1 0 0 RC
1 LJ
0.639 LW
N
143.554 102.912 M
148.406 102.011 L
144.549 105.09 L
S
GR
GS
[0.78257 0 0 0.78197 0 0.22835] CT
1 0 0 RC
1 LJ
0.639 LW
N
135.749 81.213 M
137.554 77.281 L
137.812 81.599 L
S
GR
GS
[0.78257 0 0 0.78197 0 0.22835] CT
1 0 0 RC
1 LJ
0.639 LW
N
166.117 193.438 M
169.198 191.431 L
167.424 194.651 L
S
GR
GS
[0.78257 0 0 0.78197 0 0.22835] CT
1 0 0 RC
1 LJ
0.639 LW
N
167.023 169.489 M
171.56 164.973 L
169.682 171.093 L
S
GR
GS
[0.78257 0 0 0.78197 0 0.22835] CT
1 0 0 RC
1 LJ
0.639 LW
N
168.403 150.106 M
173.791 145.311 L
171.293 152.077 L
S
GR
GS
[0.78257 0 0 0.78197 0 0.22835] CT
1 0 0 RC
1 LJ
0.639 LW
N
169.673 135.759 M
174.95 133.036 L
171.576 137.922 L
S
GR
GS
[0.78257 0 0 0.78197 0 0.22835] CT
1 0 0 RC
1 LJ
0.639 LW
N
170.3 124.799 M
174.549 125.623 L
170.412 126.896 L
S
GR
GS
[0.78257 0 0 0.78197 0 0.22835] CT
1 0 0 RC
1 LJ
0.639 LW
N
168.292 100.137 M
172.757 97.587 L
170.017 101.938 L
S
GR
GS
[0.78257 0 0 0.78197 0 0.22835] CT
1 0 0 RC
1 LJ
0.639 LW
N
166.111 77.568 M
170.329 72.599 L
168.946 78.969 L
S
GR
GS
[0.78257 0 0 0.78197 0 0.22835] CT
1 0 0 RC
1 LJ
0.639 LW
N
197.531 193.8 M
202.795 192.83 L
198.607 196.163 L
S
GR
GS
[0.78257 0 0 0.78197 0 0.22835] CT
1 0 0 RC
1 LJ
0.639 LW
N
192.301 170.788 M
195.966 166.638 L
194.686 172.025 L
S
GR
GS
[0.78257 0 0 0.78197 0 0.22835] CT
1 0 0 RC
1 LJ
0.639 LW
N
187.828 151.829 M
189.515 146.54 L
190.515 152.001 L
S
GR
GS
[0.78257 0 0 0.78197 0 0.22835] CT
1 0 0 RC
1 LJ
0.639 LW
N
189.094 136.834 M
190.785 133.311 L
190.951 137.216 L
S
GR
GS
[0.78257 0 0 0.78197 0 0.22835] CT
1 0 0 RC
1 LJ
0.639 LW
N
189.124 125.22 M
189.626 124.828 L
189.367 125.41 L
S
GR
GS
[0.78257 0 0 0.78197 0 0.22835] CT
1 0 0 RC
1 LJ
0.639 LW
N
190.438 101.73 M
192.504 99.117 L
191.911 102.395 L
S
GR
GS
[0.78257 0 0 0.78197 0 0.22835] CT
1 0 0 RC
1 LJ
0.639 LW
N
194.594 78.442 M
199.525 74.218 L
197.162 80.265 L
S
GR
GS
[0.78257 0 0 0.78197 0 0.22835] CT
1 0 0 RC
1 LJ
0.639 LW
N
225.299 197.912 M
230.353 199.081 L
225.343 200.428 L
S
GR
GS
[0.78257 0 0 0.78197 0 0.22835] CT
1 0 0 RC
1 LJ
0.639 LW
N
215.939 176.219 M
217.213 174.079 L
217.096 176.566 L
S
GR
GS
[0.78257 0 0 0.78197 0 0.22835] CT
1 0 0 RC
1 LJ
0.639 LW
N
221.119 154.745 M
225.41 152.034 L
222.9 156.446 L
S
GR
GS
[0.78257 0 0 0.78197 0 0.22835] CT
1 0 0 RC
1 LJ
0.639 LW
N
225.505 136.466 M
231.862 134.54 L
227.159 139.231 L
S
GR
GS
[0.78257 0 0 0.78197 0 0.22835] CT
1 0 0 RC
1 LJ
0.639 LW
N
224.422 121.736 M
229.631 121.274 L
225.252 124.132 L
S
GR
GS
[0.78257 0 0 0.78197 0 0.22835] CT
1 0 0 RC
1 LJ
0.639 LW
N
217.984 106.268 M
219.658 105.955 L
218.328 107.019 L
S
GR
GS
[0.78257 0 0 0.78197 0 0.22835] CT
1 0 0 RC
1 LJ
0.639 LW
N
220.418 83.465 M
224.06 81.457 L
221.792 84.942 L
S
GR
GS
[0.78257 0 0 0.78197 0 0.22835] CT
1 0 0 RC
1 LJ
0.639 LW
N
247.588 193.054 M
251.48 191.152 L
248.941 194.661 L
S
GR
GS
[0.78257 0 0 0.78197 0 0.22835] CT
1 0 0 RC
1 LJ
0.639 LW
N
244.275 178.688 M
245.903 178.018 L
244.781 179.375 L
S
GR
GS
[0.78257 0 0 0.78197 0 0.22835] CT
1 0 0 RC
1 LJ
0.639 LW
N
253.055 159.154 M
259.042 159.475 L
253.608 162.009 L
S
GR
GS
[0.78257 0 0 0.78197 0 0.22835] CT
1 0 0 RC
1 LJ
0.639 LW
N
257.217 136.973 M
265.871 136.205 L
258.597 140.955 L
S
GR
GS
[0.78257 0 0 0.78197 0 0.22835] CT
1 0 0 RC
1 LJ
0.639 LW
N
255.513 117.912 M
263.51 116.46 L
257.137 121.505 L
S
GR
GS
[0.78257 0 0 0.78197 0 0.22835] CT
1 0 0 RC
1 LJ
0.639 LW
N
248.66 102.309 M
252.953 100.867 L
249.844 104.16 L
S
GR
GS
[0.78257 0 0 0.78197 0 0.22835] CT
1 0 0 RC
1 LJ
0.639 LW
N
243.68 88.534 M
244.819 88.299 L
243.924 89.042 L
S
GR
GS
[0.78257 0 0 0.78197 0 0.22835] CT
1 0 0 RC
1 LJ
0.639 LW
N
267.192 189.081 M
268.499 184.039 L
269.719 189.103 L
S
GR
GS
[0.78257 0 0 0.78197 0 0.22835] CT
1 0 0 RC
1 LJ
0.639 LW
N
273.234 172.642 M
277.051 169.55 L
275.138 174.074 L
S
GR
GS
[0.78257 0 0 0.78197 0 0.22835] CT
1 0 0 RC
1 LJ
0.639 LW
N
279.525 159.481 M
285.376 159.927 L
280.003 162.288 L
S
GR
GS
[0.78257 0 0 0.78197 0 0.22835] CT
1 0 0 RC
1 LJ
0.639 LW
N
282.088 138.141 M
289.703 137.603 L
283.237 141.661 L
S
GR
GS
[0.78257 0 0 0.78197 0 0.22835] CT
1 0 0 RC
1 LJ
0.639 LW
N
280.514 115.362 M
288.207 112.416 L
282.806 118.636 L
S
GR
GS
[0.78257 0 0 0.78197 0 0.22835] CT
1 0 0 RC
1 LJ
0.639 LW
N
275.945 96.936 M
281.518 93.086 L
278.413 99.106 L
S
GR
GS
[0.78257 0 0 0.78197 0 0.22835] CT
1 0 0 RC
1 LJ
0.639 LW
N
270.307 82.932 M
272.458 80.062 L
271.911 83.607 L
S
GR
GS
[0.78257 0 0 0.78197 0 0.22835] CT
1 0 0 RC
1 LJ
0.639 LW
N
55.316 199.35 M
68.385 181.989 L
S
GR
GS
[0.78257 0 0 0.78197 0 0.22835] CT
1 0 0 RC
1 LJ
0.639 LW
N
55.316 181.089 M
63.726 167.11 L
S
GR
GS
[0.78257 0 0 0.78197 0 0.22835] CT
1 0 0 RC
1 LJ
0.639 LW
N
55.316 162.827 M
59.325 158.126 L
S
GR
GS
[0.78257 0 0 0.78197 0 0.22835] CT
1 0 0 RC
1 LJ
0.639 LW
N
55.316 144.565 M
57.037 138.006 L
S
GR
GS
[0.78257 0 0 0.78197 0 0.22835] CT
1 0 0 RC
1 LJ
0.639 LW
N
55.316 126.304 M
57.828 111.251 L
S
GR
GS
[0.78257 0 0 0.78197 0 0.22835] CT
1 0 0 RC
1 LJ
0.639 LW
N
55.316 108.042 M
61.364 90.843 L
S
GR
GS
[0.78257 0 0 0.78197 0 0.22835] CT
1 0 0 RC
1 LJ
0.639 LW
N
55.316 89.78 M
66.154 77.689 L
S
GR
GS
[0.78257 0 0 0.78197 0 0.22835] CT
1 0 0 RC
1 LJ
0.639 LW
N
81.947 199.35 M
97.6 187.208 L
S
GR
GS
[0.78257 0 0 0.78197 0 0.22835] CT
1 0 0 RC
1 LJ
0.639 LW
N
81.947 181.089 M
85.588 173.323 L
S
GR
GS
[0.78257 0 0 0.78197 0 0.22835] CT
1 0 0 RC
1 LJ
0.639 LW
N
81.947 162.827 M
89.654 162.712 L
S
GR
GS
[0.78257 0 0 0.78197 0 0.22835] CT
1 0 0 RC
1 LJ
0.639 LW
N
81.947 144.565 M
95.551 136.98 L
S
GR
GS
[0.78257 0 0 0.78197 0 0.22835] CT
1 0 0 RC
1 LJ
0.639 LW
N
81.947 126.304 M
93.512 114.218 L
S
GR
GS
[0.78257 0 0 0.78197 0 0.22835] CT
1 0 0 RC
1 LJ
0.639 LW
N
81.947 108.042 M
84.395 96.552 L
S
GR
GS
[0.78257 0 0 0.78197 0 0.22835] CT
1 0 0 RC
1 LJ
0.639 LW
N
81.947 89.78 M
91.848 83.732 L
S
GR
GS
[0.78257 0 0 0.78197 0 0.22835] CT
1 0 0 RC
1 LJ
0.639 LW
N
108.579 199.35 M
120.215 195.445 L
S
GR
GS
[0.78257 0 0 0.78197 0 0.22835] CT
1 0 0 RC
1 LJ
0.639 LW
N
108.579 181.089 M
111.242 179.05 L
S
GR
GS
[0.78257 0 0 0.78197 0 0.22835] CT
1 0 0 RC
1 LJ
0.639 LW
N
108.579 162.827 M
124.75 155.703 L
S
GR
GS
[0.78257 0 0 0.78197 0 0.22835] CT
1 0 0 RC
1 LJ
0.639 LW
N
108.579 144.565 M
131.771 135.361 L
S
GR
GS
[0.78257 0 0 0.78197 0 0.22835] CT
1 0 0 RC
1 LJ
0.639 LW
N
108.579 126.304 M
129.343 118.9 L
S
GR
GS
[0.78257 0 0 0.78197 0 0.22835] CT
1 0 0 RC
1 LJ
0.639 LW
N
108.579 108.042 M
118.491 105.562 L
S
GR
GS
[0.78257 0 0 0.78197 0 0.22835] CT
1 0 0 RC
1 LJ
0.639 LW
N
108.579 89.78 M
113.367 86.291 L
S
GR
GS
[0.78257 0 0 0.78197 0 0.22835] CT
1 0 0 RC
1 LJ
0.639 LW
N
135.211 199.35 M
137.922 195.475 L
S
GR
GS
[0.78257 0 0 0.78197 0 0.22835] CT
1 0 0 RC
1 LJ
0.639 LW
N
135.211 181.089 M
143.055 169.787 L
S
GR
GS
[0.78257 0 0 0.78197 0 0.22835] CT
1 0 0 RC
1 LJ
0.639 LW
N
135.211 162.827 M
153.027 148.865 L
S
GR
GS
[0.78257 0 0 0.78197 0 0.22835] CT
1 0 0 RC
1 LJ
0.639 LW
N
135.211 144.565 M
158.21 133.831 L
S
GR
GS
[0.78257 0 0 0.78197 0 0.22835] CT
1 0 0 RC
1 LJ
0.639 LW
N
135.211 126.304 M
156.418 123.324 L
S
GR
GS
[0.78257 0 0 0.78197 0 0.22835] CT
1 0 0 RC
1 LJ
0.639 LW
N
135.211 108.042 M
148.406 102.011 L
S
GR
GS
[0.78257 0 0 0.78197 0 0.22835] CT
1 0 0 RC
1 LJ
0.639 LW
N
135.211 89.78 M
137.554 77.281 L
S
GR
GS
[0.78257 0 0 0.78197 0 0.22835] CT
1 0 0 RC
1 LJ
0.639 LW
N
161.842 199.35 M
169.198 191.431 L
S
GR
GS
[0.78257 0 0 0.78197 0 0.22835] CT
1 0 0 RC
1 LJ
0.639 LW
N
161.842 181.089 M
171.56 164.973 L
S
GR
GS
[0.78257 0 0 0.78197 0 0.22835] CT
1 0 0 RC
1 LJ
0.639 LW
N
161.842 162.827 M
173.791 145.311 L
S
GR
GS
[0.78257 0 0 0.78197 0 0.22835] CT
1 0 0 RC
1 LJ
0.639 LW
N
161.842 144.565 M
174.95 133.036 L
S
GR
GS
[0.78257 0 0 0.78197 0 0.22835] CT
1 0 0 RC
1 LJ
0.639 LW
N
161.842 126.304 M
174.549 125.623 L
S
GR
GS
[0.78257 0 0 0.78197 0 0.22835] CT
1 0 0 RC
1 LJ
0.639 LW
N
161.842 108.042 M
172.757 97.587 L
S
GR
GS
[0.78257 0 0 0.78197 0 0.22835] CT
1 0 0 RC
1 LJ
0.639 LW
N
161.842 89.78 M
170.329 72.599 L
S
GR
GS
[0.78257 0 0 0.78197 0 0.22835] CT
1 0 0 RC
1 LJ
0.639 LW
N
188.474 199.35 M
202.795 192.83 L
S
GR
GS
[0.78257 0 0 0.78197 0 0.22835] CT
1 0 0 RC
1 LJ
0.639 LW
N
188.474 181.089 M
195.966 166.638 L
S
GR
GS
[0.78257 0 0 0.78197 0 0.22835] CT
1 0 0 RC
1 LJ
0.639 LW
N
188.474 162.827 M
189.515 146.54 L
S
GR
GS
[0.78257 0 0 0.78197 0 0.22835] CT
1 0 0 RC
1 LJ
0.639 LW
N
188.474 144.565 M
190.785 133.311 L
S
GR
GS
[0.78257 0 0 0.78197 0 0.22835] CT
1 0 0 RC
1 LJ
0.639 LW
N
188.474 126.304 M
189.626 124.828 L
S
GR
GS
[0.78257 0 0 0.78197 0 0.22835] CT
1 0 0 RC
1 LJ
0.639 LW
N
188.474 108.042 M
192.504 99.117 L
S
GR
GS
[0.78257 0 0 0.78197 0 0.22835] CT
1 0 0 RC
1 LJ
0.639 LW
N
188.474 89.78 M
199.525 74.218 L
S
GR
GS
[0.78257 0 0 0.78197 0 0.22835] CT
1 0 0 RC
1 LJ
0.639 LW
N
215.105 199.35 M
230.353 199.081 L
S
GR
GS
[0.78257 0 0 0.78197 0 0.22835] CT
1 0 0 RC
1 LJ
0.639 LW
N
215.105 181.089 M
217.213 174.079 L
S
GR
GS
[0.78257 0 0 0.78197 0 0.22835] CT
1 0 0 RC
1 LJ
0.639 LW
N
215.105 162.827 M
225.41 152.034 L
S
GR
GS
[0.78257 0 0 0.78197 0 0.22835] CT
1 0 0 RC
1 LJ
0.639 LW
N
215.105 144.565 M
231.862 134.54 L
S
GR
GS
[0.78257 0 0 0.78197 0 0.22835] CT
1 0 0 RC
1 LJ
0.639 LW
N
215.105 126.304 M
229.631 121.274 L
S
GR
GS
[0.78257 0 0 0.78197 0 0.22835] CT
1 0 0 RC
1 LJ
0.639 LW
N
215.105 108.042 M
219.658 105.955 L
S
GR
GS
[0.78257 0 0 0.78197 0 0.22835] CT
1 0 0 RC
1 LJ
0.639 LW
N
215.105 89.78 M
224.06 81.457 L
S
GR
GS
[0.78257 0 0 0.78197 0 0.22835] CT
1 0 0 RC
1 LJ
0.639 LW
N
241.737 199.35 M
251.48 191.152 L
S
GR
GS
[0.78257 0 0 0.78197 0 0.22835] CT
1 0 0 RC
1 LJ
0.639 LW
N
241.737 181.089 M
245.903 178.018 L
S
GR
GS
[0.78257 0 0 0.78197 0 0.22835] CT
1 0 0 RC
1 LJ
0.639 LW
N
241.737 162.827 M
259.042 159.475 L
S
GR
GS
[0.78257 0 0 0.78197 0 0.22835] CT
1 0 0 RC
1 LJ
0.639 LW
N
241.737 144.565 M
265.871 136.205 L
S
GR
GS
[0.78257 0 0 0.78197 0 0.22835] CT
1 0 0 RC
1 LJ
0.639 LW
N
241.737 126.304 M
263.51 116.46 L
S
GR
GS
[0.78257 0 0 0.78197 0 0.22835] CT
1 0 0 RC
1 LJ
0.639 LW
N
241.737 108.042 M
252.953 100.867 L
S
GR
GS
[0.78257 0 0 0.78197 0 0.22835] CT
1 0 0 RC
1 LJ
0.639 LW
N
241.737 89.78 M
244.819 88.299 L
S
GR
GS
[0.78257 0 0 0.78197 0 0.22835] CT
1 0 0 RC
1 LJ
0.639 LW
N
268.368 199.35 M
268.499 184.039 L
S
GR
GS
[0.78257 0 0 0.78197 0 0.22835] CT
1 0 0 RC
1 LJ
0.639 LW
N
268.368 181.089 M
277.051 169.55 L
S
GR
GS
[0.78257 0 0 0.78197 0 0.22835] CT
1 0 0 RC
1 LJ
0.639 LW
N
268.368 162.827 M
285.376 159.927 L
S
GR
GS
[0.78257 0 0 0.78197 0 0.22835] CT
1 0 0 RC
1 LJ
0.639 LW
N
268.368 144.565 M
289.703 137.603 L
S
GR
GS
[0.78257 0 0 0.78197 0 0.22835] CT
1 0 0 RC
1 LJ
0.639 LW
N
268.368 126.304 M
288.207 112.416 L
S
GR
GS
[0.78257 0 0 0.78197 0 0.22835] CT
1 0 0 RC
1 LJ
0.639 LW
N
268.368 108.042 M
281.518 93.086 L
S
GR
GS
[0.78257 0 0 0.78197 0 0.22835] CT
1 0 0 RC
1 LJ
0.639 LW
N
268.368 89.78 M
272.458 80.062 L
S
GR
GS
[0.78257 0 0 0.78197 0 0.22835] CT
0.149 GC
2 setlinecap
1 LJ
0.639 LW
N
42 226.743 M
295 226.743 L
S
GR
GS
[0.78257 0 0 0.78197 0 0.22835] CT
0.149 GC
2 setlinecap
1 LJ
0.639 LW
N
42 53.257 M
295 53.257 L
S
GR
GS
[0.78257 0 0 0.78197 131.86329 180.93196] CT
0.149 GC
N
-4.776 18.664 M
-4.369 18.976 -3.635 18.976 QT
-2.916 18.976 -2.362 18.281 QT
-1.807 17.586 -1.604 16.773 QT
-0.557 12.695 L
-0.323 11.586 -0.323 11.179 QT
-0.323 10.601 -0.643 10.179 QT
-0.963 9.757 -1.526 9.757 QT
-2.26 9.757 -2.901 10.211 QT
-3.541 10.664 -3.979 11.367 QT
-4.416 12.07 -4.588 12.789 QT
-4.635 12.929 -4.776 12.929 QT
-5.057 12.929 L
-5.229 12.929 -5.229 12.711 QT
-5.229 12.648 L
-5.01 11.789 -4.471 10.976 QT
-3.932 10.164 -3.151 9.664 QT
-2.369 9.164 -1.479 9.164 QT
-0.635 9.164 0.037 9.609 QT
0.709 10.054 0.99 10.836 QT
1.396 10.117 2.006 9.64 QT
2.615 9.164 3.349 9.164 QT
3.834 9.164 4.349 9.336 QT
4.865 9.507 5.193 9.867 QT
5.521 10.226 5.521 10.757 QT
5.521 11.351 5.146 11.773 QT
4.771 12.195 4.193 12.195 QT
3.818 12.195 3.568 11.953 QT
3.318 11.711 3.318 11.351 QT
3.318 10.867 3.654 10.507 QT
3.99 10.148 4.443 10.07 QT
4.037 9.757 3.302 9.757 QT
2.552 9.757 2.013 10.437 QT
1.474 11.117 1.24 11.961 QT
0.24 16.023 L
-0.01 16.945 -0.01 17.539 QT
-0.01 18.132 0.318 18.554 QT
0.646 18.976 1.193 18.976 QT
2.271 18.976 3.123 18.023 QT
3.974 17.07 4.24 15.945 QT
4.287 15.804 4.427 15.804 QT
4.709 15.804 L
4.787 15.804 4.849 15.867 QT
4.912 15.929 4.912 16.007 QT
4.912 16.023 4.881 16.07 QT
4.552 17.445 3.513 18.515 QT
2.474 19.586 1.162 19.586 QT
0.318 19.586 -0.362 19.125 QT
-1.041 18.664 -1.323 17.898 QT
-1.682 18.57 -2.323 19.078 QT
-2.963 19.586 -3.682 19.586 QT
-4.166 19.586 -4.69 19.406 QT
-5.213 19.226 -5.541 18.867 QT
-5.869 18.507 -5.869 17.961 QT
-5.869 17.429 -5.494 16.984 QT
-5.119 16.539 -4.557 16.539 QT
-4.166 16.539 -3.908 16.765 QT
-3.651 16.992 -3.651 17.367 QT
-3.651 17.851 -3.971 18.211 QT
-4.291 18.57 -4.776 18.664 QT
cp
f
GR
GS
[0.78257 0 0 0.78197 0 0.22835] CT
0.149 GC
2 setlinecap
1 LJ
0.639 LW
N
42 226.743 M
42 53.257 L
S
GR
GS
[0.78257 0 0 0.78197 0 0.22835] CT
0.149 GC
2 setlinecap
1 LJ
0.639 LW
N
295 226.743 M
295 53.257 L
S
GR
GS
[0 -0.78197 0.78257 0 29.46814 109.70425] CT
0.149 GC
N
-4.729 -8.014 M
-4.916 -8.014 -4.916 -8.233 QT
-4.916 -8.343 -4.869 -8.389 QT
-4.244 -9.452 -3.377 -10.429 QT
-2.51 -11.405 -1.401 -12.397 QT
-0.291 -13.389 0.826 -14.389 QT
1.943 -15.389 2.631 -16.171 QT
2.552 -16.171 L
2.037 -16.171 1.06 -16.491 QT
0.084 -16.811 -0.479 -16.811 QT
-1.088 -16.811 -1.659 -16.546 QT
-2.229 -16.28 -2.385 -15.733 QT
-2.416 -15.561 -2.557 -15.561 QT
-2.838 -15.561 L
-3.026 -15.561 -3.026 -15.811 QT
-3.026 -15.874 L
-2.838 -16.546 -2.432 -17.132 QT
-2.026 -17.718 -1.424 -18.077 QT
-0.823 -18.436 -0.166 -18.436 QT
0.287 -18.436 0.591 -18.233 QT
0.896 -18.03 1.302 -17.593 QT
1.709 -17.155 1.959 -16.96 QT
2.209 -16.764 2.599 -16.764 QT
3.099 -16.764 3.498 -17.225 QT
3.896 -17.686 4.287 -18.374 QT
4.349 -18.436 4.459 -18.436 QT
4.724 -18.436 L
4.802 -18.436 4.857 -18.382 QT
4.912 -18.327 4.912 -18.249 QT
4.912 -18.171 4.865 -18.093 QT
4.24 -17.03 3.42 -16.1 QT
2.599 -15.171 1.263 -13.975 QT
-0.073 -12.78 -0.987 -11.96 QT
-1.901 -11.139 -2.698 -10.264 QT
-2.526 -10.296 -2.213 -10.296 QT
-1.651 -10.296 -0.682 -9.975 QT
0.287 -9.655 0.818 -9.655 QT
1.396 -9.655 1.974 -9.905 QT
2.552 -10.155 2.982 -10.608 QT
3.412 -11.061 3.552 -11.639 QT
3.615 -11.796 3.74 -11.796 QT
4.021 -11.796 L
4.115 -11.796 4.17 -11.725 QT
4.224 -11.655 4.224 -11.577 QT
4.224 -11.546 4.193 -11.499 QT
3.99 -10.624 3.459 -9.835 QT
2.927 -9.046 2.162 -8.53 QT
1.396 -8.014 0.521 -8.014 QT
0.084 -8.014 -0.221 -8.218 QT
-0.526 -8.421 -0.94 -8.866 QT
-1.354 -9.311 -1.612 -9.507 QT
-1.869 -9.702 -2.244 -9.702 QT
-3.385 -9.702 -4.291 -8.093 QT
-4.369 -8.014 -4.448 -8.014 QT
-4.729 -8.014 L
cp
f
GR
%%Trailer
%%Pages: 1
%%EOF
