%!PS-Adobe-3.0 EPSF-3.0
%%Creator: (MATLAB, The Mathworks, Inc. Version 9.10.0.1684407 \(R2021a\) Update 3. Operating System: Linux)
%%Title: /home/adoan/Code/PRoSA_PI-ESN_Git/pi-esn/Results/MFE_results/Figures/FIG7_UP_A.eps
%%CreationDate: 2021-07-21T18:42:33
%%Pages: (atend)
%%BoundingBox:     0     0   255   227
%%LanguageLevel: 3
%%EndComments
%%BeginProlog
%%BeginResource: procset (Apache XML Graphics Std ProcSet) 1.2 0
%%Version: 1.2 0
%%Copyright: (Copyright 2001-2003,2010 The Apache Software Foundation. License terms: http://www.apache.org/licenses/LICENSE-2.0)
/bd{bind def}bind def
/ld{load def}bd
/GR/grestore ld
/GS/gsave ld
/RM/rmoveto ld
/C/curveto ld
/t/show ld
/L/lineto ld
/ML/setmiterlimit ld
/CT/concat ld
/f/fill ld
/N/newpath ld
/S/stroke ld
/CC/setcmykcolor ld
/A/ashow ld
/cp/closepath ld
/RC/setrgbcolor ld
/LJ/setlinejoin ld
/GC/setgray ld
/LW/setlinewidth ld
/M/moveto ld
/re {4 2 roll M
1 index 0 rlineto
0 exch rlineto
neg 0 rlineto
cp } bd
/_ctm matrix def
/_tm matrix def
/BT { _ctm currentmatrix pop matrix _tm copy pop 0 0 moveto } bd
/ET { _ctm setmatrix } bd
/iTm { _ctm setmatrix _tm concat } bd
/Tm { _tm astore pop iTm 0 0 moveto } bd
/ux 0.0 def
/uy 0.0 def
/F {
  /Tp exch def
  /Tf exch def
  Tf findfont Tp scalefont setfont
  /cf Tf def  /cs Tp def
} bd
/ULS {currentpoint /uy exch def /ux exch def} bd
/ULE {
  /Tcx currentpoint pop def
  gsave
  newpath
  cf findfont cs scalefont dup
  /FontMatrix get 0 get /Ts exch def /FontInfo get dup
  /UnderlinePosition get Ts mul /To exch def
  /UnderlineThickness get Ts mul /Tt exch def
  ux uy To add moveto  Tcx uy To add lineto
  Tt setlinewidth stroke
  grestore
} bd
/OLE {
  /Tcx currentpoint pop def
  gsave
  newpath
  cf findfont cs scalefont dup
  /FontMatrix get 0 get /Ts exch def /FontInfo get dup
  /UnderlinePosition get Ts mul /To exch def
  /UnderlineThickness get Ts mul /Tt exch def
  ux uy To add cs add moveto Tcx uy To add cs add lineto
  Tt setlinewidth stroke
  grestore
} bd
/SOE {
  /Tcx currentpoint pop def
  gsave
  newpath
  cf findfont cs scalefont dup
  /FontMatrix get 0 get /Ts exch def /FontInfo get dup
  /UnderlinePosition get Ts mul /To exch def
  /UnderlineThickness get Ts mul /Tt exch def
  ux uy To add cs 10 mul 26 idiv add moveto Tcx uy To add cs 10 mul 26 idiv add lineto
  Tt setlinewidth stroke
  grestore
} bd
/QT {
/Y22 exch store
/X22 exch store
/Y21 exch store
/X21 exch store
currentpoint
/Y21 load 2 mul add 3 div exch
/X21 load 2 mul add 3 div exch
/X21 load 2 mul /X22 load add 3 div
/Y21 load 2 mul /Y22 load add 3 div
/X22 load /Y22 load curveto
} bd
/SSPD {
dup length /d exch dict def
{
/v exch def
/k exch def
currentpagedevice k known {
/cpdv currentpagedevice k get def
v cpdv ne {
/upd false def
/nullv v type /nulltype eq def
/nullcpdv cpdv type /nulltype eq def
nullv nullcpdv or
{
/upd true def
} {
/sametype v type cpdv type eq def
sametype {
v type /arraytype eq {
/vlen v length def
/cpdvlen cpdv length def
vlen cpdvlen eq {
0 1 vlen 1 sub {
/i exch def
/obj v i get def
/cpdobj cpdv i get def
obj cpdobj ne {
/upd true def
exit
} if
} for
} {
/upd true def
} ifelse
} {
v type /dicttype eq {
v {
/dv exch def
/dk exch def
/cpddv cpdv dk get def
dv cpddv ne {
/upd true def
exit
} if
} forall
} {
/upd true def
} ifelse
} ifelse
} if
} ifelse
upd true eq {
d k v put
} if
} if
} if
} forall
d length 0 gt {
d setpagedevice
} if
} bd
/RE { % /NewFontName [NewEncodingArray] /FontName RE -
  findfont dup length dict begin
  {
    1 index /FID ne
    {def} {pop pop} ifelse
  } forall
  /Encoding exch def
  /FontName 1 index def
  currentdict definefont pop
  end
} bind def
%%EndResource
%%BeginResource: procset (Apache XML Graphics EPS ProcSet) 1.0 0
%%Version: 1.0 0
%%Copyright: (Copyright 2002-2003 The Apache Software Foundation. License terms: http://www.apache.org/licenses/LICENSE-2.0)
/BeginEPSF { %def
/b4_Inc_state save def         % Save state for cleanup
/dict_count countdictstack def % Count objects on dict stack
/op_count count 1 sub def      % Count objects on operand stack
userdict begin                 % Push userdict on dict stack
/showpage { } def              % Redefine showpage, { } = null proc
0 setgray 0 setlinecap         % Prepare graphics state
1 setlinewidth 0 setlinejoin
10 setmiterlimit [ ] 0 setdash newpath
/languagelevel where           % If level not equal to 1 then
{pop languagelevel             % set strokeadjust and
1 ne                           % overprint to their defaults.
{false setstrokeadjust false setoverprint
} if
} if
} bd
/EndEPSF { %def
count op_count sub {pop} repeat            % Clean up stacks
countdictstack dict_count sub {end} repeat
b4_Inc_state restore
} bd
%%EndResource
%FOPBeginFontDict
%%IncludeResource: font Courier-Oblique
%%IncludeResource: font Courier-BoldOblique
%%IncludeResource: font Courier-Bold
%%IncludeResource: font ZapfDingbats
%%IncludeResource: font Symbol
%%IncludeResource: font Helvetica
%%IncludeResource: font Helvetica-Oblique
%%IncludeResource: font Helvetica-Bold
%%IncludeResource: font Helvetica-BoldOblique
%%IncludeResource: font Times-Roman
%%IncludeResource: font Times-Italic
%%IncludeResource: font Times-Bold
%%IncludeResource: font Times-BoldItalic
%%IncludeResource: font Courier
%FOPEndFontDict
%%BeginResource: encoding WinAnsiEncoding
/WinAnsiEncoding [
/.notdef /.notdef /.notdef /.notdef /.notdef
/.notdef /.notdef /.notdef /.notdef /.notdef
/.notdef /.notdef /.notdef /.notdef /.notdef
/.notdef /.notdef /.notdef /.notdef /.notdef
/.notdef /.notdef /.notdef /.notdef /.notdef
/.notdef /.notdef /.notdef /.notdef /.notdef
/.notdef /.notdef /space /exclam /quotedbl
/numbersign /dollar /percent /ampersand /quotesingle
/parenleft /parenright /asterisk /plus /comma
/hyphen /period /slash /zero /one
/two /three /four /five /six
/seven /eight /nine /colon /semicolon
/less /equal /greater /question /at
/A /B /C /D /E
/F /G /H /I /J
/K /L /M /N /O
/P /Q /R /S /T
/U /V /W /X /Y
/Z /bracketleft /backslash /bracketright /asciicircum
/underscore /quoteleft /a /b /c
/d /e /f /g /h
/i /j /k /l /m
/n /o /p /q /r
/s /t /u /v /w
/x /y /z /braceleft /bar
/braceright /asciitilde /bullet /Euro /bullet
/quotesinglbase /florin /quotedblbase /ellipsis /dagger
/daggerdbl /circumflex /perthousand /Scaron /guilsinglleft
/OE /bullet /Zcaron /bullet /bullet
/quoteleft /quoteright /quotedblleft /quotedblright /bullet
/endash /emdash /asciitilde /trademark /scaron
/guilsinglright /oe /bullet /zcaron /Ydieresis
/space /exclamdown /cent /sterling /currency
/yen /brokenbar /section /dieresis /copyright
/ordfeminine /guillemotleft /logicalnot /sfthyphen /registered
/macron /degree /plusminus /twosuperior /threesuperior
/acute /mu /paragraph /middot /cedilla
/onesuperior /ordmasculine /guillemotright /onequarter /onehalf
/threequarters /questiondown /Agrave /Aacute /Acircumflex
/Atilde /Adieresis /Aring /AE /Ccedilla
/Egrave /Eacute /Ecircumflex /Edieresis /Igrave
/Iacute /Icircumflex /Idieresis /Eth /Ntilde
/Ograve /Oacute /Ocircumflex /Otilde /Odieresis
/multiply /Oslash /Ugrave /Uacute /Ucircumflex
/Udieresis /Yacute /Thorn /germandbls /agrave
/aacute /acircumflex /atilde /adieresis /aring
/ae /ccedilla /egrave /eacute /ecircumflex
/edieresis /igrave /iacute /icircumflex /idieresis
/eth /ntilde /ograve /oacute /ocircumflex
/otilde /odieresis /divide /oslash /ugrave
/uacute /ucircumflex /udieresis /yacute /thorn
/ydieresis
] def
%%EndResource
%FOPBeginFontReencode
/Courier-Oblique findfont
dup length dict begin
  {1 index /FID ne {def} {pop pop} ifelse} forall
  /Encoding WinAnsiEncoding def
  currentdict
end
/Courier-Oblique exch definefont pop
/Courier-BoldOblique findfont
dup length dict begin
  {1 index /FID ne {def} {pop pop} ifelse} forall
  /Encoding WinAnsiEncoding def
  currentdict
end
/Courier-BoldOblique exch definefont pop
/Courier-Bold findfont
dup length dict begin
  {1 index /FID ne {def} {pop pop} ifelse} forall
  /Encoding WinAnsiEncoding def
  currentdict
end
/Courier-Bold exch definefont pop
/Helvetica findfont
dup length dict begin
  {1 index /FID ne {def} {pop pop} ifelse} forall
  /Encoding WinAnsiEncoding def
  currentdict
end
/Helvetica exch definefont pop
/Helvetica-Oblique findfont
dup length dict begin
  {1 index /FID ne {def} {pop pop} ifelse} forall
  /Encoding WinAnsiEncoding def
  currentdict
end
/Helvetica-Oblique exch definefont pop
/Helvetica-Bold findfont
dup length dict begin
  {1 index /FID ne {def} {pop pop} ifelse} forall
  /Encoding WinAnsiEncoding def
  currentdict
end
/Helvetica-Bold exch definefont pop
/Helvetica-BoldOblique findfont
dup length dict begin
  {1 index /FID ne {def} {pop pop} ifelse} forall
  /Encoding WinAnsiEncoding def
  currentdict
end
/Helvetica-BoldOblique exch definefont pop
/Times-Roman findfont
dup length dict begin
  {1 index /FID ne {def} {pop pop} ifelse} forall
  /Encoding WinAnsiEncoding def
  currentdict
end
/Times-Roman exch definefont pop
/Times-Italic findfont
dup length dict begin
  {1 index /FID ne {def} {pop pop} ifelse} forall
  /Encoding WinAnsiEncoding def
  currentdict
end
/Times-Italic exch definefont pop
/Times-Bold findfont
dup length dict begin
  {1 index /FID ne {def} {pop pop} ifelse} forall
  /Encoding WinAnsiEncoding def
  currentdict
end
/Times-Bold exch definefont pop
/Times-BoldItalic findfont
dup length dict begin
  {1 index /FID ne {def} {pop pop} ifelse} forall
  /Encoding WinAnsiEncoding def
  currentdict
end
/Times-BoldItalic exch definefont pop
/Courier findfont
dup length dict begin
  {1 index /FID ne {def} {pop pop} ifelse} forall
  /Encoding WinAnsiEncoding def
  currentdict
end
/Courier exch definefont pop
%FOPEndFontReencode
%%EndProlog
%%Page: 1 1
%%PageBoundingBox: 0 0 255 227
%%BeginPageSetup
[1 0 0 -1 0 227] CT
%%EndPageSetup
GS
[0.78257 0 0 0.78197 0 0.22835] CT
1 GC
N
0 0 326 290 re
f
GR
GS
[0.78257 0 0 0.78197 0 0.22835] CT
1 GC
N
0 0 326 290 re
f
GR
GS
[0.78257 0 0 0.78197 0 0.22835] CT
1 GC
N
42 226.743 M
295 226.743 L
295 53.257 L
42 53.257 L
cp
f
GR
GS
[0.78257 0 0 0.78197 0 0.22835] CT
0.278 0.345 0.973 RC
N
71.997 153.696 M
81.947 156.29 L
94.758 153.696 L
95.263 153.529 L
103.836 144.565 L
103.836 135.435 L
95.263 126.471 L
94.758 126.304 L
81.947 123.71 L
71.997 126.304 L
68.632 128.566 L
65.361 135.435 L
65.361 144.565 L
68.632 151.434 L
cp
f
GR
GS
[0.78257 0 0 0.78197 0 0.22835] CT
0.263 0.4 0.992 RC
N
226.305 217.612 M
223.407 226.743 L
228.421 226.743 L
241.737 226.743 L
255.053 226.743 L
268.368 226.743 L
281.684 226.743 L
287.369 226.743 L
286.743 217.612 L
284.174 208.481 L
281.684 204.931 L
268.368 201.064 L
255.053 202.789 L
241.737 206.746 L
238.082 208.481 L
228.421 215.377 L
cp
54.344 171.958 M
55.316 172.609 L
68.632 173.784 L
81.012 171.958 L
81.947 171.841 L
95.263 167.989 L
107.348 162.827 L
108.579 162.13 L
118.237 153.696 L
121.895 147.121 L
122.949 144.565 L
122.949 135.435 L
121.895 132.879 L
118.237 126.304 L
108.579 117.87 L
107.348 117.173 L
95.263 112.011 L
81.947 108.159 L
81.012 108.042 L
68.632 106.216 L
55.316 107.391 L
54.344 108.042 L
48.555 117.173 L
46.877 126.304 L
46.296 135.435 L
46.296 144.565 L
46.877 153.696 L
48.555 162.827 L
cp
81.947 156.29 M
71.997 153.696 L
68.632 151.434 L
65.361 144.565 L
65.361 135.435 L
68.632 128.566 L
71.997 126.304 L
81.947 123.71 L
94.758 126.304 L
95.263 126.471 L
103.836 135.435 L
103.836 144.565 L
95.263 153.529 L
94.758 153.696 L
cp
238.082 71.519 M
241.737 73.254 L
255.053 77.211 L
268.368 78.936 L
281.684 75.069 L
284.174 71.519 L
286.743 62.388 L
287.369 53.257 L
281.684 53.257 L
268.368 53.257 L
255.053 53.257 L
241.737 53.257 L
228.421 53.257 L
223.407 53.257 L
226.305 62.388 L
228.421 64.623 L
cp
f
GR
GS
[0.78257 0 0 0.78197 0 0.22835] CT
0.173 0.549 0.949 RC
N
42 217.612 M
42 226.743 L
51.597 226.743 L
52.099 217.612 L
53.9 208.481 L
55.316 204.958 L
57.964 199.35 L
67.829 190.22 L
68.632 189.795 L
81.947 183.709 L
88.702 181.089 L
95.263 178.829 L
108.579 173.649 L
112.177 171.958 L
121.895 166.202 L
126.173 162.827 L
133.242 153.696 L
135.211 148.089 L
136.243 144.565 L
136.243 135.435 L
135.211 131.911 L
133.242 126.304 L
126.173 117.173 L
121.895 113.798 L
112.177 108.042 L
108.579 106.351 L
95.263 101.171 L
88.702 98.911 L
81.947 96.291 L
68.632 90.205 L
67.829 89.78 L
57.964 80.65 L
55.316 75.042 L
53.9 71.519 L
52.099 62.388 L
51.597 53.257 L
42 53.257 L
42 62.388 L
42 71.519 L
42 80.65 L
42 89.78 L
42 98.911 L
42 108.042 L
42 117.173 L
42 126.304 L
42 135.435 L
42 144.565 L
42 153.696 L
42 162.827 L
42 171.958 L
42 181.089 L
42 190.22 L
42 199.35 L
42 208.481 L
cp
208.567 217.612 M
206.632 226.743 L
215.105 226.743 L
223.407 226.743 L
226.305 217.612 L
228.421 215.377 L
238.082 208.481 L
241.737 206.746 L
255.053 202.789 L
268.368 201.064 L
281.684 204.931 L
284.174 208.481 L
286.743 217.612 L
287.369 226.743 L
295 226.743 L
295 217.612 L
295 208.481 L
295 199.35 L
295 190.22 L
295 181.089 L
295 171.958 L
295 162.827 L
295 153.696 L
295 144.565 L
295 135.435 L
295 126.304 L
295 117.173 L
295 108.042 L
295 98.911 L
295 89.78 L
295 80.65 L
295 71.519 L
295 62.388 L
295 53.257 L
287.369 53.257 L
286.743 62.388 L
284.174 71.519 L
281.684 75.069 L
268.368 78.936 L
255.053 77.211 L
241.737 73.254 L
238.082 71.519 L
228.421 64.623 L
226.305 62.388 L
223.407 53.257 L
215.105 53.257 L
206.632 53.257 L
208.567 62.388 L
214.95 71.519 L
215.105 71.649 L
228.421 80.258 L
229.236 80.65 L
241.737 85.61 L
253.302 89.78 L
255.053 90.452 L
268.368 95.936 L
273.761 98.911 L
281.684 107.411 L
282.111 108.042 L
285.801 117.173 L
287.397 126.304 L
288.036 135.435 L
288.036 144.565 L
287.397 153.696 L
285.801 162.827 L
282.111 171.958 L
281.684 172.589 L
273.761 181.089 L
268.368 184.064 L
255.053 189.548 L
253.302 190.22 L
241.737 194.39 L
229.236 199.35 L
228.421 199.742 L
215.105 208.351 L
214.95 208.481 L
cp
55.316 172.609 M
54.344 171.958 L
48.555 162.827 L
46.877 153.696 L
46.296 144.565 L
46.296 135.435 L
46.877 126.304 L
48.555 117.173 L
54.344 108.042 L
55.316 107.391 L
68.632 106.216 L
81.012 108.042 L
81.947 108.159 L
95.263 112.011 L
107.348 117.173 L
108.579 117.87 L
118.237 126.304 L
121.895 132.879 L
122.949 135.435 L
122.949 144.565 L
121.895 147.121 L
118.237 153.696 L
108.579 162.13 L
107.348 162.827 L
95.263 167.989 L
81.947 171.841 L
81.012 171.958 L
68.632 173.784 L
cp
f
GR
GS
[0.78257 0 0 0.78197 0 0.22835] CT
0.106 0.667 0.871 RC
N
52.099 217.612 M
51.597 226.743 L
55.316 226.743 L
64.221 226.743 L
65.265 217.612 L
68.632 209.016 L
68.876 208.481 L
76.736 199.35 L
81.947 195.759 L
92.205 190.22 L
95.263 188.909 L
108.579 183.597 L
114.801 181.089 L
121.895 177.889 L
132.396 171.958 L
135.211 169.667 L
141.715 162.827 L
146.224 153.696 L
148.119 144.565 L
148.119 135.435 L
146.224 126.304 L
141.715 117.173 L
135.211 110.333 L
132.396 108.042 L
121.895 102.111 L
114.801 98.911 L
108.579 96.403 L
95.263 91.091 L
92.205 89.78 L
81.947 84.241 L
76.736 80.65 L
68.876 71.519 L
68.632 70.984 L
65.265 62.388 L
64.221 53.257 L
55.316 53.257 L
51.597 53.257 L
52.099 62.388 L
53.9 71.519 L
55.316 75.042 L
57.964 80.65 L
67.829 89.78 L
68.632 90.205 L
81.947 96.291 L
88.702 98.911 L
95.263 101.171 L
108.579 106.351 L
112.177 108.042 L
121.895 113.798 L
126.173 117.173 L
133.242 126.304 L
135.211 131.911 L
136.243 135.435 L
136.243 144.565 L
135.211 148.089 L
133.242 153.696 L
126.173 162.827 L
121.895 166.202 L
112.177 171.958 L
108.579 173.649 L
95.263 178.829 L
88.702 181.089 L
81.947 183.709 L
68.632 189.795 L
67.829 190.22 L
57.964 199.35 L
55.316 204.958 L
53.9 208.481 L
cp
193.747 217.612 M
192.519 226.743 L
201.789 226.743 L
206.632 226.743 L
208.567 217.612 L
214.95 208.481 L
215.105 208.351 L
228.421 199.742 L
229.236 199.35 L
241.737 194.39 L
253.302 190.22 L
255.053 189.548 L
268.368 184.064 L
273.761 181.089 L
281.684 172.589 L
282.111 171.958 L
285.801 162.827 L
287.397 153.696 L
288.036 144.565 L
288.036 135.435 L
287.397 126.304 L
285.801 117.173 L
282.111 108.042 L
281.684 107.411 L
273.761 98.911 L
268.368 95.936 L
255.053 90.452 L
253.302 89.78 L
241.737 85.61 L
229.236 80.65 L
228.421 80.258 L
215.105 71.649 L
214.95 71.519 L
208.567 62.388 L
206.632 53.257 L
201.789 53.257 L
192.519 53.257 L
193.747 62.388 L
197.979 71.519 L
201.789 75.702 L
207.457 80.65 L
215.105 84.959 L
225.66 89.78 L
228.421 90.846 L
241.737 95.966 L
248.668 98.911 L
255.053 102.141 L
263.898 108.042 L
268.368 112.75 L
271.635 117.173 L
275.358 126.304 L
276.91 135.435 L
276.91 144.565 L
275.358 153.696 L
271.635 162.827 L
268.368 167.25 L
263.898 171.958 L
255.053 177.859 L
248.668 181.089 L
241.737 184.034 L
228.421 189.154 L
225.66 190.22 L
215.105 195.041 L
207.457 199.35 L
201.789 204.298 L
197.979 208.481 L
cp
f
GR
GS
[0.78257 0 0 0.78197 0 0.22835] CT
0.075 0.745 0.722 RC
N
65.265 217.612 M
64.221 226.743 L
68.632 226.743 L
77.081 226.743 L
78.672 217.612 L
81.947 211.746 L
84.255 208.481 L
95.263 199.78 L
96 199.35 L
108.579 193.617 L
117.563 190.22 L
121.895 188.581 L
135.211 183.482 L
140.596 181.089 L
148.526 175.487 L
152.184 171.958 L
156.968 162.827 L
159.037 153.696 L
159.865 144.565 L
159.865 135.435 L
159.037 126.304 L
156.968 117.173 L
152.184 108.042 L
148.526 104.513 L
140.596 98.911 L
135.211 96.518 L
121.895 91.419 L
117.563 89.78 L
108.579 86.383 L
96 80.65 L
95.263 80.22 L
84.255 71.519 L
81.947 68.254 L
78.672 62.388 L
77.081 53.257 L
68.632 53.257 L
64.221 53.257 L
65.265 62.388 L
68.632 70.984 L
68.876 71.519 L
76.736 80.65 L
81.947 84.241 L
92.205 89.78 L
95.263 91.091 L
108.579 96.403 L
114.801 98.911 L
121.895 102.111 L
132.396 108.042 L
135.211 110.333 L
141.715 117.173 L
146.224 126.304 L
148.119 135.435 L
148.119 144.565 L
146.224 153.696 L
141.715 162.827 L
135.211 169.667 L
132.396 171.958 L
121.895 177.889 L
114.801 181.089 L
108.579 183.597 L
95.263 188.909 L
92.205 190.22 L
81.947 195.759 L
76.736 199.35 L
68.876 208.481 L
68.632 209.016 L
cp
179.296 217.612 M
178.735 226.743 L
188.474 226.743 L
192.519 226.743 L
193.747 217.612 L
197.979 208.481 L
201.789 204.298 L
207.457 199.35 L
215.105 195.041 L
225.66 190.22 L
228.421 189.154 L
241.737 184.034 L
248.668 181.089 L
255.053 177.859 L
263.898 171.958 L
268.368 167.25 L
271.635 162.827 L
275.358 153.696 L
276.91 144.565 L
276.91 135.435 L
275.358 126.304 L
271.635 117.173 L
268.368 112.75 L
263.898 108.042 L
255.053 102.141 L
248.668 98.911 L
241.737 95.966 L
228.421 90.846 L
225.66 89.78 L
215.105 84.959 L
207.457 80.65 L
201.789 75.702 L
197.979 71.519 L
193.747 62.388 L
192.519 53.257 L
188.474 53.257 L
178.735 53.257 L
179.296 62.388 L
181.314 71.519 L
186.423 80.65 L
188.474 82.559 L
198.963 89.78 L
201.789 90.937 L
215.105 95.955 L
223.335 98.911 L
228.421 100.638 L
241.737 106.182 L
245.243 108.042 L
255.053 115.018 L
257.309 117.173 L
263.182 126.304 L
265.738 135.435 L
265.738 144.565 L
263.182 153.696 L
257.309 162.827 L
255.053 164.982 L
245.243 171.958 L
241.737 173.818 L
228.421 179.362 L
223.335 181.089 L
215.105 184.045 L
201.789 189.063 L
198.963 190.22 L
188.474 197.441 L
186.423 199.35 L
181.314 208.481 L
cp
f
GR
GS
[0.78257 0 0 0.78197 0 0.22835] CT
0.278 0.796 0.525 RC
N
78.672 217.612 M
77.081 226.743 L
81.947 226.743 L
91.73 226.743 L
94.043 217.612 L
95.263 216.007 L
103.345 208.481 L
108.579 205.414 L
121.895 200.13 L
125.504 199.35 L
135.211 197.253 L
148.526 196.558 L
155.68 199.35 L
161.842 208.008 L
161.964 208.481 L
163.178 217.612 L
163.499 226.743 L
175.158 226.743 L
178.735 226.743 L
179.296 217.612 L
181.314 208.481 L
186.423 199.35 L
188.474 197.441 L
198.963 190.22 L
201.789 189.063 L
215.105 184.045 L
223.335 181.089 L
228.421 179.362 L
241.737 173.818 L
245.243 171.958 L
255.053 164.982 L
257.309 162.827 L
263.182 153.696 L
265.738 144.565 L
265.738 135.435 L
263.182 126.304 L
257.309 117.173 L
255.053 115.018 L
245.243 108.042 L
241.737 106.182 L
228.421 100.638 L
223.335 98.911 L
215.105 95.955 L
201.789 90.937 L
198.963 89.78 L
188.474 82.559 L
186.423 80.65 L
181.314 71.519 L
179.296 62.388 L
178.735 53.257 L
175.158 53.257 L
163.499 53.257 L
163.178 62.388 L
161.964 71.519 L
161.842 71.992 L
155.68 80.65 L
148.526 83.442 L
135.211 82.747 L
125.504 80.65 L
121.895 79.87 L
108.579 74.586 L
103.345 71.519 L
95.263 63.993 L
94.043 62.388 L
91.73 53.257 L
81.947 53.257 L
77.081 53.257 L
78.672 62.388 L
81.947 68.254 L
84.255 71.519 L
95.263 80.22 L
96 80.65 L
108.579 86.383 L
117.563 89.78 L
121.895 91.419 L
135.211 96.518 L
140.596 98.911 L
148.526 104.513 L
152.184 108.042 L
156.968 117.173 L
159.037 126.304 L
159.865 135.435 L
159.865 144.565 L
159.037 153.696 L
156.968 162.827 L
152.184 171.958 L
148.526 175.487 L
140.596 181.089 L
135.211 183.482 L
121.895 188.581 L
117.563 190.22 L
108.579 193.617 L
96 199.35 L
95.263 199.78 L
84.255 208.481 L
81.947 211.746 L
cp
188.474 176.321 M
178.866 171.958 L
175.158 166.319 L
174.258 162.827 L
173.072 153.696 L
172.623 144.565 L
172.623 135.435 L
173.072 126.304 L
174.258 117.173 L
175.158 113.681 L
178.866 108.042 L
188.474 103.679 L
201.789 104.284 L
215.105 106.774 L
219.212 108.042 L
228.421 111.068 L
240.502 117.173 L
241.737 118.047 L
249.54 126.304 L
253.55 135.435 L
253.55 144.565 L
249.54 153.696 L
241.737 161.953 L
240.502 162.827 L
228.421 168.932 L
219.212 171.958 L
215.105 173.226 L
201.789 175.716 L
cp
f
GR
GS
[0.78257 0 0 0.78197 0 0.22835] CT
0.627 0.784 0.251 RC
N
94.043 217.612 M
91.73 226.743 L
95.263 226.743 L
108.579 226.743 L
115.917 226.743 L
121.895 218.091 L
135.211 218.646 L
138.983 226.743 L
148.526 226.743 L
161.842 226.743 L
163.499 226.743 L
163.178 217.612 L
161.964 208.481 L
161.842 208.008 L
155.68 199.35 L
148.526 196.558 L
135.211 197.253 L
125.504 199.35 L
121.895 200.13 L
108.579 205.414 L
103.345 208.481 L
95.263 216.007 L
cp
178.866 171.958 M
188.474 176.321 L
201.789 175.716 L
215.105 173.226 L
219.212 171.958 L
228.421 168.932 L
240.502 162.827 L
241.737 161.953 L
249.54 153.696 L
253.55 144.565 L
253.55 135.435 L
249.54 126.304 L
241.737 118.047 L
240.502 117.173 L
228.421 111.068 L
219.212 108.042 L
215.105 106.774 L
201.789 104.284 L
188.474 103.679 L
178.866 108.042 L
175.158 113.681 L
174.258 117.173 L
173.072 126.304 L
172.623 135.435 L
172.623 144.565 L
173.072 153.696 L
174.258 162.827 L
175.158 166.319 L
cp
201.789 159.786 M
192.873 153.696 L
188.474 144.91 L
188.383 144.565 L
188.383 135.435 L
188.474 135.09 L
192.873 126.304 L
201.789 120.214 L
215.105 119.933 L
228.421 124.664 L
230.739 126.304 L
237.436 135.435 L
237.436 144.565 L
230.739 153.696 L
228.421 155.336 L
215.105 160.067 L
cp
125.504 80.65 M
135.211 82.747 L
148.526 83.442 L
155.68 80.65 L
161.842 71.992 L
161.964 71.519 L
163.178 62.388 L
163.499 53.257 L
161.842 53.257 L
148.526 53.257 L
138.983 53.257 L
135.211 61.354 L
121.895 61.909 L
115.917 53.257 L
108.579 53.257 L
95.263 53.257 L
91.73 53.257 L
94.043 62.388 L
95.263 63.993 L
103.345 71.519 L
108.579 74.586 L
121.895 79.87 L
cp
f
GR
GS
[0.78257 0 0 0.78197 0 0.22835] CT
0.925 0.729 0.196 RC
N
121.895 218.091 M
115.917 226.743 L
121.895 226.743 L
135.211 226.743 L
138.983 226.743 L
135.211 218.646 L
cp
192.873 153.696 M
201.789 159.786 L
215.105 160.067 L
228.421 155.336 L
230.739 153.696 L
237.436 144.565 L
237.436 135.435 L
230.739 126.304 L
228.421 124.664 L
215.105 119.933 L
201.789 120.214 L
192.873 126.304 L
188.474 135.09 L
188.383 135.435 L
188.383 144.565 L
188.474 144.91 L
cp
121.895 53.257 M
115.917 53.257 L
121.895 61.909 L
135.211 61.354 L
138.983 53.257 L
135.211 53.257 L
cp
f
GR
GS
[0.78257 0 0 0.78197 0 0.22835] CT
1 LJ
0.639 LW
N
94.758 153.696 M
81.947 156.29 L
71.997 153.696 L
S
GR
GS
[0.78257 0 0 0.78197 0 0.22835] CT
1 LJ
0.639 LW
N
71.997 153.696 M
68.632 151.434 L
65.361 144.565 L
S
GR
GS
[0.78257 0 0 0.78197 0 0.22835] CT
1 LJ
0.639 LW
N
103.836 144.565 M
95.263 153.529 L
94.758 153.696 L
S
GR
GS
[0.78257 0 0 0.78197 0 0.22835] CT
1 LJ
0.639 LW
N
65.361 144.565 M
65.361 135.435 L
S
GR
GS
[0.78257 0 0 0.78197 0 0.22835] CT
1 LJ
0.639 LW
N
103.836 135.435 M
103.836 144.565 L
S
GR
GS
[0.78257 0 0 0.78197 0 0.22835] CT
1 LJ
0.639 LW
N
65.361 135.435 M
68.632 128.566 L
71.997 126.304 L
S
GR
GS
[0.78257 0 0 0.78197 0 0.22835] CT
1 LJ
0.639 LW
N
94.758 126.304 M
95.263 126.471 L
103.836 135.435 L
S
GR
GS
[0.78257 0 0 0.78197 0 0.22835] CT
1 LJ
0.639 LW
N
71.997 126.304 M
81.947 123.71 L
94.758 126.304 L
S
GR
GS
[0.78257 0 0 0.78197 0 0.22835] CT
1 LJ
0.639 LW
N
223.407 226.743 M
226.305 217.612 L
S
GR
GS
[0.78257 0 0 0.78197 0 0.22835] CT
1 LJ
0.639 LW
N
286.743 217.612 M
287.369 226.743 L
S
GR
GS
[0.78257 0 0 0.78197 0 0.22835] CT
1 LJ
0.639 LW
N
226.305 217.612 M
228.421 215.377 L
238.082 208.481 L
S
GR
GS
[0.78257 0 0 0.78197 0 0.22835] CT
1 LJ
0.639 LW
N
284.174 208.481 M
286.743 217.612 L
S
GR
GS
[0.78257 0 0 0.78197 0 0.22835] CT
1 LJ
0.639 LW
N
238.082 208.481 M
241.737 206.746 L
255.053 202.789 L
268.368 201.064 L
281.684 204.931 L
284.174 208.481 L
S
GR
GS
[0.78257 0 0 0.78197 0 0.22835] CT
1 LJ
0.639 LW
N
81.012 171.958 M
68.632 173.784 L
55.316 172.609 L
54.344 171.958 L
S
GR
GS
[0.78257 0 0 0.78197 0 0.22835] CT
1 LJ
0.639 LW
N
54.344 171.958 M
48.555 162.827 L
S
GR
GS
[0.78257 0 0 0.78197 0 0.22835] CT
1 LJ
0.639 LW
N
107.348 162.827 M
95.263 167.989 L
81.947 171.841 L
81.012 171.958 L
S
GR
GS
[0.78257 0 0 0.78197 0 0.22835] CT
1 LJ
0.639 LW
N
48.555 162.827 M
46.877 153.696 L
S
GR
GS
[0.78257 0 0 0.78197 0 0.22835] CT
1 LJ
0.639 LW
N
118.237 153.696 M
108.579 162.13 L
107.348 162.827 L
S
GR
GS
[0.78257 0 0 0.78197 0 0.22835] CT
1 LJ
0.639 LW
N
46.877 153.696 M
46.296 144.565 L
S
GR
GS
[0.78257 0 0 0.78197 0 0.22835] CT
1 LJ
0.639 LW
N
122.949 144.565 M
121.895 147.121 L
118.237 153.696 L
S
GR
GS
[0.78257 0 0 0.78197 0 0.22835] CT
1 LJ
0.639 LW
N
46.296 144.565 M
46.296 135.435 L
S
GR
GS
[0.78257 0 0 0.78197 0 0.22835] CT
1 LJ
0.639 LW
N
122.949 135.435 M
122.949 144.565 L
S
GR
GS
[0.78257 0 0 0.78197 0 0.22835] CT
1 LJ
0.639 LW
N
46.296 135.435 M
46.877 126.304 L
S
GR
GS
[0.78257 0 0 0.78197 0 0.22835] CT
1 LJ
0.639 LW
N
118.237 126.304 M
121.895 132.879 L
122.949 135.435 L
S
GR
GS
[0.78257 0 0 0.78197 0 0.22835] CT
1 LJ
0.639 LW
N
46.877 126.304 M
48.555 117.173 L
S
GR
GS
[0.78257 0 0 0.78197 0 0.22835] CT
1 LJ
0.639 LW
N
107.348 117.173 M
108.579 117.87 L
118.237 126.304 L
S
GR
GS
[0.78257 0 0 0.78197 0 0.22835] CT
1 LJ
0.639 LW
N
48.555 117.173 M
54.344 108.042 L
S
GR
GS
[0.78257 0 0 0.78197 0 0.22835] CT
1 LJ
0.639 LW
N
81.012 108.042 M
81.947 108.159 L
95.263 112.011 L
107.348 117.173 L
S
GR
GS
[0.78257 0 0 0.78197 0 0.22835] CT
1 LJ
0.639 LW
N
54.344 108.042 M
55.316 107.391 L
68.632 106.216 L
81.012 108.042 L
S
GR
GS
[0.78257 0 0 0.78197 0 0.22835] CT
1 LJ
0.639 LW
N
284.174 71.519 M
281.684 75.069 L
268.368 78.936 L
255.053 77.211 L
241.737 73.254 L
238.082 71.519 L
S
GR
GS
[0.78257 0 0 0.78197 0 0.22835] CT
1 LJ
0.639 LW
N
238.082 71.519 M
228.421 64.623 L
226.305 62.388 L
S
GR
GS
[0.78257 0 0 0.78197 0 0.22835] CT
1 LJ
0.639 LW
N
286.743 62.388 M
284.174 71.519 L
S
GR
GS
[0.78257 0 0 0.78197 0 0.22835] CT
1 LJ
0.639 LW
N
226.305 62.388 M
223.407 53.257 L
S
GR
GS
[0.78257 0 0 0.78197 0 0.22835] CT
1 LJ
0.639 LW
N
287.369 53.257 M
286.743 62.388 L
S
GR
GS
[0.78257 0 0 0.78197 0 0.22835] CT
1 LJ
0.639 LW
N
52.099 217.612 M
51.597 226.743 L
S
GR
GS
[0.78257 0 0 0.78197 0 0.22835] CT
1 LJ
0.639 LW
N
206.632 226.743 M
208.567 217.612 L
S
GR
GS
[0.78257 0 0 0.78197 0 0.22835] CT
1 LJ
0.639 LW
N
53.9 208.481 M
52.099 217.612 L
S
GR
GS
[0.78257 0 0 0.78197 0 0.22835] CT
1 LJ
0.639 LW
N
208.567 217.612 M
214.95 208.481 L
S
GR
GS
[0.78257 0 0 0.78197 0 0.22835] CT
1 LJ
0.639 LW
N
57.964 199.35 M
55.316 204.958 L
53.9 208.481 L
S
GR
GS
[0.78257 0 0 0.78197 0 0.22835] CT
1 LJ
0.639 LW
N
214.95 208.481 M
215.105 208.351 L
228.421 199.742 L
229.236 199.35 L
S
GR
GS
[0.78257 0 0 0.78197 0 0.22835] CT
1 LJ
0.639 LW
N
67.829 190.22 M
57.964 199.35 L
S
GR
GS
[0.78257 0 0 0.78197 0 0.22835] CT
1 LJ
0.639 LW
N
229.236 199.35 M
241.737 194.39 L
253.302 190.22 L
S
GR
GS
[0.78257 0 0 0.78197 0 0.22835] CT
1 LJ
0.639 LW
N
88.702 181.089 M
81.947 183.709 L
68.632 189.795 L
67.829 190.22 L
S
GR
GS
[0.78257 0 0 0.78197 0 0.22835] CT
1 LJ
0.639 LW
N
253.302 190.22 M
255.053 189.548 L
268.368 184.064 L
273.761 181.089 L
S
GR
GS
[0.78257 0 0 0.78197 0 0.22835] CT
1 LJ
0.639 LW
N
112.177 171.958 M
108.579 173.649 L
95.263 178.829 L
88.702 181.089 L
S
GR
GS
[0.78257 0 0 0.78197 0 0.22835] CT
1 LJ
0.639 LW
N
273.761 181.089 M
281.684 172.589 L
282.111 171.958 L
S
GR
GS
[0.78257 0 0 0.78197 0 0.22835] CT
1 LJ
0.639 LW
N
126.173 162.827 M
121.895 166.202 L
112.177 171.958 L
S
GR
GS
[0.78257 0 0 0.78197 0 0.22835] CT
1 LJ
0.639 LW
N
282.111 171.958 M
285.801 162.827 L
S
GR
GS
[0.78257 0 0 0.78197 0 0.22835] CT
1 LJ
0.639 LW
N
133.242 153.696 M
126.173 162.827 L
S
GR
GS
[0.78257 0 0 0.78197 0 0.22835] CT
1 LJ
0.639 LW
N
285.801 162.827 M
287.397 153.696 L
S
GR
GS
[0.78257 0 0 0.78197 0 0.22835] CT
1 LJ
0.639 LW
N
136.243 144.565 M
135.211 148.089 L
133.242 153.696 L
S
GR
GS
[0.78257 0 0 0.78197 0 0.22835] CT
1 LJ
0.639 LW
N
287.397 153.696 M
288.036 144.565 L
S
GR
GS
[0.78257 0 0 0.78197 0 0.22835] CT
1 LJ
0.639 LW
N
136.243 135.435 M
136.243 144.565 L
S
GR
GS
[0.78257 0 0 0.78197 0 0.22835] CT
1 LJ
0.639 LW
N
288.036 144.565 M
288.036 135.435 L
S
GR
GS
[0.78257 0 0 0.78197 0 0.22835] CT
1 LJ
0.639 LW
N
133.242 126.304 M
135.211 131.911 L
136.243 135.435 L
S
GR
GS
[0.78257 0 0 0.78197 0 0.22835] CT
1 LJ
0.639 LW
N
288.036 135.435 M
287.397 126.304 L
S
GR
GS
[0.78257 0 0 0.78197 0 0.22835] CT
1 LJ
0.639 LW
N
126.173 117.173 M
133.242 126.304 L
S
GR
GS
[0.78257 0 0 0.78197 0 0.22835] CT
1 LJ
0.639 LW
N
287.397 126.304 M
285.801 117.173 L
S
GR
GS
[0.78257 0 0 0.78197 0 0.22835] CT
1 LJ
0.639 LW
N
112.177 108.042 M
121.895 113.798 L
126.173 117.173 L
S
GR
GS
[0.78257 0 0 0.78197 0 0.22835] CT
1 LJ
0.639 LW
N
285.801 117.173 M
282.111 108.042 L
S
GR
GS
[0.78257 0 0 0.78197 0 0.22835] CT
1 LJ
0.639 LW
N
88.702 98.911 M
95.263 101.171 L
108.579 106.351 L
112.177 108.042 L
S
GR
GS
[0.78257 0 0 0.78197 0 0.22835] CT
1 LJ
0.639 LW
N
282.111 108.042 M
281.684 107.411 L
273.761 98.911 L
S
GR
GS
[0.78257 0 0 0.78197 0 0.22835] CT
1 LJ
0.639 LW
N
67.829 89.78 M
68.632 90.205 L
81.947 96.291 L
88.702 98.911 L
S
GR
GS
[0.78257 0 0 0.78197 0 0.22835] CT
1 LJ
0.639 LW
N
273.761 98.911 M
268.368 95.936 L
255.053 90.452 L
253.302 89.78 L
S
GR
GS
[0.78257 0 0 0.78197 0 0.22835] CT
1 LJ
0.639 LW
N
57.964 80.65 M
67.829 89.78 L
S
GR
GS
[0.78257 0 0 0.78197 0 0.22835] CT
1 LJ
0.639 LW
N
253.302 89.78 M
241.737 85.61 L
229.236 80.65 L
S
GR
GS
[0.78257 0 0 0.78197 0 0.22835] CT
1 LJ
0.639 LW
N
53.9 71.519 M
55.316 75.042 L
57.964 80.65 L
S
GR
GS
[0.78257 0 0 0.78197 0 0.22835] CT
1 LJ
0.639 LW
N
229.236 80.65 M
228.421 80.258 L
215.105 71.649 L
214.95 71.519 L
S
GR
GS
[0.78257 0 0 0.78197 0 0.22835] CT
1 LJ
0.639 LW
N
52.099 62.388 M
53.9 71.519 L
S
GR
GS
[0.78257 0 0 0.78197 0 0.22835] CT
1 LJ
0.639 LW
N
214.95 71.519 M
208.567 62.388 L
S
GR
GS
[0.78257 0 0 0.78197 0 0.22835] CT
1 LJ
0.639 LW
N
51.597 53.257 M
52.099 62.388 L
S
GR
GS
[0.78257 0 0 0.78197 0 0.22835] CT
1 LJ
0.639 LW
N
208.567 62.388 M
206.632 53.257 L
S
GR
GS
[0.78257 0 0 0.78197 0 0.22835] CT
1 LJ
0.639 LW
N
65.265 217.612 M
64.221 226.743 L
S
GR
GS
[0.78257 0 0 0.78197 0 0.22835] CT
1 LJ
0.639 LW
N
192.519 226.743 M
193.747 217.612 L
S
GR
GS
[0.78257 0 0 0.78197 0 0.22835] CT
1 LJ
0.639 LW
N
68.876 208.481 M
68.632 209.016 L
65.265 217.612 L
S
GR
GS
[0.78257 0 0 0.78197 0 0.22835] CT
1 LJ
0.639 LW
N
193.747 217.612 M
197.979 208.481 L
S
GR
GS
[0.78257 0 0 0.78197 0 0.22835] CT
1 LJ
0.639 LW
N
76.736 199.35 M
68.876 208.481 L
S
GR
GS
[0.78257 0 0 0.78197 0 0.22835] CT
1 LJ
0.639 LW
N
197.979 208.481 M
201.789 204.298 L
207.457 199.35 L
S
GR
GS
[0.78257 0 0 0.78197 0 0.22835] CT
1 LJ
0.639 LW
N
92.205 190.22 M
81.947 195.759 L
76.736 199.35 L
S
GR
GS
[0.78257 0 0 0.78197 0 0.22835] CT
1 LJ
0.639 LW
N
207.457 199.35 M
215.105 195.041 L
225.66 190.22 L
S
GR
GS
[0.78257 0 0 0.78197 0 0.22835] CT
1 LJ
0.639 LW
N
114.801 181.089 M
108.579 183.597 L
95.263 188.909 L
92.205 190.22 L
S
GR
GS
[0.78257 0 0 0.78197 0 0.22835] CT
1 LJ
0.639 LW
N
225.66 190.22 M
228.421 189.154 L
241.737 184.034 L
248.668 181.089 L
S
GR
GS
[0.78257 0 0 0.78197 0 0.22835] CT
1 LJ
0.639 LW
N
132.396 171.958 M
121.895 177.889 L
114.801 181.089 L
S
GR
GS
[0.78257 0 0 0.78197 0 0.22835] CT
1 LJ
0.639 LW
N
248.668 181.089 M
255.053 177.859 L
263.898 171.958 L
S
GR
GS
[0.78257 0 0 0.78197 0 0.22835] CT
1 LJ
0.639 LW
N
141.715 162.827 M
135.211 169.667 L
132.396 171.958 L
S
GR
GS
[0.78257 0 0 0.78197 0 0.22835] CT
1 LJ
0.639 LW
N
263.898 171.958 M
268.368 167.25 L
271.635 162.827 L
S
GR
GS
[0.78257 0 0 0.78197 0 0.22835] CT
1 LJ
0.639 LW
N
146.224 153.696 M
141.715 162.827 L
S
GR
GS
[0.78257 0 0 0.78197 0 0.22835] CT
1 LJ
0.639 LW
N
271.635 162.827 M
275.358 153.696 L
S
GR
GS
[0.78257 0 0 0.78197 0 0.22835] CT
1 LJ
0.639 LW
N
148.119 144.565 M
146.224 153.696 L
S
GR
GS
[0.78257 0 0 0.78197 0 0.22835] CT
1 LJ
0.639 LW
N
275.358 153.696 M
276.91 144.565 L
S
GR
GS
[0.78257 0 0 0.78197 0 0.22835] CT
1 LJ
0.639 LW
N
148.119 135.435 M
148.119 144.565 L
S
GR
GS
[0.78257 0 0 0.78197 0 0.22835] CT
1 LJ
0.639 LW
N
276.91 144.565 M
276.91 135.435 L
S
GR
GS
[0.78257 0 0 0.78197 0 0.22835] CT
1 LJ
0.639 LW
N
146.224 126.304 M
148.119 135.435 L
S
GR
GS
[0.78257 0 0 0.78197 0 0.22835] CT
1 LJ
0.639 LW
N
276.91 135.435 M
275.358 126.304 L
S
GR
GS
[0.78257 0 0 0.78197 0 0.22835] CT
1 LJ
0.639 LW
N
141.715 117.173 M
146.224 126.304 L
S
GR
GS
[0.78257 0 0 0.78197 0 0.22835] CT
1 LJ
0.639 LW
N
275.358 126.304 M
271.635 117.173 L
S
GR
GS
[0.78257 0 0 0.78197 0 0.22835] CT
1 LJ
0.639 LW
N
132.396 108.042 M
135.211 110.333 L
141.715 117.173 L
S
GR
GS
[0.78257 0 0 0.78197 0 0.22835] CT
1 LJ
0.639 LW
N
271.635 117.173 M
268.368 112.75 L
263.898 108.042 L
S
GR
GS
[0.78257 0 0 0.78197 0 0.22835] CT
1 LJ
0.639 LW
N
114.801 98.911 M
121.895 102.111 L
132.396 108.042 L
S
GR
GS
[0.78257 0 0 0.78197 0 0.22835] CT
1 LJ
0.639 LW
N
263.898 108.042 M
255.053 102.141 L
248.668 98.911 L
S
GR
GS
[0.78257 0 0 0.78197 0 0.22835] CT
1 LJ
0.639 LW
N
92.205 89.78 M
95.263 91.091 L
108.579 96.403 L
114.801 98.911 L
S
GR
GS
[0.78257 0 0 0.78197 0 0.22835] CT
1 LJ
0.639 LW
N
248.668 98.911 M
241.737 95.966 L
228.421 90.846 L
225.66 89.78 L
S
GR
GS
[0.78257 0 0 0.78197 0 0.22835] CT
1 LJ
0.639 LW
N
76.736 80.65 M
81.947 84.241 L
92.205 89.78 L
S
GR
GS
[0.78257 0 0 0.78197 0 0.22835] CT
1 LJ
0.639 LW
N
225.66 89.78 M
215.105 84.959 L
207.457 80.65 L
S
GR
GS
[0.78257 0 0 0.78197 0 0.22835] CT
1 LJ
0.639 LW
N
68.876 71.519 M
76.736 80.65 L
S
GR
GS
[0.78257 0 0 0.78197 0 0.22835] CT
1 LJ
0.639 LW
N
207.457 80.65 M
201.789 75.702 L
197.979 71.519 L
S
GR
GS
[0.78257 0 0 0.78197 0 0.22835] CT
1 LJ
0.639 LW
N
65.265 62.388 M
68.632 70.984 L
68.876 71.519 L
S
GR
GS
[0.78257 0 0 0.78197 0 0.22835] CT
1 LJ
0.639 LW
N
197.979 71.519 M
193.747 62.388 L
S
GR
GS
[0.78257 0 0 0.78197 0 0.22835] CT
1 LJ
0.639 LW
N
64.221 53.257 M
65.265 62.388 L
S
GR
GS
[0.78257 0 0 0.78197 0 0.22835] CT
1 LJ
0.639 LW
N
193.747 62.388 M
192.519 53.257 L
S
GR
GS
[0.78257 0 0 0.78197 0 0.22835] CT
1 LJ
0.639 LW
N
78.672 217.612 M
77.081 226.743 L
S
GR
GS
[0.78257 0 0 0.78197 0 0.22835] CT
1 LJ
0.639 LW
N
178.735 226.743 M
179.296 217.612 L
S
GR
GS
[0.78257 0 0 0.78197 0 0.22835] CT
1 LJ
0.639 LW
N
84.255 208.481 M
81.947 211.746 L
78.672 217.612 L
S
GR
GS
[0.78257 0 0 0.78197 0 0.22835] CT
1 LJ
0.639 LW
N
179.296 217.612 M
181.314 208.481 L
S
GR
GS
[0.78257 0 0 0.78197 0 0.22835] CT
1 LJ
0.639 LW
N
96 199.35 M
95.263 199.78 L
84.255 208.481 L
S
GR
GS
[0.78257 0 0 0.78197 0 0.22835] CT
1 LJ
0.639 LW
N
181.314 208.481 M
186.423 199.35 L
S
GR
GS
[0.78257 0 0 0.78197 0 0.22835] CT
1 LJ
0.639 LW
N
117.563 190.22 M
108.579 193.617 L
96 199.35 L
S
GR
GS
[0.78257 0 0 0.78197 0 0.22835] CT
1 LJ
0.639 LW
N
186.423 199.35 M
188.474 197.441 L
198.963 190.22 L
S
GR
GS
[0.78257 0 0 0.78197 0 0.22835] CT
1 LJ
0.639 LW
N
140.596 181.089 M
135.211 183.482 L
121.895 188.581 L
117.563 190.22 L
S
GR
GS
[0.78257 0 0 0.78197 0 0.22835] CT
1 LJ
0.639 LW
N
198.963 190.22 M
201.789 189.063 L
215.105 184.045 L
223.335 181.089 L
S
GR
GS
[0.78257 0 0 0.78197 0 0.22835] CT
1 LJ
0.639 LW
N
152.184 171.958 M
148.526 175.487 L
140.596 181.089 L
S
GR
GS
[0.78257 0 0 0.78197 0 0.22835] CT
1 LJ
0.639 LW
N
223.335 181.089 M
228.421 179.362 L
241.737 173.818 L
245.243 171.958 L
S
GR
GS
[0.78257 0 0 0.78197 0 0.22835] CT
1 LJ
0.639 LW
N
156.968 162.827 M
152.184 171.958 L
S
GR
GS
[0.78257 0 0 0.78197 0 0.22835] CT
1 LJ
0.639 LW
N
245.243 171.958 M
255.053 164.982 L
257.309 162.827 L
S
GR
GS
[0.78257 0 0 0.78197 0 0.22835] CT
1 LJ
0.639 LW
N
159.037 153.696 M
156.968 162.827 L
S
GR
GS
[0.78257 0 0 0.78197 0 0.22835] CT
1 LJ
0.639 LW
N
257.309 162.827 M
263.182 153.696 L
S
GR
GS
[0.78257 0 0 0.78197 0 0.22835] CT
1 LJ
0.639 LW
N
159.865 144.565 M
159.037 153.696 L
S
GR
GS
[0.78257 0 0 0.78197 0 0.22835] CT
1 LJ
0.639 LW
N
263.182 153.696 M
265.738 144.565 L
S
GR
GS
[0.78257 0 0 0.78197 0 0.22835] CT
1 LJ
0.639 LW
N
159.865 135.435 M
159.865 144.565 L
S
GR
GS
[0.78257 0 0 0.78197 0 0.22835] CT
1 LJ
0.639 LW
N
265.738 144.565 M
265.738 135.435 L
S
GR
GS
[0.78257 0 0 0.78197 0 0.22835] CT
1 LJ
0.639 LW
N
159.037 126.304 M
159.865 135.435 L
S
GR
GS
[0.78257 0 0 0.78197 0 0.22835] CT
1 LJ
0.639 LW
N
265.738 135.435 M
263.182 126.304 L
S
GR
GS
[0.78257 0 0 0.78197 0 0.22835] CT
1 LJ
0.639 LW
N
156.968 117.173 M
159.037 126.304 L
S
GR
GS
[0.78257 0 0 0.78197 0 0.22835] CT
1 LJ
0.639 LW
N
263.182 126.304 M
257.309 117.173 L
S
GR
GS
[0.78257 0 0 0.78197 0 0.22835] CT
1 LJ
0.639 LW
N
152.184 108.042 M
156.968 117.173 L
S
GR
GS
[0.78257 0 0 0.78197 0 0.22835] CT
1 LJ
0.639 LW
N
257.309 117.173 M
255.053 115.018 L
245.243 108.042 L
S
GR
GS
[0.78257 0 0 0.78197 0 0.22835] CT
1 LJ
0.639 LW
N
140.596 98.911 M
148.526 104.513 L
152.184 108.042 L
S
GR
GS
[0.78257 0 0 0.78197 0 0.22835] CT
1 LJ
0.639 LW
N
245.243 108.042 M
241.737 106.182 L
228.421 100.638 L
223.335 98.911 L
S
GR
GS
[0.78257 0 0 0.78197 0 0.22835] CT
1 LJ
0.639 LW
N
117.563 89.78 M
121.895 91.419 L
135.211 96.518 L
140.596 98.911 L
S
GR
GS
[0.78257 0 0 0.78197 0 0.22835] CT
1 LJ
0.639 LW
N
223.335 98.911 M
215.105 95.955 L
201.789 90.937 L
198.963 89.78 L
S
GR
GS
[0.78257 0 0 0.78197 0 0.22835] CT
1 LJ
0.639 LW
N
96 80.65 M
108.579 86.383 L
117.563 89.78 L
S
GR
GS
[0.78257 0 0 0.78197 0 0.22835] CT
1 LJ
0.639 LW
N
198.963 89.78 M
188.474 82.559 L
186.423 80.65 L
S
GR
GS
[0.78257 0 0 0.78197 0 0.22835] CT
1 LJ
0.639 LW
N
84.255 71.519 M
95.263 80.22 L
96 80.65 L
S
GR
GS
[0.78257 0 0 0.78197 0 0.22835] CT
1 LJ
0.639 LW
N
186.423 80.65 M
181.314 71.519 L
S
GR
GS
[0.78257 0 0 0.78197 0 0.22835] CT
1 LJ
0.639 LW
N
78.672 62.388 M
81.947 68.254 L
84.255 71.519 L
S
GR
GS
[0.78257 0 0 0.78197 0 0.22835] CT
1 LJ
0.639 LW
N
181.314 71.519 M
179.296 62.388 L
S
GR
GS
[0.78257 0 0 0.78197 0 0.22835] CT
1 LJ
0.639 LW
N
77.081 53.257 M
78.672 62.388 L
S
GR
GS
[0.78257 0 0 0.78197 0 0.22835] CT
1 LJ
0.639 LW
N
179.296 62.388 M
178.735 53.257 L
S
GR
GS
[0.78257 0 0 0.78197 0 0.22835] CT
1 LJ
0.639 LW
N
94.043 217.612 M
91.73 226.743 L
S
GR
GS
[0.78257 0 0 0.78197 0 0.22835] CT
1 LJ
0.639 LW
N
163.499 226.743 M
163.178 217.612 L
S
GR
GS
[0.78257 0 0 0.78197 0 0.22835] CT
1 LJ
0.639 LW
N
103.345 208.481 M
95.263 216.007 L
94.043 217.612 L
S
GR
GS
[0.78257 0 0 0.78197 0 0.22835] CT
1 LJ
0.639 LW
N
163.178 217.612 M
161.964 208.481 L
S
GR
GS
[0.78257 0 0 0.78197 0 0.22835] CT
1 LJ
0.639 LW
N
125.504 199.35 M
121.895 200.13 L
108.579 205.414 L
103.345 208.481 L
S
GR
GS
[0.78257 0 0 0.78197 0 0.22835] CT
1 LJ
0.639 LW
N
161.964 208.481 M
161.842 208.008 L
155.68 199.35 L
S
GR
GS
[0.78257 0 0 0.78197 0 0.22835] CT
1 LJ
0.639 LW
N
155.68 199.35 M
148.526 196.558 L
135.211 197.253 L
125.504 199.35 L
S
GR
GS
[0.78257 0 0 0.78197 0 0.22835] CT
1 LJ
0.639 LW
N
178.866 171.958 M
188.474 176.321 L
201.789 175.716 L
215.105 173.226 L
219.212 171.958 L
S
GR
GS
[0.78257 0 0 0.78197 0 0.22835] CT
1 LJ
0.639 LW
N
174.258 162.827 M
175.158 166.319 L
178.866 171.958 L
S
GR
GS
[0.78257 0 0 0.78197 0 0.22835] CT
1 LJ
0.639 LW
N
219.212 171.958 M
228.421 168.932 L
240.502 162.827 L
S
GR
GS
[0.78257 0 0 0.78197 0 0.22835] CT
1 LJ
0.639 LW
N
173.072 153.696 M
174.258 162.827 L
S
GR
GS
[0.78257 0 0 0.78197 0 0.22835] CT
1 LJ
0.639 LW
N
240.502 162.827 M
241.737 161.953 L
249.54 153.696 L
S
GR
GS
[0.78257 0 0 0.78197 0 0.22835] CT
1 LJ
0.639 LW
N
172.623 144.565 M
173.072 153.696 L
S
GR
GS
[0.78257 0 0 0.78197 0 0.22835] CT
1 LJ
0.639 LW
N
249.54 153.696 M
253.55 144.565 L
S
GR
GS
[0.78257 0 0 0.78197 0 0.22835] CT
1 LJ
0.639 LW
N
172.623 135.435 M
172.623 144.565 L
S
GR
GS
[0.78257 0 0 0.78197 0 0.22835] CT
1 LJ
0.639 LW
N
253.55 144.565 M
253.55 135.435 L
S
GR
GS
[0.78257 0 0 0.78197 0 0.22835] CT
1 LJ
0.639 LW
N
173.072 126.304 M
172.623 135.435 L
S
GR
GS
[0.78257 0 0 0.78197 0 0.22835] CT
1 LJ
0.639 LW
N
253.55 135.435 M
249.54 126.304 L
S
GR
GS
[0.78257 0 0 0.78197 0 0.22835] CT
1 LJ
0.639 LW
N
174.258 117.173 M
173.072 126.304 L
S
GR
GS
[0.78257 0 0 0.78197 0 0.22835] CT
1 LJ
0.639 LW
N
249.54 126.304 M
241.737 118.047 L
240.502 117.173 L
S
GR
GS
[0.78257 0 0 0.78197 0 0.22835] CT
1 LJ
0.639 LW
N
178.866 108.042 M
175.158 113.681 L
174.258 117.173 L
S
GR
GS
[0.78257 0 0 0.78197 0 0.22835] CT
1 LJ
0.639 LW
N
240.502 117.173 M
228.421 111.068 L
219.212 108.042 L
S
GR
GS
[0.78257 0 0 0.78197 0 0.22835] CT
1 LJ
0.639 LW
N
219.212 108.042 M
215.105 106.774 L
201.789 104.284 L
188.474 103.679 L
178.866 108.042 L
S
GR
GS
[0.78257 0 0 0.78197 0 0.22835] CT
1 LJ
0.639 LW
N
125.504 80.65 M
135.211 82.747 L
148.526 83.442 L
155.68 80.65 L
S
GR
GS
[0.78257 0 0 0.78197 0 0.22835] CT
1 LJ
0.639 LW
N
103.345 71.519 M
108.579 74.586 L
121.895 79.87 L
125.504 80.65 L
S
GR
GS
[0.78257 0 0 0.78197 0 0.22835] CT
1 LJ
0.639 LW
N
155.68 80.65 M
161.842 71.992 L
161.964 71.519 L
S
GR
GS
[0.78257 0 0 0.78197 0 0.22835] CT
1 LJ
0.639 LW
N
94.043 62.388 M
95.263 63.993 L
103.345 71.519 L
S
GR
GS
[0.78257 0 0 0.78197 0 0.22835] CT
1 LJ
0.639 LW
N
161.964 71.519 M
163.178 62.388 L
S
GR
GS
[0.78257 0 0 0.78197 0 0.22835] CT
1 LJ
0.639 LW
N
91.73 53.257 M
94.043 62.388 L
S
GR
GS
[0.78257 0 0 0.78197 0 0.22835] CT
1 LJ
0.639 LW
N
163.178 62.388 M
163.499 53.257 L
S
GR
GS
[0.78257 0 0 0.78197 0 0.22835] CT
1 LJ
0.639 LW
N
138.983 226.743 M
135.211 218.646 L
121.895 218.091 L
115.917 226.743 L
S
GR
GS
[0.78257 0 0 0.78197 0 0.22835] CT
1 LJ
0.639 LW
N
192.873 153.696 M
201.789 159.786 L
215.105 160.067 L
228.421 155.336 L
230.739 153.696 L
S
GR
GS
[0.78257 0 0 0.78197 0 0.22835] CT
1 LJ
0.639 LW
N
188.383 144.565 M
188.474 144.91 L
192.873 153.696 L
S
GR
GS
[0.78257 0 0 0.78197 0 0.22835] CT
1 LJ
0.639 LW
N
230.739 153.696 M
237.436 144.565 L
S
GR
GS
[0.78257 0 0 0.78197 0 0.22835] CT
1 LJ
0.639 LW
N
188.383 135.435 M
188.383 144.565 L
S
GR
GS
[0.78257 0 0 0.78197 0 0.22835] CT
1 LJ
0.639 LW
N
237.436 144.565 M
237.436 135.435 L
S
GR
GS
[0.78257 0 0 0.78197 0 0.22835] CT
1 LJ
0.639 LW
N
192.873 126.304 M
188.474 135.09 L
188.383 135.435 L
S
GR
GS
[0.78257 0 0 0.78197 0 0.22835] CT
1 LJ
0.639 LW
N
237.436 135.435 M
230.739 126.304 L
S
GR
GS
[0.78257 0 0 0.78197 0 0.22835] CT
1 LJ
0.639 LW
N
230.739 126.304 M
228.421 124.664 L
215.105 119.933 L
201.789 120.214 L
192.873 126.304 L
S
GR
GS
[0.78257 0 0 0.78197 0 0.22835] CT
1 LJ
0.639 LW
N
115.917 53.257 M
121.895 61.909 L
135.211 61.354 L
138.983 53.257 L
S
GR
GS
[0.78257 0 0 0.78197 0 0.22835] CT
1 0 0 RC
1 LJ
0.639 LW
N
64.435 195.272 M
69.461 195.004 L
65.152 197.606 L
S
GR
GS
[0.78257 0 0 0.78197 0 0.22835] CT
1 0 0 RC
1 LJ
0.639 LW
N
66.095 172.166 M
72.78 169.922 L
67.938 175.047 L
S
GR
GS
[0.78257 0 0 0.78197 0 0.22835] CT
1 0 0 RC
1 LJ
0.639 LW
N
68.021 152.231 M
75.914 149.548 L
70.212 155.629 L
S
GR
GS
[0.78257 0 0 0.78197 0 0.22835] CT
1 0 0 RC
1 LJ
0.639 LW
N
69.401 136.172 M
77.544 134.775 L
71.016 139.839 L
S
GR
GS
[0.78257 0 0 0.78197 0 0.22835] CT
1 0 0 RC
1 LJ
0.639 LW
N
69.652 123.06 M
76.98 124.13 L
70.01 126.635 L
S
GR
GS
[0.78257 0 0 0.78197 0 0.22835] CT
1 0 0 RC
1 LJ
0.639 LW
N
68.668 110.724 M
74.462 114.402 L
67.619 113.883 L
S
GR
GS
[0.78257 0 0 0.78197 0 0.22835] CT
1 0 0 RC
1 LJ
0.639 LW
N
66.865 96.664 M
71.05 101.992 L
64.851 99.26 L
S
GR
GS
[0.78257 0 0 0.78197 0 0.22835] CT
1 0 0 RC
1 LJ
0.639 LW
N
83.513 198.73 M
84.361 198.722 L
83.617 199.128 L
S
GR
GS
[0.78257 0 0 0.78197 0 0.22835] CT
1 0 0 RC
1 LJ
0.639 LW
N
88.741 175.666 M
92.917 174.346 L
89.853 177.476 L
S
GR
GS
[0.78257 0 0 0.78197 0 0.22835] CT
1 0 0 RC
1 LJ
0.639 LW
N
93.886 154.547 M
100.999 152.815 L
95.538 157.691 L
S
GR
GS
[0.78257 0 0 0.78197 0 0.22835] CT
1 0 0 RC
1 LJ
0.639 LW
N
96.779 136.577 M
105.2 135.505 L
98.274 140.413 L
S
GR
GS
[0.78257 0 0 0.78197 0 0.22835] CT
1 0 0 RC
1 LJ
0.639 LW
N
96.199 121.633 M
103.747 122.017 L
96.907 125.23 L
S
GR
GS
[0.78257 0 0 0.78197 0 0.22835] CT
1 0 0 RC
1 LJ
0.639 LW
N
92.392 108.316 M
97.254 110.336 L
92.013 110.842 L
S
GR
GS
[0.78257 0 0 0.78197 0 0.22835] CT
1 0 0 RC
1 LJ
0.639 LW
N
86.962 94.541 M
88.458 97.688 L
85.657 95.616 L
S
GR
GS
[0.78257 0 0 0.78197 0 0.22835] CT
1 0 0 RC
1 LJ
0.639 LW
N
102.086 203.712 M
98.243 204.588 L
101.222 202.007 L
S
GR
GS
[0.78257 0 0 0.78197 0 0.22835] CT
1 0 0 RC
1 LJ
0.639 LW
N
108.498 181.263 M
108.428 181.33 L
108.458 181.238 L
S
GR
GS
[0.78257 0 0 0.78197 0 0.22835] CT
1 0 0 RC
1 LJ
0.639 LW
N
114.523 158.792 M
118.049 157.97 L
115.325 160.354 L
S
GR
GS
[0.78257 0 0 0.78197 0 0.22835] CT
1 0 0 RC
1 LJ
0.639 LW
N
117.622 138.074 M
123.05 136.659 L
118.927 140.462 L
S
GR
GS
[0.78257 0 0 0.78197 0 0.22835] CT
1 0 0 RC
1 LJ
0.639 LW
N
116.487 120.146 M
121.321 118.682 L
117.745 122.248 L
S
GR
GS
[0.78257 0 0 0.78197 0 0.22835] CT
1 0 0 RC
1 LJ
0.639 LW
N
111.597 104.866 M
113.591 103.919 L
112.277 105.693 L
S
GR
GS
[0.78257 0 0 0.78197 0 0.22835] CT
1 0 0 RC
1 LJ
0.639 LW
N
105.014 90.977 M
103.121 90.895 L
104.83 90.077 L
S
GR
GS
[0.78257 0 0 0.78197 0 0.22835] CT
1 0 0 RC
1 LJ
0.639 LW
N
123.553 208.118 M
116.484 210.13 L
121.775 205.028 L
S
GR
GS
[0.78257 0 0 0.78197 0 0.22835] CT
1 0 0 RC
1 LJ
0.639 LW
N
128.266 186.595 M
124.003 187.928 L
127.137 184.746 L
S
GR
GS
[0.78257 0 0 0.78197 0 0.22835] CT
1 0 0 RC
1 LJ
0.639 LW
N
132.462 163.175 M
131.106 162.841 L
132.459 162.498 L
S
GR
GS
[0.78257 0 0 0.78197 0 0.22835] CT
1 0 0 RC
1 LJ
0.639 LW
N
134.371 140.032 M
134.797 137.748 L
135.496 139.964 L
S
GR
GS
[0.78257 0 0 0.78197 0 0.22835] CT
1 0 0 RC
1 LJ
0.639 LW
N
133.19 119.225 M
133.521 115.531 L
134.967 118.946 L
S
GR
GS
[0.78257 0 0 0.78197 0 0.22835] CT
1 0 0 RC
1 LJ
0.639 LW
N
129.415 101.828 M
127.814 97.856 L
131.095 100.607 L
S
GR
GS
[0.78257 0 0 0.78197 0 0.22835] CT
1 0 0 RC
1 LJ
0.639 LW
N
124.639 87.475 M
120.085 84.477 L
125.514 84.979 L
S
GR
GS
[0.78257 0 0 0.78197 0 0.22835] CT
1 0 0 RC
1 LJ
0.639 LW
N
150.092 210.088 M
142.622 213.011 L
147.838 206.917 L
S
GR
GS
[0.78257 0 0 0.78197 0 0.22835] CT
1 0 0 RC
1 LJ
0.639 LW
N
150.939 189.415 M
144.304 191.356 L
149.245 186.521 L
S
GR
GS
[0.78257 0 0 0.78197 0 0.22835] CT
1 0 0 RC
1 LJ
0.639 LW
N
151.366 165.848 M
145.893 165.372 L
150.946 163.217 L
S
GR
GS
[0.78257 0 0 0.78197 0 0.22835] CT
1 0 0 RC
1 LJ
0.639 LW
N
151.194 141.625 M
146.719 138.315 L
152.225 139.13 L
S
GR
GS
[0.78257 0 0 0.78197 0 0.22835] CT
1 0 0 RC
1 LJ
0.639 LW
N
150.494 119.26 M
146.433 113.893 L
152.542 116.717 L
S
GR
GS
[0.78257 0 0 0.78197 0 0.22835] CT
1 0 0 RC
1 LJ
0.639 LW
N
149.563 100.483 M
145.157 94.705 L
151.763 97.73 L
S
GR
GS
[0.78257 0 0 0.78197 0 0.22835] CT
1 0 0 RC
1 LJ
0.639 LW
N
148.792 85.512 M
143.428 81.142 L
150.217 82.473 L
S
GR
GS
[0.78257 0 0 0.78197 0 0.22835] CT
1 0 0 RC
1 LJ
0.639 LW
N
181.741 208.793 M
176.865 212.014 L
179.651 206.878 L
S
GR
GS
[0.78257 0 0 0.78197 0 0.22835] CT
1 0 0 RC
1 LJ
0.639 LW
N
178.187 188.533 M
172.001 190.171 L
176.688 185.815 L
S
GR
GS
[0.78257 0 0 0.78197 0 0.22835] CT
1 0 0 RC
1 LJ
0.639 LW
N
174.496 165.684 M
167.407 164.497 L
174.221 162.208 L
S
GR
GS
[0.78257 0 0 0.78197 0 0.22835] CT
1 0 0 RC
1 LJ
0.639 LW
N
172.227 142.181 M
165.018 138.119 L
173.291 138.311 L
S
GR
GS
[0.78257 0 0 0.78197 0 0.22835] CT
1 0 0 RC
1 LJ
0.639 LW
N
172.335 120.235 M
165.844 114.459 L
174.289 116.501 L
S
GR
GS
[0.78257 0 0 0.78197 0 0.22835] CT
1 0 0 RC
1 LJ
0.639 LW
N
174.775 101.399 M
169.536 95.795 L
176.796 98.274 L
S
GR
GS
[0.78257 0 0 0.78197 0 0.22835] CT
1 0 0 RC
1 LJ
0.639 LW
N
178.518 85.915 M
174.536 82.295 L
179.753 83.616 L
S
GR
GS
[0.78257 0 0 0.78197 0 0.22835] CT
1 0 0 RC
1 LJ
0.639 LW
N
216.385 204.778 M
216.004 207.562 L
215.03 204.926 L
S
GR
GS
[0.78257 0 0 0.78197 0 0.22835] CT
1 0 0 RC
1 LJ
0.639 LW
N
209.749 184.32 M
206.645 184.87 L
209.125 182.924 L
S
GR
GS
[0.78257 0 0 0.78197 0 0.22835] CT
1 0 0 RC
1 LJ
0.639 LW
N
203.329 162.751 M
197.804 160.584 L
203.699 159.897 L
S
GR
GS
[0.78257 0 0 0.78197 0 0.22835] CT
1 0 0 RC
1 LJ
0.639 LW
N
199.831 141.466 M
193.209 137.243 L
201.039 137.853 L
S
GR
GS
[0.78257 0 0 0.78197 0 0.22835] CT
1 0 0 RC
1 LJ
0.639 LW
N
200.731 121.739 M
194.798 116.991 L
202.268 118.389 L
S
GR
GS
[0.78257 0 0 0.78197 0 0.22835] CT
1 0 0 RC
1 LJ
0.639 LW
N
205.65 104.189 M
201.901 100.666 L
206.867 102.011 L
S
GR
GS
[0.78257 0 0 0.78197 0 0.22835] CT
1 0 0 RC
1 LJ
0.639 LW
N
212.513 88.515 M
211.523 87.451 L
212.897 87.924 L
S
GR
GS
[0.78257 0 0 0.78197 0 0.22835] CT
1 0 0 RC
1 LJ
0.639 LW
N
250.645 199.737 M
254.764 201.531 L
250.285 201.886 L
S
GR
GS
[0.78257 0 0 0.78197 0 0.22835] CT
1 0 0 RC
1 LJ
0.639 LW
N
243.547 178.555 M
244.857 177.691 L
244.108 179.07 L
S
GR
GS
[0.78257 0 0 0.78197 0 0.22835] CT
1 0 0 RC
1 LJ
0.639 LW
N
236.935 158.288 M
235.498 155.284 L
238.179 157.258 L
S
GR
GS
[0.78257 0 0 0.78197 0 0.22835] CT
1 0 0 RC
1 LJ
0.639 LW
N
233.596 139.781 M
230.634 136.058 L
235 137.949 L
S
GR
GS
[0.78257 0 0 0.78197 0 0.22835] CT
1 0 0 RC
1 LJ
0.639 LW
N
234.94 123.139 M
232.316 120.42 L
235.911 121.584 L
S
GR
GS
[0.78257 0 0 0.78197 0 0.22835] CT
1 0 0 RC
1 LJ
0.639 LW
N
240.398 107.677 M
239.835 107.263 L
240.527 107.363 L
S
GR
GS
[0.78257 0 0 0.78197 0 0.22835] CT
1 0 0 RC
1 LJ
0.639 LW
N
247.67 92.216 M
250.02 94.435 L
246.902 93.582 L
S
GR
GS
[0.78257 0 0 0.78197 0 0.22835] CT
1 0 0 RC
1 LJ
0.639 LW
N
281.303 195.795 M
288.03 196.465 L
281.78 199.039 L
S
GR
GS
[0.78257 0 0 0.78197 0 0.22835] CT
1 0 0 RC
1 LJ
0.639 LW
N
276.558 173.667 M
281.753 171.66 L
278.114 175.875 L
S
GR
GS
[0.78257 0 0 0.78197 0 0.22835] CT
1 0 0 RC
1 LJ
0.639 LW
N
272.373 154.175 M
275.823 150.831 L
274.353 155.405 L
S
GR
GS
[0.78257 0 0 0.78197 0 0.22835] CT
1 0 0 RC
1 LJ
0.639 LW
N
270.514 137.837 M
272.741 135.062 L
272.082 138.559 L
S
GR
GS
[0.78257 0 0 0.78197 0 0.22835] CT
1 0 0 RC
1 LJ
0.639 LW
N
271.764 123.843 M
273.807 123.3 L
272.26 124.74 L
S
GR
GS
[0.78257 0 0 0.78197 0 0.22835] CT
1 0 0 RC
1 LJ
0.639 LW
N
275.597 110.392 M
278.571 112.805 L
274.811 112.075 L
S
GR
GS
[0.78257 0 0 0.78197 0 0.22835] CT
1 0 0 RC
1 LJ
0.639 LW
N
280.396 95.456 M
285.024 100.302 L
278.66 98.204 L
S
GR
GS
[0.78257 0 0 0.78197 0 0.22835] CT
1 0 0 RC
1 LJ
0.639 LW
N
55.316 199.35 M
69.461 195.004 L
S
GR
GS
[0.78257 0 0 0.78197 0 0.22835] CT
1 0 0 RC
1 LJ
0.639 LW
N
55.316 181.089 M
72.78 169.922 L
S
GR
GS
[0.78257 0 0 0.78197 0 0.22835] CT
1 0 0 RC
1 LJ
0.639 LW
N
55.316 162.827 M
75.914 149.548 L
S
GR
GS
[0.78257 0 0 0.78197 0 0.22835] CT
1 0 0 RC
1 LJ
0.639 LW
N
55.316 144.565 M
77.544 134.775 L
S
GR
GS
[0.78257 0 0 0.78197 0 0.22835] CT
1 0 0 RC
1 LJ
0.639 LW
N
55.316 126.304 M
76.98 124.13 L
S
GR
GS
[0.78257 0 0 0.78197 0 0.22835] CT
1 0 0 RC
1 LJ
0.639 LW
N
55.316 108.042 M
74.462 114.402 L
S
GR
GS
[0.78257 0 0 0.78197 0 0.22835] CT
1 0 0 RC
1 LJ
0.639 LW
N
55.316 89.78 M
71.05 101.992 L
S
GR
GS
[0.78257 0 0 0.78197 0 0.22835] CT
1 0 0 RC
1 LJ
0.639 LW
N
81.947 199.35 M
84.361 198.722 L
S
GR
GS
[0.78257 0 0 0.78197 0 0.22835] CT
1 0 0 RC
1 LJ
0.639 LW
N
81.947 181.089 M
92.917 174.346 L
S
GR
GS
[0.78257 0 0 0.78197 0 0.22835] CT
1 0 0 RC
1 LJ
0.639 LW
N
81.947 162.827 M
100.999 152.815 L
S
GR
GS
[0.78257 0 0 0.78197 0 0.22835] CT
1 0 0 RC
1 LJ
0.639 LW
N
81.947 144.565 M
105.2 135.505 L
S
GR
GS
[0.78257 0 0 0.78197 0 0.22835] CT
1 0 0 RC
1 LJ
0.639 LW
N
81.947 126.304 M
103.747 122.017 L
S
GR
GS
[0.78257 0 0 0.78197 0 0.22835] CT
1 0 0 RC
1 LJ
0.639 LW
N
81.947 108.042 M
97.254 110.336 L
S
GR
GS
[0.78257 0 0 0.78197 0 0.22835] CT
1 0 0 RC
1 LJ
0.639 LW
N
81.947 89.78 M
88.458 97.688 L
S
GR
GS
[0.78257 0 0 0.78197 0 0.22835] CT
1 0 0 RC
1 LJ
0.639 LW
N
108.579 199.35 M
98.243 204.588 L
S
GR
GS
[0.78257 0 0 0.78197 0 0.22835] CT
1 0 0 RC
1 LJ
0.639 LW
N
108.579 181.089 M
108.428 181.33 L
S
GR
GS
[0.78257 0 0 0.78197 0 0.22835] CT
1 0 0 RC
1 LJ
0.639 LW
N
108.579 162.827 M
118.049 157.97 L
S
GR
GS
[0.78257 0 0 0.78197 0 0.22835] CT
1 0 0 RC
1 LJ
0.639 LW
N
108.579 144.565 M
123.05 136.659 L
S
GR
GS
[0.78257 0 0 0.78197 0 0.22835] CT
1 0 0 RC
1 LJ
0.639 LW
N
108.579 126.304 M
121.321 118.682 L
S
GR
GS
[0.78257 0 0 0.78197 0 0.22835] CT
1 0 0 RC
1 LJ
0.639 LW
N
108.579 108.042 M
113.591 103.919 L
S
GR
GS
[0.78257 0 0 0.78197 0 0.22835] CT
1 0 0 RC
1 LJ
0.639 LW
N
108.579 89.78 M
103.121 90.895 L
S
GR
GS
[0.78257 0 0 0.78197 0 0.22835] CT
1 0 0 RC
1 LJ
0.639 LW
N
135.211 199.35 M
116.484 210.13 L
S
GR
GS
[0.78257 0 0 0.78197 0 0.22835] CT
1 0 0 RC
1 LJ
0.639 LW
N
135.211 181.089 M
124.003 187.928 L
S
GR
GS
[0.78257 0 0 0.78197 0 0.22835] CT
1 0 0 RC
1 LJ
0.639 LW
N
135.211 162.827 M
131.106 162.841 L
S
GR
GS
[0.78257 0 0 0.78197 0 0.22835] CT
1 0 0 RC
1 LJ
0.639 LW
N
135.211 144.565 M
134.797 137.748 L
S
GR
GS
[0.78257 0 0 0.78197 0 0.22835] CT
1 0 0 RC
1 LJ
0.639 LW
N
135.211 126.304 M
133.521 115.531 L
S
GR
GS
[0.78257 0 0 0.78197 0 0.22835] CT
1 0 0 RC
1 LJ
0.639 LW
N
135.211 108.042 M
127.814 97.856 L
S
GR
GS
[0.78257 0 0 0.78197 0 0.22835] CT
1 0 0 RC
1 LJ
0.639 LW
N
135.211 89.78 M
120.085 84.477 L
S
GR
GS
[0.78257 0 0 0.78197 0 0.22835] CT
1 0 0 RC
1 LJ
0.639 LW
N
161.842 199.35 M
142.622 213.011 L
S
GR
GS
[0.78257 0 0 0.78197 0 0.22835] CT
1 0 0 RC
1 LJ
0.639 LW
N
161.842 181.089 M
144.304 191.356 L
S
GR
GS
[0.78257 0 0 0.78197 0 0.22835] CT
1 0 0 RC
1 LJ
0.639 LW
N
161.842 162.827 M
145.893 165.372 L
S
GR
GS
[0.78257 0 0 0.78197 0 0.22835] CT
1 0 0 RC
1 LJ
0.639 LW
N
161.842 144.565 M
146.719 138.315 L
S
GR
GS
[0.78257 0 0 0.78197 0 0.22835] CT
1 0 0 RC
1 LJ
0.639 LW
N
161.842 126.304 M
146.433 113.893 L
S
GR
GS
[0.78257 0 0 0.78197 0 0.22835] CT
1 0 0 RC
1 LJ
0.639 LW
N
161.842 108.042 M
145.157 94.705 L
S
GR
GS
[0.78257 0 0 0.78197 0 0.22835] CT
1 0 0 RC
1 LJ
0.639 LW
N
161.842 89.78 M
143.428 81.142 L
S
GR
GS
[0.78257 0 0 0.78197 0 0.22835] CT
1 0 0 RC
1 LJ
0.639 LW
N
188.474 199.35 M
176.865 212.014 L
S
GR
GS
[0.78257 0 0 0.78197 0 0.22835] CT
1 0 0 RC
1 LJ
0.639 LW
N
188.474 181.089 M
172.001 190.171 L
S
GR
GS
[0.78257 0 0 0.78197 0 0.22835] CT
1 0 0 RC
1 LJ
0.639 LW
N
188.474 162.827 M
167.407 164.497 L
S
GR
GS
[0.78257 0 0 0.78197 0 0.22835] CT
1 0 0 RC
1 LJ
0.639 LW
N
188.474 144.565 M
165.018 138.119 L
S
GR
GS
[0.78257 0 0 0.78197 0 0.22835] CT
1 0 0 RC
1 LJ
0.639 LW
N
188.474 126.304 M
165.844 114.459 L
S
GR
GS
[0.78257 0 0 0.78197 0 0.22835] CT
1 0 0 RC
1 LJ
0.639 LW
N
188.474 108.042 M
169.536 95.795 L
S
GR
GS
[0.78257 0 0 0.78197 0 0.22835] CT
1 0 0 RC
1 LJ
0.639 LW
N
188.474 89.78 M
174.536 82.295 L
S
GR
GS
[0.78257 0 0 0.78197 0 0.22835] CT
1 0 0 RC
1 LJ
0.639 LW
N
215.105 199.35 M
216.004 207.562 L
S
GR
GS
[0.78257 0 0 0.78197 0 0.22835] CT
1 0 0 RC
1 LJ
0.639 LW
N
215.105 181.089 M
206.645 184.87 L
S
GR
GS
[0.78257 0 0 0.78197 0 0.22835] CT
1 0 0 RC
1 LJ
0.639 LW
N
215.105 162.827 M
197.804 160.584 L
S
GR
GS
[0.78257 0 0 0.78197 0 0.22835] CT
1 0 0 RC
1 LJ
0.639 LW
N
215.105 144.565 M
193.209 137.243 L
S
GR
GS
[0.78257 0 0 0.78197 0 0.22835] CT
1 0 0 RC
1 LJ
0.639 LW
N
215.105 126.304 M
194.798 116.991 L
S
GR
GS
[0.78257 0 0 0.78197 0 0.22835] CT
1 0 0 RC
1 LJ
0.639 LW
N
215.105 108.042 M
201.901 100.666 L
S
GR
GS
[0.78257 0 0 0.78197 0 0.22835] CT
1 0 0 RC
1 LJ
0.639 LW
N
215.105 89.78 M
211.523 87.451 L
S
GR
GS
[0.78257 0 0 0.78197 0 0.22835] CT
1 0 0 RC
1 LJ
0.639 LW
N
241.737 199.35 M
254.764 201.531 L
S
GR
GS
[0.78257 0 0 0.78197 0 0.22835] CT
1 0 0 RC
1 LJ
0.639 LW
N
241.737 181.089 M
244.857 177.691 L
S
GR
GS
[0.78257 0 0 0.78197 0 0.22835] CT
1 0 0 RC
1 LJ
0.639 LW
N
241.737 162.827 M
235.498 155.284 L
S
GR
GS
[0.78257 0 0 0.78197 0 0.22835] CT
1 0 0 RC
1 LJ
0.639 LW
N
241.737 144.565 M
230.634 136.058 L
S
GR
GS
[0.78257 0 0 0.78197 0 0.22835] CT
1 0 0 RC
1 LJ
0.639 LW
N
241.737 126.304 M
232.316 120.42 L
S
GR
GS
[0.78257 0 0 0.78197 0 0.22835] CT
1 0 0 RC
1 LJ
0.639 LW
N
241.737 108.042 M
239.835 107.263 L
S
GR
GS
[0.78257 0 0 0.78197 0 0.22835] CT
1 0 0 RC
1 LJ
0.639 LW
N
241.737 89.78 M
250.02 94.435 L
S
GR
GS
[0.78257 0 0 0.78197 0 0.22835] CT
1 0 0 RC
1 LJ
0.639 LW
N
268.368 199.35 M
288.03 196.465 L
S
GR
GS
[0.78257 0 0 0.78197 0 0.22835] CT
1 0 0 RC
1 LJ
0.639 LW
N
268.368 181.089 M
281.753 171.66 L
S
GR
GS
[0.78257 0 0 0.78197 0 0.22835] CT
1 0 0 RC
1 LJ
0.639 LW
N
268.368 162.827 M
275.823 150.831 L
S
GR
GS
[0.78257 0 0 0.78197 0 0.22835] CT
1 0 0 RC
1 LJ
0.639 LW
N
268.368 144.565 M
272.741 135.062 L
S
GR
GS
[0.78257 0 0 0.78197 0 0.22835] CT
1 0 0 RC
1 LJ
0.639 LW
N
268.368 126.304 M
273.807 123.3 L
S
GR
GS
[0.78257 0 0 0.78197 0 0.22835] CT
1 0 0 RC
1 LJ
0.639 LW
N
268.368 108.042 M
278.571 112.805 L
S
GR
GS
[0.78257 0 0 0.78197 0 0.22835] CT
1 0 0 RC
1 LJ
0.639 LW
N
268.368 89.78 M
285.024 100.302 L
S
GR
GS
[0.78257 0 0 0.78197 0 0.22835] CT
0.149 GC
2 setlinecap
1 LJ
0.639 LW
N
42 226.743 M
295 226.743 L
S
GR
GS
[0.78257 0 0 0.78197 0 0.22835] CT
0.149 GC
2 setlinecap
1 LJ
0.639 LW
N
42 53.257 M
295 53.257 L
S
GR
GS
[0.78257 0 0 0.78197 0 0.22835] CT
0.149 GC
2 setlinecap
1 LJ
0.639 LW
N
42 226.743 M
42 53.257 L
S
GR
GS
[0.78257 0 0 0.78197 0 0.22835] CT
0.149 GC
2 setlinecap
1 LJ
0.639 LW
N
295 226.743 M
295 53.257 L
S
GR
%%Trailer
%%Pages: 1
%%EOF
