%!PS-Adobe-3.0 EPSF-3.0
%%Creator: (MATLAB, The Mathworks, Inc. Version 9.10.0.1684407 \(R2021a\) Update 3. Operating System: Linux)
%%Title: /home/adoan/Code/PRoSA_PI-ESN_Git/pi-esn/Results/MFE_results/Figures/FIG7A.eps
%%CreationDate: 2021-07-21T18:41:54
%%Pages: (atend)
%%BoundingBox:     0     0   247   232
%%LanguageLevel: 3
%%EndComments
%%BeginProlog
%%BeginResource: procset (Apache XML Graphics Std ProcSet) 1.2 0
%%Version: 1.2 0
%%Copyright: (Copyright 2001-2003,2010 The Apache Software Foundation. License terms: http://www.apache.org/licenses/LICENSE-2.0)
/bd{bind def}bind def
/ld{load def}bd
/GR/grestore ld
/GS/gsave ld
/RM/rmoveto ld
/C/curveto ld
/t/show ld
/L/lineto ld
/ML/setmiterlimit ld
/CT/concat ld
/f/fill ld
/N/newpath ld
/S/stroke ld
/CC/setcmykcolor ld
/A/ashow ld
/cp/closepath ld
/RC/setrgbcolor ld
/LJ/setlinejoin ld
/GC/setgray ld
/LW/setlinewidth ld
/M/moveto ld
/re {4 2 roll M
1 index 0 rlineto
0 exch rlineto
neg 0 rlineto
cp } bd
/_ctm matrix def
/_tm matrix def
/BT { _ctm currentmatrix pop matrix _tm copy pop 0 0 moveto } bd
/ET { _ctm setmatrix } bd
/iTm { _ctm setmatrix _tm concat } bd
/Tm { _tm astore pop iTm 0 0 moveto } bd
/ux 0.0 def
/uy 0.0 def
/F {
  /Tp exch def
  /Tf exch def
  Tf findfont Tp scalefont setfont
  /cf Tf def  /cs Tp def
} bd
/ULS {currentpoint /uy exch def /ux exch def} bd
/ULE {
  /Tcx currentpoint pop def
  gsave
  newpath
  cf findfont cs scalefont dup
  /FontMatrix get 0 get /Ts exch def /FontInfo get dup
  /UnderlinePosition get Ts mul /To exch def
  /UnderlineThickness get Ts mul /Tt exch def
  ux uy To add moveto  Tcx uy To add lineto
  Tt setlinewidth stroke
  grestore
} bd
/OLE {
  /Tcx currentpoint pop def
  gsave
  newpath
  cf findfont cs scalefont dup
  /FontMatrix get 0 get /Ts exch def /FontInfo get dup
  /UnderlinePosition get Ts mul /To exch def
  /UnderlineThickness get Ts mul /Tt exch def
  ux uy To add cs add moveto Tcx uy To add cs add lineto
  Tt setlinewidth stroke
  grestore
} bd
/SOE {
  /Tcx currentpoint pop def
  gsave
  newpath
  cf findfont cs scalefont dup
  /FontMatrix get 0 get /Ts exch def /FontInfo get dup
  /UnderlinePosition get Ts mul /To exch def
  /UnderlineThickness get Ts mul /Tt exch def
  ux uy To add cs 10 mul 26 idiv add moveto Tcx uy To add cs 10 mul 26 idiv add lineto
  Tt setlinewidth stroke
  grestore
} bd
/QT {
/Y22 exch store
/X22 exch store
/Y21 exch store
/X21 exch store
currentpoint
/Y21 load 2 mul add 3 div exch
/X21 load 2 mul add 3 div exch
/X21 load 2 mul /X22 load add 3 div
/Y21 load 2 mul /Y22 load add 3 div
/X22 load /Y22 load curveto
} bd
/SSPD {
dup length /d exch dict def
{
/v exch def
/k exch def
currentpagedevice k known {
/cpdv currentpagedevice k get def
v cpdv ne {
/upd false def
/nullv v type /nulltype eq def
/nullcpdv cpdv type /nulltype eq def
nullv nullcpdv or
{
/upd true def
} {
/sametype v type cpdv type eq def
sametype {
v type /arraytype eq {
/vlen v length def
/cpdvlen cpdv length def
vlen cpdvlen eq {
0 1 vlen 1 sub {
/i exch def
/obj v i get def
/cpdobj cpdv i get def
obj cpdobj ne {
/upd true def
exit
} if
} for
} {
/upd true def
} ifelse
} {
v type /dicttype eq {
v {
/dv exch def
/dk exch def
/cpddv cpdv dk get def
dv cpddv ne {
/upd true def
exit
} if
} forall
} {
/upd true def
} ifelse
} ifelse
} if
} ifelse
upd true eq {
d k v put
} if
} if
} if
} forall
d length 0 gt {
d setpagedevice
} if
} bd
/RE { % /NewFontName [NewEncodingArray] /FontName RE -
  findfont dup length dict begin
  {
    1 index /FID ne
    {def} {pop pop} ifelse
  } forall
  /Encoding exch def
  /FontName 1 index def
  currentdict definefont pop
  end
} bind def
%%EndResource
%%BeginResource: procset (Apache XML Graphics EPS ProcSet) 1.0 0
%%Version: 1.0 0
%%Copyright: (Copyright 2002-2003 The Apache Software Foundation. License terms: http://www.apache.org/licenses/LICENSE-2.0)
/BeginEPSF { %def
/b4_Inc_state save def         % Save state for cleanup
/dict_count countdictstack def % Count objects on dict stack
/op_count count 1 sub def      % Count objects on operand stack
userdict begin                 % Push userdict on dict stack
/showpage { } def              % Redefine showpage, { } = null proc
0 setgray 0 setlinecap         % Prepare graphics state
1 setlinewidth 0 setlinejoin
10 setmiterlimit [ ] 0 setdash newpath
/languagelevel where           % If level not equal to 1 then
{pop languagelevel             % set strokeadjust and
1 ne                           % overprint to their defaults.
{false setstrokeadjust false setoverprint
} if
} if
} bd
/EndEPSF { %def
count op_count sub {pop} repeat            % Clean up stacks
countdictstack dict_count sub {end} repeat
b4_Inc_state restore
} bd
%%EndResource
%FOPBeginFontDict
%%IncludeResource: font Courier-Oblique
%%IncludeResource: font Courier-BoldOblique
%%IncludeResource: font Courier-Bold
%%IncludeResource: font ZapfDingbats
%%IncludeResource: font Symbol
%%IncludeResource: font Helvetica
%%IncludeResource: font Helvetica-Oblique
%%IncludeResource: font Helvetica-Bold
%%IncludeResource: font Helvetica-BoldOblique
%%IncludeResource: font Times-Roman
%%IncludeResource: font Times-Italic
%%IncludeResource: font Times-Bold
%%IncludeResource: font Times-BoldItalic
%%IncludeResource: font Courier
%FOPEndFontDict
%%BeginResource: encoding WinAnsiEncoding
/WinAnsiEncoding [
/.notdef /.notdef /.notdef /.notdef /.notdef
/.notdef /.notdef /.notdef /.notdef /.notdef
/.notdef /.notdef /.notdef /.notdef /.notdef
/.notdef /.notdef /.notdef /.notdef /.notdef
/.notdef /.notdef /.notdef /.notdef /.notdef
/.notdef /.notdef /.notdef /.notdef /.notdef
/.notdef /.notdef /space /exclam /quotedbl
/numbersign /dollar /percent /ampersand /quotesingle
/parenleft /parenright /asterisk /plus /comma
/hyphen /period /slash /zero /one
/two /three /four /five /six
/seven /eight /nine /colon /semicolon
/less /equal /greater /question /at
/A /B /C /D /E
/F /G /H /I /J
/K /L /M /N /O
/P /Q /R /S /T
/U /V /W /X /Y
/Z /bracketleft /backslash /bracketright /asciicircum
/underscore /quoteleft /a /b /c
/d /e /f /g /h
/i /j /k /l /m
/n /o /p /q /r
/s /t /u /v /w
/x /y /z /braceleft /bar
/braceright /asciitilde /bullet /Euro /bullet
/quotesinglbase /florin /quotedblbase /ellipsis /dagger
/daggerdbl /circumflex /perthousand /Scaron /guilsinglleft
/OE /bullet /Zcaron /bullet /bullet
/quoteleft /quoteright /quotedblleft /quotedblright /bullet
/endash /emdash /asciitilde /trademark /scaron
/guilsinglright /oe /bullet /zcaron /Ydieresis
/space /exclamdown /cent /sterling /currency
/yen /brokenbar /section /dieresis /copyright
/ordfeminine /guillemotleft /logicalnot /sfthyphen /registered
/macron /degree /plusminus /twosuperior /threesuperior
/acute /mu /paragraph /middot /cedilla
/onesuperior /ordmasculine /guillemotright /onequarter /onehalf
/threequarters /questiondown /Agrave /Aacute /Acircumflex
/Atilde /Adieresis /Aring /AE /Ccedilla
/Egrave /Eacute /Ecircumflex /Edieresis /Igrave
/Iacute /Icircumflex /Idieresis /Eth /Ntilde
/Ograve /Oacute /Ocircumflex /Otilde /Odieresis
/multiply /Oslash /Ugrave /Uacute /Ucircumflex
/Udieresis /Yacute /Thorn /germandbls /agrave
/aacute /acircumflex /atilde /adieresis /aring
/ae /ccedilla /egrave /eacute /ecircumflex
/edieresis /igrave /iacute /icircumflex /idieresis
/eth /ntilde /ograve /oacute /ocircumflex
/otilde /odieresis /divide /oslash /ugrave
/uacute /ucircumflex /udieresis /yacute /thorn
/ydieresis
] def
%%EndResource
%FOPBeginFontReencode
/Courier-Oblique findfont
dup length dict begin
  {1 index /FID ne {def} {pop pop} ifelse} forall
  /Encoding WinAnsiEncoding def
  currentdict
end
/Courier-Oblique exch definefont pop
/Courier-BoldOblique findfont
dup length dict begin
  {1 index /FID ne {def} {pop pop} ifelse} forall
  /Encoding WinAnsiEncoding def
  currentdict
end
/Courier-BoldOblique exch definefont pop
/Courier-Bold findfont
dup length dict begin
  {1 index /FID ne {def} {pop pop} ifelse} forall
  /Encoding WinAnsiEncoding def
  currentdict
end
/Courier-Bold exch definefont pop
/Helvetica findfont
dup length dict begin
  {1 index /FID ne {def} {pop pop} ifelse} forall
  /Encoding WinAnsiEncoding def
  currentdict
end
/Helvetica exch definefont pop
/Helvetica-Oblique findfont
dup length dict begin
  {1 index /FID ne {def} {pop pop} ifelse} forall
  /Encoding WinAnsiEncoding def
  currentdict
end
/Helvetica-Oblique exch definefont pop
/Helvetica-Bold findfont
dup length dict begin
  {1 index /FID ne {def} {pop pop} ifelse} forall
  /Encoding WinAnsiEncoding def
  currentdict
end
/Helvetica-Bold exch definefont pop
/Helvetica-BoldOblique findfont
dup length dict begin
  {1 index /FID ne {def} {pop pop} ifelse} forall
  /Encoding WinAnsiEncoding def
  currentdict
end
/Helvetica-BoldOblique exch definefont pop
/Times-Roman findfont
dup length dict begin
  {1 index /FID ne {def} {pop pop} ifelse} forall
  /Encoding WinAnsiEncoding def
  currentdict
end
/Times-Roman exch definefont pop
/Times-Italic findfont
dup length dict begin
  {1 index /FID ne {def} {pop pop} ifelse} forall
  /Encoding WinAnsiEncoding def
  currentdict
end
/Times-Italic exch definefont pop
/Times-Bold findfont
dup length dict begin
  {1 index /FID ne {def} {pop pop} ifelse} forall
  /Encoding WinAnsiEncoding def
  currentdict
end
/Times-Bold exch definefont pop
/Times-BoldItalic findfont
dup length dict begin
  {1 index /FID ne {def} {pop pop} ifelse} forall
  /Encoding WinAnsiEncoding def
  currentdict
end
/Times-BoldItalic exch definefont pop
/Courier findfont
dup length dict begin
  {1 index /FID ne {def} {pop pop} ifelse} forall
  /Encoding WinAnsiEncoding def
  currentdict
end
/Courier exch definefont pop
%FOPEndFontReencode
%%EndProlog
%%Page: 1 1
%%PageBoundingBox: 0 0 247 232
%%BeginPageSetup
[1 0 0 -1 0 232] CT
%%EndPageSetup
GS
[0.78261 0 0 0.78261 0 -0.43477] CT
1 GC
N
0 0 316 297 re
f
GR
GS
[0.78261 0 0 0.78261 0 -0.43477] CT
1 GC
N
0 0 316 297 re
f
GR
GS
[0.78261 0 0 0.78261 0 -0.43477] CT
1 GC
N
41 227 M
286 227 L
286 59 L
41 59 L
cp
f
GR
GS
[0.78261 0 0 0.78261 0 -0.43477] CT
0.278 0.345 0.973 RC
N
70.048 156.263 M
79.684 158.775 L
92.089 156.263 L
92.579 156.101 L
100.88 147.421 L
100.88 138.579 L
92.579 129.899 L
92.089 129.737 L
79.684 127.225 L
70.048 129.737 L
66.789 131.927 L
63.622 138.579 L
63.622 147.421 L
66.789 154.073 L
cp
f
GR
GS
[0.78261 0 0 0.78261 0 -0.43477] CT
0.263 0.4 0.992 RC
N
219.477 218.158 M
216.67 227 L
221.526 227 L
234.421 227 L
247.316 227 L
260.211 227 L
273.105 227 L
278.61 227 L
278.004 218.158 L
275.516 209.316 L
273.105 205.878 L
260.211 202.133 L
247.316 203.803 L
234.421 207.636 L
230.882 209.316 L
221.526 215.993 L
cp
52.954 173.947 M
53.895 174.578 L
66.789 175.716 L
78.778 173.947 L
79.684 173.834 L
92.579 170.104 L
104.282 165.105 L
105.474 164.43 L
114.826 156.263 L
118.368 149.896 L
119.39 147.421 L
119.39 138.579 L
118.368 136.104 L
114.826 129.737 L
105.474 121.57 L
104.282 120.895 L
92.579 115.896 L
79.684 112.166 L
78.778 112.053 L
66.789 110.284 L
53.895 111.422 L
52.954 112.053 L
47.348 120.895 L
45.723 129.737 L
45.16 138.579 L
45.16 147.421 L
45.723 156.263 L
47.348 165.105 L
cp
79.684 158.775 M
70.048 156.263 L
66.789 154.073 L
63.622 147.421 L
63.622 138.579 L
66.789 131.927 L
70.048 129.737 L
79.684 127.225 L
92.089 129.737 L
92.579 129.899 L
100.88 138.579 L
100.88 147.421 L
92.579 156.101 L
92.089 156.263 L
cp
230.882 76.684 M
234.421 78.364 L
247.316 82.197 L
260.211 83.867 L
273.105 80.122 L
275.516 76.684 L
278.004 67.842 L
278.61 59 L
273.105 59 L
260.211 59 L
247.316 59 L
234.421 59 L
221.526 59 L
216.67 59 L
219.477 67.842 L
221.526 70.007 L
cp
f
GR
GS
[0.78261 0 0 0.78261 0 -0.43477] CT
0.173 0.549 0.949 RC
N
41 218.158 M
41 227 L
50.293 227 L
50.78 218.158 L
52.524 209.316 L
53.895 205.904 L
56.459 200.474 L
66.013 191.632 L
66.789 191.22 L
79.684 185.327 L
86.225 182.789 L
92.579 180.601 L
105.474 175.585 L
108.958 173.947 L
118.368 168.373 L
122.511 165.105 L
129.357 156.263 L
131.263 150.833 L
132.263 147.421 L
132.263 138.579 L
131.263 135.167 L
129.357 129.737 L
122.511 120.895 L
118.368 117.627 L
108.958 112.053 L
105.474 110.415 L
92.579 105.399 L
86.225 103.211 L
79.684 100.673 L
66.789 94.78 L
66.013 94.368 L
56.459 85.526 L
53.895 80.096 L
52.524 76.684 L
50.78 67.842 L
50.293 59 L
41 59 L
41 67.842 L
41 76.684 L
41 85.526 L
41 94.368 L
41 103.211 L
41 112.053 L
41 120.895 L
41 129.737 L
41 138.579 L
41 147.421 L
41 156.263 L
41 165.105 L
41 173.947 L
41 182.789 L
41 191.632 L
41 200.474 L
41 209.316 L
cp
202.3 218.158 M
200.426 227 L
208.632 227 L
216.67 227 L
219.477 218.158 L
221.526 215.993 L
230.882 209.316 L
234.421 207.636 L
247.316 203.803 L
260.211 202.133 L
273.105 205.878 L
275.516 209.316 L
278.004 218.158 L
278.61 227 L
286 227 L
286 218.158 L
286 209.316 L
286 200.474 L
286 191.632 L
286 182.789 L
286 173.947 L
286 165.105 L
286 156.263 L
286 147.421 L
286 138.579 L
286 129.737 L
286 120.895 L
286 112.053 L
286 103.211 L
286 94.368 L
286 85.526 L
286 76.684 L
286 67.842 L
286 59 L
278.61 59 L
278.004 67.842 L
275.516 76.684 L
273.105 80.122 L
260.211 83.867 L
247.316 82.197 L
234.421 78.364 L
230.882 76.684 L
221.526 70.007 L
219.477 67.842 L
216.67 59 L
208.632 59 L
200.426 59 L
202.3 67.842 L
208.481 76.684 L
208.632 76.81 L
221.526 85.147 L
222.316 85.526 L
234.421 90.33 L
245.621 94.368 L
247.316 95.019 L
260.211 100.33 L
265.433 103.211 L
273.105 111.442 L
273.519 112.053 L
277.092 120.895 L
278.638 129.737 L
279.256 138.579 L
279.256 147.421 L
278.638 156.263 L
277.092 165.105 L
273.519 173.947 L
273.105 174.558 L
265.433 182.789 L
260.211 185.67 L
247.316 190.981 L
245.621 191.632 L
234.421 195.67 L
222.316 200.474 L
221.526 200.853 L
208.632 209.19 L
208.481 209.316 L
cp
53.895 174.578 M
52.954 173.947 L
47.348 165.105 L
45.723 156.263 L
45.16 147.421 L
45.16 138.579 L
45.723 129.737 L
47.348 120.895 L
52.954 112.053 L
53.895 111.422 L
66.789 110.284 L
78.778 112.053 L
79.684 112.166 L
92.579 115.896 L
104.282 120.895 L
105.474 121.57 L
114.826 129.737 L
118.368 136.104 L
119.39 138.579 L
119.39 147.421 L
118.368 149.896 L
114.826 156.263 L
105.474 164.43 L
104.282 165.105 L
92.579 170.104 L
79.684 173.834 L
78.778 173.947 L
66.789 175.716 L
cp
f
GR
GS
[0.78261 0 0 0.78261 0 -0.43477] CT
0.106 0.667 0.871 RC
N
50.78 218.158 M
50.293 227 L
53.895 227 L
62.518 227 L
63.529 218.158 L
66.789 209.834 L
67.026 209.316 L
74.638 200.474 L
79.684 196.995 L
89.617 191.632 L
92.579 190.362 L
105.474 185.218 L
111.499 182.789 L
118.368 179.691 L
128.538 173.947 L
131.263 171.729 L
137.562 165.105 L
141.929 156.263 L
143.764 147.421 L
143.764 138.579 L
141.929 129.737 L
137.562 120.895 L
131.263 114.271 L
128.538 112.053 L
118.368 106.309 L
111.499 103.211 L
105.474 100.782 L
92.579 95.638 L
89.617 94.368 L
79.684 89.005 L
74.638 85.526 L
67.026 76.684 L
66.789 76.166 L
63.529 67.842 L
62.518 59 L
53.895 59 L
50.293 59 L
50.78 67.842 L
52.524 76.684 L
53.895 80.096 L
56.459 85.526 L
66.013 94.368 L
66.789 94.78 L
79.684 100.673 L
86.225 103.211 L
92.579 105.399 L
105.474 110.415 L
108.958 112.053 L
118.368 117.627 L
122.511 120.895 L
129.357 129.737 L
131.263 135.167 L
132.263 138.579 L
132.263 147.421 L
131.263 150.833 L
129.357 156.263 L
122.511 165.105 L
118.368 168.373 L
108.958 173.947 L
105.474 175.585 L
92.579 180.601 L
86.225 182.789 L
79.684 185.327 L
66.789 191.22 L
66.013 191.632 L
56.459 200.474 L
53.895 205.904 L
52.524 209.316 L
cp
187.948 218.158 M
186.759 227 L
195.737 227 L
200.426 227 L
202.3 218.158 L
208.481 209.316 L
208.632 209.19 L
221.526 200.853 L
222.316 200.474 L
234.421 195.67 L
245.621 191.632 L
247.316 190.981 L
260.211 185.67 L
265.433 182.789 L
273.105 174.558 L
273.519 173.947 L
277.092 165.105 L
278.638 156.263 L
279.256 147.421 L
279.256 138.579 L
278.638 129.737 L
277.092 120.895 L
273.519 112.053 L
273.105 111.442 L
265.433 103.211 L
260.211 100.33 L
247.316 95.019 L
245.621 94.368 L
234.421 90.33 L
222.316 85.526 L
221.526 85.147 L
208.632 76.81 L
208.481 76.684 L
202.3 67.842 L
200.426 59 L
195.737 59 L
186.759 59 L
187.948 67.842 L
192.047 76.684 L
195.737 80.735 L
201.225 85.526 L
208.632 89.7 L
218.852 94.368 L
221.526 95.4 L
234.421 100.358 L
241.133 103.211 L
247.316 106.338 L
255.881 112.053 L
260.211 116.612 L
263.373 120.895 L
266.979 129.737 L
268.482 138.579 L
268.482 147.421 L
266.979 156.263 L
263.373 165.105 L
260.211 169.388 L
255.881 173.947 L
247.316 179.662 L
241.133 182.789 L
234.421 185.642 L
221.526 190.6 L
218.852 191.632 L
208.632 196.301 L
201.225 200.474 L
195.737 205.265 L
192.047 209.316 L
cp
f
GR
GS
[0.78261 0 0 0.78261 0 -0.43477] CT
0.075 0.745 0.722 RC
N
63.529 218.158 M
62.518 227 L
66.789 227 L
74.971 227 L
76.513 218.158 L
79.684 212.477 L
81.919 209.316 L
92.579 200.89 L
93.292 200.474 L
105.474 194.922 L
114.173 191.632 L
118.368 190.045 L
131.263 185.107 L
136.478 182.789 L
144.158 177.365 L
147.7 173.947 L
152.332 165.105 L
154.336 156.263 L
155.138 147.421 L
155.138 138.579 L
154.336 129.737 L
152.332 120.895 L
147.7 112.053 L
144.158 108.635 L
136.478 103.211 L
131.263 100.893 L
118.368 95.955 L
114.173 94.368 L
105.474 91.078 L
93.292 85.526 L
92.579 85.11 L
81.919 76.684 L
79.684 73.523 L
76.513 67.842 L
74.971 59 L
66.789 59 L
62.518 59 L
63.529 67.842 L
66.789 76.166 L
67.026 76.684 L
74.638 85.526 L
79.684 89.005 L
89.617 94.368 L
92.579 95.638 L
105.474 100.782 L
111.499 103.211 L
118.368 106.309 L
128.538 112.053 L
131.263 114.271 L
137.562 120.895 L
141.929 129.737 L
143.764 138.579 L
143.764 147.421 L
141.929 156.263 L
137.562 165.105 L
131.263 171.729 L
128.538 173.947 L
118.368 179.691 L
111.499 182.789 L
105.474 185.218 L
92.579 190.362 L
89.617 191.632 L
79.684 196.995 L
74.638 200.474 L
67.026 209.316 L
66.789 209.834 L
cp
173.955 218.158 M
173.411 227 L
182.842 227 L
186.759 227 L
187.948 218.158 L
192.047 209.316 L
195.737 205.265 L
201.225 200.474 L
208.632 196.301 L
218.852 191.632 L
221.526 190.6 L
234.421 185.642 L
241.133 182.789 L
247.316 179.662 L
255.881 173.947 L
260.211 169.388 L
263.373 165.105 L
266.979 156.263 L
268.482 147.421 L
268.482 138.579 L
266.979 129.737 L
263.373 120.895 L
260.211 116.612 L
255.881 112.053 L
247.316 106.338 L
241.133 103.211 L
234.421 100.358 L
221.526 95.4 L
218.852 94.368 L
208.632 89.7 L
201.225 85.526 L
195.737 80.735 L
192.047 76.684 L
187.948 67.842 L
186.759 59 L
182.842 59 L
173.411 59 L
173.955 67.842 L
175.909 76.684 L
180.856 85.526 L
182.842 87.375 L
192.999 94.368 L
195.737 95.489 L
208.632 100.347 L
216.601 103.211 L
221.526 104.882 L
234.421 110.252 L
237.817 112.053 L
247.316 118.808 L
249.5 120.895 L
255.188 129.737 L
257.663 138.579 L
257.663 147.421 L
255.188 156.263 L
249.5 165.105 L
247.316 167.192 L
237.817 173.947 L
234.421 175.748 L
221.526 181.118 L
216.601 182.789 L
208.632 185.653 L
195.737 190.511 L
192.999 191.632 L
182.842 198.625 L
180.856 200.474 L
175.909 209.316 L
cp
f
GR
GS
[0.78261 0 0 0.78261 0 -0.43477] CT
0.278 0.796 0.525 RC
N
76.513 218.158 M
74.971 227 L
79.684 227 L
89.157 227 L
91.398 218.158 L
92.579 216.604 L
100.405 209.316 L
105.474 206.346 L
118.368 201.229 L
121.864 200.474 L
131.263 198.442 L
144.158 197.77 L
151.085 200.474 L
157.053 208.857 L
157.171 209.316 L
158.346 218.158 L
158.657 227 L
169.947 227 L
173.411 227 L
173.955 218.158 L
175.909 209.316 L
180.856 200.474 L
182.842 198.625 L
192.999 191.632 L
195.737 190.511 L
208.632 185.653 L
216.601 182.789 L
221.526 181.118 L
234.421 175.748 L
237.817 173.947 L
247.316 167.192 L
249.5 165.105 L
255.188 156.263 L
257.663 147.421 L
257.663 138.579 L
255.188 129.737 L
249.5 120.895 L
247.316 118.808 L
237.817 112.053 L
234.421 110.252 L
221.526 104.882 L
216.601 103.211 L
208.632 100.347 L
195.737 95.489 L
192.999 94.368 L
182.842 87.375 L
180.856 85.526 L
175.909 76.684 L
173.955 67.842 L
173.411 59 L
169.947 59 L
158.657 59 L
158.346 67.842 L
157.171 76.684 L
157.053 77.143 L
151.085 85.526 L
144.158 88.23 L
131.263 87.558 L
121.864 85.526 L
118.368 84.771 L
105.474 79.654 L
100.405 76.684 L
92.579 69.396 L
91.398 67.842 L
89.157 59 L
79.684 59 L
74.971 59 L
76.513 67.842 L
79.684 73.523 L
81.919 76.684 L
92.579 85.11 L
93.292 85.526 L
105.474 91.078 L
114.173 94.368 L
118.368 95.955 L
131.263 100.893 L
136.478 103.211 L
144.158 108.635 L
147.7 112.053 L
152.332 120.895 L
154.336 129.737 L
155.138 138.579 L
155.138 147.421 L
154.336 156.263 L
152.332 165.105 L
147.7 173.947 L
144.158 177.365 L
136.478 182.789 L
131.263 185.107 L
118.368 190.045 L
114.173 191.632 L
105.474 194.922 L
93.292 200.474 L
92.579 200.89 L
81.919 209.316 L
79.684 212.477 L
cp
182.842 178.173 M
173.538 173.947 L
169.947 168.487 L
169.076 165.105 L
167.927 156.263 L
167.493 147.421 L
167.493 138.579 L
167.927 129.737 L
169.076 120.895 L
169.947 117.513 L
173.538 112.053 L
182.842 107.827 L
195.737 108.413 L
208.632 110.825 L
212.608 112.053 L
221.526 114.983 L
233.225 120.895 L
234.421 121.742 L
241.977 129.737 L
245.861 138.579 L
245.861 147.421 L
241.977 156.263 L
234.421 164.258 L
233.225 165.105 L
221.526 171.017 L
212.608 173.947 L
208.632 175.175 L
195.737 177.587 L
cp
f
GR
GS
[0.78261 0 0 0.78261 0 -0.43477] CT
0.627 0.784 0.251 RC
N
91.398 218.158 M
89.157 227 L
92.579 227 L
105.474 227 L
112.58 227 L
118.368 218.622 L
131.263 219.159 L
134.917 227 L
144.158 227 L
157.053 227 L
158.657 227 L
158.346 218.158 L
157.171 209.316 L
157.053 208.857 L
151.085 200.474 L
144.158 197.77 L
131.263 198.442 L
121.864 200.474 L
118.368 201.229 L
105.474 206.346 L
100.405 209.316 L
92.579 216.604 L
cp
173.538 173.947 M
182.842 178.173 L
195.737 177.587 L
208.632 175.175 L
212.608 173.947 L
221.526 171.017 L
233.225 165.105 L
234.421 164.258 L
241.977 156.263 L
245.861 147.421 L
245.861 138.579 L
241.977 129.737 L
234.421 121.742 L
233.225 120.895 L
221.526 114.983 L
212.608 112.053 L
208.632 110.825 L
195.737 108.413 L
182.842 107.827 L
173.538 112.053 L
169.947 117.513 L
169.076 120.895 L
167.927 129.737 L
167.493 138.579 L
167.493 147.421 L
167.927 156.263 L
169.076 165.105 L
169.947 168.487 L
cp
195.737 162.161 M
187.102 156.263 L
182.842 147.755 L
182.755 147.421 L
182.755 138.579 L
182.842 138.245 L
187.102 129.737 L
195.737 123.839 L
208.632 123.567 L
221.526 128.149 L
223.771 129.737 L
230.257 138.579 L
230.257 147.421 L
223.771 156.263 L
221.526 157.851 L
208.632 162.433 L
cp
121.864 85.526 M
131.263 87.558 L
144.158 88.23 L
151.085 85.526 L
157.053 77.143 L
157.171 76.684 L
158.346 67.842 L
158.657 59 L
157.053 59 L
144.158 59 L
134.917 59 L
131.263 66.841 L
118.368 67.378 L
112.58 59 L
105.474 59 L
92.579 59 L
89.157 59 L
91.398 67.842 L
92.579 69.396 L
100.405 76.684 L
105.474 79.654 L
118.368 84.771 L
cp
f
GR
GS
[0.78261 0 0 0.78261 0 -0.43477] CT
0.925 0.729 0.196 RC
N
118.368 218.622 M
112.58 227 L
118.368 227 L
131.263 227 L
134.917 227 L
131.263 219.159 L
cp
187.102 156.263 M
195.737 162.161 L
208.632 162.433 L
221.526 157.851 L
223.771 156.263 L
230.257 147.421 L
230.257 138.579 L
223.771 129.737 L
221.526 128.149 L
208.632 123.567 L
195.737 123.839 L
187.102 129.737 L
182.842 138.245 L
182.755 138.579 L
182.755 147.421 L
182.842 147.755 L
cp
118.368 59 M
112.58 59 L
118.368 67.378 L
131.263 66.841 L
134.917 59 L
131.263 59 L
cp
f
GR
GS
[0.78261 0 0 0.78261 0 -0.43477] CT
1 LJ
0.639 LW
N
92.089 156.263 M
79.684 158.775 L
70.048 156.263 L
S
GR
GS
[0.78261 0 0 0.78261 0 -0.43477] CT
1 LJ
0.639 LW
N
70.048 156.263 M
66.789 154.073 L
63.622 147.421 L
S
GR
GS
[0.78261 0 0 0.78261 0 -0.43477] CT
1 LJ
0.639 LW
N
100.88 147.421 M
92.579 156.101 L
92.089 156.263 L
S
GR
GS
[0.78261 0 0 0.78261 0 -0.43477] CT
1 LJ
0.639 LW
N
63.622 147.421 M
63.622 138.579 L
S
GR
GS
[0.78261 0 0 0.78261 0 -0.43477] CT
1 LJ
0.639 LW
N
100.88 138.579 M
100.88 147.421 L
S
GR
GS
[0.78261 0 0 0.78261 0 -0.43477] CT
1 LJ
0.639 LW
N
63.622 138.579 M
66.789 131.927 L
70.048 129.737 L
S
GR
GS
[0.78261 0 0 0.78261 0 -0.43477] CT
1 LJ
0.639 LW
N
92.089 129.737 M
92.579 129.899 L
100.88 138.579 L
S
GR
GS
[0.78261 0 0 0.78261 0 -0.43477] CT
1 LJ
0.639 LW
N
70.048 129.737 M
79.684 127.225 L
92.089 129.737 L
S
GR
GS
[0.78261 0 0 0.78261 0 -0.43477] CT
1 LJ
0.639 LW
N
216.67 227 M
219.477 218.158 L
S
GR
GS
[0.78261 0 0 0.78261 0 -0.43477] CT
1 LJ
0.639 LW
N
278.004 218.158 M
278.61 227 L
S
GR
GS
[0.78261 0 0 0.78261 0 -0.43477] CT
1 LJ
0.639 LW
N
219.477 218.158 M
221.526 215.993 L
230.882 209.316 L
S
GR
GS
[0.78261 0 0 0.78261 0 -0.43477] CT
1 LJ
0.639 LW
N
275.516 209.316 M
278.004 218.158 L
S
GR
GS
[0.78261 0 0 0.78261 0 -0.43477] CT
1 LJ
0.639 LW
N
230.882 209.316 M
234.421 207.636 L
247.316 203.803 L
260.211 202.133 L
273.105 205.878 L
275.516 209.316 L
S
GR
GS
[0.78261 0 0 0.78261 0 -0.43477] CT
1 LJ
0.639 LW
N
78.778 173.947 M
66.789 175.716 L
53.895 174.578 L
52.954 173.947 L
S
GR
GS
[0.78261 0 0 0.78261 0 -0.43477] CT
1 LJ
0.639 LW
N
52.954 173.947 M
47.348 165.105 L
S
GR
GS
[0.78261 0 0 0.78261 0 -0.43477] CT
1 LJ
0.639 LW
N
104.282 165.105 M
92.579 170.104 L
79.684 173.834 L
78.778 173.947 L
S
GR
GS
[0.78261 0 0 0.78261 0 -0.43477] CT
1 LJ
0.639 LW
N
47.348 165.105 M
45.723 156.263 L
S
GR
GS
[0.78261 0 0 0.78261 0 -0.43477] CT
1 LJ
0.639 LW
N
114.826 156.263 M
105.474 164.43 L
104.282 165.105 L
S
GR
GS
[0.78261 0 0 0.78261 0 -0.43477] CT
1 LJ
0.639 LW
N
45.723 156.263 M
45.16 147.421 L
S
GR
GS
[0.78261 0 0 0.78261 0 -0.43477] CT
1 LJ
0.639 LW
N
119.39 147.421 M
118.368 149.896 L
114.826 156.263 L
S
GR
GS
[0.78261 0 0 0.78261 0 -0.43477] CT
1 LJ
0.639 LW
N
45.16 147.421 M
45.16 138.579 L
S
GR
GS
[0.78261 0 0 0.78261 0 -0.43477] CT
1 LJ
0.639 LW
N
119.39 138.579 M
119.39 147.421 L
S
GR
GS
[0.78261 0 0 0.78261 0 -0.43477] CT
1 LJ
0.639 LW
N
45.16 138.579 M
45.723 129.737 L
S
GR
GS
[0.78261 0 0 0.78261 0 -0.43477] CT
1 LJ
0.639 LW
N
114.826 129.737 M
118.368 136.104 L
119.39 138.579 L
S
GR
GS
[0.78261 0 0 0.78261 0 -0.43477] CT
1 LJ
0.639 LW
N
45.723 129.737 M
47.348 120.895 L
S
GR
GS
[0.78261 0 0 0.78261 0 -0.43477] CT
1 LJ
0.639 LW
N
104.282 120.895 M
105.474 121.57 L
114.826 129.737 L
S
GR
GS
[0.78261 0 0 0.78261 0 -0.43477] CT
1 LJ
0.639 LW
N
47.348 120.895 M
52.954 112.053 L
S
GR
GS
[0.78261 0 0 0.78261 0 -0.43477] CT
1 LJ
0.639 LW
N
78.778 112.053 M
79.684 112.166 L
92.579 115.896 L
104.282 120.895 L
S
GR
GS
[0.78261 0 0 0.78261 0 -0.43477] CT
1 LJ
0.639 LW
N
52.954 112.053 M
53.895 111.422 L
66.789 110.284 L
78.778 112.053 L
S
GR
GS
[0.78261 0 0 0.78261 0 -0.43477] CT
1 LJ
0.639 LW
N
275.516 76.684 M
273.105 80.122 L
260.211 83.867 L
247.316 82.197 L
234.421 78.364 L
230.882 76.684 L
S
GR
GS
[0.78261 0 0 0.78261 0 -0.43477] CT
1 LJ
0.639 LW
N
230.882 76.684 M
221.526 70.007 L
219.477 67.842 L
S
GR
GS
[0.78261 0 0 0.78261 0 -0.43477] CT
1 LJ
0.639 LW
N
278.004 67.842 M
275.516 76.684 L
S
GR
GS
[0.78261 0 0 0.78261 0 -0.43477] CT
1 LJ
0.639 LW
N
219.477 67.842 M
216.67 59 L
S
GR
GS
[0.78261 0 0 0.78261 0 -0.43477] CT
1 LJ
0.639 LW
N
278.61 59 M
278.004 67.842 L
S
GR
GS
[0.78261 0 0 0.78261 0 -0.43477] CT
1 LJ
0.639 LW
N
50.78 218.158 M
50.293 227 L
S
GR
GS
[0.78261 0 0 0.78261 0 -0.43477] CT
1 LJ
0.639 LW
N
200.426 227 M
202.3 218.158 L
S
GR
GS
[0.78261 0 0 0.78261 0 -0.43477] CT
1 LJ
0.639 LW
N
52.524 209.316 M
50.78 218.158 L
S
GR
GS
[0.78261 0 0 0.78261 0 -0.43477] CT
1 LJ
0.639 LW
N
202.3 218.158 M
208.481 209.316 L
S
GR
GS
[0.78261 0 0 0.78261 0 -0.43477] CT
1 LJ
0.639 LW
N
56.459 200.474 M
53.895 205.904 L
52.524 209.316 L
S
GR
GS
[0.78261 0 0 0.78261 0 -0.43477] CT
1 LJ
0.639 LW
N
208.481 209.316 M
208.632 209.19 L
221.526 200.853 L
222.316 200.474 L
S
GR
GS
[0.78261 0 0 0.78261 0 -0.43477] CT
1 LJ
0.639 LW
N
66.013 191.632 M
56.459 200.474 L
S
GR
GS
[0.78261 0 0 0.78261 0 -0.43477] CT
1 LJ
0.639 LW
N
222.316 200.474 M
234.421 195.67 L
245.621 191.632 L
S
GR
GS
[0.78261 0 0 0.78261 0 -0.43477] CT
1 LJ
0.639 LW
N
86.225 182.789 M
79.684 185.327 L
66.789 191.22 L
66.013 191.632 L
S
GR
GS
[0.78261 0 0 0.78261 0 -0.43477] CT
1 LJ
0.639 LW
N
245.621 191.632 M
247.316 190.981 L
260.211 185.67 L
265.433 182.789 L
S
GR
GS
[0.78261 0 0 0.78261 0 -0.43477] CT
1 LJ
0.639 LW
N
108.958 173.947 M
105.474 175.585 L
92.579 180.601 L
86.225 182.789 L
S
GR
GS
[0.78261 0 0 0.78261 0 -0.43477] CT
1 LJ
0.639 LW
N
265.433 182.789 M
273.105 174.558 L
273.519 173.947 L
S
GR
GS
[0.78261 0 0 0.78261 0 -0.43477] CT
1 LJ
0.639 LW
N
122.511 165.105 M
118.368 168.373 L
108.958 173.947 L
S
GR
GS
[0.78261 0 0 0.78261 0 -0.43477] CT
1 LJ
0.639 LW
N
273.519 173.947 M
277.092 165.105 L
S
GR
GS
[0.78261 0 0 0.78261 0 -0.43477] CT
1 LJ
0.639 LW
N
129.357 156.263 M
122.511 165.105 L
S
GR
GS
[0.78261 0 0 0.78261 0 -0.43477] CT
1 LJ
0.639 LW
N
277.092 165.105 M
278.638 156.263 L
S
GR
GS
[0.78261 0 0 0.78261 0 -0.43477] CT
1 LJ
0.639 LW
N
132.263 147.421 M
131.263 150.833 L
129.357 156.263 L
S
GR
GS
[0.78261 0 0 0.78261 0 -0.43477] CT
1 LJ
0.639 LW
N
278.638 156.263 M
279.256 147.421 L
S
GR
GS
[0.78261 0 0 0.78261 0 -0.43477] CT
1 LJ
0.639 LW
N
132.263 138.579 M
132.263 147.421 L
S
GR
GS
[0.78261 0 0 0.78261 0 -0.43477] CT
1 LJ
0.639 LW
N
279.256 147.421 M
279.256 138.579 L
S
GR
GS
[0.78261 0 0 0.78261 0 -0.43477] CT
1 LJ
0.639 LW
N
129.357 129.737 M
131.263 135.167 L
132.263 138.579 L
S
GR
GS
[0.78261 0 0 0.78261 0 -0.43477] CT
1 LJ
0.639 LW
N
279.256 138.579 M
278.638 129.737 L
S
GR
GS
[0.78261 0 0 0.78261 0 -0.43477] CT
1 LJ
0.639 LW
N
122.511 120.895 M
129.357 129.737 L
S
GR
GS
[0.78261 0 0 0.78261 0 -0.43477] CT
1 LJ
0.639 LW
N
278.638 129.737 M
277.092 120.895 L
S
GR
GS
[0.78261 0 0 0.78261 0 -0.43477] CT
1 LJ
0.639 LW
N
108.958 112.053 M
118.368 117.627 L
122.511 120.895 L
S
GR
GS
[0.78261 0 0 0.78261 0 -0.43477] CT
1 LJ
0.639 LW
N
277.092 120.895 M
273.519 112.053 L
S
GR
GS
[0.78261 0 0 0.78261 0 -0.43477] CT
1 LJ
0.639 LW
N
86.225 103.211 M
92.579 105.399 L
105.474 110.415 L
108.958 112.053 L
S
GR
GS
[0.78261 0 0 0.78261 0 -0.43477] CT
1 LJ
0.639 LW
N
273.519 112.053 M
273.105 111.442 L
265.433 103.211 L
S
GR
GS
[0.78261 0 0 0.78261 0 -0.43477] CT
1 LJ
0.639 LW
N
66.013 94.368 M
66.789 94.78 L
79.684 100.673 L
86.225 103.211 L
S
GR
GS
[0.78261 0 0 0.78261 0 -0.43477] CT
1 LJ
0.639 LW
N
265.433 103.211 M
260.211 100.33 L
247.316 95.019 L
245.621 94.368 L
S
GR
GS
[0.78261 0 0 0.78261 0 -0.43477] CT
1 LJ
0.639 LW
N
56.459 85.526 M
66.013 94.368 L
S
GR
GS
[0.78261 0 0 0.78261 0 -0.43477] CT
1 LJ
0.639 LW
N
245.621 94.368 M
234.421 90.33 L
222.316 85.526 L
S
GR
GS
[0.78261 0 0 0.78261 0 -0.43477] CT
1 LJ
0.639 LW
N
52.524 76.684 M
53.895 80.096 L
56.459 85.526 L
S
GR
GS
[0.78261 0 0 0.78261 0 -0.43477] CT
1 LJ
0.639 LW
N
222.316 85.526 M
221.526 85.147 L
208.632 76.81 L
208.481 76.684 L
S
GR
GS
[0.78261 0 0 0.78261 0 -0.43477] CT
1 LJ
0.639 LW
N
50.78 67.842 M
52.524 76.684 L
S
GR
GS
[0.78261 0 0 0.78261 0 -0.43477] CT
1 LJ
0.639 LW
N
208.481 76.684 M
202.3 67.842 L
S
GR
GS
[0.78261 0 0 0.78261 0 -0.43477] CT
1 LJ
0.639 LW
N
50.293 59 M
50.78 67.842 L
S
GR
GS
[0.78261 0 0 0.78261 0 -0.43477] CT
1 LJ
0.639 LW
N
202.3 67.842 M
200.426 59 L
S
GR
GS
[0.78261 0 0 0.78261 0 -0.43477] CT
1 LJ
0.639 LW
N
63.529 218.158 M
62.518 227 L
S
GR
GS
[0.78261 0 0 0.78261 0 -0.43477] CT
1 LJ
0.639 LW
N
186.759 227 M
187.948 218.158 L
S
GR
GS
[0.78261 0 0 0.78261 0 -0.43477] CT
1 LJ
0.639 LW
N
67.026 209.316 M
66.789 209.834 L
63.529 218.158 L
S
GR
GS
[0.78261 0 0 0.78261 0 -0.43477] CT
1 LJ
0.639 LW
N
187.948 218.158 M
192.047 209.316 L
S
GR
GS
[0.78261 0 0 0.78261 0 -0.43477] CT
1 LJ
0.639 LW
N
74.638 200.474 M
67.026 209.316 L
S
GR
GS
[0.78261 0 0 0.78261 0 -0.43477] CT
1 LJ
0.639 LW
N
192.047 209.316 M
195.737 205.265 L
201.225 200.474 L
S
GR
GS
[0.78261 0 0 0.78261 0 -0.43477] CT
1 LJ
0.639 LW
N
89.617 191.632 M
79.684 196.995 L
74.638 200.474 L
S
GR
GS
[0.78261 0 0 0.78261 0 -0.43477] CT
1 LJ
0.639 LW
N
201.225 200.474 M
208.632 196.301 L
218.852 191.632 L
S
GR
GS
[0.78261 0 0 0.78261 0 -0.43477] CT
1 LJ
0.639 LW
N
111.499 182.789 M
105.474 185.218 L
92.579 190.362 L
89.617 191.632 L
S
GR
GS
[0.78261 0 0 0.78261 0 -0.43477] CT
1 LJ
0.639 LW
N
218.852 191.632 M
221.526 190.6 L
234.421 185.642 L
241.133 182.789 L
S
GR
GS
[0.78261 0 0 0.78261 0 -0.43477] CT
1 LJ
0.639 LW
N
128.538 173.947 M
118.368 179.691 L
111.499 182.789 L
S
GR
GS
[0.78261 0 0 0.78261 0 -0.43477] CT
1 LJ
0.639 LW
N
241.133 182.789 M
247.316 179.662 L
255.881 173.947 L
S
GR
GS
[0.78261 0 0 0.78261 0 -0.43477] CT
1 LJ
0.639 LW
N
137.562 165.105 M
131.263 171.729 L
128.538 173.947 L
S
GR
GS
[0.78261 0 0 0.78261 0 -0.43477] CT
1 LJ
0.639 LW
N
255.881 173.947 M
260.211 169.388 L
263.373 165.105 L
S
GR
GS
[0.78261 0 0 0.78261 0 -0.43477] CT
1 LJ
0.639 LW
N
141.929 156.263 M
137.562 165.105 L
S
GR
GS
[0.78261 0 0 0.78261 0 -0.43477] CT
1 LJ
0.639 LW
N
263.373 165.105 M
266.979 156.263 L
S
GR
GS
[0.78261 0 0 0.78261 0 -0.43477] CT
1 LJ
0.639 LW
N
143.764 147.421 M
141.929 156.263 L
S
GR
GS
[0.78261 0 0 0.78261 0 -0.43477] CT
1 LJ
0.639 LW
N
266.979 156.263 M
268.482 147.421 L
S
GR
GS
[0.78261 0 0 0.78261 0 -0.43477] CT
1 LJ
0.639 LW
N
143.764 138.579 M
143.764 147.421 L
S
GR
GS
[0.78261 0 0 0.78261 0 -0.43477] CT
1 LJ
0.639 LW
N
268.482 147.421 M
268.482 138.579 L
S
GR
GS
[0.78261 0 0 0.78261 0 -0.43477] CT
1 LJ
0.639 LW
N
141.929 129.737 M
143.764 138.579 L
S
GR
GS
[0.78261 0 0 0.78261 0 -0.43477] CT
1 LJ
0.639 LW
N
268.482 138.579 M
266.979 129.737 L
S
GR
GS
[0.78261 0 0 0.78261 0 -0.43477] CT
1 LJ
0.639 LW
N
137.562 120.895 M
141.929 129.737 L
S
GR
GS
[0.78261 0 0 0.78261 0 -0.43477] CT
1 LJ
0.639 LW
N
266.979 129.737 M
263.373 120.895 L
S
GR
GS
[0.78261 0 0 0.78261 0 -0.43477] CT
1 LJ
0.639 LW
N
128.538 112.053 M
131.263 114.271 L
137.562 120.895 L
S
GR
GS
[0.78261 0 0 0.78261 0 -0.43477] CT
1 LJ
0.639 LW
N
263.373 120.895 M
260.211 116.612 L
255.881 112.053 L
S
GR
GS
[0.78261 0 0 0.78261 0 -0.43477] CT
1 LJ
0.639 LW
N
111.499 103.211 M
118.368 106.309 L
128.538 112.053 L
S
GR
GS
[0.78261 0 0 0.78261 0 -0.43477] CT
1 LJ
0.639 LW
N
255.881 112.053 M
247.316 106.338 L
241.133 103.211 L
S
GR
GS
[0.78261 0 0 0.78261 0 -0.43477] CT
1 LJ
0.639 LW
N
89.617 94.368 M
92.579 95.638 L
105.474 100.782 L
111.499 103.211 L
S
GR
GS
[0.78261 0 0 0.78261 0 -0.43477] CT
1 LJ
0.639 LW
N
241.133 103.211 M
234.421 100.358 L
221.526 95.4 L
218.852 94.368 L
S
GR
GS
[0.78261 0 0 0.78261 0 -0.43477] CT
1 LJ
0.639 LW
N
74.638 85.526 M
79.684 89.005 L
89.617 94.368 L
S
GR
GS
[0.78261 0 0 0.78261 0 -0.43477] CT
1 LJ
0.639 LW
N
218.852 94.368 M
208.632 89.7 L
201.225 85.526 L
S
GR
GS
[0.78261 0 0 0.78261 0 -0.43477] CT
1 LJ
0.639 LW
N
67.026 76.684 M
74.638 85.526 L
S
GR
GS
[0.78261 0 0 0.78261 0 -0.43477] CT
1 LJ
0.639 LW
N
201.225 85.526 M
195.737 80.735 L
192.047 76.684 L
S
GR
GS
[0.78261 0 0 0.78261 0 -0.43477] CT
1 LJ
0.639 LW
N
63.529 67.842 M
66.789 76.166 L
67.026 76.684 L
S
GR
GS
[0.78261 0 0 0.78261 0 -0.43477] CT
1 LJ
0.639 LW
N
192.047 76.684 M
187.948 67.842 L
S
GR
GS
[0.78261 0 0 0.78261 0 -0.43477] CT
1 LJ
0.639 LW
N
62.518 59 M
63.529 67.842 L
S
GR
GS
[0.78261 0 0 0.78261 0 -0.43477] CT
1 LJ
0.639 LW
N
187.948 67.842 M
186.759 59 L
S
GR
GS
[0.78261 0 0 0.78261 0 -0.43477] CT
1 LJ
0.639 LW
N
76.513 218.158 M
74.971 227 L
S
GR
GS
[0.78261 0 0 0.78261 0 -0.43477] CT
1 LJ
0.639 LW
N
173.411 227 M
173.955 218.158 L
S
GR
GS
[0.78261 0 0 0.78261 0 -0.43477] CT
1 LJ
0.639 LW
N
81.919 209.316 M
79.684 212.477 L
76.513 218.158 L
S
GR
GS
[0.78261 0 0 0.78261 0 -0.43477] CT
1 LJ
0.639 LW
N
173.955 218.158 M
175.909 209.316 L
S
GR
GS
[0.78261 0 0 0.78261 0 -0.43477] CT
1 LJ
0.639 LW
N
93.292 200.474 M
92.579 200.89 L
81.919 209.316 L
S
GR
GS
[0.78261 0 0 0.78261 0 -0.43477] CT
1 LJ
0.639 LW
N
175.909 209.316 M
180.856 200.474 L
S
GR
GS
[0.78261 0 0 0.78261 0 -0.43477] CT
1 LJ
0.639 LW
N
114.173 191.632 M
105.474 194.922 L
93.292 200.474 L
S
GR
GS
[0.78261 0 0 0.78261 0 -0.43477] CT
1 LJ
0.639 LW
N
180.856 200.474 M
182.842 198.625 L
192.999 191.632 L
S
GR
GS
[0.78261 0 0 0.78261 0 -0.43477] CT
1 LJ
0.639 LW
N
136.478 182.789 M
131.263 185.107 L
118.368 190.045 L
114.173 191.632 L
S
GR
GS
[0.78261 0 0 0.78261 0 -0.43477] CT
1 LJ
0.639 LW
N
192.999 191.632 M
195.737 190.511 L
208.632 185.653 L
216.601 182.789 L
S
GR
GS
[0.78261 0 0 0.78261 0 -0.43477] CT
1 LJ
0.639 LW
N
147.7 173.947 M
144.158 177.365 L
136.478 182.789 L
S
GR
GS
[0.78261 0 0 0.78261 0 -0.43477] CT
1 LJ
0.639 LW
N
216.601 182.789 M
221.526 181.118 L
234.421 175.748 L
237.817 173.947 L
S
GR
GS
[0.78261 0 0 0.78261 0 -0.43477] CT
1 LJ
0.639 LW
N
152.332 165.105 M
147.7 173.947 L
S
GR
GS
[0.78261 0 0 0.78261 0 -0.43477] CT
1 LJ
0.639 LW
N
237.817 173.947 M
247.316 167.192 L
249.5 165.105 L
S
GR
GS
[0.78261 0 0 0.78261 0 -0.43477] CT
1 LJ
0.639 LW
N
154.336 156.263 M
152.332 165.105 L
S
GR
GS
[0.78261 0 0 0.78261 0 -0.43477] CT
1 LJ
0.639 LW
N
249.5 165.105 M
255.188 156.263 L
S
GR
GS
[0.78261 0 0 0.78261 0 -0.43477] CT
1 LJ
0.639 LW
N
155.138 147.421 M
154.336 156.263 L
S
GR
GS
[0.78261 0 0 0.78261 0 -0.43477] CT
1 LJ
0.639 LW
N
255.188 156.263 M
257.663 147.421 L
S
GR
GS
[0.78261 0 0 0.78261 0 -0.43477] CT
1 LJ
0.639 LW
N
155.138 138.579 M
155.138 147.421 L
S
GR
GS
[0.78261 0 0 0.78261 0 -0.43477] CT
1 LJ
0.639 LW
N
257.663 147.421 M
257.663 138.579 L
S
GR
GS
[0.78261 0 0 0.78261 0 -0.43477] CT
1 LJ
0.639 LW
N
154.336 129.737 M
155.138 138.579 L
S
GR
GS
[0.78261 0 0 0.78261 0 -0.43477] CT
1 LJ
0.639 LW
N
257.663 138.579 M
255.188 129.737 L
S
GR
GS
[0.78261 0 0 0.78261 0 -0.43477] CT
1 LJ
0.639 LW
N
152.332 120.895 M
154.336 129.737 L
S
GR
GS
[0.78261 0 0 0.78261 0 -0.43477] CT
1 LJ
0.639 LW
N
255.188 129.737 M
249.5 120.895 L
S
GR
GS
[0.78261 0 0 0.78261 0 -0.43477] CT
1 LJ
0.639 LW
N
147.7 112.053 M
152.332 120.895 L
S
GR
GS
[0.78261 0 0 0.78261 0 -0.43477] CT
1 LJ
0.639 LW
N
249.5 120.895 M
247.316 118.808 L
237.817 112.053 L
S
GR
GS
[0.78261 0 0 0.78261 0 -0.43477] CT
1 LJ
0.639 LW
N
136.478 103.211 M
144.158 108.635 L
147.7 112.053 L
S
GR
GS
[0.78261 0 0 0.78261 0 -0.43477] CT
1 LJ
0.639 LW
N
237.817 112.053 M
234.421 110.252 L
221.526 104.882 L
216.601 103.211 L
S
GR
GS
[0.78261 0 0 0.78261 0 -0.43477] CT
1 LJ
0.639 LW
N
114.173 94.368 M
118.368 95.955 L
131.263 100.893 L
136.478 103.211 L
S
GR
GS
[0.78261 0 0 0.78261 0 -0.43477] CT
1 LJ
0.639 LW
N
216.601 103.211 M
208.632 100.347 L
195.737 95.489 L
192.999 94.368 L
S
GR
GS
[0.78261 0 0 0.78261 0 -0.43477] CT
1 LJ
0.639 LW
N
93.292 85.526 M
105.474 91.078 L
114.173 94.368 L
S
GR
GS
[0.78261 0 0 0.78261 0 -0.43477] CT
1 LJ
0.639 LW
N
192.999 94.368 M
182.842 87.375 L
180.856 85.526 L
S
GR
GS
[0.78261 0 0 0.78261 0 -0.43477] CT
1 LJ
0.639 LW
N
81.919 76.684 M
92.579 85.11 L
93.292 85.526 L
S
GR
GS
[0.78261 0 0 0.78261 0 -0.43477] CT
1 LJ
0.639 LW
N
180.856 85.526 M
175.909 76.684 L
S
GR
GS
[0.78261 0 0 0.78261 0 -0.43477] CT
1 LJ
0.639 LW
N
76.513 67.842 M
79.684 73.523 L
81.919 76.684 L
S
GR
GS
[0.78261 0 0 0.78261 0 -0.43477] CT
1 LJ
0.639 LW
N
175.909 76.684 M
173.955 67.842 L
S
GR
GS
[0.78261 0 0 0.78261 0 -0.43477] CT
1 LJ
0.639 LW
N
74.971 59 M
76.513 67.842 L
S
GR
GS
[0.78261 0 0 0.78261 0 -0.43477] CT
1 LJ
0.639 LW
N
173.955 67.842 M
173.411 59 L
S
GR
GS
[0.78261 0 0 0.78261 0 -0.43477] CT
1 LJ
0.639 LW
N
91.398 218.158 M
89.157 227 L
S
GR
GS
[0.78261 0 0 0.78261 0 -0.43477] CT
1 LJ
0.639 LW
N
158.657 227 M
158.346 218.158 L
S
GR
GS
[0.78261 0 0 0.78261 0 -0.43477] CT
1 LJ
0.639 LW
N
100.405 209.316 M
92.579 216.604 L
91.398 218.158 L
S
GR
GS
[0.78261 0 0 0.78261 0 -0.43477] CT
1 LJ
0.639 LW
N
158.346 218.158 M
157.171 209.316 L
S
GR
GS
[0.78261 0 0 0.78261 0 -0.43477] CT
1 LJ
0.639 LW
N
121.864 200.474 M
118.368 201.229 L
105.474 206.346 L
100.405 209.316 L
S
GR
GS
[0.78261 0 0 0.78261 0 -0.43477] CT
1 LJ
0.639 LW
N
157.171 209.316 M
157.053 208.857 L
151.085 200.474 L
S
GR
GS
[0.78261 0 0 0.78261 0 -0.43477] CT
1 LJ
0.639 LW
N
151.085 200.474 M
144.158 197.77 L
131.263 198.442 L
121.864 200.474 L
S
GR
GS
[0.78261 0 0 0.78261 0 -0.43477] CT
1 LJ
0.639 LW
N
173.538 173.947 M
182.842 178.173 L
195.737 177.587 L
208.632 175.175 L
212.608 173.947 L
S
GR
GS
[0.78261 0 0 0.78261 0 -0.43477] CT
1 LJ
0.639 LW
N
169.076 165.105 M
169.947 168.487 L
173.538 173.947 L
S
GR
GS
[0.78261 0 0 0.78261 0 -0.43477] CT
1 LJ
0.639 LW
N
212.608 173.947 M
221.526 171.017 L
233.225 165.105 L
S
GR
GS
[0.78261 0 0 0.78261 0 -0.43477] CT
1 LJ
0.639 LW
N
167.927 156.263 M
169.076 165.105 L
S
GR
GS
[0.78261 0 0 0.78261 0 -0.43477] CT
1 LJ
0.639 LW
N
233.225 165.105 M
234.421 164.258 L
241.977 156.263 L
S
GR
GS
[0.78261 0 0 0.78261 0 -0.43477] CT
1 LJ
0.639 LW
N
167.493 147.421 M
167.927 156.263 L
S
GR
GS
[0.78261 0 0 0.78261 0 -0.43477] CT
1 LJ
0.639 LW
N
241.977 156.263 M
245.861 147.421 L
S
GR
GS
[0.78261 0 0 0.78261 0 -0.43477] CT
1 LJ
0.639 LW
N
167.493 138.579 M
167.493 147.421 L
S
GR
GS
[0.78261 0 0 0.78261 0 -0.43477] CT
1 LJ
0.639 LW
N
245.861 147.421 M
245.861 138.579 L
S
GR
GS
[0.78261 0 0 0.78261 0 -0.43477] CT
1 LJ
0.639 LW
N
167.927 129.737 M
167.493 138.579 L
S
GR
GS
[0.78261 0 0 0.78261 0 -0.43477] CT
1 LJ
0.639 LW
N
245.861 138.579 M
241.977 129.737 L
S
GR
GS
[0.78261 0 0 0.78261 0 -0.43477] CT
1 LJ
0.639 LW
N
169.076 120.895 M
167.927 129.737 L
S
GR
GS
[0.78261 0 0 0.78261 0 -0.43477] CT
1 LJ
0.639 LW
N
241.977 129.737 M
234.421 121.742 L
233.225 120.895 L
S
GR
GS
[0.78261 0 0 0.78261 0 -0.43477] CT
1 LJ
0.639 LW
N
173.538 112.053 M
169.947 117.513 L
169.076 120.895 L
S
GR
GS
[0.78261 0 0 0.78261 0 -0.43477] CT
1 LJ
0.639 LW
N
233.225 120.895 M
221.526 114.983 L
212.608 112.053 L
S
GR
GS
[0.78261 0 0 0.78261 0 -0.43477] CT
1 LJ
0.639 LW
N
212.608 112.053 M
208.632 110.825 L
195.737 108.413 L
182.842 107.827 L
173.538 112.053 L
S
GR
GS
[0.78261 0 0 0.78261 0 -0.43477] CT
1 LJ
0.639 LW
N
121.864 85.526 M
131.263 87.558 L
144.158 88.23 L
151.085 85.526 L
S
GR
GS
[0.78261 0 0 0.78261 0 -0.43477] CT
1 LJ
0.639 LW
N
100.405 76.684 M
105.474 79.654 L
118.368 84.771 L
121.864 85.526 L
S
GR
GS
[0.78261 0 0 0.78261 0 -0.43477] CT
1 LJ
0.639 LW
N
151.085 85.526 M
157.053 77.143 L
157.171 76.684 L
S
GR
GS
[0.78261 0 0 0.78261 0 -0.43477] CT
1 LJ
0.639 LW
N
91.398 67.842 M
92.579 69.396 L
100.405 76.684 L
S
GR
GS
[0.78261 0 0 0.78261 0 -0.43477] CT
1 LJ
0.639 LW
N
157.171 76.684 M
158.346 67.842 L
S
GR
GS
[0.78261 0 0 0.78261 0 -0.43477] CT
1 LJ
0.639 LW
N
89.157 59 M
91.398 67.842 L
S
GR
GS
[0.78261 0 0 0.78261 0 -0.43477] CT
1 LJ
0.639 LW
N
158.346 67.842 M
158.657 59 L
S
GR
GS
[0.78261 0 0 0.78261 0 -0.43477] CT
1 LJ
0.639 LW
N
134.917 227 M
131.263 219.159 L
118.368 218.622 L
112.58 227 L
S
GR
GS
[0.78261 0 0 0.78261 0 -0.43477] CT
1 LJ
0.639 LW
N
187.102 156.263 M
195.737 162.161 L
208.632 162.433 L
221.526 157.851 L
223.771 156.263 L
S
GR
GS
[0.78261 0 0 0.78261 0 -0.43477] CT
1 LJ
0.639 LW
N
182.755 147.421 M
182.842 147.755 L
187.102 156.263 L
S
GR
GS
[0.78261 0 0 0.78261 0 -0.43477] CT
1 LJ
0.639 LW
N
223.771 156.263 M
230.257 147.421 L
S
GR
GS
[0.78261 0 0 0.78261 0 -0.43477] CT
1 LJ
0.639 LW
N
182.755 138.579 M
182.755 147.421 L
S
GR
GS
[0.78261 0 0 0.78261 0 -0.43477] CT
1 LJ
0.639 LW
N
230.257 147.421 M
230.257 138.579 L
S
GR
GS
[0.78261 0 0 0.78261 0 -0.43477] CT
1 LJ
0.639 LW
N
187.102 129.737 M
182.842 138.245 L
182.755 138.579 L
S
GR
GS
[0.78261 0 0 0.78261 0 -0.43477] CT
1 LJ
0.639 LW
N
230.257 138.579 M
223.771 129.737 L
S
GR
GS
[0.78261 0 0 0.78261 0 -0.43477] CT
1 LJ
0.639 LW
N
223.771 129.737 M
221.526 128.149 L
208.632 123.567 L
195.737 123.839 L
187.102 129.737 L
S
GR
GS
[0.78261 0 0 0.78261 0 -0.43477] CT
1 LJ
0.639 LW
N
112.58 59 M
118.368 67.378 L
131.263 66.841 L
134.917 59 L
S
GR
GS
[0.78261 0 0 0.78261 0 -0.43477] CT
1 0 0 RC
1 LJ
0.639 LW
N
62.725 196.524 M
67.593 196.265 L
63.42 198.784 L
S
GR
GS
[0.78261 0 0 0.78261 0 -0.43477] CT
1 0 0 RC
1 LJ
0.639 LW
N
64.333 174.149 M
70.806 171.975 L
66.118 176.939 L
S
GR
GS
[0.78261 0 0 0.78261 0 -0.43477] CT
1 0 0 RC
1 LJ
0.639 LW
N
66.199 154.844 M
73.842 152.246 L
68.32 158.135 L
S
GR
GS
[0.78261 0 0 0.78261 0 -0.43477] CT
1 0 0 RC
1 LJ
0.639 LW
N
67.534 139.293 M
75.42 137.94 L
69.099 142.844 L
S
GR
GS
[0.78261 0 0 0.78261 0 -0.43477] CT
1 0 0 RC
1 LJ
0.639 LW
N
67.777 126.596 M
74.874 127.632 L
68.125 130.057 L
S
GR
GS
[0.78261 0 0 0.78261 0 -0.43477] CT
1 0 0 RC
1 LJ
0.639 LW
N
66.825 114.65 M
72.435 118.212 L
65.809 117.709 L
S
GR
GS
[0.78261 0 0 0.78261 0 -0.43477] CT
1 0 0 RC
1 LJ
0.639 LW
N
65.079 101.035 M
69.132 106.194 L
63.128 103.549 L
S
GR
GS
[0.78261 0 0 0.78261 0 -0.43477] CT
1 0 0 RC
1 LJ
0.639 LW
N
81.2 199.873 M
82.022 199.865 L
81.301 200.259 L
S
GR
GS
[0.78261 0 0 0.78261 0 -0.43477] CT
1 0 0 RC
1 LJ
0.639 LW
N
86.263 177.539 M
90.307 176.26 L
87.34 179.291 L
S
GR
GS
[0.78261 0 0 0.78261 0 -0.43477] CT
1 0 0 RC
1 LJ
0.639 LW
N
91.245 157.087 M
98.134 155.409 L
92.845 160.131 L
S
GR
GS
[0.78261 0 0 0.78261 0 -0.43477] CT
1 0 0 RC
1 LJ
0.639 LW
N
94.047 139.685 M
102.201 138.647 L
95.494 143.4 L
S
GR
GS
[0.78261 0 0 0.78261 0 -0.43477] CT
1 0 0 RC
1 LJ
0.639 LW
N
93.486 125.214 M
100.795 125.585 L
94.171 128.697 L
S
GR
GS
[0.78261 0 0 0.78261 0 -0.43477] CT
1 0 0 RC
1 LJ
0.639 LW
N
89.799 112.318 M
94.507 114.274 L
89.432 114.764 L
S
GR
GS
[0.78261 0 0 0.78261 0 -0.43477] CT
1 0 0 RC
1 LJ
0.639 LW
N
84.54 98.979 M
85.989 102.026 L
83.277 100.019 L
S
GR
GS
[0.78261 0 0 0.78261 0 -0.43477] CT
1 0 0 RC
1 LJ
0.639 LW
N
99.186 204.698 M
95.465 205.546 L
98.349 203.046 L
S
GR
GS
[0.78261 0 0 0.78261 0 -0.43477] CT
1 0 0 RC
1 LJ
0.639 LW
N
105.395 182.958 M
105.328 183.023 L
105.357 182.934 L
S
GR
GS
[0.78261 0 0 0.78261 0 -0.43477] CT
1 0 0 RC
1 LJ
0.639 LW
N
111.23 161.198 M
114.645 160.402 L
112.006 162.711 L
S
GR
GS
[0.78261 0 0 0.78261 0 -0.43477] CT
1 0 0 RC
1 LJ
0.639 LW
N
114.231 141.135 M
119.487 139.764 L
115.494 143.447 L
S
GR
GS
[0.78261 0 0 0.78261 0 -0.43477] CT
1 0 0 RC
1 LJ
0.639 LW
N
113.132 123.773 M
117.812 122.356 L
114.35 125.809 L
S
GR
GS
[0.78261 0 0 0.78261 0 -0.43477] CT
1 0 0 RC
1 LJ
0.639 LW
N
108.396 108.977 M
110.327 108.06 L
109.055 109.778 L
S
GR
GS
[0.78261 0 0 0.78261 0 -0.43477] CT
1 0 0 RC
1 LJ
0.639 LW
N
102.021 95.527 M
100.188 95.448 L
101.843 94.655 L
S
GR
GS
[0.78261 0 0 0.78261 0 -0.43477] CT
1 0 0 RC
1 LJ
0.639 LW
N
119.974 208.964 M
113.129 210.913 L
118.252 205.972 L
S
GR
GS
[0.78261 0 0 0.78261 0 -0.43477] CT
1 0 0 RC
1 LJ
0.639 LW
N
124.538 188.122 M
120.41 189.412 L
123.445 186.331 L
S
GR
GS
[0.78261 0 0 0.78261 0 -0.43477] CT
1 0 0 RC
1 LJ
0.639 LW
N
128.601 165.442 M
127.288 165.119 L
128.599 164.786 L
S
GR
GS
[0.78261 0 0 0.78261 0 -0.43477] CT
1 0 0 RC
1 LJ
0.639 LW
N
130.45 143.031 M
130.863 140.82 L
131.54 142.965 L
S
GR
GS
[0.78261 0 0 0.78261 0 -0.43477] CT
1 0 0 RC
1 LJ
0.639 LW
N
129.306 122.882 M
129.627 119.304 L
131.027 122.612 L
S
GR
GS
[0.78261 0 0 0.78261 0 -0.43477] CT
1 0 0 RC
1 LJ
0.639 LW
N
125.651 106.035 M
124.101 102.189 L
127.278 104.853 L
S
GR
GS
[0.78261 0 0 0.78261 0 -0.43477] CT
1 0 0 RC
1 LJ
0.639 LW
N
121.026 92.136 M
116.616 89.233 L
121.873 89.719 L
S
GR
GS
[0.78261 0 0 0.78261 0 -0.43477] CT
1 0 0 RC
1 LJ
0.639 LW
N
145.674 210.872 M
138.44 213.702 L
143.491 207.801 L
S
GR
GS
[0.78261 0 0 0.78261 0 -0.43477] CT
1 0 0 RC
1 LJ
0.639 LW
N
146.494 190.852 M
140.069 192.733 L
144.853 188.05 L
S
GR
GS
[0.78261 0 0 0.78261 0 -0.43477] CT
1 0 0 RC
1 LJ
0.639 LW
N
146.908 168.031 M
141.608 167.57 L
146.501 165.482 L
S
GR
GS
[0.78261 0 0 0.78261 0 -0.43477] CT
1 0 0 RC
1 LJ
0.639 LW
N
146.741 144.574 M
142.408 141.368 L
147.74 142.157 L
S
GR
GS
[0.78261 0 0 0.78261 0 -0.43477] CT
1 0 0 RC
1 LJ
0.639 LW
N
146.064 122.916 M
142.131 117.719 L
148.047 120.454 L
S
GR
GS
[0.78261 0 0 0.78261 0 -0.43477] CT
1 0 0 RC
1 LJ
0.639 LW
N
145.162 104.733 M
140.895 99.138 L
147.292 102.067 L
S
GR
GS
[0.78261 0 0 0.78261 0 -0.43477] CT
1 0 0 RC
1 LJ
0.639 LW
N
144.415 90.235 M
139.22 86.003 L
145.795 87.293 L
S
GR
GS
[0.78261 0 0 0.78261 0 -0.43477] CT
1 0 0 RC
1 LJ
0.639 LW
N
176.322 209.618 M
171.601 212.737 L
174.299 207.763 L
S
GR
GS
[0.78261 0 0 0.78261 0 -0.43477] CT
1 0 0 RC
1 LJ
0.639 LW
N
172.88 189.998 M
166.891 191.584 L
171.429 187.366 L
S
GR
GS
[0.78261 0 0 0.78261 0 -0.43477] CT
1 0 0 RC
1 LJ
0.639 LW
N
169.307 167.872 M
162.441 166.722 L
169.04 164.506 L
S
GR
GS
[0.78261 0 0 0.78261 0 -0.43477] CT
1 0 0 RC
1 LJ
0.639 LW
N
167.109 145.112 M
160.129 141.178 L
168.139 141.365 L
S
GR
GS
[0.78261 0 0 0.78261 0 -0.43477] CT
1 0 0 RC
1 LJ
0.639 LW
N
167.214 123.86 M
160.928 118.267 L
169.106 120.244 L
S
GR
GS
[0.78261 0 0 0.78261 0 -0.43477] CT
1 0 0 RC
1 LJ
0.639 LW
N
169.577 105.62 M
164.503 100.193 L
171.533 102.594 L
S
GR
GS
[0.78261 0 0 0.78261 0 -0.43477] CT
1 0 0 RC
1 LJ
0.639 LW
N
173.201 90.626 M
169.345 87.12 L
174.397 88.399 L
S
GR
GS
[0.78261 0 0 0.78261 0 -0.43477] CT
1 0 0 RC
1 LJ
0.639 LW
N
209.871 205.73 M
209.502 208.426 L
208.559 205.873 L
S
GR
GS
[0.78261 0 0 0.78261 0 -0.43477] CT
1 0 0 RC
1 LJ
0.639 LW
N
203.445 185.919 M
200.439 186.452 L
202.841 184.567 L
S
GR
GS
[0.78261 0 0 0.78261 0 -0.43477] CT
1 0 0 RC
1 LJ
0.639 LW
N
197.227 165.032 M
191.878 162.933 L
197.586 162.268 L
S
GR
GS
[0.78261 0 0 0.78261 0 -0.43477] CT
1 0 0 RC
1 LJ
0.639 LW
N
193.84 144.42 M
187.428 140.331 L
195.01 140.921 L
S
GR
GS
[0.78261 0 0 0.78261 0 -0.43477] CT
1 0 0 RC
1 LJ
0.639 LW
N
194.712 125.317 M
188.967 120.718 L
196.2 122.072 L
S
GR
GS
[0.78261 0 0 0.78261 0 -0.43477] CT
1 0 0 RC
1 LJ
0.639 LW
N
199.475 108.322 M
195.845 104.909 L
200.654 106.212 L
S
GR
GS
[0.78261 0 0 0.78261 0 -0.43477] CT
1 0 0 RC
1 LJ
0.639 LW
N
206.121 93.143 M
205.162 92.113 L
206.493 92.571 L
S
GR
GS
[0.78261 0 0 0.78261 0 -0.43477] CT
1 0 0 RC
1 LJ
0.639 LW
N
243.047 200.848 M
247.036 202.585 L
242.699 202.929 L
S
GR
GS
[0.78261 0 0 0.78261 0 -0.43477] CT
1 0 0 RC
1 LJ
0.639 LW
N
236.174 180.336 M
237.443 179.499 L
236.717 180.834 L
S
GR
GS
[0.78261 0 0 0.78261 0 -0.43477] CT
1 0 0 RC
1 LJ
0.639 LW
N
229.771 160.709 M
228.38 157.8 L
230.976 159.713 L
S
GR
GS
[0.78261 0 0 0.78261 0 -0.43477] CT
1 0 0 RC
1 LJ
0.639 LW
N
226.538 142.788 M
223.67 139.182 L
227.897 141.014 L
S
GR
GS
[0.78261 0 0 0.78261 0 -0.43477] CT
1 0 0 RC
1 LJ
0.639 LW
N
227.839 126.672 M
225.298 124.039 L
228.779 125.167 L
S
GR
GS
[0.78261 0 0 0.78261 0 -0.43477] CT
1 0 0 RC
1 LJ
0.639 LW
N
233.125 111.699 M
232.579 111.298 L
233.249 111.395 L
S
GR
GS
[0.78261 0 0 0.78261 0 -0.43477] CT
1 0 0 RC
1 LJ
0.639 LW
N
240.167 96.727 M
242.442 98.876 L
239.423 98.05 L
S
GR
GS
[0.78261 0 0 0.78261 0 -0.43477] CT
1 0 0 RC
1 LJ
0.639 LW
N
272.737 197.031 M
279.25 197.679 L
273.198 200.172 L
S
GR
GS
[0.78261 0 0 0.78261 0 -0.43477] CT
1 0 0 RC
1 LJ
0.639 LW
N
268.141 175.602 M
273.172 173.659 L
269.648 177.741 L
S
GR
GS
[0.78261 0 0 0.78261 0 -0.43477] CT
1 0 0 RC
1 LJ
0.639 LW
N
264.089 156.727 M
267.429 153.489 L
266.006 157.918 L
S
GR
GS
[0.78261 0 0 0.78261 0 -0.43477] CT
1 0 0 RC
1 LJ
0.639 LW
N
262.288 140.905 M
264.445 138.218 L
263.807 141.604 L
S
GR
GS
[0.78261 0 0 0.78261 0 -0.43477] CT
1 0 0 RC
1 LJ
0.639 LW
N
263.499 127.353 M
265.477 126.828 L
263.979 128.222 L
S
GR
GS
[0.78261 0 0 0.78261 0 -0.43477] CT
1 0 0 RC
1 LJ
0.639 LW
N
267.211 114.328 M
270.09 116.665 L
266.45 115.958 L
S
GR
GS
[0.78261 0 0 0.78261 0 -0.43477] CT
1 0 0 RC
1 LJ
0.639 LW
N
271.857 99.864 M
276.339 104.557 L
270.176 102.525 L
S
GR
GS
[0.78261 0 0 0.78261 0 -0.43477] CT
1 0 0 RC
1 LJ
0.639 LW
N
53.895 200.474 M
67.593 196.265 L
S
GR
GS
[0.78261 0 0 0.78261 0 -0.43477] CT
1 0 0 RC
1 LJ
0.639 LW
N
53.895 182.789 M
70.806 171.975 L
S
GR
GS
[0.78261 0 0 0.78261 0 -0.43477] CT
1 0 0 RC
1 LJ
0.639 LW
N
53.895 165.105 M
73.842 152.246 L
S
GR
GS
[0.78261 0 0 0.78261 0 -0.43477] CT
1 0 0 RC
1 LJ
0.639 LW
N
53.895 147.421 M
75.42 137.94 L
S
GR
GS
[0.78261 0 0 0.78261 0 -0.43477] CT
1 0 0 RC
1 LJ
0.639 LW
N
53.895 129.737 M
74.874 127.632 L
S
GR
GS
[0.78261 0 0 0.78261 0 -0.43477] CT
1 0 0 RC
1 LJ
0.639 LW
N
53.895 112.053 M
72.435 118.212 L
S
GR
GS
[0.78261 0 0 0.78261 0 -0.43477] CT
1 0 0 RC
1 LJ
0.639 LW
N
53.895 94.368 M
69.132 106.194 L
S
GR
GS
[0.78261 0 0 0.78261 0 -0.43477] CT
1 0 0 RC
1 LJ
0.639 LW
N
79.684 200.474 M
82.022 199.865 L
S
GR
GS
[0.78261 0 0 0.78261 0 -0.43477] CT
1 0 0 RC
1 LJ
0.639 LW
N
79.684 182.789 M
90.307 176.26 L
S
GR
GS
[0.78261 0 0 0.78261 0 -0.43477] CT
1 0 0 RC
1 LJ
0.639 LW
N
79.684 165.105 M
98.134 155.409 L
S
GR
GS
[0.78261 0 0 0.78261 0 -0.43477] CT
1 0 0 RC
1 LJ
0.639 LW
N
79.684 147.421 M
102.201 138.647 L
S
GR
GS
[0.78261 0 0 0.78261 0 -0.43477] CT
1 0 0 RC
1 LJ
0.639 LW
N
79.684 129.737 M
100.795 125.585 L
S
GR
GS
[0.78261 0 0 0.78261 0 -0.43477] CT
1 0 0 RC
1 LJ
0.639 LW
N
79.684 112.053 M
94.507 114.274 L
S
GR
GS
[0.78261 0 0 0.78261 0 -0.43477] CT
1 0 0 RC
1 LJ
0.639 LW
N
79.684 94.368 M
85.989 102.026 L
S
GR
GS
[0.78261 0 0 0.78261 0 -0.43477] CT
1 0 0 RC
1 LJ
0.639 LW
N
105.474 200.474 M
95.465 205.546 L
S
GR
GS
[0.78261 0 0 0.78261 0 -0.43477] CT
1 0 0 RC
1 LJ
0.639 LW
N
105.474 182.789 M
105.328 183.023 L
S
GR
GS
[0.78261 0 0 0.78261 0 -0.43477] CT
1 0 0 RC
1 LJ
0.639 LW
N
105.474 165.105 M
114.645 160.402 L
S
GR
GS
[0.78261 0 0 0.78261 0 -0.43477] CT
1 0 0 RC
1 LJ
0.639 LW
N
105.474 147.421 M
119.487 139.764 L
S
GR
GS
[0.78261 0 0 0.78261 0 -0.43477] CT
1 0 0 RC
1 LJ
0.639 LW
N
105.474 129.737 M
117.812 122.356 L
S
GR
GS
[0.78261 0 0 0.78261 0 -0.43477] CT
1 0 0 RC
1 LJ
0.639 LW
N
105.474 112.053 M
110.327 108.06 L
S
GR
GS
[0.78261 0 0 0.78261 0 -0.43477] CT
1 0 0 RC
1 LJ
0.639 LW
N
105.474 94.368 M
100.188 95.448 L
S
GR
GS
[0.78261 0 0 0.78261 0 -0.43477] CT
1 0 0 RC
1 LJ
0.639 LW
N
131.263 200.474 M
113.129 210.913 L
S
GR
GS
[0.78261 0 0 0.78261 0 -0.43477] CT
1 0 0 RC
1 LJ
0.639 LW
N
131.263 182.789 M
120.41 189.412 L
S
GR
GS
[0.78261 0 0 0.78261 0 -0.43477] CT
1 0 0 RC
1 LJ
0.639 LW
N
131.263 165.105 M
127.288 165.119 L
S
GR
GS
[0.78261 0 0 0.78261 0 -0.43477] CT
1 0 0 RC
1 LJ
0.639 LW
N
131.263 147.421 M
130.863 140.82 L
S
GR
GS
[0.78261 0 0 0.78261 0 -0.43477] CT
1 0 0 RC
1 LJ
0.639 LW
N
131.263 129.737 M
129.627 119.304 L
S
GR
GS
[0.78261 0 0 0.78261 0 -0.43477] CT
1 0 0 RC
1 LJ
0.639 LW
N
131.263 112.053 M
124.101 102.189 L
S
GR
GS
[0.78261 0 0 0.78261 0 -0.43477] CT
1 0 0 RC
1 LJ
0.639 LW
N
131.263 94.368 M
116.616 89.233 L
S
GR
GS
[0.78261 0 0 0.78261 0 -0.43477] CT
1 0 0 RC
1 LJ
0.639 LW
N
157.053 200.474 M
138.44 213.702 L
S
GR
GS
[0.78261 0 0 0.78261 0 -0.43477] CT
1 0 0 RC
1 LJ
0.639 LW
N
157.053 182.789 M
140.069 192.733 L
S
GR
GS
[0.78261 0 0 0.78261 0 -0.43477] CT
1 0 0 RC
1 LJ
0.639 LW
N
157.053 165.105 M
141.608 167.57 L
S
GR
GS
[0.78261 0 0 0.78261 0 -0.43477] CT
1 0 0 RC
1 LJ
0.639 LW
N
157.053 147.421 M
142.408 141.368 L
S
GR
GS
[0.78261 0 0 0.78261 0 -0.43477] CT
1 0 0 RC
1 LJ
0.639 LW
N
157.053 129.737 M
142.131 117.719 L
S
GR
GS
[0.78261 0 0 0.78261 0 -0.43477] CT
1 0 0 RC
1 LJ
0.639 LW
N
157.053 112.053 M
140.895 99.138 L
S
GR
GS
[0.78261 0 0 0.78261 0 -0.43477] CT
1 0 0 RC
1 LJ
0.639 LW
N
157.053 94.368 M
139.22 86.003 L
S
GR
GS
[0.78261 0 0 0.78261 0 -0.43477] CT
1 0 0 RC
1 LJ
0.639 LW
N
182.842 200.474 M
171.601 212.737 L
S
GR
GS
[0.78261 0 0 0.78261 0 -0.43477] CT
1 0 0 RC
1 LJ
0.639 LW
N
182.842 182.789 M
166.891 191.584 L
S
GR
GS
[0.78261 0 0 0.78261 0 -0.43477] CT
1 0 0 RC
1 LJ
0.639 LW
N
182.842 165.105 M
162.441 166.722 L
S
GR
GS
[0.78261 0 0 0.78261 0 -0.43477] CT
1 0 0 RC
1 LJ
0.639 LW
N
182.842 147.421 M
160.129 141.178 L
S
GR
GS
[0.78261 0 0 0.78261 0 -0.43477] CT
1 0 0 RC
1 LJ
0.639 LW
N
182.842 129.737 M
160.928 118.267 L
S
GR
GS
[0.78261 0 0 0.78261 0 -0.43477] CT
1 0 0 RC
1 LJ
0.639 LW
N
182.842 112.053 M
164.503 100.193 L
S
GR
GS
[0.78261 0 0 0.78261 0 -0.43477] CT
1 0 0 RC
1 LJ
0.639 LW
N
182.842 94.368 M
169.345 87.12 L
S
GR
GS
[0.78261 0 0 0.78261 0 -0.43477] CT
1 0 0 RC
1 LJ
0.639 LW
N
208.632 200.474 M
209.502 208.426 L
S
GR
GS
[0.78261 0 0 0.78261 0 -0.43477] CT
1 0 0 RC
1 LJ
0.639 LW
N
208.632 182.789 M
200.439 186.452 L
S
GR
GS
[0.78261 0 0 0.78261 0 -0.43477] CT
1 0 0 RC
1 LJ
0.639 LW
N
208.632 165.105 M
191.878 162.933 L
S
GR
GS
[0.78261 0 0 0.78261 0 -0.43477] CT
1 0 0 RC
1 LJ
0.639 LW
N
208.632 147.421 M
187.428 140.331 L
S
GR
GS
[0.78261 0 0 0.78261 0 -0.43477] CT
1 0 0 RC
1 LJ
0.639 LW
N
208.632 129.737 M
188.967 120.718 L
S
GR
GS
[0.78261 0 0 0.78261 0 -0.43477] CT
1 0 0 RC
1 LJ
0.639 LW
N
208.632 112.053 M
195.845 104.909 L
S
GR
GS
[0.78261 0 0 0.78261 0 -0.43477] CT
1 0 0 RC
1 LJ
0.639 LW
N
208.632 94.368 M
205.162 92.113 L
S
GR
GS
[0.78261 0 0 0.78261 0 -0.43477] CT
1 0 0 RC
1 LJ
0.639 LW
N
234.421 200.474 M
247.036 202.585 L
S
GR
GS
[0.78261 0 0 0.78261 0 -0.43477] CT
1 0 0 RC
1 LJ
0.639 LW
N
234.421 182.789 M
237.443 179.499 L
S
GR
GS
[0.78261 0 0 0.78261 0 -0.43477] CT
1 0 0 RC
1 LJ
0.639 LW
N
234.421 165.105 M
228.38 157.8 L
S
GR
GS
[0.78261 0 0 0.78261 0 -0.43477] CT
1 0 0 RC
1 LJ
0.639 LW
N
234.421 147.421 M
223.67 139.182 L
S
GR
GS
[0.78261 0 0 0.78261 0 -0.43477] CT
1 0 0 RC
1 LJ
0.639 LW
N
234.421 129.737 M
225.298 124.039 L
S
GR
GS
[0.78261 0 0 0.78261 0 -0.43477] CT
1 0 0 RC
1 LJ
0.639 LW
N
234.421 112.053 M
232.579 111.298 L
S
GR
GS
[0.78261 0 0 0.78261 0 -0.43477] CT
1 0 0 RC
1 LJ
0.639 LW
N
234.421 94.368 M
242.442 98.876 L
S
GR
GS
[0.78261 0 0 0.78261 0 -0.43477] CT
1 0 0 RC
1 LJ
0.639 LW
N
260.211 200.474 M
279.25 197.679 L
S
GR
GS
[0.78261 0 0 0.78261 0 -0.43477] CT
1 0 0 RC
1 LJ
0.639 LW
N
260.211 182.789 M
273.172 173.659 L
S
GR
GS
[0.78261 0 0 0.78261 0 -0.43477] CT
1 0 0 RC
1 LJ
0.639 LW
N
260.211 165.105 M
267.429 153.489 L
S
GR
GS
[0.78261 0 0 0.78261 0 -0.43477] CT
1 0 0 RC
1 LJ
0.639 LW
N
260.211 147.421 M
264.445 138.218 L
S
GR
GS
[0.78261 0 0 0.78261 0 -0.43477] CT
1 0 0 RC
1 LJ
0.639 LW
N
260.211 129.737 M
265.477 126.828 L
S
GR
GS
[0.78261 0 0 0.78261 0 -0.43477] CT
1 0 0 RC
1 LJ
0.639 LW
N
260.211 112.053 M
270.09 116.665 L
S
GR
GS
[0.78261 0 0 0.78261 0 -0.43477] CT
1 0 0 RC
1 LJ
0.639 LW
N
260.211 94.368 M
276.339 104.557 L
S
GR
GS
[0.78261 0 0 0.78261 0 -0.43477] CT
0.149 GC
2 setlinecap
1 LJ
0.639 LW
N
41 227 M
286 227 L
S
GR
GS
[0.78261 0 0 0.78261 0 -0.43477] CT
0.149 GC
2 setlinecap
1 LJ
0.639 LW
N
41 59 M
286 59 L
S
GR
GS
[0.78261 0 0 0.78261 0 -0.43477] CT
0.149 GC
2 setlinecap
1 LJ
0.639 LW
N
41 227 M
41 59 L
S
GR
GS
[0.78261 0 0 0.78261 0 -0.43477] CT
0.149 GC
2 setlinecap
1 LJ
0.639 LW
N
286 227 M
286 59 L
S
GR
%%Trailer
%%Pages: 1
%%EOF
