%!PS-Adobe-3.0 EPSF-3.0
%%Creator: (MATLAB, The Mathworks, Inc. Version 9.10.0.1684407 \(R2021a\) Update 3. Operating System: Linux)
%%Title: /home/adoan/Code/PRoSA_PI-ESN_Git/pi-esn/Results/MFE_results/Figures/FIG7_DOWN_F.eps
%%CreationDate: 2021-07-21T18:44:18
%%Pages: (atend)
%%BoundingBox:     0     0   255   227
%%LanguageLevel: 3
%%EndComments
%%BeginProlog
%%BeginResource: procset (Apache XML Graphics Std ProcSet) 1.2 0
%%Version: 1.2 0
%%Copyright: (Copyright 2001-2003,2010 The Apache Software Foundation. License terms: http://www.apache.org/licenses/LICENSE-2.0)
/bd{bind def}bind def
/ld{load def}bd
/GR/grestore ld
/GS/gsave ld
/RM/rmoveto ld
/C/curveto ld
/t/show ld
/L/lineto ld
/ML/setmiterlimit ld
/CT/concat ld
/f/fill ld
/N/newpath ld
/S/stroke ld
/CC/setcmykcolor ld
/A/ashow ld
/cp/closepath ld
/RC/setrgbcolor ld
/LJ/setlinejoin ld
/GC/setgray ld
/LW/setlinewidth ld
/M/moveto ld
/re {4 2 roll M
1 index 0 rlineto
0 exch rlineto
neg 0 rlineto
cp } bd
/_ctm matrix def
/_tm matrix def
/BT { _ctm currentmatrix pop matrix _tm copy pop 0 0 moveto } bd
/ET { _ctm setmatrix } bd
/iTm { _ctm setmatrix _tm concat } bd
/Tm { _tm astore pop iTm 0 0 moveto } bd
/ux 0.0 def
/uy 0.0 def
/F {
  /Tp exch def
  /Tf exch def
  Tf findfont Tp scalefont setfont
  /cf Tf def  /cs Tp def
} bd
/ULS {currentpoint /uy exch def /ux exch def} bd
/ULE {
  /Tcx currentpoint pop def
  gsave
  newpath
  cf findfont cs scalefont dup
  /FontMatrix get 0 get /Ts exch def /FontInfo get dup
  /UnderlinePosition get Ts mul /To exch def
  /UnderlineThickness get Ts mul /Tt exch def
  ux uy To add moveto  Tcx uy To add lineto
  Tt setlinewidth stroke
  grestore
} bd
/OLE {
  /Tcx currentpoint pop def
  gsave
  newpath
  cf findfont cs scalefont dup
  /FontMatrix get 0 get /Ts exch def /FontInfo get dup
  /UnderlinePosition get Ts mul /To exch def
  /UnderlineThickness get Ts mul /Tt exch def
  ux uy To add cs add moveto Tcx uy To add cs add lineto
  Tt setlinewidth stroke
  grestore
} bd
/SOE {
  /Tcx currentpoint pop def
  gsave
  newpath
  cf findfont cs scalefont dup
  /FontMatrix get 0 get /Ts exch def /FontInfo get dup
  /UnderlinePosition get Ts mul /To exch def
  /UnderlineThickness get Ts mul /Tt exch def
  ux uy To add cs 10 mul 26 idiv add moveto Tcx uy To add cs 10 mul 26 idiv add lineto
  Tt setlinewidth stroke
  grestore
} bd
/QT {
/Y22 exch store
/X22 exch store
/Y21 exch store
/X21 exch store
currentpoint
/Y21 load 2 mul add 3 div exch
/X21 load 2 mul add 3 div exch
/X21 load 2 mul /X22 load add 3 div
/Y21 load 2 mul /Y22 load add 3 div
/X22 load /Y22 load curveto
} bd
/SSPD {
dup length /d exch dict def
{
/v exch def
/k exch def
currentpagedevice k known {
/cpdv currentpagedevice k get def
v cpdv ne {
/upd false def
/nullv v type /nulltype eq def
/nullcpdv cpdv type /nulltype eq def
nullv nullcpdv or
{
/upd true def
} {
/sametype v type cpdv type eq def
sametype {
v type /arraytype eq {
/vlen v length def
/cpdvlen cpdv length def
vlen cpdvlen eq {
0 1 vlen 1 sub {
/i exch def
/obj v i get def
/cpdobj cpdv i get def
obj cpdobj ne {
/upd true def
exit
} if
} for
} {
/upd true def
} ifelse
} {
v type /dicttype eq {
v {
/dv exch def
/dk exch def
/cpddv cpdv dk get def
dv cpddv ne {
/upd true def
exit
} if
} forall
} {
/upd true def
} ifelse
} ifelse
} if
} ifelse
upd true eq {
d k v put
} if
} if
} if
} forall
d length 0 gt {
d setpagedevice
} if
} bd
/RE { % /NewFontName [NewEncodingArray] /FontName RE -
  findfont dup length dict begin
  {
    1 index /FID ne
    {def} {pop pop} ifelse
  } forall
  /Encoding exch def
  /FontName 1 index def
  currentdict definefont pop
  end
} bind def
%%EndResource
%%BeginResource: procset (Apache XML Graphics EPS ProcSet) 1.0 0
%%Version: 1.0 0
%%Copyright: (Copyright 2002-2003 The Apache Software Foundation. License terms: http://www.apache.org/licenses/LICENSE-2.0)
/BeginEPSF { %def
/b4_Inc_state save def         % Save state for cleanup
/dict_count countdictstack def % Count objects on dict stack
/op_count count 1 sub def      % Count objects on operand stack
userdict begin                 % Push userdict on dict stack
/showpage { } def              % Redefine showpage, { } = null proc
0 setgray 0 setlinecap         % Prepare graphics state
1 setlinewidth 0 setlinejoin
10 setmiterlimit [ ] 0 setdash newpath
/languagelevel where           % If level not equal to 1 then
{pop languagelevel             % set strokeadjust and
1 ne                           % overprint to their defaults.
{false setstrokeadjust false setoverprint
} if
} if
} bd
/EndEPSF { %def
count op_count sub {pop} repeat            % Clean up stacks
countdictstack dict_count sub {end} repeat
b4_Inc_state restore
} bd
%%EndResource
%FOPBeginFontDict
%%IncludeResource: font Courier-Oblique
%%IncludeResource: font Courier-BoldOblique
%%IncludeResource: font Courier-Bold
%%IncludeResource: font ZapfDingbats
%%IncludeResource: font Symbol
%%IncludeResource: font Helvetica
%%IncludeResource: font Helvetica-Oblique
%%IncludeResource: font Helvetica-Bold
%%IncludeResource: font Helvetica-BoldOblique
%%IncludeResource: font Times-Roman
%%IncludeResource: font Times-Italic
%%IncludeResource: font Times-Bold
%%IncludeResource: font Times-BoldItalic
%%IncludeResource: font Courier
%FOPEndFontDict
%%BeginResource: encoding WinAnsiEncoding
/WinAnsiEncoding [
/.notdef /.notdef /.notdef /.notdef /.notdef
/.notdef /.notdef /.notdef /.notdef /.notdef
/.notdef /.notdef /.notdef /.notdef /.notdef
/.notdef /.notdef /.notdef /.notdef /.notdef
/.notdef /.notdef /.notdef /.notdef /.notdef
/.notdef /.notdef /.notdef /.notdef /.notdef
/.notdef /.notdef /space /exclam /quotedbl
/numbersign /dollar /percent /ampersand /quotesingle
/parenleft /parenright /asterisk /plus /comma
/hyphen /period /slash /zero /one
/two /three /four /five /six
/seven /eight /nine /colon /semicolon
/less /equal /greater /question /at
/A /B /C /D /E
/F /G /H /I /J
/K /L /M /N /O
/P /Q /R /S /T
/U /V /W /X /Y
/Z /bracketleft /backslash /bracketright /asciicircum
/underscore /quoteleft /a /b /c
/d /e /f /g /h
/i /j /k /l /m
/n /o /p /q /r
/s /t /u /v /w
/x /y /z /braceleft /bar
/braceright /asciitilde /bullet /Euro /bullet
/quotesinglbase /florin /quotedblbase /ellipsis /dagger
/daggerdbl /circumflex /perthousand /Scaron /guilsinglleft
/OE /bullet /Zcaron /bullet /bullet
/quoteleft /quoteright /quotedblleft /quotedblright /bullet
/endash /emdash /asciitilde /trademark /scaron
/guilsinglright /oe /bullet /zcaron /Ydieresis
/space /exclamdown /cent /sterling /currency
/yen /brokenbar /section /dieresis /copyright
/ordfeminine /guillemotleft /logicalnot /sfthyphen /registered
/macron /degree /plusminus /twosuperior /threesuperior
/acute /mu /paragraph /middot /cedilla
/onesuperior /ordmasculine /guillemotright /onequarter /onehalf
/threequarters /questiondown /Agrave /Aacute /Acircumflex
/Atilde /Adieresis /Aring /AE /Ccedilla
/Egrave /Eacute /Ecircumflex /Edieresis /Igrave
/Iacute /Icircumflex /Idieresis /Eth /Ntilde
/Ograve /Oacute /Ocircumflex /Otilde /Odieresis
/multiply /Oslash /Ugrave /Uacute /Ucircumflex
/Udieresis /Yacute /Thorn /germandbls /agrave
/aacute /acircumflex /atilde /adieresis /aring
/ae /ccedilla /egrave /eacute /ecircumflex
/edieresis /igrave /iacute /icircumflex /idieresis
/eth /ntilde /ograve /oacute /ocircumflex
/otilde /odieresis /divide /oslash /ugrave
/uacute /ucircumflex /udieresis /yacute /thorn
/ydieresis
] def
%%EndResource
%FOPBeginFontReencode
/Courier-Oblique findfont
dup length dict begin
  {1 index /FID ne {def} {pop pop} ifelse} forall
  /Encoding WinAnsiEncoding def
  currentdict
end
/Courier-Oblique exch definefont pop
/Courier-BoldOblique findfont
dup length dict begin
  {1 index /FID ne {def} {pop pop} ifelse} forall
  /Encoding WinAnsiEncoding def
  currentdict
end
/Courier-BoldOblique exch definefont pop
/Courier-Bold findfont
dup length dict begin
  {1 index /FID ne {def} {pop pop} ifelse} forall
  /Encoding WinAnsiEncoding def
  currentdict
end
/Courier-Bold exch definefont pop
/Helvetica findfont
dup length dict begin
  {1 index /FID ne {def} {pop pop} ifelse} forall
  /Encoding WinAnsiEncoding def
  currentdict
end
/Helvetica exch definefont pop
/Helvetica-Oblique findfont
dup length dict begin
  {1 index /FID ne {def} {pop pop} ifelse} forall
  /Encoding WinAnsiEncoding def
  currentdict
end
/Helvetica-Oblique exch definefont pop
/Helvetica-Bold findfont
dup length dict begin
  {1 index /FID ne {def} {pop pop} ifelse} forall
  /Encoding WinAnsiEncoding def
  currentdict
end
/Helvetica-Bold exch definefont pop
/Helvetica-BoldOblique findfont
dup length dict begin
  {1 index /FID ne {def} {pop pop} ifelse} forall
  /Encoding WinAnsiEncoding def
  currentdict
end
/Helvetica-BoldOblique exch definefont pop
/Times-Roman findfont
dup length dict begin
  {1 index /FID ne {def} {pop pop} ifelse} forall
  /Encoding WinAnsiEncoding def
  currentdict
end
/Times-Roman exch definefont pop
/Times-Italic findfont
dup length dict begin
  {1 index /FID ne {def} {pop pop} ifelse} forall
  /Encoding WinAnsiEncoding def
  currentdict
end
/Times-Italic exch definefont pop
/Times-Bold findfont
dup length dict begin
  {1 index /FID ne {def} {pop pop} ifelse} forall
  /Encoding WinAnsiEncoding def
  currentdict
end
/Times-Bold exch definefont pop
/Times-BoldItalic findfont
dup length dict begin
  {1 index /FID ne {def} {pop pop} ifelse} forall
  /Encoding WinAnsiEncoding def
  currentdict
end
/Times-BoldItalic exch definefont pop
/Courier findfont
dup length dict begin
  {1 index /FID ne {def} {pop pop} ifelse} forall
  /Encoding WinAnsiEncoding def
  currentdict
end
/Courier exch definefont pop
%FOPEndFontReencode
%%EndProlog
%%Page: 1 1
%%PageBoundingBox: 0 0 255 227
%%BeginPageSetup
[1 0 0 -1 0 227] CT
%%EndPageSetup
GS
[0.78257 0 0 0.78197 0 0.22835] CT
1 GC
N
0 0 326 290 re
f
GR
GS
[0.78257 0 0 0.78197 0 0.22835] CT
1 GC
N
0 0 326 290 re
f
GR
GS
[0.78257 0 0 0.78197 0 0.22835] CT
1 GC
N
42 226.743 M
295 226.743 L
295 53.257 L
42 53.257 L
cp
f
GR
GS
[0.78257 0 0 0.78197 0 0.22835] CT
0.239 0.149 0.659 RC
N
156.783 217.612 M
156.955 226.743 L
161.842 226.743 L
166.609 226.743 L
166.504 217.612 L
166.122 208.481 L
165.125 199.35 L
161.842 190.732 L
161.48 190.22 L
148.526 184.386 L
135.211 185.213 L
128.652 190.22 L
135.211 192.122 L
148.067 199.35 L
148.526 199.847 L
155.943 208.481 L
cp
281.306 208.481 M
281.684 209.852 L
283.747 208.481 L
290.663 199.35 L
289.814 190.22 L
281.684 184.619 L
268.368 183.389 L
258.159 181.089 L
255.053 180.835 L
241.737 179.573 L
228.421 178.123 L
215.105 177.39 L
201.789 175.444 L
199.316 171.958 L
188.474 164.702 L
184.268 162.827 L
180.838 153.696 L
180.292 144.565 L
180.292 135.435 L
180.838 126.304 L
184.268 117.173 L
188.474 115.298 L
199.316 108.042 L
201.789 104.556 L
215.105 102.61 L
228.421 101.877 L
241.737 100.427 L
255.053 99.165 L
258.159 98.911 L
268.368 96.611 L
281.684 95.381 L
289.814 89.78 L
290.663 80.65 L
283.747 71.519 L
281.684 70.148 L
281.306 71.519 L
275.913 80.65 L
268.368 86.211 L
259.184 89.78 L
255.053 97.217 L
241.737 96.173 L
228.421 95.591 L
215.105 96.14 L
201.789 97.455 L
190.423 98.911 L
188.474 99.455 L
175.158 105.783 L
173.743 108.042 L
171.51 117.173 L
170.794 126.304 L
170.537 135.435 L
170.537 144.565 L
170.794 153.696 L
171.51 162.827 L
173.743 171.958 L
175.158 174.217 L
188.474 180.545 L
190.423 181.089 L
201.789 182.545 L
215.105 183.86 L
228.421 184.409 L
241.737 183.827 L
255.053 182.783 L
259.184 190.22 L
268.368 193.789 L
275.913 199.35 L
cp
60.17 181.089 M
68.632 182.494 L
81.947 184.022 L
95.263 184.501 L
108.579 183.534 L
120.973 181.089 L
108.579 179.806 L
95.263 178.097 L
81.947 176.938 L
70.965 171.958 L
68.632 170.745 L
59.787 162.827 L
55.723 153.696 L
55.316 151.449 L
53.473 153.696 L
47.559 162.827 L
47.094 171.958 L
55.316 179.521 L
cp
53.473 126.304 M
55.316 128.551 L
55.723 126.304 L
59.787 117.173 L
68.632 109.255 L
70.965 108.042 L
81.947 103.062 L
95.263 101.903 L
108.579 100.194 L
120.973 98.911 L
108.579 96.466 L
95.263 95.499 L
81.947 95.978 L
68.632 97.506 L
60.17 98.911 L
55.316 100.479 L
47.094 108.042 L
47.559 117.173 L
cp
128.652 89.78 M
135.211 94.787 L
148.526 95.614 L
161.48 89.78 L
161.842 89.268 L
165.125 80.65 L
166.122 71.519 L
166.504 62.388 L
166.609 53.257 L
161.842 53.257 L
156.955 53.257 L
156.783 62.388 L
155.943 71.519 L
148.526 80.153 L
148.067 80.65 L
135.211 87.878 L
cp
f
GR
GS
[0.78257 0 0 0.78197 0 0.22835] CT
0.263 0.196 0.792 RC
N
42 217.612 M
42 226.743 L
45.015 226.743 L
45.193 217.612 L
45.849 208.481 L
47.639 199.35 L
55.316 190.261 L
55.443 190.22 L
68.632 188.147 L
81.947 188.17 L
95.263 188.7 L
107.842 190.22 L
108.579 190.3 L
121.895 192.771 L
135.211 197.258 L
138.933 199.35 L
147.669 208.481 L
148.526 210.41 L
151.172 217.612 L
151.932 226.743 L
156.955 226.743 L
156.783 217.612 L
155.943 208.481 L
148.526 199.847 L
148.067 199.35 L
135.211 192.122 L
128.652 190.22 L
135.211 185.213 L
148.526 184.386 L
161.48 190.22 L
161.842 190.732 L
165.125 199.35 L
166.122 208.481 L
166.504 217.612 L
166.609 226.743 L
171.508 226.743 L
171.675 217.612 L
172.282 208.481 L
173.869 199.35 L
175.158 195.966 L
181.165 190.22 L
188.474 187.998 L
201.789 187.265 L
215.105 187.652 L
228.421 188.42 L
240.666 190.22 L
241.737 190.372 L
255.053 193.555 L
267.443 199.35 L
268.368 200.085 L
275.135 208.481 L
278.233 217.612 L
279.107 226.743 L
281.684 226.743 L
295 226.743 L
295 217.612 L
295 208.481 L
295 199.35 L
295 190.22 L
295 181.089 L
295 171.958 L
295 162.827 L
295 153.696 L
295 144.565 L
295 135.435 L
295 126.304 L
295 117.173 L
295 108.042 L
295 98.911 L
295 89.78 L
295 80.65 L
295 71.519 L
295 62.388 L
295 53.257 L
281.684 53.257 L
279.107 53.257 L
278.233 62.388 L
275.135 71.519 L
268.368 79.915 L
267.443 80.65 L
255.053 86.445 L
241.737 89.628 L
240.666 89.78 L
228.421 91.58 L
215.105 92.348 L
201.789 92.735 L
188.474 92.002 L
181.165 89.78 L
175.158 84.034 L
173.869 80.65 L
172.282 71.519 L
171.675 62.388 L
171.508 53.257 L
166.609 53.257 L
166.504 62.388 L
166.122 71.519 L
165.125 80.65 L
161.842 89.268 L
161.48 89.78 L
148.526 95.614 L
135.211 94.787 L
128.652 89.78 L
135.211 87.878 L
148.067 80.65 L
148.526 80.153 L
155.943 71.519 L
156.783 62.388 L
156.955 53.257 L
151.932 53.257 L
151.172 62.388 L
148.526 69.59 L
147.669 71.519 L
138.933 80.65 L
135.211 82.742 L
121.895 87.229 L
108.579 89.7 L
107.842 89.78 L
95.263 91.3 L
81.947 91.83 L
68.632 91.853 L
55.443 89.78 L
55.316 89.739 L
47.639 80.65 L
45.849 71.519 L
45.193 62.388 L
45.015 53.257 L
42 53.257 L
42 62.388 L
42 71.519 L
42 80.65 L
42 89.78 L
42 98.911 L
42 108.042 L
42 117.173 L
42 126.304 L
42 135.435 L
42 144.565 L
42 153.696 L
42 162.827 L
42 171.958 L
42 181.089 L
42 190.22 L
42 199.35 L
42 208.481 L
cp
281.684 209.852 M
281.306 208.481 L
275.913 199.35 L
268.368 193.789 L
259.184 190.22 L
255.053 182.783 L
241.737 183.827 L
228.421 184.409 L
215.105 183.86 L
201.789 182.545 L
190.423 181.089 L
188.474 180.545 L
175.158 174.217 L
173.743 171.958 L
171.51 162.827 L
170.794 153.696 L
170.537 144.565 L
170.537 135.435 L
170.794 126.304 L
171.51 117.173 L
173.743 108.042 L
175.158 105.783 L
188.474 99.455 L
190.423 98.911 L
201.789 97.455 L
215.105 96.14 L
228.421 95.591 L
241.737 96.173 L
255.053 97.217 L
259.184 89.78 L
268.368 86.211 L
275.913 80.65 L
281.306 71.519 L
281.684 70.148 L
283.747 71.519 L
290.663 80.65 L
289.814 89.78 L
281.684 95.381 L
268.368 96.611 L
258.159 98.911 L
255.053 99.165 L
241.737 100.427 L
228.421 101.877 L
215.105 102.61 L
201.789 104.556 L
199.316 108.042 L
188.474 115.298 L
184.268 117.173 L
180.838 126.304 L
180.292 135.435 L
180.292 144.565 L
180.838 153.696 L
184.268 162.827 L
188.474 164.702 L
199.316 171.958 L
201.789 175.444 L
215.105 177.39 L
228.421 178.123 L
241.737 179.573 L
255.053 180.835 L
258.159 181.089 L
268.368 183.389 L
281.684 184.619 L
289.814 190.22 L
290.663 199.35 L
283.747 208.481 L
cp
68.632 182.494 M
60.17 181.089 L
55.316 179.521 L
47.094 171.958 L
47.559 162.827 L
53.473 153.696 L
55.316 151.449 L
55.723 153.696 L
59.787 162.827 L
68.632 170.745 L
70.965 171.958 L
81.947 176.938 L
95.263 178.097 L
108.579 179.806 L
120.973 181.089 L
108.579 183.534 L
95.263 184.501 L
81.947 184.022 L
cp
95.263 174.415 M
84.409 171.958 L
81.947 171.211 L
68.632 164.015 L
67.304 162.827 L
61.666 153.696 L
59.544 144.565 L
59.544 135.435 L
61.666 126.304 L
67.304 117.173 L
68.632 115.985 L
81.947 108.789 L
84.409 108.042 L
95.263 105.585 L
108.579 103.776 L
121.895 102.705 L
135.211 102.283 L
148.526 103.021 L
159.764 108.042 L
161.842 111.151 L
163.712 117.173 L
164.852 126.304 L
165.26 135.435 L
165.26 144.565 L
164.852 153.696 L
163.712 162.827 L
161.842 168.849 L
159.764 171.958 L
148.526 176.979 L
135.211 177.717 L
121.895 177.295 L
108.579 176.224 L
cp
215.105 172.33 M
213.996 171.958 L
201.789 167.411 L
194.999 162.827 L
188.557 153.696 L
188.474 153.412 L
186.157 144.565 L
186.157 135.435 L
188.474 126.588 L
188.557 126.304 L
194.999 117.173 L
201.789 112.589 L
213.996 108.042 L
215.105 107.67 L
228.421 105.459 L
241.737 104.109 L
255.053 103.429 L
268.368 103.587 L
281.684 106.276 L
284.273 108.042 L
289.257 117.173 L
290.717 126.304 L
291.224 135.435 L
291.224 144.565 L
290.717 153.696 L
289.257 162.827 L
284.273 171.958 L
281.684 173.724 L
268.368 176.413 L
255.053 176.571 L
241.737 175.891 L
228.421 174.541 L
cp
55.316 128.551 M
53.473 126.304 L
47.559 117.173 L
47.094 108.042 L
55.316 100.479 L
60.17 98.911 L
68.632 97.506 L
81.947 95.978 L
95.263 95.499 L
108.579 96.466 L
120.973 98.911 L
108.579 100.194 L
95.263 101.903 L
81.947 103.062 L
70.965 108.042 L
68.632 109.255 L
59.787 117.173 L
55.723 126.304 L
cp
f
GR
GS
[0.78257 0 0 0.78197 0 0.22835] CT
0.278 0.259 0.902 RC
N
45.193 217.612 M
45.015 226.743 L
50.27 226.743 L
50.757 217.612 L
52.556 208.481 L
55.316 202.521 L
58.041 199.35 L
68.632 194.116 L
81.947 192.502 L
95.263 192.707 L
108.579 194.091 L
121.895 196.897 L
128.564 199.35 L
135.211 203.138 L
140.883 208.481 L
145.451 217.612 L
146.742 226.743 L
148.526 226.743 L
151.932 226.743 L
151.172 217.612 L
148.526 210.41 L
147.669 208.481 L
138.933 199.35 L
135.211 197.258 L
121.895 192.771 L
108.579 190.3 L
107.842 190.22 L
95.263 188.7 L
81.947 188.17 L
68.632 188.147 L
55.443 190.22 L
55.316 190.261 L
47.639 199.35 L
45.849 208.481 L
cp
171.675 217.612 M
171.508 226.743 L
175.158 226.743 L
176.55 226.743 L
177.045 217.612 L
178.871 208.481 L
183.842 199.35 L
188.474 195.741 L
201.789 192.14 L
215.105 191.551 L
228.421 192.31 L
241.737 194.27 L
255.053 198.069 L
257.793 199.35 L
268.368 207.742 L
268.964 208.481 L
272.952 217.612 L
274.076 226.743 L
279.107 226.743 L
278.233 217.612 L
275.135 208.481 L
268.368 200.085 L
267.443 199.35 L
255.053 193.555 L
241.737 190.372 L
240.666 190.22 L
228.421 188.42 L
215.105 187.652 L
201.789 187.265 L
188.474 187.998 L
181.165 190.22 L
175.158 195.966 L
173.869 199.35 L
172.282 208.481 L
cp
84.409 171.958 M
95.263 174.415 L
108.579 176.224 L
121.895 177.295 L
135.211 177.717 L
148.526 176.979 L
159.764 171.958 L
161.842 168.849 L
163.712 162.827 L
164.852 153.696 L
165.26 144.565 L
165.26 135.435 L
164.852 126.304 L
163.712 117.173 L
161.842 111.151 L
159.764 108.042 L
148.526 103.021 L
135.211 102.283 L
121.895 102.705 L
108.579 103.776 L
95.263 105.585 L
84.409 108.042 L
81.947 108.789 L
68.632 115.985 L
67.304 117.173 L
61.666 126.304 L
59.544 135.435 L
59.544 144.565 L
61.666 153.696 L
67.304 162.827 L
68.632 164.015 L
81.947 171.211 L
cp
108.579 172.643 M
103.72 171.958 L
95.263 170.539 L
81.947 166.274 L
75.838 162.827 L
68.632 155.274 L
67.609 153.696 L
64.895 144.565 L
64.895 135.435 L
67.609 126.304 L
68.632 124.726 L
75.838 117.173 L
81.947 113.726 L
95.263 109.461 L
103.72 108.042 L
108.579 107.357 L
121.895 106.603 L
135.211 107.134 L
140.023 108.042 L
148.526 110.913 L
155.007 117.173 L
158.533 126.304 L
159.759 135.435 L
159.759 144.565 L
158.533 153.696 L
155.007 162.827 L
148.526 169.087 L
140.023 171.958 L
135.211 172.866 L
121.895 173.397 L
cp
213.996 171.958 M
215.105 172.33 L
228.421 174.541 L
241.737 175.891 L
255.053 176.571 L
268.368 176.413 L
281.684 173.724 L
284.273 171.958 L
289.257 162.827 L
290.717 153.696 L
291.224 144.565 L
291.224 135.435 L
290.717 126.304 L
289.257 117.173 L
284.273 108.042 L
281.684 106.276 L
268.368 103.587 L
255.053 103.429 L
241.737 104.109 L
228.421 105.459 L
215.105 107.67 L
213.996 108.042 L
201.789 112.589 L
194.999 117.173 L
188.557 126.304 L
188.474 126.588 L
186.157 135.435 L
186.157 144.565 L
188.474 153.412 L
188.557 153.696 L
194.999 162.827 L
201.789 167.411 L
cp
241.737 172.209 M
239.12 171.958 L
228.421 170.802 L
215.105 167.776 L
203.704 162.827 L
201.789 161.417 L
195.146 153.696 L
192.064 144.565 L
192.064 135.435 L
195.146 126.304 L
201.789 118.583 L
203.704 117.173 L
215.105 112.224 L
228.421 109.198 L
239.12 108.042 L
241.737 107.791 L
255.053 107.692 L
258.514 108.042 L
268.368 109.613 L
280.379 117.173 L
281.684 119.29 L
284.284 126.304 L
285.554 135.435 L
285.554 144.565 L
284.284 153.696 L
281.684 160.71 L
280.379 162.827 L
268.368 170.387 L
258.514 171.958 L
255.053 172.308 L
cp
55.443 89.78 M
68.632 91.853 L
81.947 91.83 L
95.263 91.3 L
107.842 89.78 L
108.579 89.7 L
121.895 87.229 L
135.211 82.742 L
138.933 80.65 L
147.669 71.519 L
148.526 69.59 L
151.172 62.388 L
151.932 53.257 L
148.526 53.257 L
146.742 53.257 L
145.451 62.388 L
140.883 71.519 L
135.211 76.862 L
128.564 80.65 L
121.895 83.103 L
108.579 85.909 L
95.263 87.293 L
81.947 87.498 L
68.632 85.884 L
58.041 80.65 L
55.316 77.479 L
52.556 71.519 L
50.757 62.388 L
50.27 53.257 L
45.015 53.257 L
45.193 62.388 L
45.849 71.519 L
47.639 80.65 L
55.316 89.739 L
cp
181.165 89.78 M
188.474 92.002 L
201.789 92.735 L
215.105 92.348 L
228.421 91.58 L
240.666 89.78 L
241.737 89.628 L
255.053 86.445 L
267.443 80.65 L
268.368 79.915 L
275.135 71.519 L
278.233 62.388 L
279.107 53.257 L
274.076 53.257 L
272.952 62.388 L
268.964 71.519 L
268.368 72.258 L
257.793 80.65 L
255.053 81.931 L
241.737 85.73 L
228.421 87.69 L
215.105 88.449 L
201.789 87.86 L
188.474 84.259 L
183.842 80.65 L
178.871 71.519 L
177.045 62.388 L
176.55 53.257 L
175.158 53.257 L
171.508 53.257 L
171.675 62.388 L
172.282 71.519 L
173.869 80.65 L
175.158 84.034 L
cp
f
GR
GS
[0.78257 0 0 0.78197 0 0.22835] CT
0.278 0.329 0.961 RC
N
50.757 217.612 M
50.27 226.743 L
55.316 226.743 L
55.565 226.743 L
56.522 217.612 L
60.118 208.481 L
68.632 200.492 L
71.611 199.35 L
81.947 197.016 L
95.263 196.605 L
108.579 197.883 L
115.082 199.35 L
121.895 201.433 L
133.788 208.481 L
135.211 210.104 L
139.632 217.612 L
141.196 226.743 L
146.742 226.743 L
145.451 217.612 L
140.883 208.481 L
135.211 203.138 L
128.564 199.35 L
121.895 196.897 L
108.579 194.091 L
95.263 192.707 L
81.947 192.502 L
68.632 194.116 L
58.041 199.35 L
55.316 202.521 L
52.556 208.481 L
cp
177.045 217.612 M
176.55 226.743 L
182.012 226.743 L
182.828 217.612 L
185.836 208.481 L
188.474 204.739 L
196.123 199.35 L
201.789 197.276 L
215.105 195.677 L
228.421 196.101 L
241.737 198.168 L
245.699 199.35 L
255.053 203.373 L
261.731 208.481 L
267.528 217.612 L
268.368 222.134 L
269.046 226.743 L
274.076 226.743 L
272.952 217.612 L
268.964 208.481 L
268.368 207.742 L
257.793 199.35 L
255.053 198.069 L
241.737 194.27 L
228.421 192.31 L
215.105 191.551 L
201.789 192.14 L
188.474 195.741 L
183.842 199.35 L
178.871 208.481 L
cp
103.72 171.958 M
108.579 172.643 L
121.895 173.397 L
135.211 172.866 L
140.023 171.958 L
148.526 169.087 L
155.007 162.827 L
158.533 153.696 L
159.759 144.565 L
159.759 135.435 L
158.533 126.304 L
155.007 117.173 L
148.526 110.913 L
140.023 108.042 L
135.211 107.134 L
121.895 106.603 L
108.579 107.357 L
103.72 108.042 L
95.263 109.461 L
81.947 113.726 L
75.838 117.173 L
68.632 124.726 L
67.609 126.304 L
64.895 135.435 L
64.895 144.565 L
67.609 153.696 L
68.632 155.274 L
75.838 162.827 L
81.947 166.274 L
95.263 170.539 L
cp
239.12 171.958 M
241.737 172.209 L
255.053 172.308 L
258.514 171.958 L
268.368 170.387 L
280.379 162.827 L
281.684 160.71 L
284.284 153.696 L
285.554 144.565 L
285.554 135.435 L
284.284 126.304 L
281.684 119.29 L
280.379 117.173 L
268.368 109.613 L
258.514 108.042 L
255.053 107.692 L
241.737 107.791 L
239.12 108.042 L
228.421 109.198 L
215.105 112.224 L
203.704 117.173 L
201.789 118.583 L
195.146 126.304 L
192.064 135.435 L
192.064 144.565 L
195.146 153.696 L
201.789 161.417 L
203.704 162.827 L
215.105 167.776 L
228.421 170.802 L
cp
95.263 166.275 M
85.568 162.827 L
81.947 160.795 L
74.487 153.696 L
70.569 144.565 L
70.569 135.435 L
74.487 126.304 L
81.947 119.205 L
85.568 117.173 L
95.263 113.725 L
108.579 111.397 L
121.895 110.889 L
135.211 112.609 L
145.121 117.173 L
148.526 120.477 L
151.827 126.304 L
153.847 135.435 L
153.847 144.565 L
151.827 153.696 L
148.526 159.523 L
145.121 162.827 L
135.211 167.391 L
121.895 169.111 L
108.579 168.603 L
cp
215.105 163.263 M
214.102 162.827 L
201.789 153.76 L
201.735 153.696 L
197.999 144.565 L
197.999 135.435 L
201.735 126.304 L
201.789 126.24 L
214.102 117.173 L
215.105 116.737 L
228.421 113.346 L
241.737 112.015 L
255.053 112.574 L
268.368 116.343 L
269.687 117.173 L
277.057 126.304 L
279.53 135.435 L
279.53 144.565 L
277.057 153.696 L
269.687 162.827 L
268.368 163.657 L
255.053 167.426 L
241.737 167.985 L
228.421 166.654 L
cp
58.041 80.65 M
68.632 85.884 L
81.947 87.498 L
95.263 87.293 L
108.579 85.909 L
121.895 83.103 L
128.564 80.65 L
135.211 76.862 L
140.883 71.519 L
145.451 62.388 L
146.742 53.257 L
141.196 53.257 L
139.632 62.388 L
135.211 69.896 L
133.788 71.519 L
121.895 78.567 L
115.082 80.65 L
108.579 82.117 L
95.263 83.395 L
81.947 82.984 L
71.611 80.65 L
68.632 79.508 L
60.118 71.519 L
56.522 62.388 L
55.565 53.257 L
55.316 53.257 L
50.27 53.257 L
50.757 62.388 L
52.556 71.519 L
55.316 77.479 L
cp
183.842 80.65 M
188.474 84.259 L
201.789 87.86 L
215.105 88.449 L
228.421 87.69 L
241.737 85.73 L
255.053 81.931 L
257.793 80.65 L
268.368 72.258 L
268.964 71.519 L
272.952 62.388 L
274.076 53.257 L
269.046 53.257 L
268.368 57.866 L
267.528 62.388 L
261.731 71.519 L
255.053 76.627 L
245.699 80.65 L
241.737 81.832 L
228.421 83.899 L
215.105 84.323 L
201.789 82.724 L
196.123 80.65 L
188.474 75.261 L
185.836 71.519 L
182.828 62.388 L
182.012 53.257 L
176.55 53.257 L
177.045 62.388 L
178.871 71.519 L
cp
f
GR
GS
[0.78257 0 0 0.78197 0 0.22835] CT
0.263 0.4 0.992 RC
N
56.522 217.612 M
55.565 226.743 L
61.843 226.743 L
63.195 217.612 L
68.278 208.481 L
68.632 208.15 L
81.947 202.062 L
95.263 200.785 L
108.579 202.243 L
121.895 206.569 L
125.122 208.481 L
133.396 217.612 L
135.211 224.475 L
135.651 226.743 L
141.196 226.743 L
139.632 217.612 L
135.211 210.104 L
133.788 208.481 L
121.895 201.433 L
115.082 199.35 L
108.579 197.883 L
95.263 196.605 L
81.947 197.016 L
71.611 199.35 L
68.632 200.492 L
60.118 208.481 L
cp
182.828 217.612 M
182.012 226.743 L
187.474 226.743 L
188.474 218.655 L
188.65 217.612 L
194.165 208.481 L
201.789 203.161 L
215.105 199.914 L
228.421 200.025 L
241.737 202.731 L
254.105 208.481 L
255.053 209.27 L
261.165 217.612 L
263.106 226.743 L
268.368 226.743 L
269.046 226.743 L
268.368 222.134 L
267.528 217.612 L
261.731 208.481 L
255.053 203.373 L
245.699 199.35 L
241.737 198.168 L
228.421 196.101 L
215.105 195.677 L
201.789 197.276 L
196.123 199.35 L
188.474 204.739 L
185.836 208.481 L
cp
85.568 162.827 M
95.263 166.275 L
108.579 168.603 L
121.895 169.111 L
135.211 167.391 L
145.121 162.827 L
148.526 159.523 L
151.827 153.696 L
153.847 144.565 L
153.847 135.435 L
151.827 126.304 L
148.526 120.477 L
145.121 117.173 L
135.211 112.609 L
121.895 110.889 L
108.579 111.397 L
95.263 113.725 L
85.568 117.173 L
81.947 119.205 L
74.487 126.304 L
70.569 135.435 L
70.569 144.565 L
74.487 153.696 L
81.947 160.795 L
cp
108.579 164.456 M
99.626 162.827 L
95.263 161.715 L
81.947 154.066 L
81.559 153.696 L
76.989 144.565 L
76.989 135.435 L
81.559 126.304 L
81.947 125.934 L
95.263 118.285 L
99.626 117.173 L
108.579 115.544 L
121.895 115.403 L
130.901 117.173 L
135.211 118.61 L
144.056 126.304 L
147.759 135.435 L
147.759 144.565 L
144.056 153.696 L
135.211 161.39 L
130.901 162.827 L
121.895 164.597 L
cp
214.102 162.827 M
215.105 163.263 L
228.421 166.654 L
241.737 167.985 L
255.053 167.426 L
268.368 163.657 L
269.687 162.827 L
277.057 153.696 L
279.53 144.565 L
279.53 135.435 L
277.057 126.304 L
269.687 117.173 L
268.368 116.343 L
255.053 112.574 L
241.737 112.015 L
228.421 113.346 L
215.105 116.737 L
214.102 117.173 L
201.789 126.24 L
201.735 126.304 L
197.999 135.435 L
197.999 144.565 L
201.735 153.696 L
201.789 153.76 L
cp
241.737 163.721 M
232.006 162.827 L
228.421 162.39 L
215.105 157.269 L
210.187 153.696 L
204.576 144.565 L
204.576 135.435 L
210.187 126.304 L
215.105 122.731 L
228.421 117.61 L
232.006 117.173 L
241.737 116.279 L
251.769 117.173 L
255.053 117.635 L
268.368 125.214 L
269.291 126.304 L
272.745 135.435 L
272.745 144.565 L
269.291 153.696 L
268.368 154.786 L
255.053 162.365 L
251.769 162.827 L
cp
71.611 80.65 M
81.947 82.984 L
95.263 83.395 L
108.579 82.117 L
115.082 80.65 L
121.895 78.567 L
133.788 71.519 L
135.211 69.896 L
139.632 62.388 L
141.196 53.257 L
135.651 53.257 L
135.211 55.525 L
133.396 62.388 L
125.122 71.519 L
121.895 73.431 L
108.579 77.757 L
95.263 79.215 L
81.947 77.938 L
68.632 71.85 L
68.278 71.519 L
63.195 62.388 L
61.843 53.257 L
55.565 53.257 L
56.522 62.388 L
60.118 71.519 L
68.632 79.508 L
cp
196.123 80.65 M
201.789 82.724 L
215.105 84.323 L
228.421 83.899 L
241.737 81.832 L
245.699 80.65 L
255.053 76.627 L
261.731 71.519 L
267.528 62.388 L
268.368 57.866 L
269.046 53.257 L
268.368 53.257 L
263.106 53.257 L
261.165 62.388 L
255.053 70.73 L
254.105 71.519 L
241.737 77.269 L
228.421 79.975 L
215.105 80.086 L
201.789 76.839 L
194.165 71.519 L
188.65 62.388 L
188.474 61.345 L
187.474 53.257 L
182.012 53.257 L
182.828 62.388 L
185.836 71.519 L
188.474 75.261 L
cp
f
GR
GS
[0.78257 0 0 0.78197 0 0.22835] CT
0.2 0.478 0.988 RC
N
63.195 217.612 M
61.843 226.743 L
68.12 226.743 L
68.632 223.955 L
70.421 217.612 L
80.221 208.481 L
81.947 207.681 L
95.263 205.637 L
108.579 206.963 L
113.092 208.481 L
121.895 213.464 L
125.842 217.612 L
128.551 226.743 L
135.211 226.743 L
135.651 226.743 L
135.211 224.475 L
133.396 217.612 L
125.122 208.481 L
121.895 206.569 L
108.579 202.243 L
95.263 200.785 L
81.947 202.062 L
68.632 208.15 L
68.278 208.481 L
cp
188.474 218.655 M
187.474 226.743 L
188.474 226.743 L
194.221 226.743 L
196.132 217.612 L
201.789 210.139 L
204.462 208.481 L
215.105 205.05 L
228.421 204.745 L
241.737 207.582 L
243.67 208.481 L
254.689 217.612 L
255.053 218.602 L
257.024 226.743 L
263.106 226.743 L
261.165 217.612 L
255.053 209.27 L
254.105 208.481 L
241.737 202.731 L
228.421 200.025 L
215.105 199.914 L
201.789 203.161 L
194.165 208.481 L
188.65 217.612 L
cp
99.626 162.827 M
108.579 164.456 L
121.895 164.597 L
130.901 162.827 L
135.211 161.39 L
144.056 153.696 L
147.759 144.565 L
147.759 135.435 L
144.056 126.304 L
135.211 118.61 L
130.901 117.173 L
121.895 115.403 L
108.579 115.544 L
99.626 117.173 L
95.263 118.285 L
81.947 125.934 L
81.559 126.304 L
76.989 135.435 L
76.989 144.565 L
81.559 153.696 L
81.947 154.066 L
95.263 161.715 L
cp
232.006 162.827 M
241.737 163.721 L
251.769 162.827 L
255.053 162.365 L
268.368 154.786 L
269.291 153.696 L
272.745 144.565 L
272.745 135.435 L
269.291 126.304 L
268.368 125.214 L
255.053 117.635 L
251.769 117.173 L
241.737 116.279 L
232.006 117.173 L
228.421 117.61 L
215.105 122.731 L
210.187 126.304 L
204.576 135.435 L
204.576 144.565 L
210.187 153.696 L
215.105 157.269 L
228.421 162.39 L
cp
95.263 155.904 M
91.446 153.696 L
84.057 144.565 L
84.057 135.435 L
91.446 126.304 L
95.263 124.096 L
108.579 120.606 L
121.895 120.912 L
135.211 126.267 L
135.252 126.304 L
140.085 135.435 L
140.085 144.565 L
135.252 153.696 L
135.211 153.733 L
121.895 159.088 L
108.579 159.394 L
cp
228.421 156.737 M
220.937 153.696 L
215.105 148.818 L
212.287 144.565 L
212.287 135.435 L
215.105 131.182 L
220.937 126.304 L
228.421 123.263 L
241.737 121.766 L
255.053 124.364 L
258.334 126.304 L
264.894 135.435 L
264.894 144.565 L
258.334 153.696 L
255.053 155.636 L
241.737 158.234 L
cp
68.278 71.519 M
68.632 71.85 L
81.947 77.938 L
95.263 79.215 L
108.579 77.757 L
121.895 73.431 L
125.122 71.519 L
133.396 62.388 L
135.211 55.525 L
135.651 53.257 L
135.211 53.257 L
128.551 53.257 L
125.842 62.388 L
121.895 66.536 L
113.092 71.519 L
108.579 73.037 L
95.263 74.363 L
81.947 72.319 L
80.221 71.519 L
70.421 62.388 L
68.632 56.045 L
68.12 53.257 L
61.843 53.257 L
63.195 62.388 L
cp
194.165 71.519 M
201.789 76.839 L
215.105 80.086 L
228.421 79.975 L
241.737 77.269 L
254.105 71.519 L
255.053 70.73 L
261.165 62.388 L
263.106 53.257 L
257.024 53.257 L
255.053 61.398 L
254.689 62.388 L
243.67 71.519 L
241.737 72.418 L
228.421 75.255 L
215.105 74.95 L
204.462 71.519 L
201.789 69.861 L
196.132 62.388 L
194.221 53.257 L
188.474 53.257 L
187.474 53.257 L
188.474 61.345 L
188.65 62.388 L
cp
f
GR
GS
[0.78257 0 0 0.78197 0 0.22835] CT
0.176 0.545 0.953 RC
N
68.632 223.955 M
68.12 226.743 L
68.632 226.743 L
76.918 226.743 L
80.075 217.612 L
81.947 215.928 L
95.263 211.584 L
108.579 213.429 L
115.844 217.612 L
120.917 226.743 L
121.895 226.743 L
128.551 226.743 L
125.842 217.612 L
121.895 213.464 L
113.092 208.481 L
108.579 206.963 L
95.263 205.637 L
81.947 207.681 L
80.221 208.481 L
70.421 217.612 L
cp
196.132 217.612 M
194.221 226.743 L
201.256 226.743 L
201.789 224.577 L
204.846 217.612 L
215.105 211.117 L
228.421 210.001 L
241.737 214.592 L
245.455 217.612 L
249.052 226.743 L
255.053 226.743 L
257.024 226.743 L
255.053 218.602 L
254.689 217.612 L
243.67 208.481 L
241.737 207.582 L
228.421 204.745 L
215.105 205.05 L
204.462 208.481 L
201.789 210.139 L
cp
91.446 153.696 M
95.263 155.904 L
108.579 159.394 L
121.895 159.088 L
135.211 153.733 L
135.252 153.696 L
140.085 144.565 L
140.085 135.435 L
135.252 126.304 L
135.211 126.267 L
121.895 120.912 L
108.579 120.606 L
95.263 124.096 L
91.446 126.304 L
84.057 135.435 L
84.057 144.565 L
cp
108.579 153.741 M
108.411 153.696 L
95.263 146.878 L
93.315 144.565 L
93.315 135.435 L
95.263 133.122 L
108.411 126.304 L
108.579 126.259 L
109.38 126.304 L
121.895 127.742 L
130.475 135.435 L
130.475 144.565 L
121.895 152.258 L
109.38 153.696 L
cp
220.937 153.696 M
228.421 156.737 L
241.737 158.234 L
255.053 155.636 L
258.334 153.696 L
264.894 144.565 L
264.894 135.435 L
258.334 126.304 L
255.053 124.364 L
241.737 121.766 L
228.421 123.263 L
220.937 126.304 L
215.105 131.182 L
212.287 135.435 L
212.287 144.565 L
215.105 148.818 L
cp
228.421 148.755 M
223.338 144.565 L
223.338 135.435 L
228.421 131.245 L
241.737 128.713 L
255.053 135.365 L
255.106 135.435 L
255.106 144.565 L
255.053 144.635 L
241.737 151.287 L
cp
80.221 71.519 M
81.947 72.319 L
95.263 74.363 L
108.579 73.037 L
113.092 71.519 L
121.895 66.536 L
125.842 62.388 L
128.551 53.257 L
121.895 53.257 L
120.917 53.257 L
115.844 62.388 L
108.579 66.571 L
95.263 68.416 L
81.947 64.072 L
80.075 62.388 L
76.918 53.257 L
68.632 53.257 L
68.12 53.257 L
68.632 56.045 L
70.421 62.388 L
cp
204.462 71.519 M
215.105 74.95 L
228.421 75.255 L
241.737 72.418 L
243.67 71.519 L
254.689 62.388 L
255.053 61.398 L
257.024 53.257 L
255.053 53.257 L
249.052 53.257 L
245.455 62.388 L
241.737 65.408 L
228.421 69.999 L
215.105 68.883 L
204.846 62.388 L
201.789 55.423 L
201.256 53.257 L
194.221 53.257 L
196.132 62.388 L
201.789 69.861 L
cp
f
GR
GS
[0.78257 0 0 0.78197 0 0.22835] CT
0.145 0.608 0.906 RC
N
80.075 217.612 M
76.918 226.743 L
81.947 226.743 L
90.778 226.743 L
95.263 221.868 L
108.579 226.612 L
108.655 226.743 L
120.917 226.743 L
115.844 217.612 L
108.579 213.429 L
95.263 211.584 L
81.947 215.928 L
cp
201.789 224.577 M
201.256 226.743 L
201.789 226.743 L
212.584 226.743 L
215.105 221.787 L
225.859 217.612 L
228.421 217.296 L
229.322 217.612 L
238.14 226.743 L
241.737 226.743 L
249.052 226.743 L
245.455 217.612 L
241.737 214.592 L
228.421 210.001 L
215.105 211.117 L
204.846 217.612 L
cp
108.411 153.696 M
108.579 153.741 L
109.38 153.696 L
121.895 152.258 L
130.475 144.565 L
130.475 135.435 L
121.895 127.742 L
109.38 126.304 L
108.579 126.259 L
108.411 126.304 L
95.263 133.122 L
93.315 135.435 L
93.315 144.565 L
95.263 146.878 L
cp
223.338 144.565 M
228.421 148.755 L
241.737 151.287 L
255.053 144.635 L
255.106 144.565 L
255.106 135.435 L
255.053 135.365 L
241.737 128.713 L
228.421 131.245 L
223.338 135.435 L
cp
80.075 62.388 M
81.947 64.072 L
95.263 68.416 L
108.579 66.571 L
115.844 62.388 L
120.917 53.257 L
108.655 53.257 L
108.579 53.388 L
95.263 58.132 L
90.778 53.257 L
81.947 53.257 L
76.918 53.257 L
cp
204.846 62.388 M
215.105 68.883 L
228.421 69.999 L
241.737 65.408 L
245.455 62.388 L
249.052 53.257 L
241.737 53.257 L
238.14 53.257 L
229.322 62.388 L
228.421 62.704 L
225.859 62.388 L
215.105 58.213 L
212.584 53.257 L
201.789 53.257 L
201.256 53.257 L
201.789 55.423 L
cp
f
GR
GS
[0.78257 0 0 0.78197 0 0.22835] CT
0.106 0.667 0.871 RC
N
95.263 221.868 M
90.778 226.743 L
95.263 226.743 L
108.579 226.743 L
108.655 226.743 L
108.579 226.612 L
cp
215.105 221.787 M
212.584 226.743 L
215.105 226.743 L
228.421 226.743 L
238.14 226.743 L
229.322 217.612 L
228.421 217.296 L
225.859 217.612 L
cp
225.859 62.388 M
228.421 62.704 L
229.322 62.388 L
238.14 53.257 L
228.421 53.257 L
215.105 53.257 L
212.584 53.257 L
215.105 58.213 L
cp
95.263 53.257 M
90.778 53.257 L
95.263 58.132 L
108.579 53.388 L
108.655 53.257 L
108.579 53.257 L
cp
f
GR
GS
[0.78257 0 0 0.78197 0 0.22835] CT
1 LJ
0.639 LW
N
156.955 226.743 M
156.783 217.612 L
S
GR
GS
[0.78257 0 0 0.78197 0 0.22835] CT
1 LJ
0.639 LW
N
166.504 217.612 M
166.609 226.743 L
S
GR
GS
[0.78257 0 0 0.78197 0 0.22835] CT
1 LJ
0.639 LW
N
156.783 217.612 M
155.943 208.481 L
S
GR
GS
[0.78257 0 0 0.78197 0 0.22835] CT
1 LJ
0.639 LW
N
166.122 208.481 M
166.504 217.612 L
S
GR
GS
[0.78257 0 0 0.78197 0 0.22835] CT
1 LJ
0.639 LW
N
283.747 208.481 M
281.684 209.852 L
281.306 208.481 L
S
GR
GS
[0.78257 0 0 0.78197 0 0.22835] CT
1 LJ
0.639 LW
N
155.943 208.481 M
148.526 199.847 L
148.067 199.35 L
S
GR
GS
[0.78257 0 0 0.78197 0 0.22835] CT
1 LJ
0.639 LW
N
165.125 199.35 M
166.122 208.481 L
S
GR
GS
[0.78257 0 0 0.78197 0 0.22835] CT
1 LJ
0.639 LW
N
281.306 208.481 M
275.913 199.35 L
S
GR
GS
[0.78257 0 0 0.78197 0 0.22835] CT
1 LJ
0.639 LW
N
290.663 199.35 M
283.747 208.481 L
S
GR
GS
[0.78257 0 0 0.78197 0 0.22835] CT
1 LJ
0.639 LW
N
148.067 199.35 M
135.211 192.122 L
128.652 190.22 L
S
GR
GS
[0.78257 0 0 0.78197 0 0.22835] CT
1 LJ
0.639 LW
N
161.48 190.22 M
161.842 190.732 L
165.125 199.35 L
S
GR
GS
[0.78257 0 0 0.78197 0 0.22835] CT
1 LJ
0.639 LW
N
275.913 199.35 M
268.368 193.789 L
259.184 190.22 L
S
GR
GS
[0.78257 0 0 0.78197 0 0.22835] CT
1 LJ
0.639 LW
N
289.814 190.22 M
290.663 199.35 L
S
GR
GS
[0.78257 0 0 0.78197 0 0.22835] CT
1 LJ
0.639 LW
N
120.973 181.089 M
108.579 183.534 L
95.263 184.501 L
81.947 184.022 L
68.632 182.494 L
60.17 181.089 L
S
GR
GS
[0.78257 0 0 0.78197 0 0.22835] CT
1 LJ
0.639 LW
N
128.652 190.22 M
135.211 185.213 L
148.526 184.386 L
161.48 190.22 L
S
GR
GS
[0.78257 0 0 0.78197 0 0.22835] CT
1 LJ
0.639 LW
N
259.184 190.22 M
255.053 182.783 L
241.737 183.827 L
228.421 184.409 L
215.105 183.86 L
201.789 182.545 L
190.423 181.089 L
S
GR
GS
[0.78257 0 0 0.78197 0 0.22835] CT
1 LJ
0.639 LW
N
258.159 181.089 M
268.368 183.389 L
281.684 184.619 L
289.814 190.22 L
S
GR
GS
[0.78257 0 0 0.78197 0 0.22835] CT
1 LJ
0.639 LW
N
60.17 181.089 M
55.316 179.521 L
47.094 171.958 L
S
GR
GS
[0.78257 0 0 0.78197 0 0.22835] CT
1 LJ
0.639 LW
N
70.965 171.958 M
81.947 176.938 L
95.263 178.097 L
108.579 179.806 L
120.973 181.089 L
S
GR
GS
[0.78257 0 0 0.78197 0 0.22835] CT
1 LJ
0.639 LW
N
190.423 181.089 M
188.474 180.545 L
175.158 174.217 L
173.743 171.958 L
S
GR
GS
[0.78257 0 0 0.78197 0 0.22835] CT
1 LJ
0.639 LW
N
199.316 171.958 M
201.789 175.444 L
215.105 177.39 L
228.421 178.123 L
241.737 179.573 L
255.053 180.835 L
258.159 181.089 L
S
GR
GS
[0.78257 0 0 0.78197 0 0.22835] CT
1 LJ
0.639 LW
N
47.094 171.958 M
47.559 162.827 L
S
GR
GS
[0.78257 0 0 0.78197 0 0.22835] CT
1 LJ
0.639 LW
N
59.787 162.827 M
68.632 170.745 L
70.965 171.958 L
S
GR
GS
[0.78257 0 0 0.78197 0 0.22835] CT
1 LJ
0.639 LW
N
173.743 171.958 M
171.51 162.827 L
S
GR
GS
[0.78257 0 0 0.78197 0 0.22835] CT
1 LJ
0.639 LW
N
184.268 162.827 M
188.474 164.702 L
199.316 171.958 L
S
GR
GS
[0.78257 0 0 0.78197 0 0.22835] CT
1 LJ
0.639 LW
N
47.559 162.827 M
53.473 153.696 L
S
GR
GS
[0.78257 0 0 0.78197 0 0.22835] CT
1 LJ
0.639 LW
N
55.723 153.696 M
59.787 162.827 L
S
GR
GS
[0.78257 0 0 0.78197 0 0.22835] CT
1 LJ
0.639 LW
N
171.51 162.827 M
170.794 153.696 L
S
GR
GS
[0.78257 0 0 0.78197 0 0.22835] CT
1 LJ
0.639 LW
N
180.838 153.696 M
184.268 162.827 L
S
GR
GS
[0.78257 0 0 0.78197 0 0.22835] CT
1 LJ
0.639 LW
N
53.473 153.696 M
55.316 151.449 L
55.723 153.696 L
S
GR
GS
[0.78257 0 0 0.78197 0 0.22835] CT
1 LJ
0.639 LW
N
170.794 153.696 M
170.537 144.565 L
S
GR
GS
[0.78257 0 0 0.78197 0 0.22835] CT
1 LJ
0.639 LW
N
180.292 144.565 M
180.838 153.696 L
S
GR
GS
[0.78257 0 0 0.78197 0 0.22835] CT
1 LJ
0.639 LW
N
170.537 144.565 M
170.537 135.435 L
S
GR
GS
[0.78257 0 0 0.78197 0 0.22835] CT
1 LJ
0.639 LW
N
180.292 135.435 M
180.292 144.565 L
S
GR
GS
[0.78257 0 0 0.78197 0 0.22835] CT
1 LJ
0.639 LW
N
55.723 126.304 M
55.316 128.551 L
53.473 126.304 L
S
GR
GS
[0.78257 0 0 0.78197 0 0.22835] CT
1 LJ
0.639 LW
N
170.537 135.435 M
170.794 126.304 L
S
GR
GS
[0.78257 0 0 0.78197 0 0.22835] CT
1 LJ
0.639 LW
N
180.838 126.304 M
180.292 135.435 L
S
GR
GS
[0.78257 0 0 0.78197 0 0.22835] CT
1 LJ
0.639 LW
N
53.473 126.304 M
47.559 117.173 L
S
GR
GS
[0.78257 0 0 0.78197 0 0.22835] CT
1 LJ
0.639 LW
N
59.787 117.173 M
55.723 126.304 L
S
GR
GS
[0.78257 0 0 0.78197 0 0.22835] CT
1 LJ
0.639 LW
N
170.794 126.304 M
171.51 117.173 L
S
GR
GS
[0.78257 0 0 0.78197 0 0.22835] CT
1 LJ
0.639 LW
N
184.268 117.173 M
180.838 126.304 L
S
GR
GS
[0.78257 0 0 0.78197 0 0.22835] CT
1 LJ
0.639 LW
N
47.559 117.173 M
47.094 108.042 L
S
GR
GS
[0.78257 0 0 0.78197 0 0.22835] CT
1 LJ
0.639 LW
N
70.965 108.042 M
68.632 109.255 L
59.787 117.173 L
S
GR
GS
[0.78257 0 0 0.78197 0 0.22835] CT
1 LJ
0.639 LW
N
171.51 117.173 M
173.743 108.042 L
S
GR
GS
[0.78257 0 0 0.78197 0 0.22835] CT
1 LJ
0.639 LW
N
199.316 108.042 M
188.474 115.298 L
184.268 117.173 L
S
GR
GS
[0.78257 0 0 0.78197 0 0.22835] CT
1 LJ
0.639 LW
N
47.094 108.042 M
55.316 100.479 L
60.17 98.911 L
S
GR
GS
[0.78257 0 0 0.78197 0 0.22835] CT
1 LJ
0.639 LW
N
120.973 98.911 M
108.579 100.194 L
95.263 101.903 L
81.947 103.062 L
70.965 108.042 L
S
GR
GS
[0.78257 0 0 0.78197 0 0.22835] CT
1 LJ
0.639 LW
N
173.743 108.042 M
175.158 105.783 L
188.474 99.455 L
190.423 98.911 L
S
GR
GS
[0.78257 0 0 0.78197 0 0.22835] CT
1 LJ
0.639 LW
N
258.159 98.911 M
255.053 99.165 L
241.737 100.427 L
228.421 101.877 L
215.105 102.61 L
201.789 104.556 L
199.316 108.042 L
S
GR
GS
[0.78257 0 0 0.78197 0 0.22835] CT
1 LJ
0.639 LW
N
60.17 98.911 M
68.632 97.506 L
81.947 95.978 L
95.263 95.499 L
108.579 96.466 L
120.973 98.911 L
S
GR
GS
[0.78257 0 0 0.78197 0 0.22835] CT
1 LJ
0.639 LW
N
161.48 89.78 M
148.526 95.614 L
135.211 94.787 L
128.652 89.78 L
S
GR
GS
[0.78257 0 0 0.78197 0 0.22835] CT
1 LJ
0.639 LW
N
190.423 98.911 M
201.789 97.455 L
215.105 96.14 L
228.421 95.591 L
241.737 96.173 L
255.053 97.217 L
259.184 89.78 L
S
GR
GS
[0.78257 0 0 0.78197 0 0.22835] CT
1 LJ
0.639 LW
N
289.814 89.78 M
281.684 95.381 L
268.368 96.611 L
258.159 98.911 L
S
GR
GS
[0.78257 0 0 0.78197 0 0.22835] CT
1 LJ
0.639 LW
N
128.652 89.78 M
135.211 87.878 L
148.067 80.65 L
S
GR
GS
[0.78257 0 0 0.78197 0 0.22835] CT
1 LJ
0.639 LW
N
165.125 80.65 M
161.842 89.268 L
161.48 89.78 L
S
GR
GS
[0.78257 0 0 0.78197 0 0.22835] CT
1 LJ
0.639 LW
N
259.184 89.78 M
268.368 86.211 L
275.913 80.65 L
S
GR
GS
[0.78257 0 0 0.78197 0 0.22835] CT
1 LJ
0.639 LW
N
290.663 80.65 M
289.814 89.78 L
S
GR
GS
[0.78257 0 0 0.78197 0 0.22835] CT
1 LJ
0.639 LW
N
148.067 80.65 M
148.526 80.153 L
155.943 71.519 L
S
GR
GS
[0.78257 0 0 0.78197 0 0.22835] CT
1 LJ
0.639 LW
N
166.122 71.519 M
165.125 80.65 L
S
GR
GS
[0.78257 0 0 0.78197 0 0.22835] CT
1 LJ
0.639 LW
N
275.913 80.65 M
281.306 71.519 L
S
GR
GS
[0.78257 0 0 0.78197 0 0.22835] CT
1 LJ
0.639 LW
N
283.747 71.519 M
290.663 80.65 L
S
GR
GS
[0.78257 0 0 0.78197 0 0.22835] CT
1 LJ
0.639 LW
N
155.943 71.519 M
156.783 62.388 L
S
GR
GS
[0.78257 0 0 0.78197 0 0.22835] CT
1 LJ
0.639 LW
N
166.504 62.388 M
166.122 71.519 L
S
GR
GS
[0.78257 0 0 0.78197 0 0.22835] CT
1 LJ
0.639 LW
N
281.306 71.519 M
281.684 70.148 L
283.747 71.519 L
S
GR
GS
[0.78257 0 0 0.78197 0 0.22835] CT
1 LJ
0.639 LW
N
156.783 62.388 M
156.955 53.257 L
S
GR
GS
[0.78257 0 0 0.78197 0 0.22835] CT
1 LJ
0.639 LW
N
166.609 53.257 M
166.504 62.388 L
S
GR
GS
[0.78257 0 0 0.78197 0 0.22835] CT
1 LJ
0.639 LW
N
45.193 217.612 M
45.015 226.743 L
S
GR
GS
[0.78257 0 0 0.78197 0 0.22835] CT
1 LJ
0.639 LW
N
151.932 226.743 M
151.172 217.612 L
S
GR
GS
[0.78257 0 0 0.78197 0 0.22835] CT
1 LJ
0.639 LW
N
171.675 217.612 M
171.508 226.743 L
S
GR
GS
[0.78257 0 0 0.78197 0 0.22835] CT
1 LJ
0.639 LW
N
279.107 226.743 M
278.233 217.612 L
S
GR
GS
[0.78257 0 0 0.78197 0 0.22835] CT
1 LJ
0.639 LW
N
45.849 208.481 M
45.193 217.612 L
S
GR
GS
[0.78257 0 0 0.78197 0 0.22835] CT
1 LJ
0.639 LW
N
151.172 217.612 M
148.526 210.41 L
147.669 208.481 L
S
GR
GS
[0.78257 0 0 0.78197 0 0.22835] CT
1 LJ
0.639 LW
N
172.282 208.481 M
171.675 217.612 L
S
GR
GS
[0.78257 0 0 0.78197 0 0.22835] CT
1 LJ
0.639 LW
N
278.233 217.612 M
275.135 208.481 L
S
GR
GS
[0.78257 0 0 0.78197 0 0.22835] CT
1 LJ
0.639 LW
N
47.639 199.35 M
45.849 208.481 L
S
GR
GS
[0.78257 0 0 0.78197 0 0.22835] CT
1 LJ
0.639 LW
N
147.669 208.481 M
138.933 199.35 L
S
GR
GS
[0.78257 0 0 0.78197 0 0.22835] CT
1 LJ
0.639 LW
N
173.869 199.35 M
172.282 208.481 L
S
GR
GS
[0.78257 0 0 0.78197 0 0.22835] CT
1 LJ
0.639 LW
N
275.135 208.481 M
268.368 200.085 L
267.443 199.35 L
S
GR
GS
[0.78257 0 0 0.78197 0 0.22835] CT
1 LJ
0.639 LW
N
55.443 190.22 M
55.316 190.261 L
47.639 199.35 L
S
GR
GS
[0.78257 0 0 0.78197 0 0.22835] CT
1 LJ
0.639 LW
N
138.933 199.35 M
135.211 197.258 L
121.895 192.771 L
108.579 190.3 L
107.842 190.22 L
S
GR
GS
[0.78257 0 0 0.78197 0 0.22835] CT
1 LJ
0.639 LW
N
181.165 190.22 M
175.158 195.966 L
173.869 199.35 L
S
GR
GS
[0.78257 0 0 0.78197 0 0.22835] CT
1 LJ
0.639 LW
N
267.443 199.35 M
255.053 193.555 L
241.737 190.372 L
240.666 190.22 L
S
GR
GS
[0.78257 0 0 0.78197 0 0.22835] CT
1 LJ
0.639 LW
N
107.842 190.22 M
95.263 188.7 L
81.947 188.17 L
68.632 188.147 L
55.443 190.22 L
S
GR
GS
[0.78257 0 0 0.78197 0 0.22835] CT
1 LJ
0.639 LW
N
240.666 190.22 M
228.421 188.42 L
215.105 187.652 L
201.789 187.265 L
188.474 187.998 L
181.165 190.22 L
S
GR
GS
[0.78257 0 0 0.78197 0 0.22835] CT
1 LJ
0.639 LW
N
84.409 171.958 M
95.263 174.415 L
108.579 176.224 L
121.895 177.295 L
135.211 177.717 L
148.526 176.979 L
159.764 171.958 L
S
GR
GS
[0.78257 0 0 0.78197 0 0.22835] CT
1 LJ
0.639 LW
N
213.996 171.958 M
215.105 172.33 L
228.421 174.541 L
241.737 175.891 L
255.053 176.571 L
268.368 176.413 L
281.684 173.724 L
284.273 171.958 L
S
GR
GS
[0.78257 0 0 0.78197 0 0.22835] CT
1 LJ
0.639 LW
N
67.304 162.827 M
68.632 164.015 L
81.947 171.211 L
84.409 171.958 L
S
GR
GS
[0.78257 0 0 0.78197 0 0.22835] CT
1 LJ
0.639 LW
N
159.764 171.958 M
161.842 168.849 L
163.712 162.827 L
S
GR
GS
[0.78257 0 0 0.78197 0 0.22835] CT
1 LJ
0.639 LW
N
194.999 162.827 M
201.789 167.411 L
213.996 171.958 L
S
GR
GS
[0.78257 0 0 0.78197 0 0.22835] CT
1 LJ
0.639 LW
N
284.273 171.958 M
289.257 162.827 L
S
GR
GS
[0.78257 0 0 0.78197 0 0.22835] CT
1 LJ
0.639 LW
N
61.666 153.696 M
67.304 162.827 L
S
GR
GS
[0.78257 0 0 0.78197 0 0.22835] CT
1 LJ
0.639 LW
N
163.712 162.827 M
164.852 153.696 L
S
GR
GS
[0.78257 0 0 0.78197 0 0.22835] CT
1 LJ
0.639 LW
N
188.557 153.696 M
194.999 162.827 L
S
GR
GS
[0.78257 0 0 0.78197 0 0.22835] CT
1 LJ
0.639 LW
N
289.257 162.827 M
290.717 153.696 L
S
GR
GS
[0.78257 0 0 0.78197 0 0.22835] CT
1 LJ
0.639 LW
N
59.544 144.565 M
61.666 153.696 L
S
GR
GS
[0.78257 0 0 0.78197 0 0.22835] CT
1 LJ
0.639 LW
N
164.852 153.696 M
165.26 144.565 L
S
GR
GS
[0.78257 0 0 0.78197 0 0.22835] CT
1 LJ
0.639 LW
N
186.157 144.565 M
188.474 153.412 L
188.557 153.696 L
S
GR
GS
[0.78257 0 0 0.78197 0 0.22835] CT
1 LJ
0.639 LW
N
290.717 153.696 M
291.224 144.565 L
S
GR
GS
[0.78257 0 0 0.78197 0 0.22835] CT
1 LJ
0.639 LW
N
59.544 135.435 M
59.544 144.565 L
S
GR
GS
[0.78257 0 0 0.78197 0 0.22835] CT
1 LJ
0.639 LW
N
165.26 144.565 M
165.26 135.435 L
S
GR
GS
[0.78257 0 0 0.78197 0 0.22835] CT
1 LJ
0.639 LW
N
186.157 135.435 M
186.157 144.565 L
S
GR
GS
[0.78257 0 0 0.78197 0 0.22835] CT
1 LJ
0.639 LW
N
291.224 144.565 M
291.224 135.435 L
S
GR
GS
[0.78257 0 0 0.78197 0 0.22835] CT
1 LJ
0.639 LW
N
61.666 126.304 M
59.544 135.435 L
S
GR
GS
[0.78257 0 0 0.78197 0 0.22835] CT
1 LJ
0.639 LW
N
165.26 135.435 M
164.852 126.304 L
S
GR
GS
[0.78257 0 0 0.78197 0 0.22835] CT
1 LJ
0.639 LW
N
188.557 126.304 M
188.474 126.588 L
186.157 135.435 L
S
GR
GS
[0.78257 0 0 0.78197 0 0.22835] CT
1 LJ
0.639 LW
N
291.224 135.435 M
290.717 126.304 L
S
GR
GS
[0.78257 0 0 0.78197 0 0.22835] CT
1 LJ
0.639 LW
N
67.304 117.173 M
61.666 126.304 L
S
GR
GS
[0.78257 0 0 0.78197 0 0.22835] CT
1 LJ
0.639 LW
N
164.852 126.304 M
163.712 117.173 L
S
GR
GS
[0.78257 0 0 0.78197 0 0.22835] CT
1 LJ
0.639 LW
N
194.999 117.173 M
188.557 126.304 L
S
GR
GS
[0.78257 0 0 0.78197 0 0.22835] CT
1 LJ
0.639 LW
N
290.717 126.304 M
289.257 117.173 L
S
GR
GS
[0.78257 0 0 0.78197 0 0.22835] CT
1 LJ
0.639 LW
N
84.409 108.042 M
81.947 108.789 L
68.632 115.985 L
67.304 117.173 L
S
GR
GS
[0.78257 0 0 0.78197 0 0.22835] CT
1 LJ
0.639 LW
N
163.712 117.173 M
161.842 111.151 L
159.764 108.042 L
S
GR
GS
[0.78257 0 0 0.78197 0 0.22835] CT
1 LJ
0.639 LW
N
213.996 108.042 M
201.789 112.589 L
194.999 117.173 L
S
GR
GS
[0.78257 0 0 0.78197 0 0.22835] CT
1 LJ
0.639 LW
N
289.257 117.173 M
284.273 108.042 L
S
GR
GS
[0.78257 0 0 0.78197 0 0.22835] CT
1 LJ
0.639 LW
N
159.764 108.042 M
148.526 103.021 L
135.211 102.283 L
121.895 102.705 L
108.579 103.776 L
95.263 105.585 L
84.409 108.042 L
S
GR
GS
[0.78257 0 0 0.78197 0 0.22835] CT
1 LJ
0.639 LW
N
284.273 108.042 M
281.684 106.276 L
268.368 103.587 L
255.053 103.429 L
241.737 104.109 L
228.421 105.459 L
215.105 107.67 L
213.996 108.042 L
S
GR
GS
[0.78257 0 0 0.78197 0 0.22835] CT
1 LJ
0.639 LW
N
55.443 89.78 M
68.632 91.853 L
81.947 91.83 L
95.263 91.3 L
107.842 89.78 L
S
GR
GS
[0.78257 0 0 0.78197 0 0.22835] CT
1 LJ
0.639 LW
N
181.165 89.78 M
188.474 92.002 L
201.789 92.735 L
215.105 92.348 L
228.421 91.58 L
240.666 89.78 L
S
GR
GS
[0.78257 0 0 0.78197 0 0.22835] CT
1 LJ
0.639 LW
N
47.639 80.65 M
55.316 89.739 L
55.443 89.78 L
S
GR
GS
[0.78257 0 0 0.78197 0 0.22835] CT
1 LJ
0.639 LW
N
107.842 89.78 M
108.579 89.7 L
121.895 87.229 L
135.211 82.742 L
138.933 80.65 L
S
GR
GS
[0.78257 0 0 0.78197 0 0.22835] CT
1 LJ
0.639 LW
N
173.869 80.65 M
175.158 84.034 L
181.165 89.78 L
S
GR
GS
[0.78257 0 0 0.78197 0 0.22835] CT
1 LJ
0.639 LW
N
240.666 89.78 M
241.737 89.628 L
255.053 86.445 L
267.443 80.65 L
S
GR
GS
[0.78257 0 0 0.78197 0 0.22835] CT
1 LJ
0.639 LW
N
45.849 71.519 M
47.639 80.65 L
S
GR
GS
[0.78257 0 0 0.78197 0 0.22835] CT
1 LJ
0.639 LW
N
138.933 80.65 M
147.669 71.519 L
S
GR
GS
[0.78257 0 0 0.78197 0 0.22835] CT
1 LJ
0.639 LW
N
172.282 71.519 M
173.869 80.65 L
S
GR
GS
[0.78257 0 0 0.78197 0 0.22835] CT
1 LJ
0.639 LW
N
267.443 80.65 M
268.368 79.915 L
275.135 71.519 L
S
GR
GS
[0.78257 0 0 0.78197 0 0.22835] CT
1 LJ
0.639 LW
N
45.193 62.388 M
45.849 71.519 L
S
GR
GS
[0.78257 0 0 0.78197 0 0.22835] CT
1 LJ
0.639 LW
N
147.669 71.519 M
148.526 69.59 L
151.172 62.388 L
S
GR
GS
[0.78257 0 0 0.78197 0 0.22835] CT
1 LJ
0.639 LW
N
171.675 62.388 M
172.282 71.519 L
S
GR
GS
[0.78257 0 0 0.78197 0 0.22835] CT
1 LJ
0.639 LW
N
275.135 71.519 M
278.233 62.388 L
S
GR
GS
[0.78257 0 0 0.78197 0 0.22835] CT
1 LJ
0.639 LW
N
45.015 53.257 M
45.193 62.388 L
S
GR
GS
[0.78257 0 0 0.78197 0 0.22835] CT
1 LJ
0.639 LW
N
151.172 62.388 M
151.932 53.257 L
S
GR
GS
[0.78257 0 0 0.78197 0 0.22835] CT
1 LJ
0.639 LW
N
171.508 53.257 M
171.675 62.388 L
S
GR
GS
[0.78257 0 0 0.78197 0 0.22835] CT
1 LJ
0.639 LW
N
278.233 62.388 M
279.107 53.257 L
S
GR
GS
[0.78257 0 0 0.78197 0 0.22835] CT
1 LJ
0.639 LW
N
50.757 217.612 M
50.27 226.743 L
S
GR
GS
[0.78257 0 0 0.78197 0 0.22835] CT
1 LJ
0.639 LW
N
146.742 226.743 M
145.451 217.612 L
S
GR
GS
[0.78257 0 0 0.78197 0 0.22835] CT
1 LJ
0.639 LW
N
177.045 217.612 M
176.55 226.743 L
S
GR
GS
[0.78257 0 0 0.78197 0 0.22835] CT
1 LJ
0.639 LW
N
274.076 226.743 M
272.952 217.612 L
S
GR
GS
[0.78257 0 0 0.78197 0 0.22835] CT
1 LJ
0.639 LW
N
52.556 208.481 M
50.757 217.612 L
S
GR
GS
[0.78257 0 0 0.78197 0 0.22835] CT
1 LJ
0.639 LW
N
145.451 217.612 M
140.883 208.481 L
S
GR
GS
[0.78257 0 0 0.78197 0 0.22835] CT
1 LJ
0.639 LW
N
178.871 208.481 M
177.045 217.612 L
S
GR
GS
[0.78257 0 0 0.78197 0 0.22835] CT
1 LJ
0.639 LW
N
272.952 217.612 M
268.964 208.481 L
S
GR
GS
[0.78257 0 0 0.78197 0 0.22835] CT
1 LJ
0.639 LW
N
58.041 199.35 M
55.316 202.521 L
52.556 208.481 L
S
GR
GS
[0.78257 0 0 0.78197 0 0.22835] CT
1 LJ
0.639 LW
N
140.883 208.481 M
135.211 203.138 L
128.564 199.35 L
S
GR
GS
[0.78257 0 0 0.78197 0 0.22835] CT
1 LJ
0.639 LW
N
183.842 199.35 M
178.871 208.481 L
S
GR
GS
[0.78257 0 0 0.78197 0 0.22835] CT
1 LJ
0.639 LW
N
268.964 208.481 M
268.368 207.742 L
257.793 199.35 L
S
GR
GS
[0.78257 0 0 0.78197 0 0.22835] CT
1 LJ
0.639 LW
N
128.564 199.35 M
121.895 196.897 L
108.579 194.091 L
95.263 192.707 L
81.947 192.502 L
68.632 194.116 L
58.041 199.35 L
S
GR
GS
[0.78257 0 0 0.78197 0 0.22835] CT
1 LJ
0.639 LW
N
257.793 199.35 M
255.053 198.069 L
241.737 194.27 L
228.421 192.31 L
215.105 191.551 L
201.789 192.14 L
188.474 195.741 L
183.842 199.35 L
S
GR
GS
[0.78257 0 0 0.78197 0 0.22835] CT
1 LJ
0.639 LW
N
103.72 171.958 M
108.579 172.643 L
121.895 173.397 L
135.211 172.866 L
140.023 171.958 L
S
GR
GS
[0.78257 0 0 0.78197 0 0.22835] CT
1 LJ
0.639 LW
N
239.12 171.958 M
241.737 172.209 L
255.053 172.308 L
258.514 171.958 L
S
GR
GS
[0.78257 0 0 0.78197 0 0.22835] CT
1 LJ
0.639 LW
N
75.838 162.827 M
81.947 166.274 L
95.263 170.539 L
103.72 171.958 L
S
GR
GS
[0.78257 0 0 0.78197 0 0.22835] CT
1 LJ
0.639 LW
N
140.023 171.958 M
148.526 169.087 L
155.007 162.827 L
S
GR
GS
[0.78257 0 0 0.78197 0 0.22835] CT
1 LJ
0.639 LW
N
203.704 162.827 M
215.105 167.776 L
228.421 170.802 L
239.12 171.958 L
S
GR
GS
[0.78257 0 0 0.78197 0 0.22835] CT
1 LJ
0.639 LW
N
258.514 171.958 M
268.368 170.387 L
280.379 162.827 L
S
GR
GS
[0.78257 0 0 0.78197 0 0.22835] CT
1 LJ
0.639 LW
N
67.609 153.696 M
68.632 155.274 L
75.838 162.827 L
S
GR
GS
[0.78257 0 0 0.78197 0 0.22835] CT
1 LJ
0.639 LW
N
155.007 162.827 M
158.533 153.696 L
S
GR
GS
[0.78257 0 0 0.78197 0 0.22835] CT
1 LJ
0.639 LW
N
195.146 153.696 M
201.789 161.417 L
203.704 162.827 L
S
GR
GS
[0.78257 0 0 0.78197 0 0.22835] CT
1 LJ
0.639 LW
N
280.379 162.827 M
281.684 160.71 L
284.284 153.696 L
S
GR
GS
[0.78257 0 0 0.78197 0 0.22835] CT
1 LJ
0.639 LW
N
64.895 144.565 M
67.609 153.696 L
S
GR
GS
[0.78257 0 0 0.78197 0 0.22835] CT
1 LJ
0.639 LW
N
158.533 153.696 M
159.759 144.565 L
S
GR
GS
[0.78257 0 0 0.78197 0 0.22835] CT
1 LJ
0.639 LW
N
192.064 144.565 M
195.146 153.696 L
S
GR
GS
[0.78257 0 0 0.78197 0 0.22835] CT
1 LJ
0.639 LW
N
284.284 153.696 M
285.554 144.565 L
S
GR
GS
[0.78257 0 0 0.78197 0 0.22835] CT
1 LJ
0.639 LW
N
64.895 135.435 M
64.895 144.565 L
S
GR
GS
[0.78257 0 0 0.78197 0 0.22835] CT
1 LJ
0.639 LW
N
159.759 144.565 M
159.759 135.435 L
S
GR
GS
[0.78257 0 0 0.78197 0 0.22835] CT
1 LJ
0.639 LW
N
192.064 135.435 M
192.064 144.565 L
S
GR
GS
[0.78257 0 0 0.78197 0 0.22835] CT
1 LJ
0.639 LW
N
285.554 144.565 M
285.554 135.435 L
S
GR
GS
[0.78257 0 0 0.78197 0 0.22835] CT
1 LJ
0.639 LW
N
67.609 126.304 M
64.895 135.435 L
S
GR
GS
[0.78257 0 0 0.78197 0 0.22835] CT
1 LJ
0.639 LW
N
159.759 135.435 M
158.533 126.304 L
S
GR
GS
[0.78257 0 0 0.78197 0 0.22835] CT
1 LJ
0.639 LW
N
195.146 126.304 M
192.064 135.435 L
S
GR
GS
[0.78257 0 0 0.78197 0 0.22835] CT
1 LJ
0.639 LW
N
285.554 135.435 M
284.284 126.304 L
S
GR
GS
[0.78257 0 0 0.78197 0 0.22835] CT
1 LJ
0.639 LW
N
75.838 117.173 M
68.632 124.726 L
67.609 126.304 L
S
GR
GS
[0.78257 0 0 0.78197 0 0.22835] CT
1 LJ
0.639 LW
N
158.533 126.304 M
155.007 117.173 L
S
GR
GS
[0.78257 0 0 0.78197 0 0.22835] CT
1 LJ
0.639 LW
N
203.704 117.173 M
201.789 118.583 L
195.146 126.304 L
S
GR
GS
[0.78257 0 0 0.78197 0 0.22835] CT
1 LJ
0.639 LW
N
284.284 126.304 M
281.684 119.29 L
280.379 117.173 L
S
GR
GS
[0.78257 0 0 0.78197 0 0.22835] CT
1 LJ
0.639 LW
N
103.72 108.042 M
95.263 109.461 L
81.947 113.726 L
75.838 117.173 L
S
GR
GS
[0.78257 0 0 0.78197 0 0.22835] CT
1 LJ
0.639 LW
N
155.007 117.173 M
148.526 110.913 L
140.023 108.042 L
S
GR
GS
[0.78257 0 0 0.78197 0 0.22835] CT
1 LJ
0.639 LW
N
239.12 108.042 M
228.421 109.198 L
215.105 112.224 L
203.704 117.173 L
S
GR
GS
[0.78257 0 0 0.78197 0 0.22835] CT
1 LJ
0.639 LW
N
280.379 117.173 M
268.368 109.613 L
258.514 108.042 L
S
GR
GS
[0.78257 0 0 0.78197 0 0.22835] CT
1 LJ
0.639 LW
N
140.023 108.042 M
135.211 107.134 L
121.895 106.603 L
108.579 107.357 L
103.72 108.042 L
S
GR
GS
[0.78257 0 0 0.78197 0 0.22835] CT
1 LJ
0.639 LW
N
258.514 108.042 M
255.053 107.692 L
241.737 107.791 L
239.12 108.042 L
S
GR
GS
[0.78257 0 0 0.78197 0 0.22835] CT
1 LJ
0.639 LW
N
58.041 80.65 M
68.632 85.884 L
81.947 87.498 L
95.263 87.293 L
108.579 85.909 L
121.895 83.103 L
128.564 80.65 L
S
GR
GS
[0.78257 0 0 0.78197 0 0.22835] CT
1 LJ
0.639 LW
N
183.842 80.65 M
188.474 84.259 L
201.789 87.86 L
215.105 88.449 L
228.421 87.69 L
241.737 85.73 L
255.053 81.931 L
257.793 80.65 L
S
GR
GS
[0.78257 0 0 0.78197 0 0.22835] CT
1 LJ
0.639 LW
N
52.556 71.519 M
55.316 77.479 L
58.041 80.65 L
S
GR
GS
[0.78257 0 0 0.78197 0 0.22835] CT
1 LJ
0.639 LW
N
128.564 80.65 M
135.211 76.862 L
140.883 71.519 L
S
GR
GS
[0.78257 0 0 0.78197 0 0.22835] CT
1 LJ
0.639 LW
N
178.871 71.519 M
183.842 80.65 L
S
GR
GS
[0.78257 0 0 0.78197 0 0.22835] CT
1 LJ
0.639 LW
N
257.793 80.65 M
268.368 72.258 L
268.964 71.519 L
S
GR
GS
[0.78257 0 0 0.78197 0 0.22835] CT
1 LJ
0.639 LW
N
50.757 62.388 M
52.556 71.519 L
S
GR
GS
[0.78257 0 0 0.78197 0 0.22835] CT
1 LJ
0.639 LW
N
140.883 71.519 M
145.451 62.388 L
S
GR
GS
[0.78257 0 0 0.78197 0 0.22835] CT
1 LJ
0.639 LW
N
177.045 62.388 M
178.871 71.519 L
S
GR
GS
[0.78257 0 0 0.78197 0 0.22835] CT
1 LJ
0.639 LW
N
268.964 71.519 M
272.952 62.388 L
S
GR
GS
[0.78257 0 0 0.78197 0 0.22835] CT
1 LJ
0.639 LW
N
50.27 53.257 M
50.757 62.388 L
S
GR
GS
[0.78257 0 0 0.78197 0 0.22835] CT
1 LJ
0.639 LW
N
145.451 62.388 M
146.742 53.257 L
S
GR
GS
[0.78257 0 0 0.78197 0 0.22835] CT
1 LJ
0.639 LW
N
176.55 53.257 M
177.045 62.388 L
S
GR
GS
[0.78257 0 0 0.78197 0 0.22835] CT
1 LJ
0.639 LW
N
272.952 62.388 M
274.076 53.257 L
S
GR
GS
[0.78257 0 0 0.78197 0 0.22835] CT
1 LJ
0.639 LW
N
56.522 217.612 M
55.565 226.743 L
S
GR
GS
[0.78257 0 0 0.78197 0 0.22835] CT
1 LJ
0.639 LW
N
141.196 226.743 M
139.632 217.612 L
S
GR
GS
[0.78257 0 0 0.78197 0 0.22835] CT
1 LJ
0.639 LW
N
182.828 217.612 M
182.012 226.743 L
S
GR
GS
[0.78257 0 0 0.78197 0 0.22835] CT
1 LJ
0.639 LW
N
269.046 226.743 M
268.368 222.134 L
267.528 217.612 L
S
GR
GS
[0.78257 0 0 0.78197 0 0.22835] CT
1 LJ
0.639 LW
N
60.118 208.481 M
56.522 217.612 L
S
GR
GS
[0.78257 0 0 0.78197 0 0.22835] CT
1 LJ
0.639 LW
N
139.632 217.612 M
135.211 210.104 L
133.788 208.481 L
S
GR
GS
[0.78257 0 0 0.78197 0 0.22835] CT
1 LJ
0.639 LW
N
185.836 208.481 M
182.828 217.612 L
S
GR
GS
[0.78257 0 0 0.78197 0 0.22835] CT
1 LJ
0.639 LW
N
267.528 217.612 M
261.731 208.481 L
S
GR
GS
[0.78257 0 0 0.78197 0 0.22835] CT
1 LJ
0.639 LW
N
71.611 199.35 M
68.632 200.492 L
60.118 208.481 L
S
GR
GS
[0.78257 0 0 0.78197 0 0.22835] CT
1 LJ
0.639 LW
N
133.788 208.481 M
121.895 201.433 L
115.082 199.35 L
S
GR
GS
[0.78257 0 0 0.78197 0 0.22835] CT
1 LJ
0.639 LW
N
196.123 199.35 M
188.474 204.739 L
185.836 208.481 L
S
GR
GS
[0.78257 0 0 0.78197 0 0.22835] CT
1 LJ
0.639 LW
N
261.731 208.481 M
255.053 203.373 L
245.699 199.35 L
S
GR
GS
[0.78257 0 0 0.78197 0 0.22835] CT
1 LJ
0.639 LW
N
115.082 199.35 M
108.579 197.883 L
95.263 196.605 L
81.947 197.016 L
71.611 199.35 L
S
GR
GS
[0.78257 0 0 0.78197 0 0.22835] CT
1 LJ
0.639 LW
N
245.699 199.35 M
241.737 198.168 L
228.421 196.101 L
215.105 195.677 L
201.789 197.276 L
196.123 199.35 L
S
GR
GS
[0.78257 0 0 0.78197 0 0.22835] CT
1 LJ
0.639 LW
N
85.568 162.827 M
95.263 166.275 L
108.579 168.603 L
121.895 169.111 L
135.211 167.391 L
145.121 162.827 L
S
GR
GS
[0.78257 0 0 0.78197 0 0.22835] CT
1 LJ
0.639 LW
N
214.102 162.827 M
215.105 163.263 L
228.421 166.654 L
241.737 167.985 L
255.053 167.426 L
268.368 163.657 L
269.687 162.827 L
S
GR
GS
[0.78257 0 0 0.78197 0 0.22835] CT
1 LJ
0.639 LW
N
74.487 153.696 M
81.947 160.795 L
85.568 162.827 L
S
GR
GS
[0.78257 0 0 0.78197 0 0.22835] CT
1 LJ
0.639 LW
N
145.121 162.827 M
148.526 159.523 L
151.827 153.696 L
S
GR
GS
[0.78257 0 0 0.78197 0 0.22835] CT
1 LJ
0.639 LW
N
201.735 153.696 M
201.789 153.76 L
214.102 162.827 L
S
GR
GS
[0.78257 0 0 0.78197 0 0.22835] CT
1 LJ
0.639 LW
N
269.687 162.827 M
277.057 153.696 L
S
GR
GS
[0.78257 0 0 0.78197 0 0.22835] CT
1 LJ
0.639 LW
N
70.569 144.565 M
74.487 153.696 L
S
GR
GS
[0.78257 0 0 0.78197 0 0.22835] CT
1 LJ
0.639 LW
N
151.827 153.696 M
153.847 144.565 L
S
GR
GS
[0.78257 0 0 0.78197 0 0.22835] CT
1 LJ
0.639 LW
N
197.999 144.565 M
201.735 153.696 L
S
GR
GS
[0.78257 0 0 0.78197 0 0.22835] CT
1 LJ
0.639 LW
N
277.057 153.696 M
279.53 144.565 L
S
GR
GS
[0.78257 0 0 0.78197 0 0.22835] CT
1 LJ
0.639 LW
N
70.569 135.435 M
70.569 144.565 L
S
GR
GS
[0.78257 0 0 0.78197 0 0.22835] CT
1 LJ
0.639 LW
N
153.847 144.565 M
153.847 135.435 L
S
GR
GS
[0.78257 0 0 0.78197 0 0.22835] CT
1 LJ
0.639 LW
N
197.999 135.435 M
197.999 144.565 L
S
GR
GS
[0.78257 0 0 0.78197 0 0.22835] CT
1 LJ
0.639 LW
N
279.53 144.565 M
279.53 135.435 L
S
GR
GS
[0.78257 0 0 0.78197 0 0.22835] CT
1 LJ
0.639 LW
N
74.487 126.304 M
70.569 135.435 L
S
GR
GS
[0.78257 0 0 0.78197 0 0.22835] CT
1 LJ
0.639 LW
N
153.847 135.435 M
151.827 126.304 L
S
GR
GS
[0.78257 0 0 0.78197 0 0.22835] CT
1 LJ
0.639 LW
N
201.735 126.304 M
197.999 135.435 L
S
GR
GS
[0.78257 0 0 0.78197 0 0.22835] CT
1 LJ
0.639 LW
N
279.53 135.435 M
277.057 126.304 L
S
GR
GS
[0.78257 0 0 0.78197 0 0.22835] CT
1 LJ
0.639 LW
N
85.568 117.173 M
81.947 119.205 L
74.487 126.304 L
S
GR
GS
[0.78257 0 0 0.78197 0 0.22835] CT
1 LJ
0.639 LW
N
151.827 126.304 M
148.526 120.477 L
145.121 117.173 L
S
GR
GS
[0.78257 0 0 0.78197 0 0.22835] CT
1 LJ
0.639 LW
N
214.102 117.173 M
201.789 126.24 L
201.735 126.304 L
S
GR
GS
[0.78257 0 0 0.78197 0 0.22835] CT
1 LJ
0.639 LW
N
277.057 126.304 M
269.687 117.173 L
S
GR
GS
[0.78257 0 0 0.78197 0 0.22835] CT
1 LJ
0.639 LW
N
145.121 117.173 M
135.211 112.609 L
121.895 110.889 L
108.579 111.397 L
95.263 113.725 L
85.568 117.173 L
S
GR
GS
[0.78257 0 0 0.78197 0 0.22835] CT
1 LJ
0.639 LW
N
269.687 117.173 M
268.368 116.343 L
255.053 112.574 L
241.737 112.015 L
228.421 113.346 L
215.105 116.737 L
214.102 117.173 L
S
GR
GS
[0.78257 0 0 0.78197 0 0.22835] CT
1 LJ
0.639 LW
N
71.611 80.65 M
81.947 82.984 L
95.263 83.395 L
108.579 82.117 L
115.082 80.65 L
S
GR
GS
[0.78257 0 0 0.78197 0 0.22835] CT
1 LJ
0.639 LW
N
196.123 80.65 M
201.789 82.724 L
215.105 84.323 L
228.421 83.899 L
241.737 81.832 L
245.699 80.65 L
S
GR
GS
[0.78257 0 0 0.78197 0 0.22835] CT
1 LJ
0.639 LW
N
60.118 71.519 M
68.632 79.508 L
71.611 80.65 L
S
GR
GS
[0.78257 0 0 0.78197 0 0.22835] CT
1 LJ
0.639 LW
N
115.082 80.65 M
121.895 78.567 L
133.788 71.519 L
S
GR
GS
[0.78257 0 0 0.78197 0 0.22835] CT
1 LJ
0.639 LW
N
185.836 71.519 M
188.474 75.261 L
196.123 80.65 L
S
GR
GS
[0.78257 0 0 0.78197 0 0.22835] CT
1 LJ
0.639 LW
N
245.699 80.65 M
255.053 76.627 L
261.731 71.519 L
S
GR
GS
[0.78257 0 0 0.78197 0 0.22835] CT
1 LJ
0.639 LW
N
56.522 62.388 M
60.118 71.519 L
S
GR
GS
[0.78257 0 0 0.78197 0 0.22835] CT
1 LJ
0.639 LW
N
133.788 71.519 M
135.211 69.896 L
139.632 62.388 L
S
GR
GS
[0.78257 0 0 0.78197 0 0.22835] CT
1 LJ
0.639 LW
N
182.828 62.388 M
185.836 71.519 L
S
GR
GS
[0.78257 0 0 0.78197 0 0.22835] CT
1 LJ
0.639 LW
N
261.731 71.519 M
267.528 62.388 L
S
GR
GS
[0.78257 0 0 0.78197 0 0.22835] CT
1 LJ
0.639 LW
N
55.565 53.257 M
56.522 62.388 L
S
GR
GS
[0.78257 0 0 0.78197 0 0.22835] CT
1 LJ
0.639 LW
N
139.632 62.388 M
141.196 53.257 L
S
GR
GS
[0.78257 0 0 0.78197 0 0.22835] CT
1 LJ
0.639 LW
N
182.012 53.257 M
182.828 62.388 L
S
GR
GS
[0.78257 0 0 0.78197 0 0.22835] CT
1 LJ
0.639 LW
N
267.528 62.388 M
268.368 57.866 L
269.046 53.257 L
S
GR
GS
[0.78257 0 0 0.78197 0 0.22835] CT
1 LJ
0.639 LW
N
63.195 217.612 M
61.843 226.743 L
S
GR
GS
[0.78257 0 0 0.78197 0 0.22835] CT
1 LJ
0.639 LW
N
135.651 226.743 M
135.211 224.475 L
133.396 217.612 L
S
GR
GS
[0.78257 0 0 0.78197 0 0.22835] CT
1 LJ
0.639 LW
N
188.65 217.612 M
188.474 218.655 L
187.474 226.743 L
S
GR
GS
[0.78257 0 0 0.78197 0 0.22835] CT
1 LJ
0.639 LW
N
263.106 226.743 M
261.165 217.612 L
S
GR
GS
[0.78257 0 0 0.78197 0 0.22835] CT
1 LJ
0.639 LW
N
68.278 208.481 M
63.195 217.612 L
S
GR
GS
[0.78257 0 0 0.78197 0 0.22835] CT
1 LJ
0.639 LW
N
133.396 217.612 M
125.122 208.481 L
S
GR
GS
[0.78257 0 0 0.78197 0 0.22835] CT
1 LJ
0.639 LW
N
194.165 208.481 M
188.65 217.612 L
S
GR
GS
[0.78257 0 0 0.78197 0 0.22835] CT
1 LJ
0.639 LW
N
261.165 217.612 M
255.053 209.27 L
254.105 208.481 L
S
GR
GS
[0.78257 0 0 0.78197 0 0.22835] CT
1 LJ
0.639 LW
N
125.122 208.481 M
121.895 206.569 L
108.579 202.243 L
95.263 200.785 L
81.947 202.062 L
68.632 208.15 L
68.278 208.481 L
S
GR
GS
[0.78257 0 0 0.78197 0 0.22835] CT
1 LJ
0.639 LW
N
254.105 208.481 M
241.737 202.731 L
228.421 200.025 L
215.105 199.914 L
201.789 203.161 L
194.165 208.481 L
S
GR
GS
[0.78257 0 0 0.78197 0 0.22835] CT
1 LJ
0.639 LW
N
99.626 162.827 M
108.579 164.456 L
121.895 164.597 L
130.901 162.827 L
S
GR
GS
[0.78257 0 0 0.78197 0 0.22835] CT
1 LJ
0.639 LW
N
232.006 162.827 M
241.737 163.721 L
251.769 162.827 L
S
GR
GS
[0.78257 0 0 0.78197 0 0.22835] CT
1 LJ
0.639 LW
N
81.559 153.696 M
81.947 154.066 L
95.263 161.715 L
99.626 162.827 L
S
GR
GS
[0.78257 0 0 0.78197 0 0.22835] CT
1 LJ
0.639 LW
N
130.901 162.827 M
135.211 161.39 L
144.056 153.696 L
S
GR
GS
[0.78257 0 0 0.78197 0 0.22835] CT
1 LJ
0.639 LW
N
210.187 153.696 M
215.105 157.269 L
228.421 162.39 L
232.006 162.827 L
S
GR
GS
[0.78257 0 0 0.78197 0 0.22835] CT
1 LJ
0.639 LW
N
251.769 162.827 M
255.053 162.365 L
268.368 154.786 L
269.291 153.696 L
S
GR
GS
[0.78257 0 0 0.78197 0 0.22835] CT
1 LJ
0.639 LW
N
76.989 144.565 M
81.559 153.696 L
S
GR
GS
[0.78257 0 0 0.78197 0 0.22835] CT
1 LJ
0.639 LW
N
144.056 153.696 M
147.759 144.565 L
S
GR
GS
[0.78257 0 0 0.78197 0 0.22835] CT
1 LJ
0.639 LW
N
204.576 144.565 M
210.187 153.696 L
S
GR
GS
[0.78257 0 0 0.78197 0 0.22835] CT
1 LJ
0.639 LW
N
269.291 153.696 M
272.745 144.565 L
S
GR
GS
[0.78257 0 0 0.78197 0 0.22835] CT
1 LJ
0.639 LW
N
76.989 135.435 M
76.989 144.565 L
S
GR
GS
[0.78257 0 0 0.78197 0 0.22835] CT
1 LJ
0.639 LW
N
147.759 144.565 M
147.759 135.435 L
S
GR
GS
[0.78257 0 0 0.78197 0 0.22835] CT
1 LJ
0.639 LW
N
204.576 135.435 M
204.576 144.565 L
S
GR
GS
[0.78257 0 0 0.78197 0 0.22835] CT
1 LJ
0.639 LW
N
272.745 144.565 M
272.745 135.435 L
S
GR
GS
[0.78257 0 0 0.78197 0 0.22835] CT
1 LJ
0.639 LW
N
81.559 126.304 M
76.989 135.435 L
S
GR
GS
[0.78257 0 0 0.78197 0 0.22835] CT
1 LJ
0.639 LW
N
147.759 135.435 M
144.056 126.304 L
S
GR
GS
[0.78257 0 0 0.78197 0 0.22835] CT
1 LJ
0.639 LW
N
210.187 126.304 M
204.576 135.435 L
S
GR
GS
[0.78257 0 0 0.78197 0 0.22835] CT
1 LJ
0.639 LW
N
272.745 135.435 M
269.291 126.304 L
S
GR
GS
[0.78257 0 0 0.78197 0 0.22835] CT
1 LJ
0.639 LW
N
99.626 117.173 M
95.263 118.285 L
81.947 125.934 L
81.559 126.304 L
S
GR
GS
[0.78257 0 0 0.78197 0 0.22835] CT
1 LJ
0.639 LW
N
144.056 126.304 M
135.211 118.61 L
130.901 117.173 L
S
GR
GS
[0.78257 0 0 0.78197 0 0.22835] CT
1 LJ
0.639 LW
N
232.006 117.173 M
228.421 117.61 L
215.105 122.731 L
210.187 126.304 L
S
GR
GS
[0.78257 0 0 0.78197 0 0.22835] CT
1 LJ
0.639 LW
N
269.291 126.304 M
268.368 125.214 L
255.053 117.635 L
251.769 117.173 L
S
GR
GS
[0.78257 0 0 0.78197 0 0.22835] CT
1 LJ
0.639 LW
N
130.901 117.173 M
121.895 115.403 L
108.579 115.544 L
99.626 117.173 L
S
GR
GS
[0.78257 0 0 0.78197 0 0.22835] CT
1 LJ
0.639 LW
N
251.769 117.173 M
241.737 116.279 L
232.006 117.173 L
S
GR
GS
[0.78257 0 0 0.78197 0 0.22835] CT
1 LJ
0.639 LW
N
68.278 71.519 M
68.632 71.85 L
81.947 77.938 L
95.263 79.215 L
108.579 77.757 L
121.895 73.431 L
125.122 71.519 L
S
GR
GS
[0.78257 0 0 0.78197 0 0.22835] CT
1 LJ
0.639 LW
N
194.165 71.519 M
201.789 76.839 L
215.105 80.086 L
228.421 79.975 L
241.737 77.269 L
254.105 71.519 L
S
GR
GS
[0.78257 0 0 0.78197 0 0.22835] CT
1 LJ
0.639 LW
N
63.195 62.388 M
68.278 71.519 L
S
GR
GS
[0.78257 0 0 0.78197 0 0.22835] CT
1 LJ
0.639 LW
N
125.122 71.519 M
133.396 62.388 L
S
GR
GS
[0.78257 0 0 0.78197 0 0.22835] CT
1 LJ
0.639 LW
N
188.65 62.388 M
194.165 71.519 L
S
GR
GS
[0.78257 0 0 0.78197 0 0.22835] CT
1 LJ
0.639 LW
N
254.105 71.519 M
255.053 70.73 L
261.165 62.388 L
S
GR
GS
[0.78257 0 0 0.78197 0 0.22835] CT
1 LJ
0.639 LW
N
61.843 53.257 M
63.195 62.388 L
S
GR
GS
[0.78257 0 0 0.78197 0 0.22835] CT
1 LJ
0.639 LW
N
133.396 62.388 M
135.211 55.525 L
135.651 53.257 L
S
GR
GS
[0.78257 0 0 0.78197 0 0.22835] CT
1 LJ
0.639 LW
N
187.474 53.257 M
188.474 61.345 L
188.65 62.388 L
S
GR
GS
[0.78257 0 0 0.78197 0 0.22835] CT
1 LJ
0.639 LW
N
261.165 62.388 M
263.106 53.257 L
S
GR
GS
[0.78257 0 0 0.78197 0 0.22835] CT
1 LJ
0.639 LW
N
70.421 217.612 M
68.632 223.955 L
68.12 226.743 L
S
GR
GS
[0.78257 0 0 0.78197 0 0.22835] CT
1 LJ
0.639 LW
N
128.551 226.743 M
125.842 217.612 L
S
GR
GS
[0.78257 0 0 0.78197 0 0.22835] CT
1 LJ
0.639 LW
N
196.132 217.612 M
194.221 226.743 L
S
GR
GS
[0.78257 0 0 0.78197 0 0.22835] CT
1 LJ
0.639 LW
N
257.024 226.743 M
255.053 218.602 L
254.689 217.612 L
S
GR
GS
[0.78257 0 0 0.78197 0 0.22835] CT
1 LJ
0.639 LW
N
80.221 208.481 M
70.421 217.612 L
S
GR
GS
[0.78257 0 0 0.78197 0 0.22835] CT
1 LJ
0.639 LW
N
125.842 217.612 M
121.895 213.464 L
113.092 208.481 L
S
GR
GS
[0.78257 0 0 0.78197 0 0.22835] CT
1 LJ
0.639 LW
N
204.462 208.481 M
201.789 210.139 L
196.132 217.612 L
S
GR
GS
[0.78257 0 0 0.78197 0 0.22835] CT
1 LJ
0.639 LW
N
254.689 217.612 M
243.67 208.481 L
S
GR
GS
[0.78257 0 0 0.78197 0 0.22835] CT
1 LJ
0.639 LW
N
113.092 208.481 M
108.579 206.963 L
95.263 205.637 L
81.947 207.681 L
80.221 208.481 L
S
GR
GS
[0.78257 0 0 0.78197 0 0.22835] CT
1 LJ
0.639 LW
N
243.67 208.481 M
241.737 207.582 L
228.421 204.745 L
215.105 205.05 L
204.462 208.481 L
S
GR
GS
[0.78257 0 0 0.78197 0 0.22835] CT
1 LJ
0.639 LW
N
91.446 153.696 M
95.263 155.904 L
108.579 159.394 L
121.895 159.088 L
135.211 153.733 L
135.252 153.696 L
S
GR
GS
[0.78257 0 0 0.78197 0 0.22835] CT
1 LJ
0.639 LW
N
220.937 153.696 M
228.421 156.737 L
241.737 158.234 L
255.053 155.636 L
258.334 153.696 L
S
GR
GS
[0.78257 0 0 0.78197 0 0.22835] CT
1 LJ
0.639 LW
N
84.057 144.565 M
91.446 153.696 L
S
GR
GS
[0.78257 0 0 0.78197 0 0.22835] CT
1 LJ
0.639 LW
N
135.252 153.696 M
140.085 144.565 L
S
GR
GS
[0.78257 0 0 0.78197 0 0.22835] CT
1 LJ
0.639 LW
N
212.287 144.565 M
215.105 148.818 L
220.937 153.696 L
S
GR
GS
[0.78257 0 0 0.78197 0 0.22835] CT
1 LJ
0.639 LW
N
258.334 153.696 M
264.894 144.565 L
S
GR
GS
[0.78257 0 0 0.78197 0 0.22835] CT
1 LJ
0.639 LW
N
84.057 135.435 M
84.057 144.565 L
S
GR
GS
[0.78257 0 0 0.78197 0 0.22835] CT
1 LJ
0.639 LW
N
140.085 144.565 M
140.085 135.435 L
S
GR
GS
[0.78257 0 0 0.78197 0 0.22835] CT
1 LJ
0.639 LW
N
212.287 135.435 M
212.287 144.565 L
S
GR
GS
[0.78257 0 0 0.78197 0 0.22835] CT
1 LJ
0.639 LW
N
264.894 144.565 M
264.894 135.435 L
S
GR
GS
[0.78257 0 0 0.78197 0 0.22835] CT
1 LJ
0.639 LW
N
91.446 126.304 M
84.057 135.435 L
S
GR
GS
[0.78257 0 0 0.78197 0 0.22835] CT
1 LJ
0.639 LW
N
140.085 135.435 M
135.252 126.304 L
S
GR
GS
[0.78257 0 0 0.78197 0 0.22835] CT
1 LJ
0.639 LW
N
220.937 126.304 M
215.105 131.182 L
212.287 135.435 L
S
GR
GS
[0.78257 0 0 0.78197 0 0.22835] CT
1 LJ
0.639 LW
N
264.894 135.435 M
258.334 126.304 L
S
GR
GS
[0.78257 0 0 0.78197 0 0.22835] CT
1 LJ
0.639 LW
N
135.252 126.304 M
135.211 126.267 L
121.895 120.912 L
108.579 120.606 L
95.263 124.096 L
91.446 126.304 L
S
GR
GS
[0.78257 0 0 0.78197 0 0.22835] CT
1 LJ
0.639 LW
N
258.334 126.304 M
255.053 124.364 L
241.737 121.766 L
228.421 123.263 L
220.937 126.304 L
S
GR
GS
[0.78257 0 0 0.78197 0 0.22835] CT
1 LJ
0.639 LW
N
80.221 71.519 M
81.947 72.319 L
95.263 74.363 L
108.579 73.037 L
113.092 71.519 L
S
GR
GS
[0.78257 0 0 0.78197 0 0.22835] CT
1 LJ
0.639 LW
N
204.462 71.519 M
215.105 74.95 L
228.421 75.255 L
241.737 72.418 L
243.67 71.519 L
S
GR
GS
[0.78257 0 0 0.78197 0 0.22835] CT
1 LJ
0.639 LW
N
70.421 62.388 M
80.221 71.519 L
S
GR
GS
[0.78257 0 0 0.78197 0 0.22835] CT
1 LJ
0.639 LW
N
113.092 71.519 M
121.895 66.536 L
125.842 62.388 L
S
GR
GS
[0.78257 0 0 0.78197 0 0.22835] CT
1 LJ
0.639 LW
N
196.132 62.388 M
201.789 69.861 L
204.462 71.519 L
S
GR
GS
[0.78257 0 0 0.78197 0 0.22835] CT
1 LJ
0.639 LW
N
243.67 71.519 M
254.689 62.388 L
S
GR
GS
[0.78257 0 0 0.78197 0 0.22835] CT
1 LJ
0.639 LW
N
68.12 53.257 M
68.632 56.045 L
70.421 62.388 L
S
GR
GS
[0.78257 0 0 0.78197 0 0.22835] CT
1 LJ
0.639 LW
N
125.842 62.388 M
128.551 53.257 L
S
GR
GS
[0.78257 0 0 0.78197 0 0.22835] CT
1 LJ
0.639 LW
N
194.221 53.257 M
196.132 62.388 L
S
GR
GS
[0.78257 0 0 0.78197 0 0.22835] CT
1 LJ
0.639 LW
N
254.689 62.388 M
255.053 61.398 L
257.024 53.257 L
S
GR
GS
[0.78257 0 0 0.78197 0 0.22835] CT
1 LJ
0.639 LW
N
80.075 217.612 M
76.918 226.743 L
S
GR
GS
[0.78257 0 0 0.78197 0 0.22835] CT
1 LJ
0.639 LW
N
120.917 226.743 M
115.844 217.612 L
S
GR
GS
[0.78257 0 0 0.78197 0 0.22835] CT
1 LJ
0.639 LW
N
204.846 217.612 M
201.789 224.577 L
201.256 226.743 L
S
GR
GS
[0.78257 0 0 0.78197 0 0.22835] CT
1 LJ
0.639 LW
N
249.052 226.743 M
245.455 217.612 L
S
GR
GS
[0.78257 0 0 0.78197 0 0.22835] CT
1 LJ
0.639 LW
N
115.844 217.612 M
108.579 213.429 L
95.263 211.584 L
81.947 215.928 L
80.075 217.612 L
S
GR
GS
[0.78257 0 0 0.78197 0 0.22835] CT
1 LJ
0.639 LW
N
245.455 217.612 M
241.737 214.592 L
228.421 210.001 L
215.105 211.117 L
204.846 217.612 L
S
GR
GS
[0.78257 0 0 0.78197 0 0.22835] CT
1 LJ
0.639 LW
N
108.411 153.696 M
108.579 153.741 L
109.38 153.696 L
S
GR
GS
[0.78257 0 0 0.78197 0 0.22835] CT
1 LJ
0.639 LW
N
93.315 144.565 M
95.263 146.878 L
108.411 153.696 L
S
GR
GS
[0.78257 0 0 0.78197 0 0.22835] CT
1 LJ
0.639 LW
N
109.38 153.696 M
121.895 152.258 L
130.475 144.565 L
S
GR
GS
[0.78257 0 0 0.78197 0 0.22835] CT
1 LJ
0.639 LW
N
223.338 144.565 M
228.421 148.755 L
241.737 151.287 L
255.053 144.635 L
255.106 144.565 L
S
GR
GS
[0.78257 0 0 0.78197 0 0.22835] CT
1 LJ
0.639 LW
N
93.315 135.435 M
93.315 144.565 L
S
GR
GS
[0.78257 0 0 0.78197 0 0.22835] CT
1 LJ
0.639 LW
N
130.475 144.565 M
130.475 135.435 L
S
GR
GS
[0.78257 0 0 0.78197 0 0.22835] CT
1 LJ
0.639 LW
N
223.338 135.435 M
223.338 144.565 L
S
GR
GS
[0.78257 0 0 0.78197 0 0.22835] CT
1 LJ
0.639 LW
N
255.106 144.565 M
255.106 135.435 L
S
GR
GS
[0.78257 0 0 0.78197 0 0.22835] CT
1 LJ
0.639 LW
N
108.411 126.304 M
95.263 133.122 L
93.315 135.435 L
S
GR
GS
[0.78257 0 0 0.78197 0 0.22835] CT
1 LJ
0.639 LW
N
130.475 135.435 M
121.895 127.742 L
109.38 126.304 L
S
GR
GS
[0.78257 0 0 0.78197 0 0.22835] CT
1 LJ
0.639 LW
N
255.106 135.435 M
255.053 135.365 L
241.737 128.713 L
228.421 131.245 L
223.338 135.435 L
S
GR
GS
[0.78257 0 0 0.78197 0 0.22835] CT
1 LJ
0.639 LW
N
109.38 126.304 M
108.579 126.259 L
108.411 126.304 L
S
GR
GS
[0.78257 0 0 0.78197 0 0.22835] CT
1 LJ
0.639 LW
N
80.075 62.388 M
81.947 64.072 L
95.263 68.416 L
108.579 66.571 L
115.844 62.388 L
S
GR
GS
[0.78257 0 0 0.78197 0 0.22835] CT
1 LJ
0.639 LW
N
204.846 62.388 M
215.105 68.883 L
228.421 69.999 L
241.737 65.408 L
245.455 62.388 L
S
GR
GS
[0.78257 0 0 0.78197 0 0.22835] CT
1 LJ
0.639 LW
N
76.918 53.257 M
80.075 62.388 L
S
GR
GS
[0.78257 0 0 0.78197 0 0.22835] CT
1 LJ
0.639 LW
N
115.844 62.388 M
120.917 53.257 L
S
GR
GS
[0.78257 0 0 0.78197 0 0.22835] CT
1 LJ
0.639 LW
N
201.256 53.257 M
201.789 55.423 L
204.846 62.388 L
S
GR
GS
[0.78257 0 0 0.78197 0 0.22835] CT
1 LJ
0.639 LW
N
245.455 62.388 M
249.052 53.257 L
S
GR
GS
[0.78257 0 0 0.78197 0 0.22835] CT
1 LJ
0.639 LW
N
108.655 226.743 M
108.579 226.612 L
95.263 221.868 L
90.778 226.743 L
S
GR
GS
[0.78257 0 0 0.78197 0 0.22835] CT
1 LJ
0.639 LW
N
225.859 217.612 M
215.105 221.787 L
212.584 226.743 L
S
GR
GS
[0.78257 0 0 0.78197 0 0.22835] CT
1 LJ
0.639 LW
N
238.14 226.743 M
229.322 217.612 L
S
GR
GS
[0.78257 0 0 0.78197 0 0.22835] CT
1 LJ
0.639 LW
N
229.322 217.612 M
228.421 217.296 L
225.859 217.612 L
S
GR
GS
[0.78257 0 0 0.78197 0 0.22835] CT
1 LJ
0.639 LW
N
225.859 62.388 M
228.421 62.704 L
229.322 62.388 L
S
GR
GS
[0.78257 0 0 0.78197 0 0.22835] CT
1 LJ
0.639 LW
N
90.778 53.257 M
95.263 58.132 L
108.579 53.388 L
108.655 53.257 L
S
GR
GS
[0.78257 0 0 0.78197 0 0.22835] CT
1 LJ
0.639 LW
N
212.584 53.257 M
215.105 58.213 L
225.859 62.388 L
S
GR
GS
[0.78257 0 0 0.78197 0 0.22835] CT
1 LJ
0.639 LW
N
229.322 62.388 M
238.14 53.257 L
S
GR
GS
[0.78257 0 0 0.78197 0 0.22835] CT
1 0 0 RC
1 LJ
0.639 LW
N
63.421 186.93 M
69.481 182.557 L
66.192 189.267 L
S
GR
GS
[0.78257 0 0 0.78197 0 0.22835] CT
1 0 0 RC
1 LJ
0.639 LW
N
60.675 171.24 M
64.978 167.58 L
62.904 172.835 L
S
GR
GS
[0.78257 0 0 0.78197 0 0.22835] CT
1 0 0 RC
1 LJ
0.639 LW
N
58.566 159.347 M
60.724 158.3 L
59.313 160.24 L
S
GR
GS
[0.78257 0 0 0.78197 0 0.22835] CT
1 0 0 RC
1 LJ
0.639 LW
N
56.933 140.038 M
58.514 138.202 L
57.983 140.566 L
S
GR
GS
[0.78257 0 0 0.78197 0 0.22835] CT
1 0 0 RC
1 LJ
0.639 LW
N
56.768 116.214 M
59.278 111.733 L
59.173 116.868 L
S
GR
GS
[0.78257 0 0 0.78197 0 0.22835] CT
1 0 0 RC
1 LJ
0.639 LW
N
58.888 96.289 M
62.696 91.409 L
61.633 97.507 L
S
GR
GS
[0.78257 0 0 0.78197 0 0.22835] CT
1 0 0 RC
1 LJ
0.639 LW
N
62.398 80.963 M
67.325 78.099 L
64.326 82.945 L
S
GR
GS
[0.78257 0 0 0.78197 0 0.22835] CT
1 0 0 RC
1 LJ
0.639 LW
N
91.709 190.157 M
97.964 187.601 L
93.648 192.8 L
S
GR
GS
[0.78257 0 0 0.78197 0 0.22835] CT
1 0 0 RC
1 LJ
0.639 LW
N
84.28 175.697 M
86.354 173.584 L
85.519 176.424 L
S
GR
GS
[0.78257 0 0 0.78197 0 0.22835] CT
1 0 0 RC
1 LJ
0.639 LW
N
86.336 162.222 M
88.509 162.733 L
86.351 163.305 L
S
GR
GS
[0.78257 0 0 0.78197 0 0.22835] CT
1 0 0 RC
1 LJ
0.639 LW
N
89.556 138.626 M
94.209 137.21 L
90.769 140.649 L
S
GR
GS
[0.78257 0 0 0.78197 0 0.22835] CT
1 0 0 RC
1 LJ
0.639 LW
N
87.876 117.614 M
92.238 114.601 L
89.807 119.312 L
S
GR
GS
[0.78257 0 0 0.78197 0 0.22835] CT
1 0 0 RC
1 LJ
0.639 LW
N
82.021 100.473 M
83.426 96.927 L
83.855 100.717 L
S
GR
GS
[0.78257 0 0 0.78197 0 0.22835] CT
1 0 0 RC
1 LJ
0.639 LW
N
88.471 85.005 M
92.404 83.94 L
89.435 86.73 L
S
GR
GS
[0.78257 0 0 0.78197 0 0.22835] CT
1 0 0 RC
1 LJ
0.639 LW
N
115.712 195.895 M
119.692 195.562 L
116.337 197.729 L
S
GR
GS
[0.78257 0 0 0.78197 0 0.22835] CT
1 0 0 RC
1 LJ
0.639 LW
N
110.231 179.544 M
111.287 179.116 L
110.556 179.99 L
S
GR
GS
[0.78257 0 0 0.78197 0 0.22835] CT
1 0 0 RC
1 LJ
0.639 LW
N
118.572 156.902 M
124.343 155.925 L
119.711 159.503 L
S
GR
GS
[0.78257 0 0 0.78197 0 0.22835] CT
1 0 0 RC
1 LJ
0.639 LW
N
122.952 136.728 M
131.129 135.645 L
124.423 140.449 L
S
GR
GS
[0.78257 0 0 0.78197 0 0.22835] CT
1 0 0 RC
1 LJ
0.639 LW
N
121.523 119.828 M
128.782 119.127 L
122.707 123.162 L
S
GR
GS
[0.78257 0 0 0.78197 0 0.22835] CT
1 0 0 RC
1 LJ
0.639 LW
N
114.889 105.628 M
118.293 105.635 L
115.286 107.231 L
S
GR
GS
[0.78257 0 0 0.78197 0 0.22835] CT
1 0 0 RC
1 LJ
0.639 LW
N
111.311 87.146 M
113.073 86.402 L
111.869 87.888 L
S
GR
GS
[0.78257 0 0 0.78197 0 0.22835] CT
1 0 0 RC
1 LJ
0.639 LW
N
135.923 196.724 M
136.733 195.618 L
136.539 196.975 L
S
GR
GS
[0.78257 0 0 0.78197 0 0.22835] CT
1 0 0 RC
1 LJ
0.639 LW
N
140.125 173.052 M
143.891 170.163 L
141.928 174.485 L
S
GR
GS
[0.78257 0 0 0.78197 0 0.22835] CT
1 0 0 RC
1 LJ
0.639 LW
N
146.37 152.263 M
153.53 149.316 L
148.599 155.286 L
S
GR
GS
[0.78257 0 0 0.78197 0 0.22835] CT
1 0 0 RC
1 LJ
0.639 LW
N
149.983 135.673 M
158.539 134.166 L
151.699 139.523 L
S
GR
GS
[0.78257 0 0 0.78197 0 0.22835] CT
1 0 0 RC
1 LJ
0.639 LW
N
149.441 122.578 M
156.807 123.402 L
149.919 126.142 L
S
GR
GS
[0.78257 0 0 0.78197 0 0.22835] CT
1 0 0 RC
1 LJ
0.639 LW
N
144.012 103 M
149.063 102.222 L
144.972 105.286 L
S
GR
GS
[0.78257 0 0 0.78197 0 0.22835] CT
1 0 0 RC
1 LJ
0.639 LW
N
136.467 81.405 M
138.574 77.693 L
138.461 81.96 L
S
GR
GS
[0.78257 0 0 0.78197 0 0.22835] CT
1 0 0 RC
1 LJ
0.639 LW
N
167.047 193.512 M
170.552 191.709 L
168.308 194.949 L
S
GR
GS
[0.78257 0 0 0.78197 0 0.22835] CT
1 0 0 RC
1 LJ
0.639 LW
N
167.922 169.744 M
172.834 165.51 L
170.492 171.558 L
S
GR
GS
[0.78257 0 0 0.78197 0 0.22835] CT
1 0 0 RC
1 LJ
0.639 LW
N
169.254 150.388 M
174.991 145.881 L
172.05 152.558 L
S
GR
GS
[0.78257 0 0 0.78197 0 0.22835] CT
1 0 0 RC
1 LJ
0.639 LW
N
170.481 135.906 M
176.111 133.398 L
172.324 138.26 L
S
GR
GS
[0.78257 0 0 0.78197 0 0.22835] CT
1 0 0 RC
1 LJ
0.639 LW
N
171.087 124.704 M
175.724 125.625 L
171.199 126.994 L
S
GR
GS
[0.78257 0 0 0.78197 0 0.22835] CT
1 0 0 RC
1 LJ
0.639 LW
N
169.149 100.276 M
173.991 97.946 L
170.815 102.28 L
S
GR
GS
[0.78257 0 0 0.78197 0 0.22835] CT
1 0 0 RC
1 LJ
0.639 LW
N
167.039 77.841 M
171.645 73.167 L
169.78 79.458 L
S
GR
GS
[0.78257 0 0 0.78197 0 0.22835] CT
1 0 0 RC
1 LJ
0.639 LW
N
198.185 193.877 M
203.742 193.061 L
199.223 196.396 L
S
GR
GS
[0.78257 0 0 0.78197 0 0.22835] CT
1 0 0 RC
1 LJ
0.639 LW
N
193.129 171.014 M
197.142 167.119 L
195.434 172.444 L
S
GR
GS
[0.78257 0 0 0.78197 0 0.22835] CT
1 0 0 RC
1 LJ
0.639 LW
N
188.804 152.068 M
190.906 147.069 L
191.404 152.47 L
S
GR
GS
[0.78257 0 0 0.78197 0 0.22835] CT
1 0 0 RC
1 LJ
0.639 LW
N
188.116 137.195 M
189.282 133.664 L
189.914 137.328 L
S
GR
GS
[0.78257 0 0 0.78197 0 0.22835] CT
1 0 0 RC
1 LJ
0.639 LW
N
188.564 125.308 M
188.786 124.856 L
188.803 125.36 L
S
GR
GS
[0.78257 0 0 0.78197 0 0.22835] CT
1 0 0 RC
1 LJ
0.639 LW
N
191.329 101.83 M
193.796 99.425 L
192.751 102.708 L
S
GR
GS
[0.78257 0 0 0.78197 0 0.22835] CT
1 0 0 RC
1 LJ
0.639 LW
N
195.345 78.7 M
200.582 74.733 L
197.827 80.697 L
S
GR
GS
[0.78257 0 0 0.78197 0 0.22835] CT
1 0 0 RC
1 LJ
0.639 LW
N
225.395 197.915 M
230.494 199.103 L
225.436 200.454 L
S
GR
GS
[0.78257 0 0 0.78197 0 0.22835] CT
1 0 0 RC
1 LJ
0.639 LW
N
216.348 176.326 M
217.794 174.312 L
217.466 176.77 L
S
GR
GS
[0.78257 0 0 0.78197 0 0.22835] CT
1 0 0 RC
1 LJ
0.639 LW
N
220.48 155.059 M
224.414 152.378 L
222.204 156.594 L
S
GR
GS
[0.78257 0 0 0.78197 0 0.22835] CT
1 0 0 RC
1 LJ
0.639 LW
N
224.719 136.775 M
230.65 134.852 L
226.321 139.34 L
S
GR
GS
[0.78257 0 0 0.78197 0 0.22835] CT
1 0 0 RC
1 LJ
0.639 LW
N
223.672 121.928 M
228.493 121.421 L
224.478 124.137 L
S
GR
GS
[0.78257 0 0 0.78197 0 0.22835] CT
1 0 0 RC
1 LJ
0.639 LW
N
217.452 106.388 M
218.854 106.034 L
217.783 107.006 L
S
GR
GS
[0.78257 0 0 0.78197 0 0.22835] CT
1 0 0 RC
1 LJ
0.639 LW
N
220.677 83.618 M
224.412 81.729 L
222.005 85.154 L
S
GR
GS
[0.78257 0 0 0.78197 0 0.22835] CT
1 0 0 RC
1 LJ
0.639 LW
N
247.125 193.288 M
250.756 191.413 L
248.434 194.777 L
S
GR
GS
[0.78257 0 0 0.78197 0 0.22835] CT
1 0 0 RC
1 LJ
0.639 LW
N
244.457 178.736 M
246.162 178.123 L
244.946 179.467 L
S
GR
GS
[0.78257 0 0 0.78197 0 0.22835] CT
1 0 0 RC
1 LJ
0.639 LW
N
252.942 159.233 M
258.862 159.571 L
253.479 162.058 L
S
GR
GS
[0.78257 0 0 0.78197 0 0.22835] CT
1 0 0 RC
1 LJ
0.639 LW
N
256.964 137.178 M
265.462 136.461 L
258.302 141.093 L
S
GR
GS
[0.78257 0 0 0.78197 0 0.22835] CT
1 0 0 RC
1 LJ
0.639 LW
N
255.317 118.146 M
263.18 116.768 L
256.89 121.684 L
S
GR
GS
[0.78257 0 0 0.78197 0 0.22835] CT
1 0 0 RC
1 LJ
0.639 LW
N
248.694 102.462 M
252.976 101.097 L
249.84 104.316 L
S
GR
GS
[0.78257 0 0 0.78197 0 0.22835] CT
1 0 0 RC
1 LJ
0.639 LW
N
243.349 88.612 M
244.318 88.355 L
243.584 89.038 L
S
GR
GS
[0.78257 0 0 0.78197 0 0.22835] CT
1 0 0 RC
1 LJ
0.639 LW
N
267.92 189.331 M
269.522 184.538 L
270.364 189.521 L
S
GR
GS
[0.78257 0 0 0.78197 0 0.22835] CT
1 0 0 RC
1 LJ
0.639 LW
N
273.929 172.82 M
278.041 169.938 L
275.769 174.416 L
S
GR
GS
[0.78257 0 0 0.78197 0 0.22835] CT
1 0 0 RC
1 LJ
0.639 LW
N
280.01 159.499 M
286.087 160.041 L
280.47 162.422 L
S
GR
GS
[0.78257 0 0 0.78197 0 0.22835] CT
1 0 0 RC
1 LJ
0.639 LW
N
282.485 138.234 M
290.27 137.812 L
283.599 141.848 L
S
GR
GS
[0.78257 0 0 0.78197 0 0.22835] CT
1 0 0 RC
1 LJ
0.639 LW
N
280.964 115.609 M
288.823 112.859 L
283.182 118.984 L
S
GR
GS
[0.78257 0 0 0.78197 0 0.22835] CT
1 0 0 RC
1 LJ
0.639 LW
N
276.548 97.196 M
282.358 93.576 L
278.935 99.504 L
S
GR
GS
[0.78257 0 0 0.78197 0 0.22835] CT
1 0 0 RC
1 LJ
0.639 LW
N
271.1 83.059 M
273.602 80.393 L
272.649 83.923 L
S
GR
GS
[0.78257 0 0 0.78197 0 0.22835] CT
1 0 0 RC
1 LJ
0.639 LW
N
55.316 199.35 M
69.481 182.557 L
S
GR
GS
[0.78257 0 0 0.78197 0 0.22835] CT
1 0 0 RC
1 LJ
0.639 LW
N
55.316 181.089 M
64.978 167.58 L
S
GR
GS
[0.78257 0 0 0.78197 0 0.22835] CT
1 0 0 RC
1 LJ
0.639 LW
N
55.316 162.827 M
60.724 158.3 L
S
GR
GS
[0.78257 0 0 0.78197 0 0.22835] CT
1 0 0 RC
1 LJ
0.639 LW
N
55.316 144.565 M
58.514 138.202 L
S
GR
GS
[0.78257 0 0 0.78197 0 0.22835] CT
1 0 0 RC
1 LJ
0.639 LW
N
55.316 126.304 M
59.278 111.733 L
S
GR
GS
[0.78257 0 0 0.78197 0 0.22835] CT
1 0 0 RC
1 LJ
0.639 LW
N
55.316 108.042 M
62.696 91.409 L
S
GR
GS
[0.78257 0 0 0.78197 0 0.22835] CT
1 0 0 RC
1 LJ
0.639 LW
N
55.316 89.78 M
67.325 78.099 L
S
GR
GS
[0.78257 0 0 0.78197 0 0.22835] CT
1 0 0 RC
1 LJ
0.639 LW
N
81.947 199.35 M
97.964 187.601 L
S
GR
GS
[0.78257 0 0 0.78197 0 0.22835] CT
1 0 0 RC
1 LJ
0.639 LW
N
81.947 181.089 M
86.354 173.584 L
S
GR
GS
[0.78257 0 0 0.78197 0 0.22835] CT
1 0 0 RC
1 LJ
0.639 LW
N
81.947 162.827 M
88.509 162.733 L
S
GR
GS
[0.78257 0 0 0.78197 0 0.22835] CT
1 0 0 RC
1 LJ
0.639 LW
N
81.947 144.565 M
94.209 137.21 L
S
GR
GS
[0.78257 0 0 0.78197 0 0.22835] CT
1 0 0 RC
1 LJ
0.639 LW
N
81.947 126.304 M
92.238 114.601 L
S
GR
GS
[0.78257 0 0 0.78197 0 0.22835] CT
1 0 0 RC
1 LJ
0.639 LW
N
81.947 108.042 M
83.426 96.927 L
S
GR
GS
[0.78257 0 0 0.78197 0 0.22835] CT
1 0 0 RC
1 LJ
0.639 LW
N
81.947 89.78 M
92.404 83.94 L
S
GR
GS
[0.78257 0 0 0.78197 0 0.22835] CT
1 0 0 RC
1 LJ
0.639 LW
N
108.579 199.35 M
119.692 195.562 L
S
GR
GS
[0.78257 0 0 0.78197 0 0.22835] CT
1 0 0 RC
1 LJ
0.639 LW
N
108.579 181.089 M
111.287 179.116 L
S
GR
GS
[0.78257 0 0 0.78197 0 0.22835] CT
1 0 0 RC
1 LJ
0.639 LW
N
108.579 162.827 M
124.343 155.925 L
S
GR
GS
[0.78257 0 0 0.78197 0 0.22835] CT
1 0 0 RC
1 LJ
0.639 LW
N
108.579 144.565 M
131.129 135.645 L
S
GR
GS
[0.78257 0 0 0.78197 0 0.22835] CT
1 0 0 RC
1 LJ
0.639 LW
N
108.579 126.304 M
128.782 119.127 L
S
GR
GS
[0.78257 0 0 0.78197 0 0.22835] CT
1 0 0 RC
1 LJ
0.639 LW
N
108.579 108.042 M
118.293 105.635 L
S
GR
GS
[0.78257 0 0 0.78197 0 0.22835] CT
1 0 0 RC
1 LJ
0.639 LW
N
108.579 89.78 M
113.073 86.402 L
S
GR
GS
[0.78257 0 0 0.78197 0 0.22835] CT
1 0 0 RC
1 LJ
0.639 LW
N
135.211 199.35 M
136.733 195.618 L
S
GR
GS
[0.78257 0 0 0.78197 0 0.22835] CT
1 0 0 RC
1 LJ
0.639 LW
N
135.211 181.089 M
143.891 170.163 L
S
GR
GS
[0.78257 0 0 0.78197 0 0.22835] CT
1 0 0 RC
1 LJ
0.639 LW
N
135.211 162.827 M
153.53 149.316 L
S
GR
GS
[0.78257 0 0 0.78197 0 0.22835] CT
1 0 0 RC
1 LJ
0.639 LW
N
135.211 144.565 M
158.539 134.166 L
S
GR
GS
[0.78257 0 0 0.78197 0 0.22835] CT
1 0 0 RC
1 LJ
0.639 LW
N
135.211 126.304 M
156.807 123.402 L
S
GR
GS
[0.78257 0 0 0.78197 0 0.22835] CT
1 0 0 RC
1 LJ
0.639 LW
N
135.211 108.042 M
149.063 102.222 L
S
GR
GS
[0.78257 0 0 0.78197 0 0.22835] CT
1 0 0 RC
1 LJ
0.639 LW
N
135.211 89.78 M
138.574 77.693 L
S
GR
GS
[0.78257 0 0 0.78197 0 0.22835] CT
1 0 0 RC
1 LJ
0.639 LW
N
161.842 199.35 M
170.552 191.709 L
S
GR
GS
[0.78257 0 0 0.78197 0 0.22835] CT
1 0 0 RC
1 LJ
0.639 LW
N
161.842 181.089 M
172.834 165.51 L
S
GR
GS
[0.78257 0 0 0.78197 0 0.22835] CT
1 0 0 RC
1 LJ
0.639 LW
N
161.842 162.827 M
174.991 145.881 L
S
GR
GS
[0.78257 0 0 0.78197 0 0.22835] CT
1 0 0 RC
1 LJ
0.639 LW
N
161.842 144.565 M
176.111 133.398 L
S
GR
GS
[0.78257 0 0 0.78197 0 0.22835] CT
1 0 0 RC
1 LJ
0.639 LW
N
161.842 126.304 M
175.724 125.625 L
S
GR
GS
[0.78257 0 0 0.78197 0 0.22835] CT
1 0 0 RC
1 LJ
0.639 LW
N
161.842 108.042 M
173.991 97.946 L
S
GR
GS
[0.78257 0 0 0.78197 0 0.22835] CT
1 0 0 RC
1 LJ
0.639 LW
N
161.842 89.78 M
171.645 73.167 L
S
GR
GS
[0.78257 0 0 0.78197 0 0.22835] CT
1 0 0 RC
1 LJ
0.639 LW
N
188.474 199.35 M
203.742 193.061 L
S
GR
GS
[0.78257 0 0 0.78197 0 0.22835] CT
1 0 0 RC
1 LJ
0.639 LW
N
188.474 181.089 M
197.142 167.119 L
S
GR
GS
[0.78257 0 0 0.78197 0 0.22835] CT
1 0 0 RC
1 LJ
0.639 LW
N
188.474 162.827 M
190.906 147.069 L
S
GR
GS
[0.78257 0 0 0.78197 0 0.22835] CT
1 0 0 RC
1 LJ
0.639 LW
N
188.474 144.565 M
189.282 133.664 L
S
GR
GS
[0.78257 0 0 0.78197 0 0.22835] CT
1 0 0 RC
1 LJ
0.639 LW
N
188.474 126.304 M
188.786 124.856 L
S
GR
GS
[0.78257 0 0 0.78197 0 0.22835] CT
1 0 0 RC
1 LJ
0.639 LW
N
188.474 108.042 M
193.796 99.425 L
S
GR
GS
[0.78257 0 0 0.78197 0 0.22835] CT
1 0 0 RC
1 LJ
0.639 LW
N
188.474 89.78 M
200.582 74.733 L
S
GR
GS
[0.78257 0 0 0.78197 0 0.22835] CT
1 0 0 RC
1 LJ
0.639 LW
N
215.105 199.35 M
230.494 199.103 L
S
GR
GS
[0.78257 0 0 0.78197 0 0.22835] CT
1 0 0 RC
1 LJ
0.639 LW
N
215.105 181.089 M
217.794 174.312 L
S
GR
GS
[0.78257 0 0 0.78197 0 0.22835] CT
1 0 0 RC
1 LJ
0.639 LW
N
215.105 162.827 M
224.414 152.378 L
S
GR
GS
[0.78257 0 0 0.78197 0 0.22835] CT
1 0 0 RC
1 LJ
0.639 LW
N
215.105 144.565 M
230.65 134.852 L
S
GR
GS
[0.78257 0 0 0.78197 0 0.22835] CT
1 0 0 RC
1 LJ
0.639 LW
N
215.105 126.304 M
228.493 121.421 L
S
GR
GS
[0.78257 0 0 0.78197 0 0.22835] CT
1 0 0 RC
1 LJ
0.639 LW
N
215.105 108.042 M
218.854 106.034 L
S
GR
GS
[0.78257 0 0 0.78197 0 0.22835] CT
1 0 0 RC
1 LJ
0.639 LW
N
215.105 89.78 M
224.412 81.729 L
S
GR
GS
[0.78257 0 0 0.78197 0 0.22835] CT
1 0 0 RC
1 LJ
0.639 LW
N
241.737 199.35 M
250.756 191.413 L
S
GR
GS
[0.78257 0 0 0.78197 0 0.22835] CT
1 0 0 RC
1 LJ
0.639 LW
N
241.737 181.089 M
246.162 178.123 L
S
GR
GS
[0.78257 0 0 0.78197 0 0.22835] CT
1 0 0 RC
1 LJ
0.639 LW
N
241.737 162.827 M
258.862 159.571 L
S
GR
GS
[0.78257 0 0 0.78197 0 0.22835] CT
1 0 0 RC
1 LJ
0.639 LW
N
241.737 144.565 M
265.462 136.461 L
S
GR
GS
[0.78257 0 0 0.78197 0 0.22835] CT
1 0 0 RC
1 LJ
0.639 LW
N
241.737 126.304 M
263.18 116.768 L
S
GR
GS
[0.78257 0 0 0.78197 0 0.22835] CT
1 0 0 RC
1 LJ
0.639 LW
N
241.737 108.042 M
252.976 101.097 L
S
GR
GS
[0.78257 0 0 0.78197 0 0.22835] CT
1 0 0 RC
1 LJ
0.639 LW
N
241.737 89.78 M
244.318 88.355 L
S
GR
GS
[0.78257 0 0 0.78197 0 0.22835] CT
1 0 0 RC
1 LJ
0.639 LW
N
268.368 199.35 M
269.522 184.538 L
S
GR
GS
[0.78257 0 0 0.78197 0 0.22835] CT
1 0 0 RC
1 LJ
0.639 LW
N
268.368 181.089 M
278.041 169.938 L
S
GR
GS
[0.78257 0 0 0.78197 0 0.22835] CT
1 0 0 RC
1 LJ
0.639 LW
N
268.368 162.827 M
286.087 160.041 L
S
GR
GS
[0.78257 0 0 0.78197 0 0.22835] CT
1 0 0 RC
1 LJ
0.639 LW
N
268.368 144.565 M
290.27 137.812 L
S
GR
GS
[0.78257 0 0 0.78197 0 0.22835] CT
1 0 0 RC
1 LJ
0.639 LW
N
268.368 126.304 M
288.823 112.859 L
S
GR
GS
[0.78257 0 0 0.78197 0 0.22835] CT
1 0 0 RC
1 LJ
0.639 LW
N
268.368 108.042 M
282.358 93.576 L
S
GR
GS
[0.78257 0 0 0.78197 0 0.22835] CT
1 0 0 RC
1 LJ
0.639 LW
N
268.368 89.78 M
273.602 80.393 L
S
GR
GS
[0.78257 0 0 0.78197 0 0.22835] CT
0.149 GC
2 setlinecap
1 LJ
0.639 LW
N
42 226.743 M
295 226.743 L
S
GR
GS
[0.78257 0 0 0.78197 0 0.22835] CT
0.149 GC
2 setlinecap
1 LJ
0.639 LW
N
42 53.257 M
295 53.257 L
S
GR
GS
[0.78257 0 0 0.78197 131.86329 180.93196] CT
0.149 GC
N
-4.776 18.664 M
-4.369 18.976 -3.635 18.976 QT
-2.916 18.976 -2.362 18.281 QT
-1.807 17.586 -1.604 16.773 QT
-0.557 12.695 L
-0.323 11.586 -0.323 11.179 QT
-0.323 10.601 -0.643 10.179 QT
-0.963 9.757 -1.526 9.757 QT
-2.26 9.757 -2.901 10.211 QT
-3.541 10.664 -3.979 11.367 QT
-4.416 12.07 -4.588 12.789 QT
-4.635 12.929 -4.776 12.929 QT
-5.057 12.929 L
-5.229 12.929 -5.229 12.711 QT
-5.229 12.648 L
-5.01 11.789 -4.471 10.976 QT
-3.932 10.164 -3.151 9.664 QT
-2.369 9.164 -1.479 9.164 QT
-0.635 9.164 0.037 9.609 QT
0.709 10.054 0.99 10.836 QT
1.396 10.117 2.006 9.64 QT
2.615 9.164 3.349 9.164 QT
3.834 9.164 4.349 9.336 QT
4.865 9.507 5.193 9.867 QT
5.521 10.226 5.521 10.757 QT
5.521 11.351 5.146 11.773 QT
4.771 12.195 4.193 12.195 QT
3.818 12.195 3.568 11.953 QT
3.318 11.711 3.318 11.351 QT
3.318 10.867 3.654 10.507 QT
3.99 10.148 4.443 10.07 QT
4.037 9.757 3.302 9.757 QT
2.552 9.757 2.013 10.437 QT
1.474 11.117 1.24 11.961 QT
0.24 16.023 L
-0.01 16.945 -0.01 17.539 QT
-0.01 18.132 0.318 18.554 QT
0.646 18.976 1.193 18.976 QT
2.271 18.976 3.123 18.023 QT
3.974 17.07 4.24 15.945 QT
4.287 15.804 4.427 15.804 QT
4.709 15.804 L
4.787 15.804 4.849 15.867 QT
4.912 15.929 4.912 16.007 QT
4.912 16.023 4.881 16.07 QT
4.552 17.445 3.513 18.515 QT
2.474 19.586 1.162 19.586 QT
0.318 19.586 -0.362 19.125 QT
-1.041 18.664 -1.323 17.898 QT
-1.682 18.57 -2.323 19.078 QT
-2.963 19.586 -3.682 19.586 QT
-4.166 19.586 -4.69 19.406 QT
-5.213 19.226 -5.541 18.867 QT
-5.869 18.507 -5.869 17.961 QT
-5.869 17.429 -5.494 16.984 QT
-5.119 16.539 -4.557 16.539 QT
-4.166 16.539 -3.908 16.765 QT
-3.651 16.992 -3.651 17.367 QT
-3.651 17.851 -3.971 18.211 QT
-4.291 18.57 -4.776 18.664 QT
cp
f
GR
GS
[0.78257 0 0 0.78197 0 0.22835] CT
0.149 GC
2 setlinecap
1 LJ
0.639 LW
N
42 226.743 M
42 53.257 L
S
GR
GS
[0.78257 0 0 0.78197 0 0.22835] CT
0.149 GC
2 setlinecap
1 LJ
0.639 LW
N
295 226.743 M
295 53.257 L
S
GR
GS
[0 -0.78197 0.78257 0 29.46814 109.70425] CT
0.149 GC
N
-4.729 -8.014 M
-4.916 -8.014 -4.916 -8.233 QT
-4.916 -8.343 -4.869 -8.389 QT
-4.244 -9.452 -3.377 -10.429 QT
-2.51 -11.405 -1.401 -12.397 QT
-0.291 -13.389 0.826 -14.389 QT
1.943 -15.389 2.631 -16.171 QT
2.552 -16.171 L
2.037 -16.171 1.06 -16.491 QT
0.084 -16.811 -0.479 -16.811 QT
-1.088 -16.811 -1.659 -16.546 QT
-2.229 -16.28 -2.385 -15.733 QT
-2.416 -15.561 -2.557 -15.561 QT
-2.838 -15.561 L
-3.026 -15.561 -3.026 -15.811 QT
-3.026 -15.874 L
-2.838 -16.546 -2.432 -17.132 QT
-2.026 -17.718 -1.424 -18.077 QT
-0.823 -18.436 -0.166 -18.436 QT
0.287 -18.436 0.591 -18.233 QT
0.896 -18.03 1.302 -17.593 QT
1.709 -17.155 1.959 -16.96 QT
2.209 -16.764 2.599 -16.764 QT
3.099 -16.764 3.498 -17.225 QT
3.896 -17.686 4.287 -18.374 QT
4.349 -18.436 4.459 -18.436 QT
4.724 -18.436 L
4.802 -18.436 4.857 -18.382 QT
4.912 -18.327 4.912 -18.249 QT
4.912 -18.171 4.865 -18.093 QT
4.24 -17.03 3.42 -16.1 QT
2.599 -15.171 1.263 -13.975 QT
-0.073 -12.78 -0.987 -11.96 QT
-1.901 -11.139 -2.698 -10.264 QT
-2.526 -10.296 -2.213 -10.296 QT
-1.651 -10.296 -0.682 -9.975 QT
0.287 -9.655 0.818 -9.655 QT
1.396 -9.655 1.974 -9.905 QT
2.552 -10.155 2.982 -10.608 QT
3.412 -11.061 3.552 -11.639 QT
3.615 -11.796 3.74 -11.796 QT
4.021 -11.796 L
4.115 -11.796 4.17 -11.725 QT
4.224 -11.655 4.224 -11.577 QT
4.224 -11.546 4.193 -11.499 QT
3.99 -10.624 3.459 -9.835 QT
2.927 -9.046 2.162 -8.53 QT
1.396 -8.014 0.521 -8.014 QT
0.084 -8.014 -0.221 -8.218 QT
-0.526 -8.421 -0.94 -8.866 QT
-1.354 -9.311 -1.612 -9.507 QT
-1.869 -9.702 -2.244 -9.702 QT
-3.385 -9.702 -4.291 -8.093 QT
-4.369 -8.014 -4.448 -8.014 QT
-4.729 -8.014 L
cp
f
GR
%%Trailer
%%Pages: 1
%%EOF
