%!PS-Adobe-3.0 EPSF-3.0
%%Creator: (MATLAB, The Mathworks, Inc. Version 9.10.0.1684407 \(R2021a\) Update 3. Operating System: Linux)
%%Title: /home/adoan/Code/PRoSA_PI-ESN_Git/pi-esn/Results/MFE_results_Noise/Figures/FIG11C.eps
%%CreationDate: 2021-07-21T18:57:20
%%Pages: (atend)
%%BoundingBox:     0     0   198   198
%%LanguageLevel: 3
%%EndComments
%%BeginProlog
%%BeginResource: procset (Apache XML Graphics Std ProcSet) 1.2 0
%%Version: 1.2 0
%%Copyright: (Copyright 2001-2003,2010 The Apache Software Foundation. License terms: http://www.apache.org/licenses/LICENSE-2.0)
/bd{bind def}bind def
/ld{load def}bd
/GR/grestore ld
/GS/gsave ld
/RM/rmoveto ld
/C/curveto ld
/t/show ld
/L/lineto ld
/ML/setmiterlimit ld
/CT/concat ld
/f/fill ld
/N/newpath ld
/S/stroke ld
/CC/setcmykcolor ld
/A/ashow ld
/cp/closepath ld
/RC/setrgbcolor ld
/LJ/setlinejoin ld
/GC/setgray ld
/LW/setlinewidth ld
/M/moveto ld
/re {4 2 roll M
1 index 0 rlineto
0 exch rlineto
neg 0 rlineto
cp } bd
/_ctm matrix def
/_tm matrix def
/BT { _ctm currentmatrix pop matrix _tm copy pop 0 0 moveto } bd
/ET { _ctm setmatrix } bd
/iTm { _ctm setmatrix _tm concat } bd
/Tm { _tm astore pop iTm 0 0 moveto } bd
/ux 0.0 def
/uy 0.0 def
/F {
  /Tp exch def
  /Tf exch def
  Tf findfont Tp scalefont setfont
  /cf Tf def  /cs Tp def
} bd
/ULS {currentpoint /uy exch def /ux exch def} bd
/ULE {
  /Tcx currentpoint pop def
  gsave
  newpath
  cf findfont cs scalefont dup
  /FontMatrix get 0 get /Ts exch def /FontInfo get dup
  /UnderlinePosition get Ts mul /To exch def
  /UnderlineThickness get Ts mul /Tt exch def
  ux uy To add moveto  Tcx uy To add lineto
  Tt setlinewidth stroke
  grestore
} bd
/OLE {
  /Tcx currentpoint pop def
  gsave
  newpath
  cf findfont cs scalefont dup
  /FontMatrix get 0 get /Ts exch def /FontInfo get dup
  /UnderlinePosition get Ts mul /To exch def
  /UnderlineThickness get Ts mul /Tt exch def
  ux uy To add cs add moveto Tcx uy To add cs add lineto
  Tt setlinewidth stroke
  grestore
} bd
/SOE {
  /Tcx currentpoint pop def
  gsave
  newpath
  cf findfont cs scalefont dup
  /FontMatrix get 0 get /Ts exch def /FontInfo get dup
  /UnderlinePosition get Ts mul /To exch def
  /UnderlineThickness get Ts mul /Tt exch def
  ux uy To add cs 10 mul 26 idiv add moveto Tcx uy To add cs 10 mul 26 idiv add lineto
  Tt setlinewidth stroke
  grestore
} bd
/QT {
/Y22 exch store
/X22 exch store
/Y21 exch store
/X21 exch store
currentpoint
/Y21 load 2 mul add 3 div exch
/X21 load 2 mul add 3 div exch
/X21 load 2 mul /X22 load add 3 div
/Y21 load 2 mul /Y22 load add 3 div
/X22 load /Y22 load curveto
} bd
/SSPD {
dup length /d exch dict def
{
/v exch def
/k exch def
currentpagedevice k known {
/cpdv currentpagedevice k get def
v cpdv ne {
/upd false def
/nullv v type /nulltype eq def
/nullcpdv cpdv type /nulltype eq def
nullv nullcpdv or
{
/upd true def
} {
/sametype v type cpdv type eq def
sametype {
v type /arraytype eq {
/vlen v length def
/cpdvlen cpdv length def
vlen cpdvlen eq {
0 1 vlen 1 sub {
/i exch def
/obj v i get def
/cpdobj cpdv i get def
obj cpdobj ne {
/upd true def
exit
} if
} for
} {
/upd true def
} ifelse
} {
v type /dicttype eq {
v {
/dv exch def
/dk exch def
/cpddv cpdv dk get def
dv cpddv ne {
/upd true def
exit
} if
} forall
} {
/upd true def
} ifelse
} ifelse
} if
} ifelse
upd true eq {
d k v put
} if
} if
} if
} forall
d length 0 gt {
d setpagedevice
} if
} bd
/RE { % /NewFontName [NewEncodingArray] /FontName RE -
  findfont dup length dict begin
  {
    1 index /FID ne
    {def} {pop pop} ifelse
  } forall
  /Encoding exch def
  /FontName 1 index def
  currentdict definefont pop
  end
} bind def
%%EndResource
%%BeginResource: procset (Apache XML Graphics EPS ProcSet) 1.0 0
%%Version: 1.0 0
%%Copyright: (Copyright 2002-2003 The Apache Software Foundation. License terms: http://www.apache.org/licenses/LICENSE-2.0)
/BeginEPSF { %def
/b4_Inc_state save def         % Save state for cleanup
/dict_count countdictstack def % Count objects on dict stack
/op_count count 1 sub def      % Count objects on operand stack
userdict begin                 % Push userdict on dict stack
/showpage { } def              % Redefine showpage, { } = null proc
0 setgray 0 setlinecap         % Prepare graphics state
1 setlinewidth 0 setlinejoin
10 setmiterlimit [ ] 0 setdash newpath
/languagelevel where           % If level not equal to 1 then
{pop languagelevel             % set strokeadjust and
1 ne                           % overprint to their defaults.
{false setstrokeadjust false setoverprint
} if
} if
} bd
/EndEPSF { %def
count op_count sub {pop} repeat            % Clean up stacks
countdictstack dict_count sub {end} repeat
b4_Inc_state restore
} bd
%%EndResource
%FOPBeginFontDict
%%IncludeResource: font Courier-Oblique
%%IncludeResource: font Courier-BoldOblique
%%IncludeResource: font Courier-Bold
%%IncludeResource: font ZapfDingbats
%%IncludeResource: font Symbol
%%IncludeResource: font Helvetica
%%IncludeResource: font Helvetica-Oblique
%%IncludeResource: font Helvetica-Bold
%%IncludeResource: font Helvetica-BoldOblique
%%IncludeResource: font Times-Roman
%%IncludeResource: font Times-Italic
%%IncludeResource: font Times-Bold
%%IncludeResource: font Times-BoldItalic
%%IncludeResource: font Courier
%FOPEndFontDict
%%BeginResource: encoding WinAnsiEncoding
/WinAnsiEncoding [
/.notdef /.notdef /.notdef /.notdef /.notdef
/.notdef /.notdef /.notdef /.notdef /.notdef
/.notdef /.notdef /.notdef /.notdef /.notdef
/.notdef /.notdef /.notdef /.notdef /.notdef
/.notdef /.notdef /.notdef /.notdef /.notdef
/.notdef /.notdef /.notdef /.notdef /.notdef
/.notdef /.notdef /space /exclam /quotedbl
/numbersign /dollar /percent /ampersand /quotesingle
/parenleft /parenright /asterisk /plus /comma
/hyphen /period /slash /zero /one
/two /three /four /five /six
/seven /eight /nine /colon /semicolon
/less /equal /greater /question /at
/A /B /C /D /E
/F /G /H /I /J
/K /L /M /N /O
/P /Q /R /S /T
/U /V /W /X /Y
/Z /bracketleft /backslash /bracketright /asciicircum
/underscore /quoteleft /a /b /c
/d /e /f /g /h
/i /j /k /l /m
/n /o /p /q /r
/s /t /u /v /w
/x /y /z /braceleft /bar
/braceright /asciitilde /bullet /Euro /bullet
/quotesinglbase /florin /quotedblbase /ellipsis /dagger
/daggerdbl /circumflex /perthousand /Scaron /guilsinglleft
/OE /bullet /Zcaron /bullet /bullet
/quoteleft /quoteright /quotedblleft /quotedblright /bullet
/endash /emdash /asciitilde /trademark /scaron
/guilsinglright /oe /bullet /zcaron /Ydieresis
/space /exclamdown /cent /sterling /currency
/yen /brokenbar /section /dieresis /copyright
/ordfeminine /guillemotleft /logicalnot /sfthyphen /registered
/macron /degree /plusminus /twosuperior /threesuperior
/acute /mu /paragraph /middot /cedilla
/onesuperior /ordmasculine /guillemotright /onequarter /onehalf
/threequarters /questiondown /Agrave /Aacute /Acircumflex
/Atilde /Adieresis /Aring /AE /Ccedilla
/Egrave /Eacute /Ecircumflex /Edieresis /Igrave
/Iacute /Icircumflex /Idieresis /Eth /Ntilde
/Ograve /Oacute /Ocircumflex /Otilde /Odieresis
/multiply /Oslash /Ugrave /Uacute /Ucircumflex
/Udieresis /Yacute /Thorn /germandbls /agrave
/aacute /acircumflex /atilde /adieresis /aring
/ae /ccedilla /egrave /eacute /ecircumflex
/edieresis /igrave /iacute /icircumflex /idieresis
/eth /ntilde /ograve /oacute /ocircumflex
/otilde /odieresis /divide /oslash /ugrave
/uacute /ucircumflex /udieresis /yacute /thorn
/ydieresis
] def
%%EndResource
%FOPBeginFontReencode
/Courier-Oblique findfont
dup length dict begin
  {1 index /FID ne {def} {pop pop} ifelse} forall
  /Encoding WinAnsiEncoding def
  currentdict
end
/Courier-Oblique exch definefont pop
/Courier-BoldOblique findfont
dup length dict begin
  {1 index /FID ne {def} {pop pop} ifelse} forall
  /Encoding WinAnsiEncoding def
  currentdict
end
/Courier-BoldOblique exch definefont pop
/Courier-Bold findfont
dup length dict begin
  {1 index /FID ne {def} {pop pop} ifelse} forall
  /Encoding WinAnsiEncoding def
  currentdict
end
/Courier-Bold exch definefont pop
/Helvetica findfont
dup length dict begin
  {1 index /FID ne {def} {pop pop} ifelse} forall
  /Encoding WinAnsiEncoding def
  currentdict
end
/Helvetica exch definefont pop
/Helvetica-Oblique findfont
dup length dict begin
  {1 index /FID ne {def} {pop pop} ifelse} forall
  /Encoding WinAnsiEncoding def
  currentdict
end
/Helvetica-Oblique exch definefont pop
/Helvetica-Bold findfont
dup length dict begin
  {1 index /FID ne {def} {pop pop} ifelse} forall
  /Encoding WinAnsiEncoding def
  currentdict
end
/Helvetica-Bold exch definefont pop
/Helvetica-BoldOblique findfont
dup length dict begin
  {1 index /FID ne {def} {pop pop} ifelse} forall
  /Encoding WinAnsiEncoding def
  currentdict
end
/Helvetica-BoldOblique exch definefont pop
/Times-Roman findfont
dup length dict begin
  {1 index /FID ne {def} {pop pop} ifelse} forall
  /Encoding WinAnsiEncoding def
  currentdict
end
/Times-Roman exch definefont pop
/Times-Italic findfont
dup length dict begin
  {1 index /FID ne {def} {pop pop} ifelse} forall
  /Encoding WinAnsiEncoding def
  currentdict
end
/Times-Italic exch definefont pop
/Times-Bold findfont
dup length dict begin
  {1 index /FID ne {def} {pop pop} ifelse} forall
  /Encoding WinAnsiEncoding def
  currentdict
end
/Times-Bold exch definefont pop
/Times-BoldItalic findfont
dup length dict begin
  {1 index /FID ne {def} {pop pop} ifelse} forall
  /Encoding WinAnsiEncoding def
  currentdict
end
/Times-BoldItalic exch definefont pop
/Courier findfont
dup length dict begin
  {1 index /FID ne {def} {pop pop} ifelse} forall
  /Encoding WinAnsiEncoding def
  currentdict
end
/Courier exch definefont pop
%FOPEndFontReencode
%%EndProlog
%%Page: 1 1
%%PageBoundingBox: 0 0 198 198
%%BeginPageSetup
[1 0 0 -1 0 198] CT
%%EndPageSetup
GS
[0.7812 0 0 0.7812 0 -0.4252] CT
1 GC
N
0 0 254 254 re
f
GR
GS
[0.7812 0 0 0.7812 0 -0.4252] CT
1 GC
N
0 0 254 254 re
f
GR
GS
[0.7812 0 0 0.7812 0 -0.4252] CT
1 GC
N
56 207 M
230 207 L
230 19 L
56 19 L
cp
f
GR
GS
[0.7812 0 0 0.7812 0 -0.4252] CT
0.149 GC
2 setlinecap
1 LJ
0.639 LW
N
56 207 M
230 207 L
S
GR
GS
[0.7812 0 0 0.7812 0 -0.4252] CT
0.149 GC
2 setlinecap
1 LJ
0.639 LW
N
56 19 M
230 19 L
S
GR
GS
[0.7812 0 0 0.7812 0 -0.4252] CT
0.149 GC
2 setlinecap
1 LJ
0.639 LW
N
85 207 M
85 205.12 L
S
GR
GS
[0.7812 0 0 0.7812 0 -0.4252] CT
0.149 GC
2 setlinecap
1 LJ
0.639 LW
N
143 207 M
143 205.12 L
S
GR
GS
[0.7812 0 0 0.7812 0 -0.4252] CT
0.149 GC
2 setlinecap
1 LJ
0.639 LW
N
201 207 M
201 205.12 L
S
GR
GS
[0.7812 0 0 0.7812 0 -0.4252] CT
0.149 GC
2 setlinecap
1 LJ
0.639 LW
N
85 19 M
85 20.88 L
S
GR
GS
[0.7812 0 0 0.7812 0 -0.4252] CT
0.149 GC
2 setlinecap
1 LJ
0.639 LW
N
143 19 M
143 20.88 L
S
GR
GS
[0.7812 0 0 0.7812 0 -0.4252] CT
0.149 GC
2 setlinecap
1 LJ
0.639 LW
N
201 19 M
201 20.88 L
S
GR
GS
[0.7812 0 0 0.7812 66.40213 165.67562] CT
0.149 GC
N
-6.217 10.099 M
-6.217 9.177 L
-2.248 9.177 L
-2.248 10.099 L
-6.217 10.099 L
cp
f
GR
GS
[0.7812 0 0 0.7812 66.40213 165.67562] CT
0.149 GC
N
-0.856 10.411 M
-0.856 9.88 L
3.769 2.958 L
3.832 2.896 3.925 2.896 QT
4.144 2.896 L
4.316 2.896 4.316 3.052 QT
4.316 9.88 L
5.785 9.88 L
5.785 10.411 L
4.316 10.411 L
4.316 11.88 L
4.316 12.177 4.753 12.263 QT
5.191 12.349 5.769 12.349 QT
5.769 12.88 L
1.644 12.88 L
1.644 12.349 L
2.222 12.349 2.66 12.263 QT
3.097 12.177 3.097 11.88 QT
3.097 10.411 L
-0.856 10.411 L
cp
-0.356 9.88 M
3.191 9.88 L
3.191 4.567 L
-0.356 9.88 L
cp
f
GR
GS
[0.7812 0 0 0.7812 111.71183 165.67562] CT
0.149 GC
N
/f-701829572{-6.217 10.099 M
-6.217 9.177 L
-2.248 9.177 L
-2.248 10.099 L
-6.217 10.099 L
cp}def
f-701829572
f
GR
GS
[0.7812 0 0 0.7812 111.71183 165.67562] CT
0.149 GC
N
/f1024818669{-0.528 12.88 M
-0.528 12.474 L
-0.528 12.442 -0.497 12.396 QT
1.832 9.817 L
2.363 9.239 2.691 8.857 QT
3.019 8.474 3.339 7.966 QT
3.66 7.458 3.847 6.935 QT
4.035 6.411 4.035 5.833 QT
4.035 5.208 3.808 4.646 QT
3.582 4.083 3.128 3.747 QT
2.675 3.411 2.035 3.411 QT
1.394 3.411 0.871 3.81 QT
0.347 4.208 0.128 4.817 QT
0.191 4.802 0.3 4.802 QT
0.628 4.802 0.871 5.028 QT
1.113 5.255 1.113 5.614 QT
1.113 5.958 0.871 6.2 QT
0.628 6.442 0.3 6.442 QT
-0.059 6.442 -0.293 6.2 QT
-0.528 5.958 -0.528 5.614 QT
-0.528 5.052 -0.317 4.56 QT
-0.106 4.067 0.293 3.685 QT
0.691 3.302 1.191 3.099 QT
1.691 2.896 2.253 2.896 QT
3.113 2.896 3.855 3.255 QT
4.597 3.614 5.027 4.278 QT
5.457 4.942 5.457 5.833 QT
5.457 6.474 5.175 7.06 QT
4.894 7.646 4.449 8.13 QT
4.003 8.614 3.3 9.224 QT
2.597 9.833 2.378 10.036 QT
0.691 11.661 L
2.128 11.661 L
3.191 11.661 3.902 11.646 QT
4.613 11.63 4.66 11.583 QT
4.832 11.396 5.019 10.208 QT
5.457 10.208 L
5.035 12.88 L
-0.528 12.88 L
cp}def
f1024818669
f
GR
GS
[0.7812 0 0 0.7812 157.02152 165.67562] CT
0.149 GC
N
/f-339955601{-0.083 13.208 M
-1.927 13.208 -2.583 11.692 QT
-3.24 10.177 -3.24 8.099 QT
-3.24 6.786 -3.005 5.638 QT
-2.771 4.489 -2.068 3.692 QT
-1.365 2.896 -0.083 2.896 QT
0.901 2.896 1.534 3.372 QT
2.167 3.849 2.495 4.614 QT
2.823 5.38 2.948 6.255 QT
3.073 7.13 3.073 8.099 QT
3.073 9.38 2.831 10.505 QT
2.589 11.63 1.893 12.419 QT
1.198 13.208 -0.083 13.208 QT
cp
-0.083 12.817 M
0.745 12.817 1.159 11.966 QT
1.573 11.114 1.667 10.067 QT
1.76 9.021 1.76 7.849 QT
1.76 6.724 1.667 5.771 QT
1.573 4.817 1.167 4.044 QT
0.76 3.271 -0.083 3.271 QT
-0.927 3.271 -1.341 4.052 QT
-1.755 4.833 -1.849 5.778 QT
-1.943 6.724 -1.943 7.849 QT
-1.943 8.692 -1.904 9.435 QT
-1.865 10.177 -1.685 10.958 QT
-1.505 11.739 -1.115 12.278 QT
-0.724 12.817 -0.083 12.817 QT
cp}def
f-339955601
f
GR
GS
[0.7812 0 0 0.7812 111.7119 181.23021] CT
0.149 GC
N
-9.777 4.462 19.554 0.716 re
f
GR
GS
[0.7812 0 0 0.7812 111.7119 181.23021] CT
0.149 GC
N
/f1629697734{-7.871 13.073 M
-7.871 12.48 -7.714 11.863 QT
-7.558 11.245 -7.269 10.48 QT
-6.98 9.714 -6.777 9.152 QT
-6.527 8.495 -6.527 8.073 QT
-6.527 7.542 -6.933 7.542 QT
-7.636 7.542 -8.097 8.277 QT
-8.558 9.011 -8.777 9.917 QT
-8.824 10.027 -8.933 10.027 QT
-9.136 10.027 L
-9.292 10.027 -9.292 9.855 QT
-9.292 9.808 L
-8.996 8.73 -8.402 7.902 QT
-7.808 7.073 -6.886 7.073 QT
-6.246 7.073 -5.808 7.495 QT
-5.371 7.917 -5.371 8.573 QT
-5.371 8.902 -5.511 9.277 QT
-5.589 9.495 -5.871 10.23 QT
-6.152 10.964 -6.3 11.448 QT
-6.449 11.933 -6.55 12.402 QT
-6.652 12.87 -6.652 13.323 QT
-6.652 13.933 -6.394 14.347 QT
-6.136 14.761 -5.574 14.761 QT
-4.417 14.761 -3.542 13.323 QT
-3.527 13.261 -3.511 13.191 QT
-3.496 13.12 -3.496 13.073 QT
-2.199 7.839 L
-2.136 7.605 -1.917 7.433 QT
-1.699 7.261 -1.449 7.261 QT
-1.23 7.261 -1.066 7.402 QT
-0.902 7.542 -0.902 7.777 QT
-0.902 7.886 -0.917 7.917 QT
-2.214 13.105 L
-2.339 13.636 -2.339 13.98 QT
-2.339 14.761 -1.824 14.761 QT
-1.246 14.761 -0.956 14.042 QT
-0.667 13.323 -0.464 12.386 QT
-0.433 12.277 -0.324 12.277 QT
-0.105 12.277 L
-0.042 12.277 0.004 12.339 QT
0.051 12.402 0.051 12.448 QT
-0.136 13.23 -0.324 13.784 QT
-0.511 14.339 -0.894 14.784 QT
-1.277 15.23 -1.855 15.23 QT
-2.433 15.23 -2.886 14.917 QT
-3.339 14.605 -3.496 14.073 QT
-3.902 14.589 -4.449 14.909 QT
-4.996 15.23 -5.605 15.23 QT
-6.636 15.23 -7.253 14.659 QT
-7.871 14.089 -7.871 13.073 QT
cp}def
f1629697734
f
GR
GS
[0.7812 0 0 0.7812 111.7119 181.23021] CT
0.149 GC
N
/f1034626512{2.386 12.995 M
2.386 12.589 2.487 12.105 QT
2.589 11.62 2.683 11.308 QT
2.776 10.995 3.12 10.089 QT
3.464 9.183 3.464 9.152 QT
3.714 8.495 3.714 8.073 QT
3.714 7.542 3.308 7.542 QT
2.604 7.542 2.144 8.277 QT
1.683 9.011 1.464 9.917 QT
1.417 10.027 1.308 10.027 QT
1.104 10.027 L
0.948 10.027 0.948 9.855 QT
0.948 9.808 L
1.245 8.73 1.839 7.902 QT
2.433 7.073 3.354 7.073 QT
3.995 7.073 4.433 7.495 QT
4.87 7.917 4.87 8.573 QT
4.87 8.902 4.729 9.277 QT
4.37 10.183 4.167 10.73 QT
3.964 11.277 3.8 11.964 QT
3.636 12.652 3.636 13.23 QT
3.636 13.902 3.94 14.331 QT
4.245 14.761 4.917 14.761 QT
6.167 14.761 7.167 12.823 QT
7.479 12.198 7.761 11.355 QT
8.042 10.511 8.042 9.995 QT
8.042 9.448 7.862 9.144 QT
7.683 8.839 7.401 8.511 QT
7.12 8.183 7.12 7.98 QT
7.12 7.636 7.417 7.347 QT
7.714 7.058 8.058 7.058 QT
8.495 7.058 8.683 7.448 QT
8.87 7.839 8.87 8.339 QT
8.87 8.948 8.698 9.769 QT
8.526 10.589 8.222 11.48 QT
7.917 12.37 7.667 12.886 QT
6.479 15.23 4.901 15.23 QT
3.761 15.23 3.073 14.659 QT
2.386 14.089 2.386 12.995 QT
cp}def
f1034626512
f
GR
GS
[0.7812 0 0 0.7812 179.67636 181.23021] CT
0.149 GC
N
/f-1918288780{-39.538 12.442 M
-39.538 12.333 -39.46 12.239 QT
-36.35 9.13 L
-39.46 6.005 L
-39.538 5.942 -39.538 5.817 QT
-39.538 5.708 -39.452 5.607 QT
-39.366 5.505 -39.241 5.505 QT
-39.131 5.505 -39.006 5.614 QT
-35.897 8.708 L
-32.819 5.614 L
-32.694 5.505 -32.6 5.505 QT
-32.475 5.505 -32.381 5.599 QT
-32.288 5.692 -32.288 5.817 QT
-32.288 5.942 -32.366 6.005 QT
-35.491 9.13 L
-32.366 12.239 L
-32.288 12.333 -32.288 12.442 QT
-32.288 12.567 -32.381 12.661 QT
-32.475 12.755 -32.6 12.755 QT
-32.71 12.755 -32.819 12.646 QT
-35.897 9.552 L
-39.006 12.646 L
-39.116 12.755 -39.241 12.755 QT
-39.366 12.755 -39.452 12.653 QT
-39.538 12.552 -39.538 12.442 QT
cp}def
f-1918288780
f
GR
GS
[0.7812 0 0 0.7812 179.67636 181.23021] CT
0.149 GC
N
/f-276976150{-28.424 12.88 M
-28.424 12.349 L
-26.549 12.349 -26.549 11.88 QT
-26.549 4.005 L
-27.331 4.38 -28.518 4.38 QT
-28.518 3.849 L
-26.674 3.849 -25.737 2.896 QT
-25.518 2.896 L
-25.471 2.896 -25.424 2.935 QT
-25.377 2.974 -25.377 3.021 QT
-25.377 11.88 L
-25.377 12.349 -23.502 12.349 QT
-23.502 12.88 L
-28.424 12.88 L
cp}def
f-276976150
f
GR
GS
[0.7812 0 0 0.7812 179.67636 181.23021] CT
0.149 GC
N
/f-1452789466{-18.398 13.208 M
-20.242 13.208 -20.898 11.692 QT
-21.554 10.177 -21.554 8.099 QT
-21.554 6.786 -21.32 5.638 QT
-21.086 4.489 -20.383 3.692 QT
-19.679 2.896 -18.398 2.896 QT
-17.414 2.896 -16.781 3.372 QT
-16.148 3.849 -15.82 4.614 QT
-15.492 5.38 -15.367 6.255 QT
-15.242 7.13 -15.242 8.099 QT
-15.242 9.38 -15.484 10.505 QT
-15.726 11.63 -16.422 12.419 QT
-17.117 13.208 -18.398 13.208 QT
cp
-18.398 12.817 M
-17.57 12.817 -17.156 11.966 QT
-16.742 11.114 -16.648 10.067 QT
-16.554 9.021 -16.554 7.849 QT
-16.554 6.724 -16.648 5.771 QT
-16.742 4.817 -17.148 4.044 QT
-17.554 3.271 -18.398 3.271 QT
-19.242 3.271 -19.656 4.052 QT
-20.07 4.833 -20.164 5.778 QT
-20.258 6.724 -20.258 7.849 QT
-20.258 8.692 -20.219 9.435 QT
-20.179 10.177 -20 10.958 QT
-19.82 11.739 -19.429 12.278 QT
-19.039 12.817 -18.398 12.817 QT
cp}def
f-1452789466
f
GR
GS
[0.7812 0 0 0.7812 179.67636 181.23021] CT
0.149 GC
N
/f507220420{-13.357 4.784 M
-13.45 4.784 -13.513 4.714 QT
-13.575 4.644 -13.575 4.566 QT
-13.575 4.487 -13.513 4.417 QT
-13.45 4.347 -13.357 4.347 QT
-7.044 4.347 L
-6.966 4.347 -6.911 4.417 QT
-6.857 4.487 -6.857 4.566 QT
-6.857 4.644 -6.911 4.714 QT
-6.966 4.784 -7.044 4.784 QT
-13.357 4.784 L
cp}def
f507220420
f
GR
GS
[0.7812 0 0 0.7812 179.67636 181.23021] CT
0.149 GC
N
/f783658277{-5.086 6.472 M
-4.821 6.847 -4.391 7.027 QT
-3.961 7.206 -3.461 7.206 QT
-2.821 7.206 -2.555 6.659 QT
-2.29 6.112 -2.29 5.425 QT
-2.29 5.112 -2.344 4.8 QT
-2.399 4.487 -2.532 4.222 QT
-2.665 3.956 -2.899 3.792 QT
-3.133 3.628 -3.461 3.628 QT
-4.196 3.628 L
-4.29 3.628 -4.29 3.534 QT
-4.29 3.425 L
-4.29 3.347 -4.196 3.347 QT
-3.586 3.3 L
-3.211 3.3 -2.954 3.011 QT
-2.696 2.722 -2.579 2.3 QT
-2.461 1.878 -2.461 1.503 QT
-2.461 0.987 -2.704 0.644 QT
-2.946 0.3 -3.461 0.3 QT
-3.883 0.3 -4.258 0.464 QT
-4.633 0.628 -4.868 0.941 QT
-4.836 0.941 -4.821 0.941 QT
-4.805 0.941 -4.79 0.941 QT
-4.54 0.941 -4.376 1.112 QT
-4.211 1.284 -4.211 1.519 QT
-4.211 1.753 -4.376 1.925 QT
-4.54 2.097 -4.79 2.097 QT
-5.04 2.097 -5.211 1.925 QT
-5.383 1.753 -5.383 1.519 QT
-5.383 1.05 -5.094 0.698 QT
-4.805 0.347 -4.36 0.167 QT
-3.915 -0.013 -3.461 -0.013 QT
-3.118 -0.013 -2.751 0.089 QT
-2.383 0.191 -2.086 0.378 QT
-1.79 0.566 -1.594 0.855 QT
-1.399 1.144 -1.399 1.503 QT
-1.399 1.972 -1.61 2.362 QT
-1.821 2.753 -2.18 3.042 QT
-2.54 3.331 -2.961 3.472 QT
-2.493 3.55 -2.063 3.823 QT
-1.633 4.097 -1.368 4.511 QT
-1.102 4.925 -1.102 5.409 QT
-1.102 6.019 -1.438 6.511 QT
-1.774 7.003 -2.313 7.277 QT
-2.852 7.55 -3.461 7.55 QT
-3.977 7.55 -4.493 7.355 QT
-5.008 7.159 -5.336 6.769 QT
-5.665 6.378 -5.665 5.831 QT
-5.665 5.566 -5.485 5.378 QT
-5.305 5.191 -5.04 5.191 QT
-4.852 5.191 -4.704 5.277 QT
-4.555 5.362 -4.477 5.511 QT
-4.399 5.659 -4.399 5.831 QT
-4.399 6.097 -4.586 6.284 QT
-4.774 6.472 -5.04 6.472 QT
-5.086 6.472 L
cp}def
f783658277
f
GR
GS
[0.7812 0 0 0.7812 0 -0.4252] CT
0.149 GC
2 setlinecap
1 LJ
0.639 LW
N
56 207 M
56 19 L
S
GR
GS
[0.7812 0 0 0.7812 0 -0.4252] CT
0.149 GC
2 setlinecap
1 LJ
0.639 LW
N
230 207 M
230 19 L
S
GR
GS
[0.7812 0 0 0.7812 0 -0.4252] CT
0.149 GC
2 setlinecap
1 LJ
0.639 LW
N
56 207 M
57.88 207 L
S
GR
GS
[0.7812 0 0 0.7812 0 -0.4252] CT
0.149 GC
2 setlinecap
1 LJ
0.639 LW
N
56 160 M
57.88 160 L
S
GR
GS
[0.7812 0 0 0.7812 0 -0.4252] CT
0.149 GC
2 setlinecap
1 LJ
0.639 LW
N
56 113 M
57.88 113 L
S
GR
GS
[0.7812 0 0 0.7812 0 -0.4252] CT
0.149 GC
2 setlinecap
1 LJ
0.639 LW
N
56 66 M
57.88 66 L
S
GR
GS
[0.7812 0 0 0.7812 0 -0.4252] CT
0.149 GC
2 setlinecap
1 LJ
0.639 LW
N
56 19 M
57.88 19 L
S
GR
GS
[0.7812 0 0 0.7812 0 -0.4252] CT
0.149 GC
2 setlinecap
1 LJ
0.639 LW
N
230 207 M
228.12 207 L
S
GR
GS
[0.7812 0 0 0.7812 0 -0.4252] CT
0.149 GC
2 setlinecap
1 LJ
0.639 LW
N
230 160 M
228.12 160 L
S
GR
GS
[0.7812 0 0 0.7812 0 -0.4252] CT
0.149 GC
2 setlinecap
1 LJ
0.639 LW
N
230 113 M
228.12 113 L
S
GR
GS
[0.7812 0 0 0.7812 0 -0.4252] CT
0.149 GC
2 setlinecap
1 LJ
0.639 LW
N
230 66 M
228.12 66 L
S
GR
GS
[0.7812 0 0 0.7812 0 -0.4252] CT
0.149 GC
2 setlinecap
1 LJ
0.639 LW
N
230 19 M
228.12 19 L
S
GR
GS
[0.7812 0 0 0.7812 39.3552 161.28353] CT
0.149 GC
N
/f1696974982{-12.606 0.899 M
-12.606 -0.023 L
-8.637 -0.023 L
-8.637 0.899 L
-12.606 0.899 L
cp}def
f1696974982
f
GR
GS
[0.7812 0 0 0.7812 39.3552 161.28353] CT
0.149 GC
N
/f-921695313{-6.276 3.68 M
-6.276 3.149 L
-4.401 3.149 -4.401 2.68 QT
-4.401 -5.195 L
-5.182 -4.82 -6.37 -4.82 QT
-6.37 -5.351 L
-4.526 -5.351 -3.589 -6.304 QT
-3.37 -6.304 L
-3.323 -6.304 -3.276 -6.265 QT
-3.229 -6.226 -3.229 -6.179 QT
-3.229 2.68 L
-3.229 3.149 -1.354 3.149 QT
-1.354 3.68 L
-6.276 3.68 L
cp}def
f-921695313
f
GR
GS
[0.7812 0 0 0.7812 39.3552 124.56705] CT
0.149 GC
N
/f-975976711{-24.532 0.899 M
-24.532 -0.023 L
-20.563 -0.023 L
-20.563 0.899 L
-24.532 0.899 L
cp}def
f-975976711
f
GR
GS
[0.7812 0 0 0.7812 39.3552 124.56705] CT
0.149 GC
N
/f-1716017318{-15.843 4.008 M
-17.686 4.008 -18.343 2.492 QT
-18.999 0.977 -18.999 -1.101 QT
-18.999 -2.414 -18.765 -3.562 QT
-18.53 -4.711 -17.827 -5.508 QT
-17.124 -6.304 -15.843 -6.304 QT
-14.858 -6.304 -14.225 -5.828 QT
-13.593 -5.351 -13.265 -4.586 QT
-12.936 -3.82 -12.811 -2.945 QT
-12.686 -2.07 -12.686 -1.101 QT
-12.686 0.18 -12.929 1.305 QT
-13.171 2.43 -13.866 3.219 QT
-14.561 4.008 -15.843 4.008 QT
cp
-15.843 3.617 M
-15.015 3.617 -14.6 2.766 QT
-14.186 1.914 -14.093 0.867 QT
-13.999 -0.179 -13.999 -1.351 QT
-13.999 -2.476 -14.093 -3.429 QT
-14.186 -4.383 -14.593 -5.156 QT
-14.999 -5.929 -15.843 -5.929 QT
-16.686 -5.929 -17.1 -5.148 QT
-17.515 -4.367 -17.608 -3.422 QT
-17.702 -2.476 -17.702 -1.351 QT
-17.702 -0.508 -17.663 0.235 QT
-17.624 0.977 -17.444 1.758 QT
-17.265 2.539 -16.874 3.078 QT
-16.483 3.617 -15.843 3.617 QT
cp}def
f-1716017318
f
GR
GS
[0.7812 0 0 0.7812 39.3552 124.56705] CT
0.149 GC
N
/f-606985051{-10.66 2.852 M
-10.66 2.508 -10.41 2.274 QT
-10.16 2.039 -9.832 2.039 QT
-9.629 2.039 -9.434 2.149 QT
-9.238 2.258 -9.129 2.453 QT
-9.02 2.649 -9.02 2.852 QT
-9.02 3.18 -9.262 3.43 QT
-9.504 3.68 -9.832 3.68 QT
-10.16 3.68 -10.41 3.43 QT
-10.66 3.18 -10.66 2.852 QT
cp}def
f-606985051
f
GR
GS
[0.7812 0 0 0.7812 39.3552 124.56705] CT
0.149 GC
N
/f-321985110{-6.37 1.977 M
-6.214 2.414 -5.893 2.774 QT
-5.573 3.133 -5.135 3.336 QT
-4.698 3.539 -4.229 3.539 QT
-3.151 3.539 -2.737 2.696 QT
-2.323 1.852 -2.323 0.649 QT
-2.323 0.133 -2.346 -0.226 QT
-2.37 -0.586 -2.448 -0.914 QT
-2.589 -1.445 -2.932 -1.836 QT
-3.276 -2.226 -3.792 -2.226 QT
-4.292 -2.226 -4.651 -2.078 QT
-5.01 -1.929 -5.237 -1.718 QT
-5.464 -1.508 -5.643 -1.281 QT
-5.823 -1.054 -5.87 -1.039 QT
-6.026 -1.039 L
-6.073 -1.039 -6.128 -1.086 QT
-6.182 -1.133 -6.182 -1.179 QT
-6.182 -6.195 L
-6.182 -6.226 -6.135 -6.265 QT
-6.089 -6.304 -6.026 -6.304 QT
-5.995 -6.304 L
-4.979 -5.82 -3.839 -5.82 QT
-2.729 -5.82 -1.698 -6.304 QT
-1.651 -6.304 L
-1.604 -6.304 -1.557 -6.273 QT
-1.51 -6.242 -1.51 -6.195 QT
-1.51 -6.054 L
-1.51 -5.976 -1.542 -5.976 QT
-2.057 -5.304 -2.831 -4.922 QT
-3.604 -4.539 -4.432 -4.539 QT
-5.026 -4.539 -5.667 -4.711 QT
-5.667 -1.867 L
-5.167 -2.273 -4.776 -2.445 QT
-4.385 -2.617 -3.776 -2.617 QT
-2.948 -2.617 -2.292 -2.14 QT
-1.635 -1.664 -1.284 -0.898 QT
-0.932 -0.133 -0.932 0.664 QT
-0.932 1.571 -1.37 2.336 QT
-1.807 3.102 -2.573 3.555 QT
-3.339 4.008 -4.229 4.008 QT
-4.964 4.008 -5.589 3.625 QT
-6.214 3.242 -6.565 2.602 QT
-6.917 1.961 -6.917 1.227 QT
-6.917 0.899 -6.698 0.688 QT
-6.479 0.477 -6.151 0.477 QT
-5.823 0.477 -5.596 0.688 QT
-5.37 0.899 -5.37 1.227 QT
-5.37 1.555 -5.596 1.782 QT
-5.823 2.008 -6.151 2.008 QT
-6.198 2.008 -6.268 1.992 QT
-6.339 1.977 -6.37 1.977 QT
cp}def
f-321985110
f
GR
GS
[0.7812 0 0 0.7812 39.3552 87.85058] CT
0.149 GC
N
/f1704323170{-3.917 4.008 M
-5.76 4.008 -6.417 2.492 QT
-7.073 0.977 -7.073 -1.101 QT
-7.073 -2.414 -6.839 -3.562 QT
-6.604 -4.711 -5.901 -5.508 QT
-5.198 -6.304 -3.917 -6.304 QT
-2.932 -6.304 -2.3 -5.828 QT
-1.667 -5.351 -1.339 -4.586 QT
-1.01 -3.82 -0.885 -2.945 QT
-0.76 -2.07 -0.76 -1.101 QT
-0.76 0.18 -1.003 1.305 QT
-1.245 2.43 -1.94 3.219 QT
-2.635 4.008 -3.917 4.008 QT
cp
-3.917 3.617 M
-3.089 3.617 -2.675 2.766 QT
-2.26 1.914 -2.167 0.867 QT
-2.073 -0.179 -2.073 -1.351 QT
-2.073 -2.476 -2.167 -3.429 QT
-2.26 -4.383 -2.667 -5.156 QT
-3.073 -5.929 -3.917 -5.929 QT
-4.76 -5.929 -5.175 -5.148 QT
-5.589 -4.367 -5.682 -3.422 QT
-5.776 -2.476 -5.776 -1.351 QT
-5.776 -0.508 -5.737 0.235 QT
-5.698 0.977 -5.518 1.758 QT
-5.339 2.539 -4.948 3.078 QT
-4.557 3.617 -3.917 3.617 QT
cp}def
f1704323170
f
GR
GS
[0.7812 0 0 0.7812 39.3552 51.1341] CT
0.149 GC
N
f-1716017318
f
GR
GS
[0.7812 0 0 0.7812 39.3552 51.1341] CT
0.149 GC
N
f-606985051
f
GR
GS
[0.7812 0 0 0.7812 39.3552 51.1341] CT
0.149 GC
N
f-321985110
f
GR
GS
[0.7812 0 0 0.7812 39.3552 14.41763] CT
0.149 GC
N
f-921695313
f
GR
GS
[0 -0.7812 0.7812 0 16.76979 87.85051] CT
0.149 GC
N
/f659928275{-3.191 -3.862 M
-2.816 -3.221 -1.878 -3.221 QT
-1.019 -3.221 -0.394 -3.815 QT
0.231 -4.409 0.614 -5.26 QT
0.997 -6.112 1.2 -6.987 QT
0.403 -6.237 -0.534 -6.237 QT
-1.237 -6.237 -1.737 -6.487 QT
-2.237 -6.737 -2.519 -7.221 QT
-2.8 -7.706 -2.8 -8.393 QT
-2.8 -8.987 -2.644 -9.604 QT
-2.487 -10.221 -2.198 -10.987 QT
-1.909 -11.753 -1.706 -12.315 QT
-1.456 -12.971 -1.456 -13.393 QT
-1.456 -13.924 -1.862 -13.924 QT
-2.566 -13.924 -3.027 -13.19 QT
-3.487 -12.456 -3.706 -11.549 QT
-3.753 -11.44 -3.862 -11.44 QT
-4.066 -11.44 L
-4.222 -11.44 -4.222 -11.612 QT
-4.222 -11.659 L
-3.925 -12.737 -3.331 -13.565 QT
-2.737 -14.393 -1.816 -14.393 QT
-1.175 -14.393 -0.737 -13.971 QT
-0.3 -13.549 -0.3 -12.893 QT
-0.3 -12.565 -0.441 -12.19 QT
-0.519 -11.971 -0.8 -11.237 QT
-1.081 -10.503 -1.23 -10.018 QT
-1.378 -9.534 -1.48 -9.065 QT
-1.581 -8.596 -1.581 -8.143 QT
-1.581 -7.534 -1.323 -7.12 QT
-1.066 -6.706 -0.519 -6.706 QT
0.606 -6.706 1.497 -8.081 QT
2.856 -13.628 L
2.919 -13.862 3.138 -14.034 QT
3.356 -14.206 3.606 -14.206 QT
3.825 -14.206 3.989 -14.065 QT
4.153 -13.924 4.153 -13.69 QT
4.153 -13.581 4.138 -13.549 QT
2.356 -6.393 L
2.122 -5.471 1.489 -4.628 QT
0.856 -3.784 -0.042 -3.268 QT
-0.941 -2.753 -1.909 -2.753 QT
-2.362 -2.753 -2.823 -2.932 QT
-3.284 -3.112 -3.566 -3.471 QT
-3.847 -3.831 -3.847 -4.315 QT
-3.847 -4.799 -3.558 -5.159 QT
-3.269 -5.518 -2.784 -5.518 QT
-2.487 -5.518 -2.292 -5.339 QT
-2.097 -5.159 -2.097 -4.878 QT
-2.097 -4.456 -2.402 -4.151 QT
-2.706 -3.846 -3.128 -3.846 QT
-3.144 -3.862 -3.159 -3.862 QT
-3.175 -3.862 -3.191 -3.862 QT
cp}def
f659928275
f
GR
GS
[0.7812 0 0 0.7812 0 -0.4252] CT
1 LJ
3.194 LW
N
201 207 M
200.509 197.6 L
197.577 188.2 L
190.352 178.8 L
178.04 169.4 L
161.129 160 L
141.343 150.6 L
121.317 141.2 L
104.071 131.8 L
92.38 122.4 L
88.2 113 L
92.25 103.6 L
103.859 94.2 L
121.101 84.8 L
141.2 75.4 L
161.109 66 L
178.146 56.6 L
190.538 47.2 L
197.766 37.8 L
200.627 28.4 L
201 19 L
S
GR
GS
[0.7812 0 0 0.7812 0 -0.4252] CT
0.251 0.251 1 RC
1 LJ
2.044 LW
N
201 207 M
200.613 197.6 L
197.67 188.2 L
190.237 178.8 L
177.492 169.4 L
159.959 160 L
139.45 150.6 L
118.722 141.2 L
100.909 131.8 L
88.879 122.4 L
84.629 113 L
88.87 103.6 L
100.877 94.2 L
118.645 84.8 L
139.311 75.4 L
159.755 66 L
177.244 56.6 L
189.985 47.2 L
197.462 37.8 L
200.496 28.4 L
201 19 L
S
GR
GS
[0.7812 0 0 0.7812 0 -0.4252] CT
1 0 0 RC
1 LJ
1.406 LW
N
201 207 M
200.514 197.6 L
197.358 188.2 L
189.512 178.8 L
176.115 169.4 L
157.716 160 L
136.213 150.6 L
114.488 141.2 L
95.827 131.8 L
83.237 122.4 L
78.813 113 L
83.305 103.6 L
95.952 94.2 L
114.65 84.8 L
136.389 75.4 L
157.885 66 L
176.259 56.6 L
189.622 47.2 L
197.431 37.8 L
200.55 28.4 L
201 19 L
S
GR
GS
[0.7812 0 0 0.7812 0 -0.4252] CT
1 LJ
3.194 LW
N
201 207 M
200.509 197.6 L
197.577 188.2 L
190.352 178.8 L
178.04 169.4 L
161.129 160 L
141.343 150.6 L
121.317 141.2 L
104.071 131.8 L
92.38 122.4 L
88.2 113 L
92.25 103.6 L
103.859 94.2 L
121.101 84.8 L
141.2 75.4 L
161.109 66 L
178.146 56.6 L
190.538 47.2 L
197.766 37.8 L
200.627 28.4 L
201 19 L
S
GR
GS
[0.7812 0 0 0.7812 0 -0.4252] CT
0.251 0.251 1 RC
[2 2] 0 setdash
2 LJ
2.044 LW
N
201 207 M
200.651 197.6 L
197.749 188.2 L
190.362 178.8 L
177.675 169.4 L
160.218 160 L
139.808 150.6 L
119.197 141.2 L
101.509 131.8 L
89.59 122.4 L
85.416 113 L
89.675 103.6 L
101.631 94.2 L
119.282 84.8 L
139.786 75.4 L
160.051 66 L
177.38 56.6 L
190.007 47.2 L
197.43 37.8 L
200.464 28.4 L
201 19 L
S
GR
GS
[0.7812 0 0 0.7812 0 -0.4252] CT
1 0 0 RC
[1 3] 0 setdash
2 LJ
1.406 LW
N
201 207 M
200.586 197.6 L
197.552 188.2 L
189.915 178.8 L
176.833 169.4 L
158.843 160 L
137.805 150.6 L
116.545 141.2 L
98.278 131.8 L
85.946 122.4 L
81.597 113 L
85.961 103.6 L
98.292 94.2 L
116.533 84.8 L
137.745 75.4 L
158.727 66 L
176.672 56.6 L
189.739 47.2 L
197.401 37.8 L
200.5 28.4 L
201 19 L
S
GR
%%Trailer
%%Pages: 1
%%EOF
