%!PS-Adobe-3.0 EPSF-3.0
%%Creator: (MATLAB, The Mathworks, Inc. Version 9.10.0.1684407 \(R2021a\) Update 3. Operating System: Linux)
%%Title: /home/adoan/Code/PRoSA_PI-ESN_ARCHIVES/Results/MFE_results_Noise/pred_comp_noise_v6.eps
%%CreationDate: 2021-07-19T14:38:18
%%Pages: (atend)
%%BoundingBox:     0     0   340   170
%%LanguageLevel: 3
%%EndComments
%%BeginProlog
%%BeginResource: procset (Apache XML Graphics Std ProcSet) 1.2 0
%%Version: 1.2 0
%%Copyright: (Copyright 2001-2003,2010 The Apache Software Foundation. License terms: http://www.apache.org/licenses/LICENSE-2.0)
/bd{bind def}bind def
/ld{load def}bd
/GR/grestore ld
/GS/gsave ld
/RM/rmoveto ld
/C/curveto ld
/t/show ld
/L/lineto ld
/ML/setmiterlimit ld
/CT/concat ld
/f/fill ld
/N/newpath ld
/S/stroke ld
/CC/setcmykcolor ld
/A/ashow ld
/cp/closepath ld
/RC/setrgbcolor ld
/LJ/setlinejoin ld
/GC/setgray ld
/LW/setlinewidth ld
/M/moveto ld
/re {4 2 roll M
1 index 0 rlineto
0 exch rlineto
neg 0 rlineto
cp } bd
/_ctm matrix def
/_tm matrix def
/BT { _ctm currentmatrix pop matrix _tm copy pop 0 0 moveto } bd
/ET { _ctm setmatrix } bd
/iTm { _ctm setmatrix _tm concat } bd
/Tm { _tm astore pop iTm 0 0 moveto } bd
/ux 0.0 def
/uy 0.0 def
/F {
  /Tp exch def
  /Tf exch def
  Tf findfont Tp scalefont setfont
  /cf Tf def  /cs Tp def
} bd
/ULS {currentpoint /uy exch def /ux exch def} bd
/ULE {
  /Tcx currentpoint pop def
  gsave
  newpath
  cf findfont cs scalefont dup
  /FontMatrix get 0 get /Ts exch def /FontInfo get dup
  /UnderlinePosition get Ts mul /To exch def
  /UnderlineThickness get Ts mul /Tt exch def
  ux uy To add moveto  Tcx uy To add lineto
  Tt setlinewidth stroke
  grestore
} bd
/OLE {
  /Tcx currentpoint pop def
  gsave
  newpath
  cf findfont cs scalefont dup
  /FontMatrix get 0 get /Ts exch def /FontInfo get dup
  /UnderlinePosition get Ts mul /To exch def
  /UnderlineThickness get Ts mul /Tt exch def
  ux uy To add cs add moveto Tcx uy To add cs add lineto
  Tt setlinewidth stroke
  grestore
} bd
/SOE {
  /Tcx currentpoint pop def
  gsave
  newpath
  cf findfont cs scalefont dup
  /FontMatrix get 0 get /Ts exch def /FontInfo get dup
  /UnderlinePosition get Ts mul /To exch def
  /UnderlineThickness get Ts mul /Tt exch def
  ux uy To add cs 10 mul 26 idiv add moveto Tcx uy To add cs 10 mul 26 idiv add lineto
  Tt setlinewidth stroke
  grestore
} bd
/QT {
/Y22 exch store
/X22 exch store
/Y21 exch store
/X21 exch store
currentpoint
/Y21 load 2 mul add 3 div exch
/X21 load 2 mul add 3 div exch
/X21 load 2 mul /X22 load add 3 div
/Y21 load 2 mul /Y22 load add 3 div
/X22 load /Y22 load curveto
} bd
/SSPD {
dup length /d exch dict def
{
/v exch def
/k exch def
currentpagedevice k known {
/cpdv currentpagedevice k get def
v cpdv ne {
/upd false def
/nullv v type /nulltype eq def
/nullcpdv cpdv type /nulltype eq def
nullv nullcpdv or
{
/upd true def
} {
/sametype v type cpdv type eq def
sametype {
v type /arraytype eq {
/vlen v length def
/cpdvlen cpdv length def
vlen cpdvlen eq {
0 1 vlen 1 sub {
/i exch def
/obj v i get def
/cpdobj cpdv i get def
obj cpdobj ne {
/upd true def
exit
} if
} for
} {
/upd true def
} ifelse
} {
v type /dicttype eq {
v {
/dv exch def
/dk exch def
/cpddv cpdv dk get def
dv cpddv ne {
/upd true def
exit
} if
} forall
} {
/upd true def
} ifelse
} ifelse
} if
} ifelse
upd true eq {
d k v put
} if
} if
} if
} forall
d length 0 gt {
d setpagedevice
} if
} bd
/RE { % /NewFontName [NewEncodingArray] /FontName RE -
  findfont dup length dict begin
  {
    1 index /FID ne
    {def} {pop pop} ifelse
  } forall
  /Encoding exch def
  /FontName 1 index def
  currentdict definefont pop
  end
} bind def
%%EndResource
%%BeginResource: procset (Apache XML Graphics EPS ProcSet) 1.0 0
%%Version: 1.0 0
%%Copyright: (Copyright 2002-2003 The Apache Software Foundation. License terms: http://www.apache.org/licenses/LICENSE-2.0)
/BeginEPSF { %def
/b4_Inc_state save def         % Save state for cleanup
/dict_count countdictstack def % Count objects on dict stack
/op_count count 1 sub def      % Count objects on operand stack
userdict begin                 % Push userdict on dict stack
/showpage { } def              % Redefine showpage, { } = null proc
0 setgray 0 setlinecap         % Prepare graphics state
1 setlinewidth 0 setlinejoin
10 setmiterlimit [ ] 0 setdash newpath
/languagelevel where           % If level not equal to 1 then
{pop languagelevel             % set strokeadjust and
1 ne                           % overprint to their defaults.
{false setstrokeadjust false setoverprint
} if
} if
} bd
/EndEPSF { %def
count op_count sub {pop} repeat            % Clean up stacks
countdictstack dict_count sub {end} repeat
b4_Inc_state restore
} bd
%%EndResource
%FOPBeginFontDict
%%IncludeResource: font Courier-Oblique
%%IncludeResource: font Courier-BoldOblique
%%IncludeResource: font Courier-Bold
%%IncludeResource: font ZapfDingbats
%%IncludeResource: font Symbol
%%IncludeResource: font Helvetica
%%IncludeResource: font Helvetica-Oblique
%%IncludeResource: font Helvetica-Bold
%%IncludeResource: font Helvetica-BoldOblique
%%IncludeResource: font Times-Roman
%%IncludeResource: font Times-Italic
%%IncludeResource: font Times-Bold
%%IncludeResource: font Times-BoldItalic
%%IncludeResource: font Courier
%FOPEndFontDict
%%BeginResource: encoding WinAnsiEncoding
/WinAnsiEncoding [
/.notdef /.notdef /.notdef /.notdef /.notdef
/.notdef /.notdef /.notdef /.notdef /.notdef
/.notdef /.notdef /.notdef /.notdef /.notdef
/.notdef /.notdef /.notdef /.notdef /.notdef
/.notdef /.notdef /.notdef /.notdef /.notdef
/.notdef /.notdef /.notdef /.notdef /.notdef
/.notdef /.notdef /space /exclam /quotedbl
/numbersign /dollar /percent /ampersand /quotesingle
/parenleft /parenright /asterisk /plus /comma
/hyphen /period /slash /zero /one
/two /three /four /five /six
/seven /eight /nine /colon /semicolon
/less /equal /greater /question /at
/A /B /C /D /E
/F /G /H /I /J
/K /L /M /N /O
/P /Q /R /S /T
/U /V /W /X /Y
/Z /bracketleft /backslash /bracketright /asciicircum
/underscore /quoteleft /a /b /c
/d /e /f /g /h
/i /j /k /l /m
/n /o /p /q /r
/s /t /u /v /w
/x /y /z /braceleft /bar
/braceright /asciitilde /bullet /Euro /bullet
/quotesinglbase /florin /quotedblbase /ellipsis /dagger
/daggerdbl /circumflex /perthousand /Scaron /guilsinglleft
/OE /bullet /Zcaron /bullet /bullet
/quoteleft /quoteright /quotedblleft /quotedblright /bullet
/endash /emdash /asciitilde /trademark /scaron
/guilsinglright /oe /bullet /zcaron /Ydieresis
/space /exclamdown /cent /sterling /currency
/yen /brokenbar /section /dieresis /copyright
/ordfeminine /guillemotleft /logicalnot /sfthyphen /registered
/macron /degree /plusminus /twosuperior /threesuperior
/acute /mu /paragraph /middot /cedilla
/onesuperior /ordmasculine /guillemotright /onequarter /onehalf
/threequarters /questiondown /Agrave /Aacute /Acircumflex
/Atilde /Adieresis /Aring /AE /Ccedilla
/Egrave /Eacute /Ecircumflex /Edieresis /Igrave
/Iacute /Icircumflex /Idieresis /Eth /Ntilde
/Ograve /Oacute /Ocircumflex /Otilde /Odieresis
/multiply /Oslash /Ugrave /Uacute /Ucircumflex
/Udieresis /Yacute /Thorn /germandbls /agrave
/aacute /acircumflex /atilde /adieresis /aring
/ae /ccedilla /egrave /eacute /ecircumflex
/edieresis /igrave /iacute /icircumflex /idieresis
/eth /ntilde /ograve /oacute /ocircumflex
/otilde /odieresis /divide /oslash /ugrave
/uacute /ucircumflex /udieresis /yacute /thorn
/ydieresis
] def
%%EndResource
%FOPBeginFontReencode
/Courier-Oblique findfont
dup length dict begin
  {1 index /FID ne {def} {pop pop} ifelse} forall
  /Encoding WinAnsiEncoding def
  currentdict
end
/Courier-Oblique exch definefont pop
/Courier-BoldOblique findfont
dup length dict begin
  {1 index /FID ne {def} {pop pop} ifelse} forall
  /Encoding WinAnsiEncoding def
  currentdict
end
/Courier-BoldOblique exch definefont pop
/Courier-Bold findfont
dup length dict begin
  {1 index /FID ne {def} {pop pop} ifelse} forall
  /Encoding WinAnsiEncoding def
  currentdict
end
/Courier-Bold exch definefont pop
/Helvetica findfont
dup length dict begin
  {1 index /FID ne {def} {pop pop} ifelse} forall
  /Encoding WinAnsiEncoding def
  currentdict
end
/Helvetica exch definefont pop
/Helvetica-Oblique findfont
dup length dict begin
  {1 index /FID ne {def} {pop pop} ifelse} forall
  /Encoding WinAnsiEncoding def
  currentdict
end
/Helvetica-Oblique exch definefont pop
/Helvetica-Bold findfont
dup length dict begin
  {1 index /FID ne {def} {pop pop} ifelse} forall
  /Encoding WinAnsiEncoding def
  currentdict
end
/Helvetica-Bold exch definefont pop
/Helvetica-BoldOblique findfont
dup length dict begin
  {1 index /FID ne {def} {pop pop} ifelse} forall
  /Encoding WinAnsiEncoding def
  currentdict
end
/Helvetica-BoldOblique exch definefont pop
/Times-Roman findfont
dup length dict begin
  {1 index /FID ne {def} {pop pop} ifelse} forall
  /Encoding WinAnsiEncoding def
  currentdict
end
/Times-Roman exch definefont pop
/Times-Italic findfont
dup length dict begin
  {1 index /FID ne {def} {pop pop} ifelse} forall
  /Encoding WinAnsiEncoding def
  currentdict
end
/Times-Italic exch definefont pop
/Times-Bold findfont
dup length dict begin
  {1 index /FID ne {def} {pop pop} ifelse} forall
  /Encoding WinAnsiEncoding def
  currentdict
end
/Times-Bold exch definefont pop
/Times-BoldItalic findfont
dup length dict begin
  {1 index /FID ne {def} {pop pop} ifelse} forall
  /Encoding WinAnsiEncoding def
  currentdict
end
/Times-BoldItalic exch definefont pop
/Courier findfont
dup length dict begin
  {1 index /FID ne {def} {pop pop} ifelse} forall
  /Encoding WinAnsiEncoding def
  currentdict
end
/Courier exch definefont pop
%FOPEndFontReencode
%%EndProlog
%%Page: 1 1
%%PageBoundingBox: 0 0 340 170
%%BeginPageSetup
[1 0 0 -1 0 170] CT
%%EndPageSetup
GS
[0.78197 0 0 0.78377 0 -0.07875] CT
N
0 0 M
435 0 L
435 217 L
0 217 L
0 0 L
cp
clip
1 GC
N
0 0 435 217 re
f
GR
GS
[0.78197 0 0 0.78377 0 -0.07875] CT
1 GC
N
0 0 435 217 re
f
GR
GS
[0.78197 0 0 0.78377 0 -0.07875] CT
1 GC
N
57 172 M
394 172 L
394 16 L
57 16 L
cp
f
GR
GS
[0.78197 0 0 0.78377 0 -0.07875] CT
0.149 GC
2 setlinecap
1 LJ
0.639 LW
N
57 172 M
394 172 L
S
GR
GS
[0.78197 0 0 0.78377 0 -0.07875] CT
0.149 GC
2 setlinecap
1 LJ
0.639 LW
N
57 16 M
394 16 L
S
GR
GS
[0.78197 0 0 0.78377 0 -0.07875] CT
0.149 GC
2 setlinecap
1 LJ
0.639 LW
N
57 172 M
57 168.63 L
S
GR
GS
[0.78197 0 0 0.78377 0 -0.07875] CT
0.149 GC
2 setlinecap
1 LJ
0.639 LW
N
124.4 172 M
124.4 168.63 L
S
GR
GS
[0.78197 0 0 0.78377 0 -0.07875] CT
0.149 GC
2 setlinecap
1 LJ
0.639 LW
N
191.8 172 M
191.8 168.63 L
S
GR
GS
[0.78197 0 0 0.78377 0 -0.07875] CT
0.149 GC
2 setlinecap
1 LJ
0.639 LW
N
259.2 172 M
259.2 168.63 L
S
GR
GS
[0.78197 0 0 0.78377 0 -0.07875] CT
0.149 GC
2 setlinecap
1 LJ
0.639 LW
N
326.6 172 M
326.6 168.63 L
S
GR
GS
[0.78197 0 0 0.78377 0 -0.07875] CT
0.149 GC
2 setlinecap
1 LJ
0.639 LW
N
394 172 M
394 168.63 L
S
GR
GS
[0.78197 0 0 0.78377 0 -0.07875] CT
0.149 GC
2 setlinecap
1 LJ
0.639 LW
N
57 16 M
57 19.37 L
S
GR
GS
[0.78197 0 0 0.78377 0 -0.07875] CT
0.149 GC
2 setlinecap
1 LJ
0.639 LW
N
124.4 16 M
124.4 19.37 L
S
GR
GS
[0.78197 0 0 0.78377 0 -0.07875] CT
0.149 GC
2 setlinecap
1 LJ
0.639 LW
N
191.8 16 M
191.8 19.37 L
S
GR
GS
[0.78197 0 0 0.78377 0 -0.07875] CT
0.149 GC
2 setlinecap
1 LJ
0.639 LW
N
259.2 16 M
259.2 19.37 L
S
GR
GS
[0.78197 0 0 0.78377 0 -0.07875] CT
0.149 GC
2 setlinecap
1 LJ
0.639 LW
N
326.6 16 M
326.6 19.37 L
S
GR
GS
[0.78197 0 0 0.78377 0 -0.07875] CT
0.149 GC
2 setlinecap
1 LJ
0.639 LW
N
394 16 M
394 19.37 L
S
GR
GS
[0.78197 0 0 0.78377 44.57236 139.13676] CT
0.149 GC
N
-10.203 11.177 M
-10.047 11.614 -9.727 11.974 QT
-9.406 12.333 -8.969 12.536 QT
-8.531 12.739 -8.063 12.739 QT
-6.984 12.739 -6.57 11.896 QT
-6.156 11.052 -6.156 9.849 QT
-6.156 9.333 -6.18 8.974 QT
-6.203 8.614 -6.281 8.286 QT
-6.422 7.755 -6.766 7.364 QT
-7.109 6.974 -7.625 6.974 QT
-8.125 6.974 -8.484 7.122 QT
-8.844 7.271 -9.07 7.482 QT
-9.297 7.692 -9.477 7.919 QT
-9.656 8.146 -9.703 8.161 QT
-9.859 8.161 L
-9.906 8.161 -9.961 8.114 QT
-10.016 8.067 -10.016 8.021 QT
-10.016 3.005 L
-10.016 2.974 -9.969 2.935 QT
-9.922 2.896 -9.859 2.896 QT
-9.828 2.896 L
-8.813 3.38 -7.672 3.38 QT
-6.563 3.38 -5.531 2.896 QT
-5.484 2.896 L
-5.438 2.896 -5.391 2.927 QT
-5.344 2.958 -5.344 3.005 QT
-5.344 3.146 L
-5.344 3.224 -5.375 3.224 QT
-5.891 3.896 -6.664 4.278 QT
-7.438 4.661 -8.266 4.661 QT
-8.859 4.661 -9.5 4.489 QT
-9.5 7.333 L
-9 6.927 -8.609 6.755 QT
-8.219 6.583 -7.609 6.583 QT
-6.781 6.583 -6.125 7.06 QT
-5.469 7.536 -5.117 8.302 QT
-4.766 9.067 -4.766 9.864 QT
-4.766 10.771 -5.203 11.536 QT
-5.641 12.302 -6.406 12.755 QT
-7.172 13.208 -8.063 13.208 QT
-8.797 13.208 -9.422 12.825 QT
-10.047 12.442 -10.398 11.802 QT
-10.75 11.161 -10.75 10.427 QT
-10.75 10.099 -10.531 9.888 QT
-10.313 9.677 -9.984 9.677 QT
-9.656 9.677 -9.43 9.888 QT
-9.203 10.099 -9.203 10.427 QT
-9.203 10.755 -9.43 10.982 QT
-9.656 11.208 -9.984 11.208 QT
-10.031 11.208 -10.102 11.192 QT
-10.172 11.177 -10.203 11.177 QT
cp
f
GR
GS
[0.78197 0 0 0.78377 44.57236 139.13676] CT
0.149 GC
N
-0.083 13.208 M
-1.927 13.208 -2.583 11.692 QT
-3.24 10.177 -3.24 8.099 QT
-3.24 6.786 -3.005 5.638 QT
-2.771 4.489 -2.068 3.692 QT
-1.365 2.896 -0.083 2.896 QT
0.901 2.896 1.534 3.372 QT
2.167 3.849 2.495 4.614 QT
2.823 5.38 2.948 6.255 QT
3.073 7.13 3.073 8.099 QT
3.073 9.38 2.831 10.505 QT
2.589 11.63 1.893 12.419 QT
1.198 13.208 -0.083 13.208 QT
cp
-0.083 12.817 M
0.745 12.817 1.159 11.966 QT
1.573 11.114 1.667 10.067 QT
1.76 9.021 1.76 7.849 QT
1.76 6.724 1.667 5.771 QT
1.573 4.817 1.167 4.044 QT
0.76 3.271 -0.083 3.271 QT
-0.927 3.271 -1.341 4.052 QT
-1.755 4.833 -1.849 5.778 QT
-1.943 6.724 -1.943 7.849 QT
-1.943 8.692 -1.904 9.435 QT
-1.865 10.177 -1.685 10.958 QT
-1.505 11.739 -1.115 12.278 QT
-0.724 12.817 -0.083 12.817 QT
cp
f
GR
GS
[0.78197 0 0 0.78377 44.57236 139.13676] CT
0.149 GC
N
7.583 13.208 M
5.74 13.208 5.083 11.692 QT
4.427 10.177 4.427 8.099 QT
4.427 6.786 4.661 5.638 QT
4.896 4.489 5.599 3.692 QT
6.302 2.896 7.583 2.896 QT
8.568 2.896 9.201 3.372 QT
9.833 3.849 10.161 4.614 QT
10.49 5.38 10.615 6.255 QT
10.74 7.13 10.74 8.099 QT
10.74 9.38 10.497 10.505 QT
10.255 11.63 9.56 12.419 QT
8.865 13.208 7.583 13.208 QT
cp
7.583 12.817 M
8.411 12.817 8.826 11.966 QT
9.24 11.114 9.333 10.067 QT
9.427 9.021 9.427 7.849 QT
9.427 6.724 9.333 5.771 QT
9.24 4.817 8.833 4.044 QT
8.427 3.271 7.583 3.271 QT
6.74 3.271 6.326 4.052 QT
5.911 4.833 5.818 5.778 QT
5.724 6.724 5.724 7.849 QT
5.724 8.692 5.763 9.435 QT
5.802 10.177 5.982 10.958 QT
6.161 11.739 6.552 12.278 QT
6.943 12.817 7.583 12.817 QT
cp
f
GR
GS
[0.78197 0 0 0.78377 97.27723 139.13676] CT
0.149 GC
N
-13.943 12.88 M
-13.943 12.349 L
-12.068 12.349 -12.068 11.88 QT
-12.068 4.005 L
-12.849 4.38 -14.037 4.38 QT
-14.037 3.849 L
-12.193 3.849 -11.255 2.896 QT
-11.037 2.896 L
-10.99 2.896 -10.943 2.935 QT
-10.896 2.974 -10.896 3.021 QT
-10.896 11.88 L
-10.896 12.349 -9.021 12.349 QT
-9.021 12.88 L
-13.943 12.88 L
cp
f
GR
GS
[0.78197 0 0 0.78377 97.27723 139.13676] CT
0.149 GC
N
-3.917 13.208 M
-5.76 13.208 -6.417 11.692 QT
-7.073 10.177 -7.073 8.099 QT
-7.073 6.786 -6.839 5.638 QT
-6.604 4.489 -5.901 3.692 QT
-5.198 2.896 -3.917 2.896 QT
-2.932 2.896 -2.3 3.372 QT
-1.667 3.849 -1.339 4.614 QT
-1.01 5.38 -0.885 6.255 QT
-0.76 7.13 -0.76 8.099 QT
-0.76 9.38 -1.003 10.505 QT
-1.245 11.63 -1.94 12.419 QT
-2.635 13.208 -3.917 13.208 QT
cp
-3.917 12.817 M
-3.089 12.817 -2.675 11.966 QT
-2.26 11.114 -2.167 10.067 QT
-2.073 9.021 -2.073 7.849 QT
-2.073 6.724 -2.167 5.771 QT
-2.26 4.817 -2.667 4.044 QT
-3.073 3.271 -3.917 3.271 QT
-4.76 3.271 -5.175 4.052 QT
-5.589 4.833 -5.682 5.778 QT
-5.776 6.724 -5.776 7.849 QT
-5.776 8.692 -5.737 9.435 QT
-5.698 10.177 -5.518 10.958 QT
-5.339 11.739 -4.948 12.278 QT
-4.557 12.817 -3.917 12.817 QT
cp
f
GR
GS
[0.78197 0 0 0.78377 97.27723 139.13676] CT
0.149 GC
N
3.75 13.208 M
1.906 13.208 1.25 11.692 QT
0.594 10.177 0.594 8.099 QT
0.594 6.786 0.828 5.638 QT
1.063 4.489 1.766 3.692 QT
2.469 2.896 3.75 2.896 QT
4.734 2.896 5.367 3.372 QT
6 3.849 6.328 4.614 QT
6.656 5.38 6.781 6.255 QT
6.906 7.13 6.906 8.099 QT
6.906 9.38 6.664 10.505 QT
6.422 11.63 5.727 12.419 QT
5.031 13.208 3.75 13.208 QT
cp
3.75 12.817 M
4.578 12.817 4.992 11.966 QT
5.406 11.114 5.5 10.067 QT
5.594 9.021 5.594 7.849 QT
5.594 6.724 5.5 5.771 QT
5.406 4.817 5 4.044 QT
4.594 3.271 3.75 3.271 QT
2.906 3.271 2.492 4.052 QT
2.078 4.833 1.984 5.778 QT
1.891 6.724 1.891 7.849 QT
1.891 8.692 1.93 9.435 QT
1.969 10.177 2.148 10.958 QT
2.328 11.739 2.719 12.278 QT
3.109 12.817 3.75 12.817 QT
cp
f
GR
GS
[0.78197 0 0 0.78377 97.27723 139.13676] CT
0.149 GC
N
11.417 13.208 M
9.573 13.208 8.917 11.692 QT
8.26 10.177 8.26 8.099 QT
8.26 6.786 8.495 5.638 QT
8.729 4.489 9.432 3.692 QT
10.135 2.896 11.417 2.896 QT
12.401 2.896 13.034 3.372 QT
13.667 3.849 13.995 4.614 QT
14.323 5.38 14.448 6.255 QT
14.573 7.13 14.573 8.099 QT
14.573 9.38 14.331 10.505 QT
14.089 11.63 13.393 12.419 QT
12.698 13.208 11.417 13.208 QT
cp
11.417 12.817 M
12.245 12.817 12.659 11.966 QT
13.073 11.114 13.167 10.067 QT
13.26 9.021 13.26 7.849 QT
13.26 6.724 13.167 5.771 QT
13.073 4.817 12.667 4.044 QT
12.26 3.271 11.417 3.271 QT
10.573 3.271 10.159 4.052 QT
9.745 4.833 9.651 5.778 QT
9.557 6.724 9.557 7.849 QT
9.557 8.692 9.596 9.435 QT
9.635 10.177 9.815 10.958 QT
9.995 11.739 10.385 12.278 QT
10.776 12.817 11.417 12.817 QT
cp
f
GR
GS
[0.78197 0 0 0.78377 149.98209 139.13676] CT
0.149 GC
N
/f29924909{-13.943 12.88 M
-13.943 12.349 L
-12.068 12.349 -12.068 11.88 QT
-12.068 4.005 L
-12.849 4.38 -14.037 4.38 QT
-14.037 3.849 L
-12.193 3.849 -11.255 2.896 QT
-11.037 2.896 L
-10.99 2.896 -10.943 2.935 QT
-10.896 2.974 -10.896 3.021 QT
-10.896 11.88 L
-10.896 12.349 -9.021 12.349 QT
-9.021 12.88 L
-13.943 12.88 L
cp}def
f29924909
f
GR
GS
[0.78197 0 0 0.78377 149.98209 139.13676] CT
0.149 GC
N
/f-252638511{-6.37 11.177 M
-6.214 11.614 -5.893 11.974 QT
-5.573 12.333 -5.135 12.536 QT
-4.698 12.739 -4.229 12.739 QT
-3.151 12.739 -2.737 11.896 QT
-2.323 11.052 -2.323 9.849 QT
-2.323 9.333 -2.346 8.974 QT
-2.37 8.614 -2.448 8.286 QT
-2.589 7.755 -2.932 7.364 QT
-3.276 6.974 -3.792 6.974 QT
-4.292 6.974 -4.651 7.122 QT
-5.01 7.271 -5.237 7.482 QT
-5.464 7.692 -5.643 7.919 QT
-5.823 8.146 -5.87 8.161 QT
-6.026 8.161 L
-6.073 8.161 -6.128 8.114 QT
-6.182 8.067 -6.182 8.021 QT
-6.182 3.005 L
-6.182 2.974 -6.135 2.935 QT
-6.089 2.896 -6.026 2.896 QT
-5.995 2.896 L
-4.979 3.38 -3.839 3.38 QT
-2.729 3.38 -1.698 2.896 QT
-1.651 2.896 L
-1.604 2.896 -1.557 2.927 QT
-1.51 2.958 -1.51 3.005 QT
-1.51 3.146 L
-1.51 3.224 -1.542 3.224 QT
-2.057 3.896 -2.831 4.278 QT
-3.604 4.661 -4.432 4.661 QT
-5.026 4.661 -5.667 4.489 QT
-5.667 7.333 L
-5.167 6.927 -4.776 6.755 QT
-4.385 6.583 -3.776 6.583 QT
-2.948 6.583 -2.292 7.06 QT
-1.635 7.536 -1.284 8.302 QT
-0.932 9.067 -0.932 9.864 QT
-0.932 10.771 -1.37 11.536 QT
-1.807 12.302 -2.573 12.755 QT
-3.339 13.208 -4.229 13.208 QT
-4.964 13.208 -5.589 12.825 QT
-6.214 12.442 -6.565 11.802 QT
-6.917 11.161 -6.917 10.427 QT
-6.917 10.099 -6.698 9.888 QT
-6.479 9.677 -6.151 9.677 QT
-5.823 9.677 -5.596 9.888 QT
-5.37 10.099 -5.37 10.427 QT
-5.37 10.755 -5.596 10.982 QT
-5.823 11.208 -6.151 11.208 QT
-6.198 11.208 -6.268 11.192 QT
-6.339 11.177 -6.37 11.177 QT
cp}def
f-252638511
f
GR
GS
[0.78197 0 0 0.78377 149.98209 139.13676] CT
0.149 GC
N
/f-1482293790{3.75 13.208 M
1.906 13.208 1.25 11.692 QT
0.594 10.177 0.594 8.099 QT
0.594 6.786 0.828 5.638 QT
1.063 4.489 1.766 3.692 QT
2.469 2.896 3.75 2.896 QT
4.734 2.896 5.367 3.372 QT
6 3.849 6.328 4.614 QT
6.656 5.38 6.781 6.255 QT
6.906 7.13 6.906 8.099 QT
6.906 9.38 6.664 10.505 QT
6.422 11.63 5.727 12.419 QT
5.031 13.208 3.75 13.208 QT
cp
3.75 12.817 M
4.578 12.817 4.992 11.966 QT
5.406 11.114 5.5 10.067 QT
5.594 9.021 5.594 7.849 QT
5.594 6.724 5.5 5.771 QT
5.406 4.817 5 4.044 QT
4.594 3.271 3.75 3.271 QT
2.906 3.271 2.492 4.052 QT
2.078 4.833 1.984 5.778 QT
1.891 6.724 1.891 7.849 QT
1.891 8.692 1.93 9.435 QT
1.969 10.177 2.148 10.958 QT
2.328 11.739 2.719 12.278 QT
3.109 12.817 3.75 12.817 QT
cp}def
f-1482293790
f
GR
GS
[0.78197 0 0 0.78377 149.98209 139.13676] CT
0.149 GC
N
/f762766315{11.417 13.208 M
9.573 13.208 8.917 11.692 QT
8.26 10.177 8.26 8.099 QT
8.26 6.786 8.495 5.638 QT
8.729 4.489 9.432 3.692 QT
10.135 2.896 11.417 2.896 QT
12.401 2.896 13.034 3.372 QT
13.667 3.849 13.995 4.614 QT
14.323 5.38 14.448 6.255 QT
14.573 7.13 14.573 8.099 QT
14.573 9.38 14.331 10.505 QT
14.089 11.63 13.393 12.419 QT
12.698 13.208 11.417 13.208 QT
cp
11.417 12.817 M
12.245 12.817 12.659 11.966 QT
13.073 11.114 13.167 10.067 QT
13.26 9.021 13.26 7.849 QT
13.26 6.724 13.167 5.771 QT
13.073 4.817 12.667 4.044 QT
12.26 3.271 11.417 3.271 QT
10.573 3.271 10.159 4.052 QT
9.745 4.833 9.651 5.778 QT
9.557 6.724 9.557 7.849 QT
9.557 8.692 9.596 9.435 QT
9.635 10.177 9.815 10.958 QT
9.995 11.739 10.385 12.278 QT
10.776 12.817 11.417 12.817 QT
cp}def
f762766315
f
GR
GS
[0.78197 0 0 0.78377 202.68696 139.13676] CT
0.149 GC
N
/f526428774{-14.583 12.88 M
-14.583 12.474 L
-14.583 12.442 -14.552 12.396 QT
-12.224 9.817 L
-11.693 9.239 -11.365 8.857 QT
-11.037 8.474 -10.716 7.966 QT
-10.396 7.458 -10.208 6.935 QT
-10.021 6.411 -10.021 5.833 QT
-10.021 5.208 -10.247 4.646 QT
-10.474 4.083 -10.927 3.747 QT
-11.38 3.411 -12.021 3.411 QT
-12.662 3.411 -13.185 3.81 QT
-13.708 4.208 -13.927 4.817 QT
-13.865 4.802 -13.755 4.802 QT
-13.427 4.802 -13.185 5.028 QT
-12.943 5.255 -12.943 5.614 QT
-12.943 5.958 -13.185 6.2 QT
-13.427 6.442 -13.755 6.442 QT
-14.115 6.442 -14.349 6.2 QT
-14.583 5.958 -14.583 5.614 QT
-14.583 5.052 -14.372 4.56 QT
-14.162 4.067 -13.763 3.685 QT
-13.365 3.302 -12.865 3.099 QT
-12.365 2.896 -11.802 2.896 QT
-10.943 2.896 -10.201 3.255 QT
-9.458 3.614 -9.029 4.278 QT
-8.599 4.942 -8.599 5.833 QT
-8.599 6.474 -8.88 7.06 QT
-9.162 7.646 -9.607 8.13 QT
-10.052 8.614 -10.755 9.224 QT
-11.458 9.833 -11.677 10.036 QT
-13.365 11.661 L
-11.927 11.661 L
-10.865 11.661 -10.154 11.646 QT
-9.443 11.63 -9.396 11.583 QT
-9.224 11.396 -9.037 10.208 QT
-8.599 10.208 L
-9.021 12.88 L
-14.583 12.88 L
cp}def
f526428774
f
GR
GS
[0.78197 0 0 0.78377 202.68696 139.13676] CT
0.149 GC
N
/f-175445354{-3.917 13.208 M
-5.76 13.208 -6.417 11.692 QT
-7.073 10.177 -7.073 8.099 QT
-7.073 6.786 -6.839 5.638 QT
-6.604 4.489 -5.901 3.692 QT
-5.198 2.896 -3.917 2.896 QT
-2.932 2.896 -2.3 3.372 QT
-1.667 3.849 -1.339 4.614 QT
-1.01 5.38 -0.885 6.255 QT
-0.76 7.13 -0.76 8.099 QT
-0.76 9.38 -1.003 10.505 QT
-1.245 11.63 -1.94 12.419 QT
-2.635 13.208 -3.917 13.208 QT
cp
-3.917 12.817 M
-3.089 12.817 -2.675 11.966 QT
-2.26 11.114 -2.167 10.067 QT
-2.073 9.021 -2.073 7.849 QT
-2.073 6.724 -2.167 5.771 QT
-2.26 4.817 -2.667 4.044 QT
-3.073 3.271 -3.917 3.271 QT
-4.76 3.271 -5.175 4.052 QT
-5.589 4.833 -5.682 5.778 QT
-5.776 6.724 -5.776 7.849 QT
-5.776 8.692 -5.737 9.435 QT
-5.698 10.177 -5.518 10.958 QT
-5.339 11.739 -4.948 12.278 QT
-4.557 12.817 -3.917 12.817 QT
cp}def
f-175445354
f
GR
GS
[0.78197 0 0 0.78377 202.68696 139.13676] CT
0.149 GC
N
f-1482293790
f
GR
GS
[0.78197 0 0 0.78377 202.68696 139.13676] CT
0.149 GC
N
f762766315
f
GR
GS
[0.78197 0 0 0.78377 255.39182 139.13676] CT
0.149 GC
N
f526428774
f
GR
GS
[0.78197 0 0 0.78377 255.39182 139.13676] CT
0.149 GC
N
f-252638511
f
GR
GS
[0.78197 0 0 0.78377 255.39182 139.13676] CT
0.149 GC
N
f-1482293790
f
GR
GS
[0.78197 0 0 0.78377 255.39182 139.13676] CT
0.149 GC
N
f762766315
f
GR
GS
[0.78197 0 0 0.78377 308.09668 139.13676] CT
0.149 GC
N
/f-2138720792{-13.912 11.724 M
-13.552 12.239 -12.958 12.489 QT
-12.365 12.739 -11.693 12.739 QT
-10.818 12.739 -10.451 11.989 QT
-10.083 11.239 -10.083 10.302 QT
-10.083 9.88 -10.162 9.45 QT
-10.24 9.021 -10.419 8.661 QT
-10.599 8.302 -10.919 8.075 QT
-11.24 7.849 -11.693 7.849 QT
-12.693 7.849 L
-12.833 7.849 -12.833 7.724 QT
-12.833 7.583 L
-12.833 7.474 -12.693 7.474 QT
-11.865 7.396 L
-11.349 7.396 -10.997 7.005 QT
-10.646 6.614 -10.482 6.044 QT
-10.318 5.474 -10.318 4.958 QT
-10.318 4.239 -10.654 3.778 QT
-10.99 3.317 -11.693 3.317 QT
-12.255 3.317 -12.779 3.536 QT
-13.302 3.755 -13.599 4.192 QT
-13.568 4.192 -13.552 4.185 QT
-13.537 4.177 -13.505 4.177 QT
-13.162 4.177 -12.935 4.411 QT
-12.708 4.646 -12.708 4.974 QT
-12.708 5.302 -12.935 5.536 QT
-13.162 5.771 -13.505 5.771 QT
-13.833 5.771 -14.068 5.536 QT
-14.302 5.302 -14.302 4.974 QT
-14.302 4.333 -13.912 3.857 QT
-13.521 3.38 -12.912 3.138 QT
-12.302 2.896 -11.693 2.896 QT
-11.224 2.896 -10.724 3.028 QT
-10.224 3.161 -9.81 3.411 QT
-9.396 3.661 -9.138 4.06 QT
-8.88 4.458 -8.88 4.958 QT
-8.88 5.599 -9.162 6.13 QT
-9.443 6.661 -9.935 7.052 QT
-10.427 7.442 -11.005 7.63 QT
-10.365 7.755 -9.779 8.122 QT
-9.193 8.489 -8.833 9.06 QT
-8.474 9.63 -8.474 10.286 QT
-8.474 11.114 -8.927 11.786 QT
-9.38 12.458 -10.122 12.833 QT
-10.865 13.208 -11.693 13.208 QT
-12.396 13.208 -13.099 12.942 QT
-13.802 12.677 -14.255 12.138 QT
-14.708 11.599 -14.708 10.864 QT
-14.708 10.489 -14.458 10.239 QT
-14.208 9.989 -13.833 9.989 QT
-13.583 9.989 -13.388 10.099 QT
-13.193 10.208 -13.076 10.419 QT
-12.958 10.63 -12.958 10.864 QT
-12.958 11.224 -13.216 11.474 QT
-13.474 11.724 -13.833 11.724 QT
-13.912 11.724 L
cp}def
f-2138720792
f
GR
GS
[0.78197 0 0 0.78377 308.09668 139.13676] CT
0.149 GC
N
f-175445354
f
GR
GS
[0.78197 0 0 0.78377 308.09668 139.13676] CT
0.149 GC
N
f-1482293790
f
GR
GS
[0.78197 0 0 0.78377 308.09668 139.13676] CT
0.149 GC
N
f762766315
f
GR
GS
[0.78197 0 0 0.78377 176.33465 154.13643] CT
0.149 GC
N
/f925738518{-9.775 14.168 M
-9.947 14.168 -9.947 13.949 QT
-9.931 13.902 -9.907 13.801 QT
-9.884 13.699 -9.837 13.637 QT
-9.79 13.574 -9.728 13.574 QT
-8.103 13.574 -7.837 12.527 QT
-5.525 3.23 L
-5.993 3.152 -7.025 3.152 QT
-7.181 3.152 -7.181 2.934 QT
-7.181 2.887 -7.157 2.785 QT
-7.134 2.684 -7.087 2.621 QT
-7.04 2.559 -6.962 2.559 QT
-4.025 2.559 L
-3.9 2.559 -3.868 2.668 QT
-0.103 11.652 L
1.788 4.121 L
1.819 3.934 1.819 3.871 QT
1.819 3.152 0.507 3.152 QT
0.35 3.152 0.35 2.934 QT
0.397 2.715 0.436 2.637 QT
0.475 2.559 0.632 2.559 QT
4.272 2.559 L
4.444 2.559 4.444 2.777 QT
4.428 2.824 4.405 2.926 QT
4.382 3.027 4.335 3.09 QT
4.288 3.152 4.225 3.152 QT
2.6 3.152 2.335 4.184 QT
-0.118 14.012 L
-0.165 14.168 -0.29 14.168 QT
-0.493 14.168 L
-0.603 14.168 -0.65 14.059 QT
-4.978 3.762 L
-5.009 3.652 L
-5.04 3.621 -5.04 3.605 QT
-7.29 12.605 L
-7.306 12.652 -7.314 12.715 QT
-7.322 12.777 -7.337 12.855 QT
-7.337 13.293 -6.954 13.434 QT
-6.572 13.574 -6.009 13.574 QT
-5.853 13.574 -5.853 13.793 QT
-5.9 14.027 -5.947 14.098 QT
-5.993 14.168 -6.134 14.168 QT
-9.775 14.168 L
cp}def
f925738518
f
GR
GS
[0.78197 0 0 0.78377 176.33465 154.13643] CT
0.149 GC
N
/f-90719008{3.918 16.354 M
4.137 16.51 4.512 16.51 QT
4.887 16.51 5.176 16.151 QT
5.465 15.792 5.574 15.37 QT
6.121 13.245 L
6.246 12.667 6.246 12.448 QT
6.246 12.151 6.082 11.924 QT
5.918 11.698 5.605 11.698 QT
5.23 11.698 4.894 11.94 QT
4.558 12.182 4.332 12.549 QT
4.105 12.917 4.012 13.292 QT
3.996 13.37 3.918 13.37 QT
3.777 13.37 L
3.683 13.37 3.683 13.245 QT
3.683 13.214 L
3.793 12.776 4.074 12.346 QT
4.355 11.917 4.762 11.659 QT
5.168 11.401 5.637 11.401 QT
6.074 11.401 6.426 11.635 QT
6.777 11.87 6.933 12.26 QT
7.137 11.901 7.457 11.651 QT
7.777 11.401 8.152 11.401 QT
8.418 11.401 8.683 11.487 QT
8.949 11.573 9.121 11.76 QT
9.293 11.948 9.293 12.229 QT
9.293 12.542 9.098 12.76 QT
8.902 12.979 8.59 12.979 QT
8.402 12.979 8.269 12.854 QT
8.137 12.729 8.137 12.542 QT
8.137 12.292 8.316 12.104 QT
8.496 11.917 8.73 11.87 QT
8.512 11.698 8.137 11.698 QT
7.746 11.698 7.465 12.057 QT
7.183 12.417 7.058 12.854 QT
6.527 14.979 L
6.402 15.464 6.402 15.776 QT
6.402 16.073 6.574 16.292 QT
6.746 16.51 7.043 16.51 QT
7.605 16.51 8.043 16.018 QT
8.48 15.526 8.621 14.932 QT
8.652 14.87 8.715 14.87 QT
8.871 14.87 L
8.918 14.87 8.941 14.901 QT
8.965 14.932 8.965 14.964 QT
8.965 14.979 8.965 15.01 QT
8.793 15.714 8.246 16.276 QT
7.699 16.839 7.012 16.839 QT
6.574 16.839 6.223 16.596 QT
5.871 16.354 5.715 15.948 QT
5.527 16.307 5.199 16.573 QT
4.871 16.839 4.496 16.839 QT
4.23 16.839 3.957 16.745 QT
3.683 16.651 3.519 16.464 QT
3.355 16.276 3.355 15.995 QT
3.355 15.714 3.551 15.479 QT
3.746 15.245 4.043 15.245 QT
4.23 15.245 4.371 15.362 QT
4.512 15.479 4.512 15.682 QT
4.512 15.932 4.34 16.12 QT
4.168 16.307 3.918 16.354 QT
cp}def
f-90719008
f
GR
GS
[0.78197 0 0 0.78377 0 -0.07875] CT
0.149 GC
2 setlinecap
1 LJ
0.639 LW
N
57 172 M
57 16 L
S
GR
GS
[0.78197 0 0 0.78377 0 -0.07875] CT
0.149 GC
2 setlinecap
1 LJ
0.639 LW
N
394 172 M
394 16 L
S
GR
GS
[0.78197 0 0 0.78377 0 -0.07875] CT
0.149 GC
2 setlinecap
1 LJ
0.639 LW
N
57 172 M
60.37 172 L
S
GR
GS
[0.78197 0 0 0.78377 0 -0.07875] CT
0.149 GC
2 setlinecap
1 LJ
0.639 LW
N
57 120 M
60.37 120 L
S
GR
GS
[0.78197 0 0 0.78377 0 -0.07875] CT
0.149 GC
2 setlinecap
1 LJ
0.639 LW
N
57 68 M
60.37 68 L
S
GR
GS
[0.78197 0 0 0.78377 0 -0.07875] CT
0.149 GC
2 setlinecap
1 LJ
0.639 LW
N
57 16 M
60.37 16 L
S
GR
GS
[0.78197 0 0 0.78377 0 -0.07875] CT
0.149 GC
2 setlinecap
1 LJ
0.639 LW
N
394 172 M
390.63 172 L
S
GR
GS
[0.78197 0 0 0.78377 0 -0.07875] CT
0.149 GC
2 setlinecap
1 LJ
0.639 LW
N
394 120 M
390.63 120 L
S
GR
GS
[0.78197 0 0 0.78377 0 -0.07875] CT
0.149 GC
2 setlinecap
1 LJ
0.639 LW
N
394 68 M
390.63 68 L
S
GR
GS
[0.78197 0 0 0.78377 0 -0.07875] CT
0.149 GC
2 setlinecap
1 LJ
0.639 LW
N
394 16 M
390.63 16 L
S
GR
GS
[0.78197 0 0 0.78377 40.17595 134.73021] CT
0.149 GC
N
/f1104461079{-18.202 3.68 M
-18.202 3.149 L
-16.327 3.149 -16.327 2.68 QT
-16.327 -5.195 L
-17.108 -4.82 -18.296 -4.82 QT
-18.296 -5.351 L
-16.452 -5.351 -15.515 -6.304 QT
-15.296 -6.304 L
-15.249 -6.304 -15.202 -6.265 QT
-15.155 -6.226 -15.155 -6.179 QT
-15.155 2.68 L
-15.155 3.149 -13.28 3.149 QT
-13.28 3.68 L
-18.202 3.68 L
cp}def
f1104461079
f
GR
GS
[0.78197 0 0 0.78377 40.17595 134.73021] CT
0.149 GC
N
/f-606985051{-10.66 2.852 M
-10.66 2.508 -10.41 2.274 QT
-10.16 2.039 -9.832 2.039 QT
-9.629 2.039 -9.434 2.149 QT
-9.238 2.258 -9.129 2.453 QT
-9.02 2.649 -9.02 2.852 QT
-9.02 3.18 -9.262 3.43 QT
-9.504 3.68 -9.832 3.68 QT
-10.16 3.68 -10.41 3.43 QT
-10.66 3.18 -10.66 2.852 QT
cp}def
f-606985051
f
GR
GS
[0.78197 0 0 0.78377 40.17595 134.73021] CT
0.149 GC
N
/f-321985110{-6.37 1.977 M
-6.214 2.414 -5.893 2.774 QT
-5.573 3.133 -5.135 3.336 QT
-4.698 3.539 -4.229 3.539 QT
-3.151 3.539 -2.737 2.696 QT
-2.323 1.852 -2.323 0.649 QT
-2.323 0.133 -2.346 -0.226 QT
-2.37 -0.586 -2.448 -0.914 QT
-2.589 -1.445 -2.932 -1.836 QT
-3.276 -2.226 -3.792 -2.226 QT
-4.292 -2.226 -4.651 -2.078 QT
-5.01 -1.929 -5.237 -1.718 QT
-5.464 -1.508 -5.643 -1.281 QT
-5.823 -1.054 -5.87 -1.039 QT
-6.026 -1.039 L
-6.073 -1.039 -6.128 -1.086 QT
-6.182 -1.133 -6.182 -1.179 QT
-6.182 -6.195 L
-6.182 -6.226 -6.135 -6.265 QT
-6.089 -6.304 -6.026 -6.304 QT
-5.995 -6.304 L
-4.979 -5.82 -3.839 -5.82 QT
-2.729 -5.82 -1.698 -6.304 QT
-1.651 -6.304 L
-1.604 -6.304 -1.557 -6.273 QT
-1.51 -6.242 -1.51 -6.195 QT
-1.51 -6.054 L
-1.51 -5.976 -1.542 -5.976 QT
-2.057 -5.304 -2.831 -4.922 QT
-3.604 -4.539 -4.432 -4.539 QT
-5.026 -4.539 -5.667 -4.711 QT
-5.667 -1.867 L
-5.167 -2.273 -4.776 -2.445 QT
-4.385 -2.617 -3.776 -2.617 QT
-2.948 -2.617 -2.292 -2.14 QT
-1.635 -1.664 -1.284 -0.898 QT
-0.932 -0.133 -0.932 0.664 QT
-0.932 1.571 -1.37 2.336 QT
-1.807 3.102 -2.573 3.555 QT
-3.339 4.008 -4.229 4.008 QT
-4.964 4.008 -5.589 3.625 QT
-6.214 3.242 -6.565 2.602 QT
-6.917 1.961 -6.917 1.227 QT
-6.917 0.899 -6.698 0.688 QT
-6.479 0.477 -6.151 0.477 QT
-5.823 0.477 -5.596 0.688 QT
-5.37 0.899 -5.37 1.227 QT
-5.37 1.555 -5.596 1.782 QT
-5.823 2.008 -6.151 2.008 QT
-6.198 2.008 -6.268 1.992 QT
-6.339 1.977 -6.37 1.977 QT
cp}def
f-321985110
f
GR
GS
[0.78197 0 0 0.78377 40.17595 93.97401] CT
0.149 GC
N
/f274154036{-6.917 3.68 M
-6.917 3.274 L
-6.917 3.242 -6.885 3.196 QT
-4.557 0.617 L
-4.026 0.039 -3.698 -0.343 QT
-3.37 -0.726 -3.05 -1.234 QT
-2.729 -1.742 -2.542 -2.265 QT
-2.354 -2.789 -2.354 -3.367 QT
-2.354 -3.992 -2.581 -4.554 QT
-2.807 -5.117 -3.26 -5.453 QT
-3.714 -5.789 -4.354 -5.789 QT
-4.995 -5.789 -5.518 -5.39 QT
-6.042 -4.992 -6.26 -4.383 QT
-6.198 -4.398 -6.089 -4.398 QT
-5.76 -4.398 -5.518 -4.172 QT
-5.276 -3.945 -5.276 -3.586 QT
-5.276 -3.242 -5.518 -3 QT
-5.76 -2.758 -6.089 -2.758 QT
-6.448 -2.758 -6.682 -3 QT
-6.917 -3.242 -6.917 -3.586 QT
-6.917 -4.148 -6.706 -4.64 QT
-6.495 -5.133 -6.096 -5.515 QT
-5.698 -5.898 -5.198 -6.101 QT
-4.698 -6.304 -4.135 -6.304 QT
-3.276 -6.304 -2.534 -5.945 QT
-1.792 -5.586 -1.362 -4.922 QT
-0.932 -4.258 -0.932 -3.367 QT
-0.932 -2.726 -1.214 -2.14 QT
-1.495 -1.554 -1.94 -1.07 QT
-2.385 -0.586 -3.089 0.024 QT
-3.792 0.633 -4.01 0.836 QT
-5.698 2.461 L
-4.26 2.461 L
-3.198 2.461 -2.487 2.446 QT
-1.776 2.43 -1.729 2.383 QT
-1.557 2.196 -1.37 1.008 QT
-0.932 1.008 L
-1.354 3.68 L
-6.917 3.68 L
cp}def
f274154036
f
GR
GS
[0.78197 0 0 0.78377 40.17595 53.21782] CT
0.149 GC
N
/f-1762818458{-18.843 3.68 M
-18.843 3.274 L
-18.843 3.242 -18.811 3.196 QT
-16.483 0.617 L
-15.952 0.039 -15.624 -0.343 QT
-15.296 -0.726 -14.975 -1.234 QT
-14.655 -1.742 -14.468 -2.265 QT
-14.28 -2.789 -14.28 -3.367 QT
-14.28 -3.992 -14.507 -4.554 QT
-14.733 -5.117 -15.186 -5.453 QT
-15.64 -5.789 -16.28 -5.789 QT
-16.921 -5.789 -17.444 -5.39 QT
-17.968 -4.992 -18.186 -4.383 QT
-18.124 -4.398 -18.015 -4.398 QT
-17.686 -4.398 -17.444 -4.172 QT
-17.202 -3.945 -17.202 -3.586 QT
-17.202 -3.242 -17.444 -3 QT
-17.686 -2.758 -18.015 -2.758 QT
-18.374 -2.758 -18.608 -3 QT
-18.843 -3.242 -18.843 -3.586 QT
-18.843 -4.148 -18.632 -4.64 QT
-18.421 -5.133 -18.022 -5.515 QT
-17.624 -5.898 -17.124 -6.101 QT
-16.624 -6.304 -16.061 -6.304 QT
-15.202 -6.304 -14.46 -5.945 QT
-13.718 -5.586 -13.288 -4.922 QT
-12.858 -4.258 -12.858 -3.367 QT
-12.858 -2.726 -13.14 -2.14 QT
-13.421 -1.554 -13.866 -1.07 QT
-14.311 -0.586 -15.015 0.024 QT
-15.718 0.633 -15.936 0.836 QT
-17.624 2.461 L
-16.186 2.461 L
-15.124 2.461 -14.413 2.446 QT
-13.702 2.43 -13.655 2.383 QT
-13.483 2.196 -13.296 1.008 QT
-12.858 1.008 L
-13.28 3.68 L
-18.843 3.68 L
cp}def
f-1762818458
f
GR
GS
[0.78197 0 0 0.78377 40.17595 53.21782] CT
0.149 GC
N
f-606985051
f
GR
GS
[0.78197 0 0 0.78377 40.17595 53.21782] CT
0.149 GC
N
f-321985110
f
GR
GS
[0.78197 0 0 0.78377 40.17595 12.46162] CT
0.149 GC
N
/f840161037{-6.245 2.524 M
-5.885 3.039 -5.292 3.289 QT
-4.698 3.539 -4.026 3.539 QT
-3.151 3.539 -2.784 2.789 QT
-2.417 2.039 -2.417 1.102 QT
-2.417 0.68 -2.495 0.25 QT
-2.573 -0.179 -2.753 -0.539 QT
-2.932 -0.898 -3.253 -1.125 QT
-3.573 -1.351 -4.026 -1.351 QT
-5.026 -1.351 L
-5.167 -1.351 -5.167 -1.476 QT
-5.167 -1.617 L
-5.167 -1.726 -5.026 -1.726 QT
-4.198 -1.804 L
-3.682 -1.804 -3.331 -2.195 QT
-2.979 -2.586 -2.815 -3.156 QT
-2.651 -3.726 -2.651 -4.242 QT
-2.651 -4.961 -2.987 -5.422 QT
-3.323 -5.883 -4.026 -5.883 QT
-4.589 -5.883 -5.112 -5.664 QT
-5.635 -5.445 -5.932 -5.008 QT
-5.901 -5.008 -5.885 -5.015 QT
-5.87 -5.023 -5.839 -5.023 QT
-5.495 -5.023 -5.268 -4.789 QT
-5.042 -4.554 -5.042 -4.226 QT
-5.042 -3.898 -5.268 -3.664 QT
-5.495 -3.429 -5.839 -3.429 QT
-6.167 -3.429 -6.401 -3.664 QT
-6.635 -3.898 -6.635 -4.226 QT
-6.635 -4.867 -6.245 -5.343 QT
-5.854 -5.82 -5.245 -6.062 QT
-4.635 -6.304 -4.026 -6.304 QT
-3.557 -6.304 -3.057 -6.172 QT
-2.557 -6.039 -2.143 -5.789 QT
-1.729 -5.539 -1.471 -5.14 QT
-1.214 -4.742 -1.214 -4.242 QT
-1.214 -3.601 -1.495 -3.07 QT
-1.776 -2.539 -2.268 -2.148 QT
-2.76 -1.758 -3.339 -1.57 QT
-2.698 -1.445 -2.112 -1.078 QT
-1.526 -0.711 -1.167 -0.14 QT
-0.807 0.43 -0.807 1.086 QT
-0.807 1.914 -1.26 2.586 QT
-1.714 3.258 -2.456 3.633 QT
-3.198 4.008 -4.026 4.008 QT
-4.729 4.008 -5.432 3.742 QT
-6.135 3.477 -6.589 2.938 QT
-7.042 2.399 -7.042 1.664 QT
-7.042 1.289 -6.792 1.039 QT
-6.542 0.789 -6.167 0.789 QT
-5.917 0.789 -5.721 0.899 QT
-5.526 1.008 -5.409 1.219 QT
-5.292 1.43 -5.292 1.664 QT
-5.292 2.024 -5.55 2.274 QT
-5.807 2.524 -6.167 2.524 QT
-6.245 2.524 L
cp}def
f840161037
f
GR
GS
[0 -0.78377 0.78197 0 21.8575 73.59586] CT
0.149 GC
N
/f703351787{-79.718 -6.072 M
-79.718 -6.666 L
-77.968 -6.666 -77.968 -7.213 QT
-77.968 -16.541 L
-77.968 -17.088 -79.718 -17.088 QT
-79.718 -17.681 L
-73.671 -17.681 L
-72.734 -17.681 -71.804 -17.299 QT
-70.875 -16.916 -70.273 -16.189 QT
-69.671 -15.463 -69.671 -14.494 QT
-69.671 -13.541 -70.281 -12.83 QT
-70.89 -12.119 -71.812 -11.744 QT
-72.734 -11.369 -73.671 -11.369 QT
-76.39 -11.369 L
-76.39 -7.213 L
-76.39 -6.666 -74.64 -6.666 QT
-74.64 -6.072 L
-79.718 -6.072 L
cp
-76.437 -11.885 M
-74.125 -11.885 L
-73.187 -11.885 -72.609 -12.15 QT
-72.031 -12.416 -71.757 -12.986 QT
-71.484 -13.556 -71.484 -14.494 QT
-71.484 -15.869 -72.093 -16.478 QT
-72.703 -17.088 -74.125 -17.088 QT
-75.578 -17.088 L
-75.875 -17.088 -76.046 -17.064 QT
-76.218 -17.041 -76.328 -16.916 QT
-76.437 -16.791 -76.437 -16.541 QT
-76.437 -11.885 L
cp}def
f703351787
f
GR
GS
[0 -0.78377 0.78197 0 21.8575 73.59586] CT
0.149 GC
N
/f637063121{-68.365 -6.072 M
-68.365 -6.666 L
-67.786 -6.666 -67.411 -6.76 QT
-67.036 -6.853 -67.036 -7.213 QT
-67.036 -11.853 L
-67.036 -12.306 -67.169 -12.51 QT
-67.302 -12.713 -67.56 -12.76 QT
-67.818 -12.806 -68.365 -12.806 QT
-68.365 -13.4 L
-65.927 -13.588 L
-65.927 -11.931 L
-65.661 -12.666 -65.154 -13.127 QT
-64.646 -13.588 -63.927 -13.588 QT
-63.411 -13.588 -63.013 -13.291 QT
-62.615 -12.994 -62.615 -12.494 QT
-62.615 -12.197 -62.833 -11.963 QT
-63.052 -11.728 -63.38 -11.728 QT
-63.693 -11.728 -63.919 -11.955 QT
-64.146 -12.181 -64.146 -12.494 QT
-64.146 -12.947 -63.818 -13.15 QT
-63.927 -13.15 L
-64.615 -13.15 -65.044 -12.65 QT
-65.474 -12.15 -65.661 -11.408 QT
-65.849 -10.666 -65.849 -9.994 QT
-65.849 -7.213 L
-65.849 -6.666 -64.193 -6.666 QT
-64.193 -6.072 L
-68.365 -6.072 L
cp}def
f637063121
f
GR
GS
[0 -0.78377 0.78197 0 21.8575 73.59586] CT
0.149 GC
N
/f-1968451821{-57.962 -5.885 M
-58.993 -5.885 -59.86 -6.424 QT
-60.727 -6.963 -61.227 -7.877 QT
-61.727 -8.791 -61.727 -9.806 QT
-61.727 -10.791 -61.274 -11.689 QT
-60.821 -12.588 -60.008 -13.142 QT
-59.196 -13.697 -58.196 -13.697 QT
-57.43 -13.697 -56.852 -13.431 QT
-56.274 -13.166 -55.899 -12.705 QT
-55.524 -12.244 -55.329 -11.611 QT
-55.133 -10.978 -55.133 -10.228 QT
-55.133 -9.994 -55.321 -9.994 QT
-60.243 -9.994 L
-60.243 -9.822 L
-60.243 -8.4 -59.673 -7.392 QT
-59.102 -6.385 -57.805 -6.385 QT
-57.29 -6.385 -56.844 -6.611 QT
-56.399 -6.838 -56.071 -7.26 QT
-55.743 -7.681 -55.633 -8.15 QT
-55.618 -8.213 -55.571 -8.252 QT
-55.524 -8.291 -55.462 -8.291 QT
-55.321 -8.291 L
-55.133 -8.291 -55.133 -8.088 QT
-55.383 -7.119 -56.18 -6.502 QT
-56.977 -5.885 -57.962 -5.885 QT
cp
-60.227 -10.416 M
-56.337 -10.416 L
-56.337 -11.056 -56.516 -11.713 QT
-56.696 -12.369 -57.11 -12.806 QT
-57.524 -13.244 -58.196 -13.244 QT
-59.165 -13.244 -59.696 -12.345 QT
-60.227 -11.447 -60.227 -10.416 QT
cp}def
f-1968451821
f
GR
GS
[0 -0.78377 0.78197 0 21.8575 73.59586] CT
0.149 GC
N
/f1972102550{-50.543 -5.885 M
-51.559 -5.885 -52.387 -6.424 QT
-53.215 -6.963 -53.676 -7.853 QT
-54.137 -8.744 -54.137 -9.744 QT
-54.137 -10.775 -53.637 -11.658 QT
-53.137 -12.541 -52.27 -13.064 QT
-51.403 -13.588 -50.372 -13.588 QT
-49.747 -13.588 -49.192 -13.322 QT
-48.637 -13.056 -48.231 -12.603 QT
-48.231 -16.135 L
-48.231 -16.588 -48.364 -16.791 QT
-48.497 -16.994 -48.754 -17.041 QT
-49.012 -17.088 -49.543 -17.088 QT
-49.543 -17.681 L
-47.028 -17.869 L
-47.028 -7.619 L
-47.028 -7.166 -46.895 -6.963 QT
-46.762 -6.76 -46.504 -6.713 QT
-46.247 -6.666 -45.715 -6.666 QT
-45.715 -6.072 L
-48.278 -5.885 L
-48.278 -6.947 L
-48.715 -6.447 -49.325 -6.166 QT
-49.934 -5.885 -50.543 -5.885 QT
cp
-52.278 -7.556 M
-51.997 -6.994 -51.512 -6.658 QT
-51.028 -6.322 -50.45 -6.322 QT
-49.747 -6.322 -49.153 -6.736 QT
-48.559 -7.15 -48.278 -7.791 QT
-48.278 -11.869 L
-48.481 -12.244 -48.778 -12.533 QT
-49.075 -12.822 -49.457 -12.986 QT
-49.84 -13.15 -50.262 -13.15 QT
-51.153 -13.15 -51.692 -12.642 QT
-52.231 -12.135 -52.442 -11.353 QT
-52.653 -10.572 -52.653 -9.728 QT
-52.653 -9.041 -52.582 -8.533 QT
-52.512 -8.025 -52.278 -7.556 QT
cp}def
f1972102550
f
GR
GS
[0 -0.78377 0.78197 0 21.8575 73.59586] CT
0.149 GC
N
/f-1147856837{-44.814 -6.072 M
-44.814 -6.666 L
-44.22 -6.666 -43.853 -6.76 QT
-43.486 -6.853 -43.486 -7.213 QT
-43.486 -11.853 L
-43.486 -12.51 -43.736 -12.658 QT
-43.986 -12.806 -44.736 -12.806 QT
-44.736 -13.4 L
-42.282 -13.588 L
-42.282 -7.213 L
-42.282 -6.853 -41.962 -6.76 QT
-41.642 -6.666 -41.095 -6.666 QT
-41.095 -6.072 L
-44.814 -6.072 L
cp
-44.079 -16.51 M
-44.079 -16.885 -43.798 -17.166 QT
-43.517 -17.447 -43.157 -17.447 QT
-42.907 -17.447 -42.689 -17.322 QT
-42.47 -17.197 -42.345 -16.97 QT
-42.22 -16.744 -42.22 -16.51 QT
-42.22 -16.135 -42.501 -15.853 QT
-42.782 -15.572 -43.157 -15.572 QT
-43.517 -15.572 -43.798 -15.853 QT
-44.079 -16.135 -44.079 -16.51 QT
cp}def
f-1147856837
f
GR
GS
[0 -0.78377 0.78197 0 21.8575 73.59586] CT
0.149 GC
N
/f-294720440{-36.41 -5.885 M
-37.441 -5.885 -38.277 -6.416 QT
-39.113 -6.947 -39.597 -7.845 QT
-40.082 -8.744 -40.082 -9.744 QT
-40.082 -10.744 -39.605 -11.666 QT
-39.128 -12.588 -38.285 -13.142 QT
-37.441 -13.697 -36.41 -13.697 QT
-35.41 -13.697 -34.597 -13.306 QT
-33.785 -12.916 -33.785 -12.025 QT
-33.785 -11.697 -34.019 -11.447 QT
-34.253 -11.197 -34.597 -11.197 QT
-34.925 -11.197 -35.168 -11.447 QT
-35.41 -11.697 -35.41 -12.025 QT
-35.41 -12.322 -35.214 -12.541 QT
-35.019 -12.76 -34.738 -12.822 QT
-35.332 -13.197 -36.394 -13.197 QT
-37.207 -13.197 -37.707 -12.658 QT
-38.207 -12.119 -38.402 -11.322 QT
-38.597 -10.525 -38.597 -9.744 QT
-38.597 -8.916 -38.355 -8.15 QT
-38.113 -7.385 -37.566 -6.885 QT
-37.019 -6.385 -36.207 -6.385 QT
-35.394 -6.385 -34.832 -6.877 QT
-34.269 -7.369 -34.066 -8.166 QT
-34.066 -8.26 -33.925 -8.26 QT
-33.722 -8.26 L
-33.675 -8.26 -33.628 -8.213 QT
-33.582 -8.166 -33.582 -8.119 QT
-33.582 -8.072 L
-33.847 -7.056 -34.613 -6.47 QT
-35.378 -5.885 -36.41 -5.885 QT
cp}def
f-294720440
f
GR
GS
[0 -0.78377 0.78197 0 21.8575 73.59586] CT
0.149 GC
N
/f-2145920326{-31.413 -8.119 M
-31.413 -12.806 L
-32.82 -12.806 L
-32.82 -13.244 L
-31.71 -13.244 -31.187 -14.283 QT
-30.663 -15.322 -30.663 -16.525 QT
-30.179 -16.525 L
-30.179 -13.4 L
-27.773 -13.4 L
-27.773 -12.806 L
-30.179 -12.806 L
-30.179 -8.15 L
-30.179 -7.447 -29.945 -6.916 QT
-29.71 -6.385 -29.085 -6.385 QT
-28.507 -6.385 -28.249 -6.939 QT
-27.992 -7.494 -27.992 -8.15 QT
-27.992 -9.15 L
-27.507 -9.15 L
-27.507 -8.119 L
-27.507 -7.588 -27.702 -7.064 QT
-27.898 -6.541 -28.281 -6.213 QT
-28.663 -5.885 -29.21 -5.885 QT
-30.226 -5.885 -30.82 -6.494 QT
-31.413 -7.103 -31.413 -8.119 QT
cp}def
f-2145920326
f
GR
GS
[0 -0.78377 0.78197 0 21.8575 73.59586] CT
0.149 GC
N
/f-971787450{-25.901 -7.744 M
-25.901 -8.76 -25.104 -9.392 QT
-24.307 -10.025 -23.198 -10.283 QT
-22.088 -10.541 -21.073 -10.541 QT
-21.073 -11.244 L
-21.073 -11.728 -21.292 -12.189 QT
-21.51 -12.65 -21.917 -12.947 QT
-22.323 -13.244 -22.807 -13.244 QT
-23.948 -13.244 -24.526 -12.744 QT
-24.213 -12.744 -23.995 -12.494 QT
-23.776 -12.244 -23.776 -11.931 QT
-23.776 -11.588 -24.018 -11.345 QT
-24.26 -11.103 -24.588 -11.103 QT
-24.932 -11.103 -25.174 -11.345 QT
-25.417 -11.588 -25.417 -11.931 QT
-25.417 -12.822 -24.604 -13.26 QT
-23.792 -13.697 -22.807 -13.697 QT
-22.12 -13.697 -21.424 -13.4 QT
-20.729 -13.103 -20.284 -12.556 QT
-19.838 -12.01 -19.838 -11.275 QT
-19.838 -7.447 L
-19.838 -7.119 -19.698 -6.838 QT
-19.557 -6.556 -19.26 -6.556 QT
-18.979 -6.556 -18.838 -6.838 QT
-18.698 -7.119 -18.698 -7.447 QT
-18.698 -8.541 L
-18.198 -8.541 L
-18.198 -7.447 L
-18.198 -7.072 -18.401 -6.728 QT
-18.604 -6.385 -18.94 -6.181 QT
-19.276 -5.978 -19.667 -5.978 QT
-20.167 -5.978 -20.526 -6.361 QT
-20.885 -6.744 -20.932 -7.275 QT
-21.245 -6.635 -21.854 -6.26 QT
-22.463 -5.885 -23.167 -5.885 QT
-23.823 -5.885 -24.448 -6.072 QT
-25.073 -6.26 -25.487 -6.674 QT
-25.901 -7.088 -25.901 -7.744 QT
cp
-24.526 -7.744 M
-24.526 -7.15 -24.088 -6.736 QT
-23.651 -6.322 -23.057 -6.322 QT
-22.51 -6.322 -22.057 -6.603 QT
-21.604 -6.885 -21.338 -7.353 QT
-21.073 -7.822 -21.073 -8.353 QT
-21.073 -10.119 L
-21.854 -10.119 -22.659 -9.861 QT
-23.463 -9.603 -23.995 -9.064 QT
-24.526 -8.525 -24.526 -7.744 QT
cp}def
f-971787450
f
GR
GS
[0 -0.78377 0.78197 0 21.8575 73.59586] CT
0.149 GC
N
/f-1930963058{-16.39 -6.072 M
-16.39 -16.135 L
-16.39 -16.588 -16.522 -16.791 QT
-16.655 -16.994 -16.913 -17.041 QT
-17.171 -17.088 -17.718 -17.088 QT
-17.718 -17.681 L
-15.202 -17.869 L
-15.202 -12.541 L
-14.921 -12.869 -14.538 -13.103 QT
-14.155 -13.338 -13.725 -13.463 QT
-13.296 -13.588 -12.858 -13.588 QT
-12.093 -13.588 -11.436 -13.275 QT
-10.78 -12.963 -10.304 -12.424 QT
-9.827 -11.885 -9.554 -11.189 QT
-9.28 -10.494 -9.28 -9.744 QT
-9.28 -8.713 -9.78 -7.822 QT
-10.28 -6.931 -11.147 -6.408 QT
-12.015 -5.885 -13.061 -5.885 QT
-13.702 -5.885 -14.311 -6.213 QT
-14.921 -6.541 -15.311 -7.088 QT
-15.89 -6.072 L
-16.39 -6.072 L
cp
-15.155 -7.744 M
-14.874 -7.119 -14.343 -6.72 QT
-13.811 -6.322 -13.155 -6.322 QT
-12.28 -6.322 -11.733 -6.83 QT
-11.186 -7.338 -10.975 -8.111 QT
-10.765 -8.885 -10.765 -9.744 QT
-10.765 -11.181 -11.14 -11.931 QT
-11.296 -12.26 -11.585 -12.541 QT
-11.874 -12.822 -12.225 -12.986 QT
-12.577 -13.15 -12.968 -13.15 QT
-13.655 -13.15 -14.233 -12.783 QT
-14.811 -12.416 -15.155 -11.822 QT
-15.155 -7.744 L
cp}def
f-1930963058
f
GR
GS
[0 -0.78377 0.78197 0 21.8575 73.59586] CT
0.149 GC
N
/f-2087113757{-8.269 -6.072 M
-8.269 -6.666 L
-7.675 -6.666 -7.308 -6.76 QT
-6.941 -6.853 -6.941 -7.213 QT
-6.941 -11.853 L
-6.941 -12.51 -7.191 -12.658 QT
-7.441 -12.806 -8.191 -12.806 QT
-8.191 -13.4 L
-5.738 -13.588 L
-5.738 -7.213 L
-5.738 -6.853 -5.418 -6.76 QT
-5.097 -6.666 -4.55 -6.666 QT
-4.55 -6.072 L
-8.269 -6.072 L
cp
-7.535 -16.51 M
-7.535 -16.885 -7.253 -17.166 QT
-6.972 -17.447 -6.613 -17.447 QT
-6.363 -17.447 -6.144 -17.322 QT
-5.925 -17.197 -5.8 -16.97 QT
-5.675 -16.744 -5.675 -16.51 QT
-5.675 -16.135 -5.957 -15.853 QT
-6.238 -15.572 -6.613 -15.572 QT
-6.972 -15.572 -7.253 -15.853 QT
-7.535 -16.135 -7.535 -16.51 QT
cp}def
f-2087113757
f
GR
GS
[0 -0.78377 0.78197 0 21.8575 73.59586] CT
0.149 GC
N
/f-1969986061{-3.584 -6.072 M
-3.584 -6.666 L
-2.99 -6.666 -2.623 -6.76 QT
-2.256 -6.853 -2.256 -7.213 QT
-2.256 -16.135 L
-2.256 -16.588 -2.389 -16.791 QT
-2.521 -16.994 -2.779 -17.041 QT
-3.037 -17.088 -3.584 -17.088 QT
-3.584 -17.681 L
-1.053 -17.869 L
-1.053 -7.213 L
-1.053 -6.853 -0.678 -6.76 QT
-0.303 -6.666 0.26 -6.666 QT
0.26 -6.072 L
-3.584 -6.072 L
cp}def
f-1969986061
f
GR
GS
[0 -0.78377 0.78197 0 21.8575 73.59586] CT
0.149 GC
N
/f799187272{1.101 -6.072 M
1.101 -6.666 L
1.695 -6.666 2.062 -6.76 QT
2.429 -6.853 2.429 -7.213 QT
2.429 -11.853 L
2.429 -12.51 2.179 -12.658 QT
1.929 -12.806 1.179 -12.806 QT
1.179 -13.4 L
3.633 -13.588 L
3.633 -7.213 L
3.633 -6.853 3.953 -6.76 QT
4.273 -6.666 4.82 -6.666 QT
4.82 -6.072 L
1.101 -6.072 L
cp
1.836 -16.51 M
1.836 -16.885 2.117 -17.166 QT
2.398 -17.447 2.758 -17.447 QT
3.008 -17.447 3.226 -17.322 QT
3.445 -17.197 3.57 -16.97 QT
3.695 -16.744 3.695 -16.51 QT
3.695 -16.135 3.414 -15.853 QT
3.133 -15.572 2.758 -15.572 QT
2.398 -15.572 2.117 -15.853 QT
1.836 -16.135 1.836 -16.51 QT
cp}def
f799187272
f
GR
GS
[0 -0.78377 0.78197 0 21.8575 73.59586] CT
0.149 GC
N
/f1800554851{7.005 -8.119 M
7.005 -12.806 L
5.599 -12.806 L
5.599 -13.244 L
6.708 -13.244 7.232 -14.283 QT
7.755 -15.322 7.755 -16.525 QT
8.24 -16.525 L
8.24 -13.4 L
10.646 -13.4 L
10.646 -12.806 L
8.24 -12.806 L
8.24 -8.15 L
8.24 -7.447 8.474 -6.916 QT
8.708 -6.385 9.333 -6.385 QT
9.911 -6.385 10.169 -6.939 QT
10.427 -7.494 10.427 -8.15 QT
10.427 -9.15 L
10.911 -9.15 L
10.911 -8.119 L
10.911 -7.588 10.716 -7.064 QT
10.521 -6.541 10.138 -6.213 QT
9.755 -5.885 9.208 -5.885 QT
8.193 -5.885 7.599 -6.494 QT
7.005 -7.103 7.005 -8.119 QT
cp}def
f1800554851
f
GR
GS
[0 -0.78377 0.78197 0 21.8575 73.59586] CT
0.149 GC
N
/f1786242575{12.533 -3.275 M
12.862 -3.025 13.252 -3.025 QT
14.315 -3.025 15.002 -4.65 QT
15.58 -6.072 L
13.033 -12.322 L
12.877 -12.635 12.549 -12.72 QT
12.221 -12.806 11.69 -12.806 QT
11.69 -13.4 L
15.252 -13.4 L
15.252 -12.806 L
14.315 -12.806 14.315 -12.4 QT
14.315 -12.338 14.33 -12.291 QT
16.221 -7.65 L
17.924 -11.838 L
17.971 -11.963 17.971 -12.119 QT
17.971 -12.338 17.862 -12.486 QT
17.752 -12.635 17.573 -12.72 QT
17.393 -12.806 17.174 -12.806 QT
17.174 -13.4 L
20.002 -13.4 L
20.002 -12.806 L
19.471 -12.806 19.08 -12.564 QT
18.69 -12.322 18.471 -11.853 QT
15.533 -4.65 L
15.299 -4.103 14.987 -3.642 QT
14.674 -3.181 14.229 -2.885 QT
13.783 -2.588 13.252 -2.588 QT
12.627 -2.588 12.158 -2.994 QT
11.69 -3.4 11.69 -4.01 QT
11.69 -4.322 11.901 -4.541 QT
12.112 -4.76 12.44 -4.76 QT
12.643 -4.76 12.815 -4.666 QT
12.987 -4.572 13.08 -4.408 QT
13.174 -4.244 13.174 -4.01 QT
13.174 -3.744 12.994 -3.525 QT
12.815 -3.306 12.533 -3.275 QT
cp}def
f1786242575
f
GR
GS
[0 -0.78377 0.78197 0 21.8575 73.59586] CT
0.149 GC
N
/f1885825088{26.386 -6.072 M
26.386 -6.666 L
26.979 -6.666 27.347 -6.76 QT
27.714 -6.853 27.714 -7.213 QT
27.714 -16.135 L
27.714 -16.588 27.581 -16.791 QT
27.448 -16.994 27.19 -17.041 QT
26.933 -17.088 26.386 -17.088 QT
26.386 -17.681 L
28.917 -17.869 L
28.917 -12.025 L
29.276 -12.728 29.917 -13.158 QT
30.558 -13.588 31.323 -13.588 QT
32.495 -13.588 33.089 -13.025 QT
33.683 -12.463 33.683 -11.291 QT
33.683 -7.213 L
33.683 -6.853 34.058 -6.76 QT
34.433 -6.666 35.011 -6.666 QT
35.011 -6.072 L
31.12 -6.072 L
31.12 -6.666 L
31.698 -6.666 32.073 -6.76 QT
32.448 -6.853 32.448 -7.213 QT
32.448 -11.244 L
32.448 -12.072 32.206 -12.611 QT
31.964 -13.15 31.229 -13.15 QT
30.229 -13.15 29.597 -12.361 QT
28.964 -11.572 28.964 -10.556 QT
28.964 -7.213 L
28.964 -6.853 29.339 -6.76 QT
29.714 -6.666 30.292 -6.666 QT
30.292 -6.072 L
26.386 -6.072 L
cp}def
f1885825088
f
GR
GS
[0 -0.78377 0.78197 0 21.8575 73.59586] CT
0.149 GC
N
/f-1451844080{39.506 -5.885 M
38.49 -5.885 37.615 -6.4 QT
36.74 -6.916 36.233 -7.791 QT
35.725 -8.666 35.725 -9.697 QT
35.725 -10.478 36.006 -11.197 QT
36.287 -11.916 36.803 -12.486 QT
37.319 -13.056 38.006 -13.377 QT
38.694 -13.697 39.506 -13.697 QT
40.553 -13.697 41.412 -13.142 QT
42.272 -12.588 42.772 -11.666 QT
43.272 -10.744 43.272 -9.697 QT
43.272 -8.666 42.764 -7.791 QT
42.256 -6.916 41.389 -6.4 QT
40.522 -5.885 39.506 -5.885 QT
cp
39.506 -6.385 M
40.865 -6.385 41.326 -7.369 QT
41.787 -8.353 41.787 -9.885 QT
41.787 -10.744 41.694 -11.299 QT
41.6 -11.853 41.287 -12.322 QT
41.1 -12.603 40.803 -12.814 QT
40.506 -13.025 40.178 -13.135 QT
39.85 -13.244 39.506 -13.244 QT
38.975 -13.244 38.498 -13.002 QT
38.022 -12.76 37.709 -12.322 QT
37.397 -11.838 37.303 -11.26 QT
37.209 -10.681 37.209 -9.885 QT
37.209 -8.931 37.381 -8.174 QT
37.553 -7.416 38.053 -6.9 QT
38.553 -6.385 39.506 -6.385 QT
cp}def
f-1451844080
f
GR
GS
[0 -0.78377 0.78197 0 21.8575 73.59586] CT
0.149 GC
N
/f465633160{44.127 -6.072 M
44.127 -6.666 L
44.705 -6.666 45.08 -6.76 QT
45.455 -6.853 45.455 -7.213 QT
45.455 -11.853 L
45.455 -12.306 45.322 -12.51 QT
45.189 -12.713 44.932 -12.76 QT
44.674 -12.806 44.127 -12.806 QT
44.127 -13.4 L
46.564 -13.588 L
46.564 -11.931 L
46.83 -12.666 47.338 -13.127 QT
47.846 -13.588 48.564 -13.588 QT
49.08 -13.588 49.479 -13.291 QT
49.877 -12.994 49.877 -12.494 QT
49.877 -12.197 49.658 -11.963 QT
49.439 -11.728 49.111 -11.728 QT
48.799 -11.728 48.572 -11.955 QT
48.346 -12.181 48.346 -12.494 QT
48.346 -12.947 48.674 -13.15 QT
48.564 -13.15 L
47.877 -13.15 47.447 -12.65 QT
47.018 -12.15 46.83 -11.408 QT
46.643 -10.666 46.643 -9.994 QT
46.643 -7.213 L
46.643 -6.666 48.299 -6.666 QT
48.299 -6.072 L
44.127 -6.072 L
cp}def
f465633160
f
GR
GS
[0 -0.78377 0.78197 0 21.8575 73.59586] CT
0.149 GC
N
/f-2101899463{50.811 -6.072 M
50.811 -6.666 L
51.405 -6.666 51.772 -6.76 QT
52.139 -6.853 52.139 -7.213 QT
52.139 -11.853 L
52.139 -12.51 51.889 -12.658 QT
51.639 -12.806 50.889 -12.806 QT
50.889 -13.4 L
53.342 -13.588 L
53.342 -7.213 L
53.342 -6.853 53.663 -6.76 QT
53.983 -6.666 54.53 -6.666 QT
54.53 -6.072 L
50.811 -6.072 L
cp
51.546 -16.51 M
51.546 -16.885 51.827 -17.166 QT
52.108 -17.447 52.467 -17.447 QT
52.717 -17.447 52.936 -17.322 QT
53.155 -17.197 53.28 -16.97 QT
53.405 -16.744 53.405 -16.51 QT
53.405 -16.135 53.124 -15.853 QT
52.842 -15.572 52.467 -15.572 QT
52.108 -15.572 51.827 -15.853 QT
51.546 -16.135 51.546 -16.51 QT
cp}def
f-2101899463
f
GR
GS
[0 -0.78377 0.78197 0 21.8575 73.59586] CT
0.149 GC
N
/f-275353216{55.653 -6.072 M
55.45 -6.072 55.45 -6.26 QT
55.45 -6.4 L
55.45 -6.463 55.496 -6.51 QT
60.246 -12.947 L
58.731 -12.947 L
57.996 -12.947 57.528 -12.861 QT
57.059 -12.775 56.762 -12.517 QT
56.465 -12.26 56.325 -11.814 QT
56.184 -11.369 56.184 -10.603 QT
55.7 -10.603 L
55.887 -13.4 L
61.575 -13.4 L
61.653 -13.4 61.707 -13.345 QT
61.762 -13.291 61.762 -13.213 QT
61.762 -13.119 L
61.762 -13.056 61.731 -12.994 QT
56.981 -6.556 L
58.606 -6.556 L
59.34 -6.556 59.832 -6.65 QT
60.325 -6.744 60.668 -7.088 QT
60.996 -7.416 61.121 -7.963 QT
61.246 -8.51 61.309 -9.322 QT
61.793 -9.322 L
61.512 -6.072 L
55.653 -6.072 L
cp}def
f-275353216
f
GR
GS
[0 -0.78377 0.78197 0 21.8575 73.59586] CT
0.149 GC
N
/f1172541174{66.727 -5.885 M
65.711 -5.885 64.836 -6.4 QT
63.961 -6.916 63.454 -7.791 QT
62.946 -8.666 62.946 -9.697 QT
62.946 -10.478 63.227 -11.197 QT
63.508 -11.916 64.024 -12.486 QT
64.54 -13.056 65.227 -13.377 QT
65.915 -13.697 66.727 -13.697 QT
67.774 -13.697 68.633 -13.142 QT
69.493 -12.588 69.993 -11.666 QT
70.493 -10.744 70.493 -9.697 QT
70.493 -8.666 69.985 -7.791 QT
69.477 -6.916 68.61 -6.4 QT
67.743 -5.885 66.727 -5.885 QT
cp
66.727 -6.385 M
68.086 -6.385 68.547 -7.369 QT
69.008 -8.353 69.008 -9.885 QT
69.008 -10.744 68.915 -11.299 QT
68.821 -11.853 68.508 -12.322 QT
68.321 -12.603 68.024 -12.814 QT
67.727 -13.025 67.399 -13.135 QT
67.071 -13.244 66.727 -13.244 QT
66.196 -13.244 65.719 -13.002 QT
65.243 -12.76 64.93 -12.322 QT
64.618 -11.838 64.524 -11.26 QT
64.43 -10.681 64.43 -9.885 QT
64.43 -8.931 64.602 -8.174 QT
64.774 -7.416 65.274 -6.9 QT
65.774 -6.385 66.727 -6.385 QT
cp}def
f1172541174
f
GR
GS
[0 -0.78377 0.78197 0 21.8575 73.59586] CT
0.149 GC
N
/f-1529661898{71.41 -6.072 M
71.41 -6.666 L
72.004 -6.666 72.371 -6.76 QT
72.739 -6.853 72.739 -7.213 QT
72.739 -11.853 L
72.739 -12.306 72.606 -12.51 QT
72.473 -12.713 72.215 -12.76 QT
71.957 -12.806 71.41 -12.806 QT
71.41 -13.4 L
73.879 -13.588 L
73.879 -11.931 L
74.223 -12.65 74.895 -13.119 QT
75.567 -13.588 76.348 -13.588 QT
77.52 -13.588 78.114 -13.025 QT
78.707 -12.463 78.707 -11.291 QT
78.707 -7.213 L
78.707 -6.853 79.082 -6.76 QT
79.457 -6.666 80.035 -6.666 QT
80.035 -6.072 L
76.145 -6.072 L
76.145 -6.666 L
76.723 -6.666 77.098 -6.76 QT
77.473 -6.853 77.473 -7.213 QT
77.473 -11.244 L
77.473 -12.072 77.231 -12.611 QT
76.989 -13.15 76.254 -13.15 QT
75.254 -13.15 74.621 -12.361 QT
73.989 -11.572 73.989 -10.556 QT
73.989 -7.213 L
73.989 -6.853 74.364 -6.76 QT
74.739 -6.666 75.317 -6.666 QT
75.317 -6.072 L
71.41 -6.072 L
cp}def
f-1529661898
f
GR
GS
[0.78197 0 0 0.78377 0 -0.07875] CT
0.251 0.251 1 RC
1 LJ
1.917 LW
N
57 112.248 M
90.7 108.081 L
124.4 96.252 L
158.1 94.544 L
191.8 101.273 L
225.5 104.573 L
259.2 109.582 L
292.9 127.196 L
326.6 122.575 L
360.3 120.569 L
394 119.029 L
S
GR
GS
[0.78197 0 0 0.78377 44.57236 87.89811] CT
0.251 0.251 1 RC
10.0 ML
1.917 LW
N
-2.711 -2.711 M
2.711 2.711 L
-2.711 2.711 M
2.711 -2.711 L
S
GR
GS
[0.78197 0 0 0.78377 70.92479 84.63194] CT
0.251 0.251 1 RC
10.0 ML
1.917 LW
N
-2.711 -2.711 M
2.711 2.711 L
-2.711 2.711 M
2.711 -2.711 L
S
GR
GS
[0.78197 0 0 0.78377 97.27723 75.36086] CT
0.251 0.251 1 RC
10.0 ML
1.917 LW
N
-2.711 -2.711 M
2.711 2.711 L
-2.711 2.711 M
2.711 -2.711 L
S
GR
GS
[0.78197 0 0 0.78377 123.62966 74.02193] CT
0.251 0.251 1 RC
10.0 ML
1.917 LW
N
-2.711 -2.711 M
2.711 2.711 L
-2.711 2.711 M
2.711 -2.711 L
S
GR
GS
[0.78197 0 0 0.78377 149.98209 79.29651] CT
0.251 0.251 1 RC
10.0 ML
1.917 LW
N
-2.711 -2.711 M
2.711 2.711 L
-2.711 2.711 M
2.711 -2.711 L
S
GR
GS
[0.78197 0 0 0.78377 176.33452 81.88307] CT
0.251 0.251 1 RC
10.0 ML
1.917 LW
N
-2.711 -2.711 M
2.711 2.711 L
-2.711 2.711 M
2.711 -2.711 L
S
GR
GS
[0.78197 0 0 0.78377 202.68696 85.80858] CT
0.251 0.251 1 RC
10.0 ML
1.917 LW
N
-2.711 -2.711 M
2.711 2.711 L
-2.711 2.711 M
2.711 -2.711 L
S
GR
GS
[0.78197 0 0 0.78377 229.03938 99.61375] CT
0.251 0.251 1 RC
10.0 ML
1.917 LW
N
-2.711 -2.711 M
2.711 2.711 L
-2.711 2.711 M
2.711 -2.711 L
S
GR
GS
[0.78197 0 0 0.78377 255.39182 95.99256] CT
0.251 0.251 1 RC
10.0 ML
1.917 LW
N
-2.711 -2.711 M
2.711 2.711 L
-2.711 2.711 M
2.711 -2.711 L
S
GR
GS
[0.78197 0 0 0.78377 281.74424 94.42033] CT
0.251 0.251 1 RC
10.0 ML
1.917 LW
N
-2.711 -2.711 M
2.711 2.711 L
-2.711 2.711 M
2.711 -2.711 L
S
GR
GS
[0.78197 0 0 0.78377 308.09668 93.21327] CT
0.251 0.251 1 RC
10.0 ML
1.917 LW
N
-2.711 -2.711 M
2.711 2.711 L
-2.711 2.711 M
2.711 -2.711 L
S
GR
GS
[0.78197 0 0 0.78377 0 -0.07875] CT
1 0 0 RC
1 LJ
1.917 LW
N
57 111.316 M
90.7 109.595 L
124.4 103.616 L
158.1 118.447 L
191.8 115.432 L
225.5 119.896 L
259.2 129.849 L
292.9 133.33 L
326.6 137.769 L
360.3 145.599 L
394 129.887 L
S
GR
GS
[0.78197 0 0 0.78377 44.57236 87.1678] CT
1 0 0 RC
N
0 -2.875 M
1.588 -2.875 2.875 -1.588 2.875 0 C
2.875 0 L
2.875 1.588 1.588 2.875 0 2.875 C
-1.588 2.875 -2.875 1.588 -2.875 0 C
-2.875 -1.588 -1.588 -2.875 0 -2.875 C
cp
0 -4.792 M
-2.646 -4.792 -4.792 -2.646 -4.792 0 C
-4.792 2.646 -2.646 4.792 0 4.792 C
2.646 4.792 4.792 2.646 4.792 0 C
4.792 0 L
4.792 -2.646 2.646 -4.792 0 -4.792 C
cp
f
GR
GS
[0.78197 0 0 0.78377 70.92479 85.81872] CT
1 0 0 RC
N
/f-177638464{0 -2.875 M
1.588 -2.875 2.875 -1.588 2.875 0 C
2.875 0 L
2.875 1.588 1.588 2.875 0 2.875 C
-1.588 2.875 -2.875 1.588 -2.875 0 C
-2.875 -1.588 -1.588 -2.875 0 -2.875 C
cp
0 -4.792 M
-2.646 -4.792 -4.792 -2.646 -4.792 0 C
-4.792 2.646 -2.646 4.792 0 4.792 C
2.646 4.792 4.792 2.646 4.792 0 C
4.792 0 L
4.792 -2.646 2.646 -4.792 0 -4.792 C
cp}def
f-177638464
f
GR
GS
[0.78197 0 0 0.78377 97.27723 81.13247] CT
1 0 0 RC
N
f-177638464
f
GR
GS
[0.78197 0 0 0.78377 123.62966 92.7568] CT
1 0 0 RC
N
f-177638464
f
GR
GS
[0.78197 0 0 0.78377 149.98209 90.39339] CT
1 0 0 RC
N
f-177638464
f
GR
GS
[0.78197 0 0 0.78377 176.33452 93.89286] CT
1 0 0 RC
N
f-177638464
f
GR
GS
[0.78197 0 0 0.78377 202.68696 101.69316] CT
1 0 0 RC
N
f-177638464
f
GR
GS
[0.78197 0 0 0.78377 229.03938 104.42172] CT
1 0 0 RC
N
f-177638464
f
GR
GS
[0.78197 0 0 0.78377 255.39182 107.90091] CT
1 0 0 RC
N
f-177638464
f
GR
GS
[0.78197 0 0 0.78377 281.74424 114.03768] CT
1 0 0 RC
N
f-177638464
f
GR
GS
[0.78197 0 0 0.78377 308.09668 101.72357] CT
1 0 0 RC
N
f-177638464
f
GR
GS
[0.78197 0 0 0.78377 0 -0.07875] CT
0.251 0.251 1 RC
[10 6] 0 setdash
2 LJ
1.917 LW
N
57 65.619 M
90.7 49.791 L
124.4 57.711 L
158.1 58.591 L
191.8 63.496 L
225.5 44.731 L
259.2 67.935 L
292.9 83.452 L
326.6 74.173 L
360.3 59.601 L
394 90.299 L
S
GR
GS
[0.78197 0 0 0.78377 44.57236 51.35143] CT
0.251 0.251 1 RC
10.0 ML
1.917 LW
N
-2.711 -2.711 M
2.711 2.711 L
-2.711 2.711 M
2.711 -2.711 L
S
GR
GS
[0.78197 0 0 0.78377 70.92479 38.94604] CT
0.251 0.251 1 RC
10.0 ML
1.917 LW
N
-2.711 -2.711 M
2.711 2.711 L
-2.711 2.711 M
2.711 -2.711 L
S
GR
GS
[0.78197 0 0 0.78377 97.27723 45.1538] CT
0.251 0.251 1 RC
10.0 ML
1.917 LW
N
-2.711 -2.711 M
2.711 2.711 L
-2.711 2.711 M
2.711 -2.711 L
S
GR
GS
[0.78197 0 0 0.78377 123.62966 45.84356] CT
0.251 0.251 1 RC
10.0 ML
1.917 LW
N
-2.711 -2.711 M
2.711 2.711 L
-2.711 2.711 M
2.711 -2.711 L
S
GR
GS
[0.78197 0 0 0.78377 149.98209 49.68791] CT
0.251 0.251 1 RC
10.0 ML
1.917 LW
N
-2.711 -2.711 M
2.711 2.711 L
-2.711 2.711 M
2.711 -2.711 L
S
GR
GS
[0.78197 0 0 0.78377 176.33452 34.97997] CT
0.251 0.251 1 RC
10.0 ML
1.917 LW
N
-2.711 -2.711 M
2.711 2.711 L
-2.711 2.711 M
2.711 -2.711 L
S
GR
GS
[0.78197 0 0 0.78377 202.68696 53.1671] CT
0.251 0.251 1 RC
10.0 ML
1.917 LW
N
-2.711 -2.711 M
2.711 2.711 L
-2.711 2.711 M
2.711 -2.711 L
S
GR
GS
[0.78197 0 0 0.78377 229.03938 65.32903] CT
0.251 0.251 1 RC
10.0 ML
1.917 LW
N
-2.711 -2.711 M
2.711 2.711 L
-2.711 2.711 M
2.711 -2.711 L
S
GR
GS
[0.78197 0 0 0.78377 255.39182 58.05622] CT
0.251 0.251 1 RC
10.0 ML
1.917 LW
N
-2.711 -2.711 M
2.711 2.711 L
-2.711 2.711 M
2.711 -2.711 L
S
GR
GS
[0.78197 0 0 0.78377 281.74424 46.63474] CT
0.251 0.251 1 RC
10.0 ML
1.917 LW
N
-2.711 -2.711 M
2.711 2.711 L
-2.711 2.711 M
2.711 -2.711 L
S
GR
GS
[0.78197 0 0 0.78377 308.09668 70.69489] CT
0.251 0.251 1 RC
10.0 ML
1.917 LW
N
-2.711 -2.711 M
2.711 2.711 L
-2.711 2.711 M
2.711 -2.711 L
S
GR
GS
[0.78197 0 0 0.78377 0 -0.07875] CT
1 0 0 RC
[10 6] 0 setdash
2 LJ
1.917 LW
N
57 48.898 M
90.7 59.433 L
124.4 57.815 L
158.1 73.254 L
191.8 81.214 L
225.5 65.903 L
259.2 76.593 L
292.9 92.188 L
326.6 82.404 L
360.3 88.784 L
394 108.042 L
S
GR
GS
[0.78197 0 0 0.78377 44.57236 38.24616] CT
1 0 0 RC
N
f-177638464
f
GR
GS
[0.78197 0 0 0.78377 70.92479 46.50288] CT
1 0 0 RC
N
f-177638464
f
GR
GS
[0.78197 0 0 0.78377 97.27723 45.23496] CT
1 0 0 RC
N
f-177638464
f
GR
GS
[0.78197 0 0 0.78377 123.62966 57.33603] CT
1 0 0 RC
N
f-177638464
f
GR
GS
[0.78197 0 0 0.78377 149.98209 63.57423] CT
1 0 0 RC
N
f-177638464
f
GR
GS
[0.78197 0 0 0.78377 176.33452 51.57459] CT
1 0 0 RC
N
f-177638464
f
GR
GS
[0.78197 0 0 0.78377 202.68696 59.95304] CT
1 0 0 RC
N
f-177638464
f
GR
GS
[0.78197 0 0 0.78377 229.03938 72.17585] CT
1 0 0 RC
N
f-177638464
f
GR
GS
[0.78197 0 0 0.78377 255.39182 64.50742] CT
1 0 0 RC
N
f-177638464
f
GR
GS
[0.78197 0 0 0.78377 281.74424 69.50811] CT
1 0 0 RC
N
f-177638464
f
GR
GS
[0.78197 0 0 0.78377 308.09668 84.60151] CT
1 0 0 RC
N
f-177638464
f
GR
%%Trailer
%%Pages: 1
%%EOF
