%!PS-Adobe-3.0 EPSF-3.0
%%Creator: (MATLAB, The Mathworks, Inc. Version 9.10.0.1684407 \(R2021a\) Update 3. Operating System: Linux)
%%Title: /home/adoan/Code/PRoSA_PI-ESN_Git/pi-esn/Results/MFE_results_Noise/Figures/FIG9C.eps
%%CreationDate: 2021-07-21T19:03:23
%%Pages: (atend)
%%BoundingBox:     0     0   283   170
%%LanguageLevel: 3
%%EndComments
%%BeginProlog
%%BeginResource: procset (Apache XML Graphics Std ProcSet) 1.2 0
%%Version: 1.2 0
%%Copyright: (Copyright 2001-2003,2010 The Apache Software Foundation. License terms: http://www.apache.org/licenses/LICENSE-2.0)
/bd{bind def}bind def
/ld{load def}bd
/GR/grestore ld
/GS/gsave ld
/RM/rmoveto ld
/C/curveto ld
/t/show ld
/L/lineto ld
/ML/setmiterlimit ld
/CT/concat ld
/f/fill ld
/N/newpath ld
/S/stroke ld
/CC/setcmykcolor ld
/A/ashow ld
/cp/closepath ld
/RC/setrgbcolor ld
/LJ/setlinejoin ld
/GC/setgray ld
/LW/setlinewidth ld
/M/moveto ld
/re {4 2 roll M
1 index 0 rlineto
0 exch rlineto
neg 0 rlineto
cp } bd
/_ctm matrix def
/_tm matrix def
/BT { _ctm currentmatrix pop matrix _tm copy pop 0 0 moveto } bd
/ET { _ctm setmatrix } bd
/iTm { _ctm setmatrix _tm concat } bd
/Tm { _tm astore pop iTm 0 0 moveto } bd
/ux 0.0 def
/uy 0.0 def
/F {
  /Tp exch def
  /Tf exch def
  Tf findfont Tp scalefont setfont
  /cf Tf def  /cs Tp def
} bd
/ULS {currentpoint /uy exch def /ux exch def} bd
/ULE {
  /Tcx currentpoint pop def
  gsave
  newpath
  cf findfont cs scalefont dup
  /FontMatrix get 0 get /Ts exch def /FontInfo get dup
  /UnderlinePosition get Ts mul /To exch def
  /UnderlineThickness get Ts mul /Tt exch def
  ux uy To add moveto  Tcx uy To add lineto
  Tt setlinewidth stroke
  grestore
} bd
/OLE {
  /Tcx currentpoint pop def
  gsave
  newpath
  cf findfont cs scalefont dup
  /FontMatrix get 0 get /Ts exch def /FontInfo get dup
  /UnderlinePosition get Ts mul /To exch def
  /UnderlineThickness get Ts mul /Tt exch def
  ux uy To add cs add moveto Tcx uy To add cs add lineto
  Tt setlinewidth stroke
  grestore
} bd
/SOE {
  /Tcx currentpoint pop def
  gsave
  newpath
  cf findfont cs scalefont dup
  /FontMatrix get 0 get /Ts exch def /FontInfo get dup
  /UnderlinePosition get Ts mul /To exch def
  /UnderlineThickness get Ts mul /Tt exch def
  ux uy To add cs 10 mul 26 idiv add moveto Tcx uy To add cs 10 mul 26 idiv add lineto
  Tt setlinewidth stroke
  grestore
} bd
/QT {
/Y22 exch store
/X22 exch store
/Y21 exch store
/X21 exch store
currentpoint
/Y21 load 2 mul add 3 div exch
/X21 load 2 mul add 3 div exch
/X21 load 2 mul /X22 load add 3 div
/Y21 load 2 mul /Y22 load add 3 div
/X22 load /Y22 load curveto
} bd
/SSPD {
dup length /d exch dict def
{
/v exch def
/k exch def
currentpagedevice k known {
/cpdv currentpagedevice k get def
v cpdv ne {
/upd false def
/nullv v type /nulltype eq def
/nullcpdv cpdv type /nulltype eq def
nullv nullcpdv or
{
/upd true def
} {
/sametype v type cpdv type eq def
sametype {
v type /arraytype eq {
/vlen v length def
/cpdvlen cpdv length def
vlen cpdvlen eq {
0 1 vlen 1 sub {
/i exch def
/obj v i get def
/cpdobj cpdv i get def
obj cpdobj ne {
/upd true def
exit
} if
} for
} {
/upd true def
} ifelse
} {
v type /dicttype eq {
v {
/dv exch def
/dk exch def
/cpddv cpdv dk get def
dv cpddv ne {
/upd true def
exit
} if
} forall
} {
/upd true def
} ifelse
} ifelse
} if
} ifelse
upd true eq {
d k v put
} if
} if
} if
} forall
d length 0 gt {
d setpagedevice
} if
} bd
/RE { % /NewFontName [NewEncodingArray] /FontName RE -
  findfont dup length dict begin
  {
    1 index /FID ne
    {def} {pop pop} ifelse
  } forall
  /Encoding exch def
  /FontName 1 index def
  currentdict definefont pop
  end
} bind def
%%EndResource
%%BeginResource: procset (Apache XML Graphics EPS ProcSet) 1.0 0
%%Version: 1.0 0
%%Copyright: (Copyright 2002-2003 The Apache Software Foundation. License terms: http://www.apache.org/licenses/LICENSE-2.0)
/BeginEPSF { %def
/b4_Inc_state save def         % Save state for cleanup
/dict_count countdictstack def % Count objects on dict stack
/op_count count 1 sub def      % Count objects on operand stack
userdict begin                 % Push userdict on dict stack
/showpage { } def              % Redefine showpage, { } = null proc
0 setgray 0 setlinecap         % Prepare graphics state
1 setlinewidth 0 setlinejoin
10 setmiterlimit [ ] 0 setdash newpath
/languagelevel where           % If level not equal to 1 then
{pop languagelevel             % set strokeadjust and
1 ne                           % overprint to their defaults.
{false setstrokeadjust false setoverprint
} if
} if
} bd
/EndEPSF { %def
count op_count sub {pop} repeat            % Clean up stacks
countdictstack dict_count sub {end} repeat
b4_Inc_state restore
} bd
%%EndResource
%FOPBeginFontDict
%%IncludeResource: font Courier-Oblique
%%IncludeResource: font Courier-BoldOblique
%%IncludeResource: font Courier-Bold
%%IncludeResource: font ZapfDingbats
%%IncludeResource: font Symbol
%%IncludeResource: font Helvetica
%%IncludeResource: font Helvetica-Oblique
%%IncludeResource: font Helvetica-Bold
%%IncludeResource: font Helvetica-BoldOblique
%%IncludeResource: font Times-Roman
%%IncludeResource: font Times-Italic
%%IncludeResource: font Times-Bold
%%IncludeResource: font Times-BoldItalic
%%IncludeResource: font Courier
%FOPEndFontDict
%%BeginResource: encoding WinAnsiEncoding
/WinAnsiEncoding [
/.notdef /.notdef /.notdef /.notdef /.notdef
/.notdef /.notdef /.notdef /.notdef /.notdef
/.notdef /.notdef /.notdef /.notdef /.notdef
/.notdef /.notdef /.notdef /.notdef /.notdef
/.notdef /.notdef /.notdef /.notdef /.notdef
/.notdef /.notdef /.notdef /.notdef /.notdef
/.notdef /.notdef /space /exclam /quotedbl
/numbersign /dollar /percent /ampersand /quotesingle
/parenleft /parenright /asterisk /plus /comma
/hyphen /period /slash /zero /one
/two /three /four /five /six
/seven /eight /nine /colon /semicolon
/less /equal /greater /question /at
/A /B /C /D /E
/F /G /H /I /J
/K /L /M /N /O
/P /Q /R /S /T
/U /V /W /X /Y
/Z /bracketleft /backslash /bracketright /asciicircum
/underscore /quoteleft /a /b /c
/d /e /f /g /h
/i /j /k /l /m
/n /o /p /q /r
/s /t /u /v /w
/x /y /z /braceleft /bar
/braceright /asciitilde /bullet /Euro /bullet
/quotesinglbase /florin /quotedblbase /ellipsis /dagger
/daggerdbl /circumflex /perthousand /Scaron /guilsinglleft
/OE /bullet /Zcaron /bullet /bullet
/quoteleft /quoteright /quotedblleft /quotedblright /bullet
/endash /emdash /asciitilde /trademark /scaron
/guilsinglright /oe /bullet /zcaron /Ydieresis
/space /exclamdown /cent /sterling /currency
/yen /brokenbar /section /dieresis /copyright
/ordfeminine /guillemotleft /logicalnot /sfthyphen /registered
/macron /degree /plusminus /twosuperior /threesuperior
/acute /mu /paragraph /middot /cedilla
/onesuperior /ordmasculine /guillemotright /onequarter /onehalf
/threequarters /questiondown /Agrave /Aacute /Acircumflex
/Atilde /Adieresis /Aring /AE /Ccedilla
/Egrave /Eacute /Ecircumflex /Edieresis /Igrave
/Iacute /Icircumflex /Idieresis /Eth /Ntilde
/Ograve /Oacute /Ocircumflex /Otilde /Odieresis
/multiply /Oslash /Ugrave /Uacute /Ucircumflex
/Udieresis /Yacute /Thorn /germandbls /agrave
/aacute /acircumflex /atilde /adieresis /aring
/ae /ccedilla /egrave /eacute /ecircumflex
/edieresis /igrave /iacute /icircumflex /idieresis
/eth /ntilde /ograve /oacute /ocircumflex
/otilde /odieresis /divide /oslash /ugrave
/uacute /ucircumflex /udieresis /yacute /thorn
/ydieresis
] def
%%EndResource
%FOPBeginFontReencode
/Courier-Oblique findfont
dup length dict begin
  {1 index /FID ne {def} {pop pop} ifelse} forall
  /Encoding WinAnsiEncoding def
  currentdict
end
/Courier-Oblique exch definefont pop
/Courier-BoldOblique findfont
dup length dict begin
  {1 index /FID ne {def} {pop pop} ifelse} forall
  /Encoding WinAnsiEncoding def
  currentdict
end
/Courier-BoldOblique exch definefont pop
/Courier-Bold findfont
dup length dict begin
  {1 index /FID ne {def} {pop pop} ifelse} forall
  /Encoding WinAnsiEncoding def
  currentdict
end
/Courier-Bold exch definefont pop
/Helvetica findfont
dup length dict begin
  {1 index /FID ne {def} {pop pop} ifelse} forall
  /Encoding WinAnsiEncoding def
  currentdict
end
/Helvetica exch definefont pop
/Helvetica-Oblique findfont
dup length dict begin
  {1 index /FID ne {def} {pop pop} ifelse} forall
  /Encoding WinAnsiEncoding def
  currentdict
end
/Helvetica-Oblique exch definefont pop
/Helvetica-Bold findfont
dup length dict begin
  {1 index /FID ne {def} {pop pop} ifelse} forall
  /Encoding WinAnsiEncoding def
  currentdict
end
/Helvetica-Bold exch definefont pop
/Helvetica-BoldOblique findfont
dup length dict begin
  {1 index /FID ne {def} {pop pop} ifelse} forall
  /Encoding WinAnsiEncoding def
  currentdict
end
/Helvetica-BoldOblique exch definefont pop
/Times-Roman findfont
dup length dict begin
  {1 index /FID ne {def} {pop pop} ifelse} forall
  /Encoding WinAnsiEncoding def
  currentdict
end
/Times-Roman exch definefont pop
/Times-Italic findfont
dup length dict begin
  {1 index /FID ne {def} {pop pop} ifelse} forall
  /Encoding WinAnsiEncoding def
  currentdict
end
/Times-Italic exch definefont pop
/Times-Bold findfont
dup length dict begin
  {1 index /FID ne {def} {pop pop} ifelse} forall
  /Encoding WinAnsiEncoding def
  currentdict
end
/Times-Bold exch definefont pop
/Times-BoldItalic findfont
dup length dict begin
  {1 index /FID ne {def} {pop pop} ifelse} forall
  /Encoding WinAnsiEncoding def
  currentdict
end
/Times-BoldItalic exch definefont pop
/Courier findfont
dup length dict begin
  {1 index /FID ne {def} {pop pop} ifelse} forall
  /Encoding WinAnsiEncoding def
  currentdict
end
/Courier exch definefont pop
%FOPEndFontReencode
%%EndProlog
%%Page: 1 1
%%PageBoundingBox: 0 0 283 170
%%BeginPageSetup
[1 0 0 -1 0 170] CT
%%EndPageSetup
GS
[0.78305 0 0 0.78377 0 -0.07875] CT
1 GC
N
0 0 362 217 re
f
GR
GS
[0.78305 0 0 0.78377 0 -0.07875] CT
1 GC
N
0 0 362 217 re
f
GR
GS
[0.78305 0 0 0.78377 0 -0.07875] CT
1 GC
N
47 172 M
328 172 L
328 16 L
47 16 L
cp
f
GR
GS
[0.78305 0 0 0.78377 0 -0.07875] CT
0.149 GC
2 setlinecap
1 LJ
0.639 LW
N
47 172 M
328 172 L
S
GR
GS
[0.78305 0 0 0.78377 0 -0.07875] CT
0.149 GC
2 setlinecap
1 LJ
0.639 LW
N
47 16 M
328 16 L
S
GR
GS
[0.78305 0 0 0.78377 0 -0.07875] CT
0.149 GC
2 setlinecap
1 LJ
0.639 LW
N
47 172 M
47 169.19 L
S
GR
GS
[0.78305 0 0 0.78377 0 -0.07875] CT
0.149 GC
2 setlinecap
1 LJ
0.639 LW
N
127.286 172 M
127.286 169.19 L
S
GR
GS
[0.78305 0 0 0.78377 0 -0.07875] CT
0.149 GC
2 setlinecap
1 LJ
0.639 LW
N
207.571 172 M
207.571 169.19 L
S
GR
GS
[0.78305 0 0 0.78377 0 -0.07875] CT
0.149 GC
2 setlinecap
1 LJ
0.639 LW
N
287.857 172 M
287.857 169.19 L
S
GR
GS
[0.78305 0 0 0.78377 0 -0.07875] CT
0.149 GC
2 setlinecap
1 LJ
0.639 LW
N
47 16 M
47 18.81 L
S
GR
GS
[0.78305 0 0 0.78377 0 -0.07875] CT
0.149 GC
2 setlinecap
1 LJ
0.639 LW
N
127.286 16 M
127.286 18.81 L
S
GR
GS
[0.78305 0 0 0.78377 0 -0.07875] CT
0.149 GC
2 setlinecap
1 LJ
0.639 LW
N
207.571 16 M
207.571 18.81 L
S
GR
GS
[0.78305 0 0 0.78377 0 -0.07875] CT
0.149 GC
2 setlinecap
1 LJ
0.639 LW
N
287.857 16 M
287.857 18.81 L
S
GR
GS
[0.78305 0 0 0.78377 36.80341 139.13676] CT
0.149 GC
N
-0.083 13.208 M
-1.927 13.208 -2.583 11.692 QT
-3.24 10.177 -3.24 8.099 QT
-3.24 6.786 -3.005 5.638 QT
-2.771 4.489 -2.068 3.692 QT
-1.365 2.896 -0.083 2.896 QT
0.901 2.896 1.534 3.372 QT
2.167 3.849 2.495 4.614 QT
2.823 5.38 2.948 6.255 QT
3.073 7.13 3.073 8.099 QT
3.073 9.38 2.831 10.505 QT
2.589 11.63 1.893 12.419 QT
1.198 13.208 -0.083 13.208 QT
cp
-0.083 12.817 M
0.745 12.817 1.159 11.966 QT
1.573 11.114 1.667 10.067 QT
1.76 9.021 1.76 7.849 QT
1.76 6.724 1.667 5.771 QT
1.573 4.817 1.167 4.044 QT
0.76 3.271 -0.083 3.271 QT
-0.927 3.271 -1.341 4.052 QT
-1.755 4.833 -1.849 5.778 QT
-1.943 6.724 -1.943 7.849 QT
-1.943 8.692 -1.904 9.435 QT
-1.865 10.177 -1.685 10.958 QT
-1.505 11.739 -1.115 12.278 QT
-0.724 12.817 -0.083 12.817 QT
cp
f
GR
GS
[0.78305 0 0 0.78377 99.67124 139.13676] CT
0.149 GC
N
-3.083 12.88 M
-3.083 12.474 L
-3.083 12.442 -3.052 12.396 QT
-0.724 9.817 L
-0.193 9.239 0.135 8.857 QT
0.464 8.474 0.784 7.966 QT
1.104 7.458 1.292 6.935 QT
1.479 6.411 1.479 5.833 QT
1.479 5.208 1.253 4.646 QT
1.026 4.083 0.573 3.747 QT
0.12 3.411 -0.521 3.411 QT
-1.161 3.411 -1.685 3.81 QT
-2.208 4.208 -2.427 4.817 QT
-2.365 4.802 -2.255 4.802 QT
-1.927 4.802 -1.685 5.028 QT
-1.443 5.255 -1.443 5.614 QT
-1.443 5.958 -1.685 6.2 QT
-1.927 6.442 -2.255 6.442 QT
-2.615 6.442 -2.849 6.2 QT
-3.083 5.958 -3.083 5.614 QT
-3.083 5.052 -2.872 4.56 QT
-2.661 4.067 -2.263 3.685 QT
-1.865 3.302 -1.365 3.099 QT
-0.865 2.896 -0.302 2.896 QT
0.557 2.896 1.299 3.255 QT
2.042 3.614 2.471 4.278 QT
2.901 4.942 2.901 5.833 QT
2.901 6.474 2.62 7.06 QT
2.339 7.646 1.893 8.13 QT
1.448 8.614 0.745 9.224 QT
0.042 9.833 -0.177 10.036 QT
-1.865 11.661 L
-0.427 11.661 L
0.635 11.661 1.346 11.646 QT
2.057 11.63 2.104 11.583 QT
2.276 11.396 2.464 10.208 QT
2.901 10.208 L
2.479 12.88 L
-3.083 12.88 L
cp
f
GR
GS
[0.78305 0 0 0.78377 162.53907 139.13676] CT
0.149 GC
N
-3.411 10.411 M
-3.411 9.88 L
1.214 2.958 L
1.276 2.896 1.37 2.896 QT
1.589 2.896 L
1.76 2.896 1.76 3.052 QT
1.76 9.88 L
3.229 9.88 L
3.229 10.411 L
1.76 10.411 L
1.76 11.88 L
1.76 12.177 2.198 12.263 QT
2.635 12.349 3.214 12.349 QT
3.214 12.88 L
-0.911 12.88 L
-0.911 12.349 L
-0.333 12.349 0.104 12.263 QT
0.542 12.177 0.542 11.88 QT
0.542 10.411 L
-3.411 10.411 L
cp
-2.911 9.88 M
0.635 9.88 L
0.635 4.567 L
-2.911 9.88 L
cp
f
GR
GS
[0.78305 0 0 0.78377 225.40691 139.13676] CT
0.149 GC
N
-0.083 13.208 M
-1.021 13.208 -1.638 12.716 QT
-2.255 12.224 -2.599 11.435 QT
-2.943 10.646 -3.076 9.778 QT
-3.208 8.911 -3.208 8.036 QT
-3.208 6.849 -2.747 5.653 QT
-2.286 4.458 -1.388 3.677 QT
-0.49 2.896 0.745 2.896 QT
1.26 2.896 1.706 3.083 QT
2.151 3.271 2.401 3.653 QT
2.651 4.036 2.651 4.567 QT
2.651 4.88 2.44 5.083 QT
2.229 5.286 1.917 5.286 QT
1.635 5.286 1.424 5.075 QT
1.214 4.864 1.214 4.567 QT
1.214 4.271 1.424 4.06 QT
1.635 3.849 1.917 3.849 QT
2.01 3.849 L
1.807 3.583 1.464 3.45 QT
1.12 3.317 0.745 3.317 QT
0.292 3.317 -0.091 3.521 QT
-0.474 3.724 -0.786 4.06 QT
-1.099 4.396 -1.302 4.802 QT
-1.505 5.208 -1.615 5.724 QT
-1.724 6.239 -1.755 6.692 QT
-1.786 7.146 -1.786 7.833 QT
-1.521 7.224 -1.036 6.833 QT
-0.552 6.442 0.042 6.442 QT
0.714 6.442 1.26 6.716 QT
1.807 6.989 2.206 7.466 QT
2.604 7.942 2.815 8.56 QT
3.026 9.177 3.026 9.802 QT
3.026 10.677 2.635 11.474 QT
2.245 12.271 1.534 12.739 QT
0.823 13.208 -0.083 13.208 QT
cp
-0.083 12.739 M
0.495 12.739 0.846 12.474 QT
1.198 12.208 1.362 11.771 QT
1.526 11.333 1.565 10.888 QT
1.604 10.442 1.604 9.802 QT
1.604 8.958 1.526 8.357 QT
1.448 7.755 1.089 7.294 QT
0.729 6.833 -0.005 6.833 QT
-0.615 6.833 -1.005 7.247 QT
-1.396 7.661 -1.576 8.286 QT
-1.755 8.911 -1.755 9.489 QT
-1.755 9.692 -1.74 9.786 QT
-1.74 9.817 -1.747 9.825 QT
-1.755 9.833 -1.755 9.864 QT
-1.755 10.505 -1.622 11.161 QT
-1.49 11.817 -1.122 12.278 QT
-0.755 12.739 -0.083 12.739 QT
cp
f
GR
GS
[0.78305 0 0 0.78377 146.82223 154.13643] CT
0.149 GC
N
-7.012 12.793 M
-7.012 12.543 -6.949 12.324 QT
-5.73 7.434 L
-7.512 7.434 L
-7.684 7.434 -7.684 7.215 QT
-7.621 6.84 -7.465 6.84 QT
-5.574 6.84 L
-4.902 4.059 L
-4.824 3.84 -4.629 3.684 QT
-4.434 3.527 -4.184 3.527 QT
-3.965 3.527 -3.816 3.652 QT
-3.668 3.777 -3.668 3.996 QT
-3.668 4.043 -3.676 4.074 QT
-3.684 4.105 -3.699 4.137 QT
-4.371 6.84 L
-2.621 6.84 L
-2.449 6.84 -2.449 7.059 QT
-2.449 7.105 -2.48 7.207 QT
-2.512 7.309 -2.551 7.371 QT
-2.59 7.434 -2.668 7.434 QT
-4.527 7.434 L
-5.746 12.355 L
-5.871 12.824 -5.871 13.184 QT
-5.871 13.918 -5.371 13.918 QT
-4.621 13.918 -4.043 13.215 QT
-3.465 12.512 -3.168 11.668 QT
-3.09 11.574 -3.027 11.574 QT
-2.824 11.574 L
-2.762 11.574 -2.715 11.621 QT
-2.668 11.668 -2.668 11.715 QT
-2.668 11.746 -2.684 11.762 QT
-3.059 12.793 -3.777 13.574 QT
-4.496 14.355 -5.418 14.355 QT
-6.09 14.355 -6.551 13.918 QT
-7.012 13.48 -7.012 12.793 QT
cp
f
GR
GS
[0.78305 0 0 0.78377 146.82223 154.13643] CT
0.149 GC
N
-1.062 5.282 M
-1.171 5.282 -1.233 5.211 QT
-1.296 5.141 -1.296 5.047 QT
-1.296 4.953 -1.233 4.883 QT
-1.171 4.813 -1.062 4.813 QT
2.47 4.813 L
2.47 1.266 L
2.47 1.172 2.54 1.11 QT
2.61 1.047 2.704 1.047 QT
2.798 1.047 2.868 1.11 QT
2.938 1.172 2.938 1.266 QT
2.938 4.813 L
6.47 4.813 L
6.563 4.813 6.626 4.883 QT
6.688 4.953 6.688 5.047 QT
6.688 5.141 6.626 5.211 QT
6.563 5.282 6.47 5.282 QT
2.938 5.282 L
2.938 8.828 L
2.938 8.922 2.868 8.985 QT
2.798 9.047 2.704 9.047 QT
2.61 9.047 2.54 8.985 QT
2.47 8.922 2.47 8.828 QT
2.47 5.282 L
-1.062 5.282 L
cp
f
GR
GS
[0.78305 0 0 0.78377 0 -0.07875] CT
0.149 GC
2 setlinecap
1 LJ
0.639 LW
N
47 172 M
47 16 L
S
GR
GS
[0.78305 0 0 0.78377 0 -0.07875] CT
0.149 GC
2 setlinecap
1 LJ
0.639 LW
N
328 172 M
328 16 L
S
GR
GS
[0.78305 0 0 0.78377 0 -0.07875] CT
0.149 GC
2 setlinecap
1 LJ
0.639 LW
N
47 167.691 M
49.81 167.691 L
S
GR
GS
[0.78305 0 0 0.78377 0 -0.07875] CT
0.149 GC
2 setlinecap
1 LJ
0.639 LW
N
47 124.05 M
49.81 124.05 L
S
GR
GS
[0.78305 0 0 0.78377 0 -0.07875] CT
0.149 GC
2 setlinecap
1 LJ
0.639 LW
N
47 80.41 M
49.81 80.41 L
S
GR
GS
[0.78305 0 0 0.78377 0 -0.07875] CT
0.149 GC
2 setlinecap
1 LJ
0.639 LW
N
47 36.77 M
49.81 36.77 L
S
GR
GS
[0.78305 0 0 0.78377 0 -0.07875] CT
0.149 GC
2 setlinecap
1 LJ
0.639 LW
N
328 167.691 M
325.19 167.691 L
S
GR
GS
[0.78305 0 0 0.78377 0 -0.07875] CT
0.149 GC
2 setlinecap
1 LJ
0.639 LW
N
328 124.05 M
325.19 124.05 L
S
GR
GS
[0.78305 0 0 0.78377 0 -0.07875] CT
0.149 GC
2 setlinecap
1 LJ
0.639 LW
N
328 80.41 M
325.19 80.41 L
S
GR
GS
[0.78305 0 0 0.78377 0 -0.07875] CT
0.149 GC
2 setlinecap
1 LJ
0.639 LW
N
328 36.77 M
325.19 36.77 L
S
GR
GS
[0.78305 0 0 0.78377 32.40092 131.35282] CT
0.149 GC
N
-24.532 0.899 M
-24.532 -0.023 L
-20.563 -0.023 L
-20.563 0.899 L
-24.532 0.899 L
cp
f
GR
GS
[0.78305 0 0 0.78377 32.40092 131.35282] CT
0.149 GC
N
-15.843 4.008 M
-17.686 4.008 -18.343 2.492 QT
-18.999 0.977 -18.999 -1.101 QT
-18.999 -2.414 -18.765 -3.562 QT
-18.53 -4.711 -17.827 -5.508 QT
-17.124 -6.304 -15.843 -6.304 QT
-14.858 -6.304 -14.225 -5.828 QT
-13.593 -5.351 -13.265 -4.586 QT
-12.936 -3.82 -12.811 -2.945 QT
-12.686 -2.07 -12.686 -1.101 QT
-12.686 0.18 -12.929 1.305 QT
-13.171 2.43 -13.866 3.219 QT
-14.561 4.008 -15.843 4.008 QT
cp
-15.843 3.617 M
-15.015 3.617 -14.6 2.766 QT
-14.186 1.914 -14.093 0.867 QT
-13.999 -0.179 -13.999 -1.351 QT
-13.999 -2.476 -14.093 -3.429 QT
-14.186 -4.383 -14.593 -5.156 QT
-14.999 -5.929 -15.843 -5.929 QT
-16.686 -5.929 -17.1 -5.148 QT
-17.515 -4.367 -17.608 -3.422 QT
-17.702 -2.476 -17.702 -1.351 QT
-17.702 -0.508 -17.663 0.235 QT
-17.624 0.977 -17.444 1.758 QT
-17.265 2.539 -16.874 3.078 QT
-16.483 3.617 -15.843 3.617 QT
cp
f
GR
GS
[0.78305 0 0 0.78377 32.40092 131.35282] CT
0.149 GC
N
-10.66 2.852 M
-10.66 2.508 -10.41 2.274 QT
-10.16 2.039 -9.832 2.039 QT
-9.629 2.039 -9.434 2.149 QT
-9.238 2.258 -9.129 2.453 QT
-9.02 2.649 -9.02 2.852 QT
-9.02 3.18 -9.262 3.43 QT
-9.504 3.68 -9.832 3.68 QT
-10.16 3.68 -10.41 3.43 QT
-10.66 3.18 -10.66 2.852 QT
cp
f
GR
GS
[0.78305 0 0 0.78377 32.40092 131.35282] CT
0.149 GC
N
-6.917 3.68 M
-6.917 3.274 L
-6.917 3.242 -6.885 3.196 QT
-4.557 0.617 L
-4.026 0.039 -3.698 -0.343 QT
-3.37 -0.726 -3.05 -1.234 QT
-2.729 -1.742 -2.542 -2.265 QT
-2.354 -2.789 -2.354 -3.367 QT
-2.354 -3.992 -2.581 -4.554 QT
-2.807 -5.117 -3.26 -5.453 QT
-3.714 -5.789 -4.354 -5.789 QT
-4.995 -5.789 -5.518 -5.39 QT
-6.042 -4.992 -6.26 -4.383 QT
-6.198 -4.398 -6.089 -4.398 QT
-5.76 -4.398 -5.518 -4.172 QT
-5.276 -3.945 -5.276 -3.586 QT
-5.276 -3.242 -5.518 -3 QT
-5.76 -2.758 -6.089 -2.758 QT
-6.448 -2.758 -6.682 -3 QT
-6.917 -3.242 -6.917 -3.586 QT
-6.917 -4.148 -6.706 -4.64 QT
-6.495 -5.133 -6.096 -5.515 QT
-5.698 -5.898 -5.198 -6.101 QT
-4.698 -6.304 -4.135 -6.304 QT
-3.276 -6.304 -2.534 -5.945 QT
-1.792 -5.586 -1.362 -4.922 QT
-0.932 -4.258 -0.932 -3.367 QT
-0.932 -2.726 -1.214 -2.14 QT
-1.495 -1.554 -1.94 -1.07 QT
-2.385 -0.586 -3.089 0.024 QT
-3.792 0.633 -4.01 0.836 QT
-5.698 2.461 L
-4.26 2.461 L
-3.198 2.461 -2.487 2.446 QT
-1.776 2.43 -1.729 2.383 QT
-1.557 2.196 -1.37 1.008 QT
-0.932 1.008 L
-1.354 3.68 L
-6.917 3.68 L
cp
f
GR
GS
[0.78305 0 0 0.78377 32.40092 97.14866] CT
0.149 GC
N
/f-975976711{-24.532 0.899 M
-24.532 -0.023 L
-20.563 -0.023 L
-20.563 0.899 L
-24.532 0.899 L
cp}def
f-975976711
f
GR
GS
[0.78305 0 0 0.78377 32.40092 97.14866] CT
0.149 GC
N
/f-1716017318{-15.843 4.008 M
-17.686 4.008 -18.343 2.492 QT
-18.999 0.977 -18.999 -1.101 QT
-18.999 -2.414 -18.765 -3.562 QT
-18.53 -4.711 -17.827 -5.508 QT
-17.124 -6.304 -15.843 -6.304 QT
-14.858 -6.304 -14.225 -5.828 QT
-13.593 -5.351 -13.265 -4.586 QT
-12.936 -3.82 -12.811 -2.945 QT
-12.686 -2.07 -12.686 -1.101 QT
-12.686 0.18 -12.929 1.305 QT
-13.171 2.43 -13.866 3.219 QT
-14.561 4.008 -15.843 4.008 QT
cp
-15.843 3.617 M
-15.015 3.617 -14.6 2.766 QT
-14.186 1.914 -14.093 0.867 QT
-13.999 -0.179 -13.999 -1.351 QT
-13.999 -2.476 -14.093 -3.429 QT
-14.186 -4.383 -14.593 -5.156 QT
-14.999 -5.929 -15.843 -5.929 QT
-16.686 -5.929 -17.1 -5.148 QT
-17.515 -4.367 -17.608 -3.422 QT
-17.702 -2.476 -17.702 -1.351 QT
-17.702 -0.508 -17.663 0.235 QT
-17.624 0.977 -17.444 1.758 QT
-17.265 2.539 -16.874 3.078 QT
-16.483 3.617 -15.843 3.617 QT
cp}def
f-1716017318
f
GR
GS
[0.78305 0 0 0.78377 32.40092 97.14866] CT
0.149 GC
N
/f-606985051{-10.66 2.852 M
-10.66 2.508 -10.41 2.274 QT
-10.16 2.039 -9.832 2.039 QT
-9.629 2.039 -9.434 2.149 QT
-9.238 2.258 -9.129 2.453 QT
-9.02 2.649 -9.02 2.852 QT
-9.02 3.18 -9.262 3.43 QT
-9.504 3.68 -9.832 3.68 QT
-10.16 3.68 -10.41 3.43 QT
-10.66 3.18 -10.66 2.852 QT
cp}def
f-606985051
f
GR
GS
[0.78305 0 0 0.78377 32.40092 97.14866] CT
0.149 GC
N
/f-921695313{-6.276 3.68 M
-6.276 3.149 L
-4.401 3.149 -4.401 2.68 QT
-4.401 -5.195 L
-5.182 -4.82 -6.37 -4.82 QT
-6.37 -5.351 L
-4.526 -5.351 -3.589 -6.304 QT
-3.37 -6.304 L
-3.323 -6.304 -3.276 -6.265 QT
-3.229 -6.226 -3.229 -6.179 QT
-3.229 2.68 L
-3.229 3.149 -1.354 3.149 QT
-1.354 3.68 L
-6.276 3.68 L
cp}def
f-921695313
f
GR
GS
[0.78305 0 0 0.78377 32.40092 62.9445] CT
0.149 GC
N
/f1704323170{-3.917 4.008 M
-5.76 4.008 -6.417 2.492 QT
-7.073 0.977 -7.073 -1.101 QT
-7.073 -2.414 -6.839 -3.562 QT
-6.604 -4.711 -5.901 -5.508 QT
-5.198 -6.304 -3.917 -6.304 QT
-2.932 -6.304 -2.3 -5.828 QT
-1.667 -5.351 -1.339 -4.586 QT
-1.01 -3.82 -0.885 -2.945 QT
-0.76 -2.07 -0.76 -1.101 QT
-0.76 0.18 -1.003 1.305 QT
-1.245 2.43 -1.94 3.219 QT
-2.635 4.008 -3.917 4.008 QT
cp
-3.917 3.617 M
-3.089 3.617 -2.675 2.766 QT
-2.26 1.914 -2.167 0.867 QT
-2.073 -0.179 -2.073 -1.351 QT
-2.073 -2.476 -2.167 -3.429 QT
-2.26 -4.383 -2.667 -5.156 QT
-3.073 -5.929 -3.917 -5.929 QT
-4.76 -5.929 -5.175 -5.148 QT
-5.589 -4.367 -5.682 -3.422 QT
-5.776 -2.476 -5.776 -1.351 QT
-5.776 -0.508 -5.737 0.235 QT
-5.698 0.977 -5.518 1.758 QT
-5.339 2.539 -4.948 3.078 QT
-4.557 3.617 -3.917 3.617 QT
cp}def
f1704323170
f
GR
GS
[0.78305 0 0 0.78377 32.40092 28.74033] CT
0.149 GC
N
f-1716017318
f
GR
GS
[0.78305 0 0 0.78377 32.40092 28.74033] CT
0.149 GC
N
f-606985051
f
GR
GS
[0.78305 0 0 0.78377 32.40092 28.74033] CT
0.149 GC
N
f-921695313
f
GR
GS
[0.78305 0 0 0.78377 0 -0.07875] CT
0.251 0.251 1 RC
1 LJ
1.917 LW
N
47 92.126 M
47.245 91.81 L
47.49 91.687 L
47.734 91.451 L
47.979 91.589 L
48.224 91.575 L
48.469 91.624 L
48.713 91.352 L
48.958 91.463 L
49.203 91.356 L
49.448 91.232 L
49.693 91.067 L
49.937 90.961 L
50.182 90.749 L
50.427 90.692 L
50.672 90.454 L
50.916 90.365 L
51.161 90.283 L
51.406 90.021 L
51.651 89.822 L
51.895 89.792 L
52.14 89.67 L
52.385 89.539 L
52.63 89.214 L
52.875 89.187 L
53.119 88.939 L
53.364 88.766 L
53.609 88.502 L
53.854 88.352 L
54.098 88.184 L
54.343 87.93 L
54.588 87.712 L
54.833 87.497 L
55.078 87.281 L
55.322 87.024 L
55.567 86.832 L
55.812 86.576 L
56.057 86.366 L
56.301 86.128 L
56.546 85.942 L
56.791 85.72 L
57.036 85.488 L
57.28 85.273 L
57.525 85.06 L
57.77 84.843 L
58.015 84.61 L
58.26 84.386 L
58.504 84.164 L
58.749 83.941 L
58.994 83.709 L
59.239 83.489 L
59.483 83.278 L
59.728 83.074 L
59.973 82.858 L
60.218 82.657 L
60.463 82.456 L
60.707 82.262 L
60.952 82.061 L
61.197 81.873 L
61.442 81.681 L
61.686 81.497 L
61.931 81.312 L
62.176 81.135 L
62.421 80.962 L
62.666 80.793 L
62.91 80.623 L
63.155 80.465 L
63.4 80.307 L
63.645 80.153 L
63.889 80.004 L
64.134 79.862 L
64.379 79.723 L
64.624 79.588 L
64.868 79.458 L
65.113 79.334 L
65.358 79.215 L
65.603 79.098 L
65.848 78.987 L
66.092 78.881 L
66.337 78.779 L
66.582 78.681 L
66.827 78.588 L
67.071 78.5 L
67.316 78.417 L
67.561 78.337 L
67.806 78.263 L
68.051 78.194 L
68.295 78.13 L
68.54 78.069 L
68.785 78.014 L
69.03 77.962 L
69.274 77.915 L
69.519 77.873 L
69.764 77.834 L
70.009 77.8 L
70.253 77.771 L
70.498 77.745 L
70.743 77.723 L
70.988 77.706 L
71.233 77.693 L
71.477 77.683 L
71.722 77.678 L
71.967 77.676 L
72.212 77.678 L
72.456 77.684 L
72.701 77.694 L
72.946 77.707 L
73.191 77.723 L
73.436 77.744 L
73.68 77.767 L
73.925 77.794 L
74.17 77.824 L
74.415 77.857 L
74.659 77.892 L
74.904 77.931 L
75.149 77.973 L
75.394 78.017 L
75.639 78.064 L
75.883 78.113 L
76.128 78.165 L
76.373 78.219 L
76.618 78.275 L
76.862 78.333 L
77.107 78.393 L
77.352 78.454 L
77.597 78.518 L
77.841 78.582 L
78.086 78.648 L
78.331 78.715 L
78.576 78.784 L
78.821 78.853 L
79.065 78.923 L
79.31 78.994 L
79.555 79.065 L
79.8 79.136 L
80.044 79.208 L
80.289 79.28 L
80.534 79.352 L
80.779 79.423 L
81.024 79.495 L
81.268 79.565 L
81.513 79.635 L
81.758 79.705 L
82.003 79.773 L
82.247 79.841 L
82.492 79.907 L
82.737 79.972 L
82.982 80.035 L
83.226 80.097 L
83.471 80.158 L
83.716 80.217 L
83.961 80.273 L
84.206 80.328 L
84.45 80.381 L
84.695 80.432 L
84.94 80.48 L
85.185 80.527 L
85.429 80.571 L
85.674 80.612 L
85.919 80.651 L
86.164 80.688 L
86.409 80.722 L
86.653 80.753 L
86.898 80.782 L
87.143 80.808 L
87.388 80.831 L
87.632 80.852 L
87.877 80.87 L
88.122 80.886 L
88.367 80.899 L
88.611 80.909 L
88.856 80.917 L
89.101 80.922 L
89.346 80.924 L
89.591 80.924 L
89.835 80.922 L
90.08 80.917 L
90.325 80.91 L
90.57 80.901 L
90.814 80.889 L
91.059 80.876 L
91.304 80.86 L
91.549 80.842 L
91.794 80.823 L
92.038 80.801 L
92.283 80.778 L
92.528 80.754 L
92.773 80.727 L
93.017 80.7 L
93.262 80.671 L
93.507 80.64 L
93.752 80.609 L
93.997 80.576 L
94.241 80.543 L
94.486 80.508 L
94.731 80.473 L
94.976 80.438 L
95.22 80.401 L
95.465 80.364 L
95.71 80.327 L
95.955 80.29 L
96.199 80.252 L
96.444 80.214 L
96.689 80.176 L
96.934 80.138 L
97.179 80.101 L
97.423 80.063 L
97.668 80.026 L
97.913 79.989 L
98.158 79.953 L
98.402 79.918 L
98.647 79.883 L
98.892 79.848 L
99.137 79.815 L
99.382 79.782 L
99.626 79.75 L
99.871 79.72 L
100.116 79.69 L
100.361 79.661 L
100.605 79.634 L
100.85 79.608 L
101.095 79.583 L
101.34 79.56 L
101.584 79.538 L
101.829 79.517 L
102.074 79.498 L
102.319 79.481 L
102.564 79.465 L
102.808 79.451 L
103.053 79.439 L
103.298 79.428 L
103.543 79.419 L
103.787 79.412 L
104.032 79.407 L
104.277 79.404 L
104.522 79.404 L
104.767 79.405 L
105.011 79.408 L
105.256 79.414 L
105.501 79.421 L
105.746 79.431 L
105.99 79.443 L
106.235 79.458 L
106.48 79.475 L
106.725 79.495 L
106.97 79.517 L
107.214 79.541 L
107.459 79.568 L
107.704 79.598 L
107.949 79.63 L
108.193 79.665 L
108.438 79.703 L
108.683 79.744 L
108.928 79.787 L
109.172 79.833 L
109.417 79.882 L
109.662 79.934 L
109.907 79.989 L
110.152 80.047 L
110.396 80.107 L
110.641 80.17 L
110.886 80.237 L
111.131 80.306 L
111.375 80.377 L
111.62 80.452 L
111.865 80.529 L
112.11 80.609 L
112.355 80.691 L
112.599 80.776 L
112.844 80.864 L
113.089 80.953 L
113.334 81.045 L
113.578 81.139 L
113.823 81.235 L
114.068 81.333 L
114.313 81.433 L
114.557 81.534 L
114.802 81.636 L
115.047 81.74 L
115.292 81.844 L
115.537 81.95 L
115.781 82.056 L
116.026 82.162 L
116.271 82.269 L
116.516 82.376 L
116.76 82.482 L
117.005 82.588 L
117.25 82.693 L
117.495 82.797 L
117.74 82.901 L
117.984 83.002 L
118.229 83.103 L
118.474 83.201 L
118.719 83.297 L
118.963 83.391 L
119.208 83.483 L
119.453 83.572 L
119.698 83.658 L
119.943 83.741 L
120.187 83.821 L
120.432 83.898 L
120.677 83.971 L
120.922 84.041 L
121.166 84.107 L
121.411 84.169 L
121.656 84.228 L
121.901 84.282 L
122.145 84.332 L
122.39 84.378 L
122.635 84.42 L
122.88 84.458 L
123.125 84.492 L
123.369 84.521 L
123.614 84.546 L
123.859 84.567 L
124.104 84.584 L
124.348 84.596 L
124.593 84.604 L
124.838 84.608 L
125.083 84.608 L
125.328 84.603 L
125.572 84.594 L
125.817 84.581 L
126.062 84.564 L
126.307 84.543 L
126.551 84.518 L
126.796 84.489 L
127.041 84.456 L
127.286 84.42 L
127.53 84.38 L
127.775 84.336 L
128.02 84.288 L
128.265 84.238 L
128.51 84.184 L
128.754 84.127 L
128.999 84.067 L
129.244 84.005 L
129.489 83.939 L
129.733 83.872 L
129.978 83.802 L
130.223 83.731 L
130.468 83.657 L
130.713 83.583 L
130.957 83.506 L
131.202 83.429 L
131.447 83.351 L
131.692 83.272 L
131.936 83.193 L
132.181 83.114 L
132.426 83.035 L
132.671 82.956 L
132.916 82.878 L
133.16 82.8 L
133.405 82.723 L
133.65 82.648 L
133.895 82.574 L
134.139 82.501 L
134.384 82.43 L
134.629 82.36 L
134.874 82.293 L
135.118 82.228 L
135.363 82.165 L
135.608 82.105 L
135.853 82.047 L
136.098 81.991 L
136.342 81.938 L
136.587 81.888 L
136.832 81.841 L
137.077 81.796 L
137.321 81.754 L
137.566 81.715 L
137.811 81.679 L
138.056 81.646 L
138.301 81.616 L
138.545 81.589 L
138.79 81.564 L
139.035 81.543 L
139.28 81.524 L
139.524 81.507 L
139.769 81.494 L
140.014 81.483 L
140.259 81.474 L
140.503 81.468 L
140.748 81.464 L
140.993 81.463 L
141.238 81.463 L
141.483 81.466 L
141.727 81.471 L
141.972 81.477 L
142.217 81.486 L
142.462 81.496 L
142.706 81.507 L
142.951 81.521 L
143.196 81.535 L
143.441 81.551 L
143.686 81.568 L
143.93 81.587 L
144.175 81.606 L
144.42 81.626 L
144.665 81.647 L
144.909 81.67 L
145.154 81.692 L
145.399 81.716 L
145.644 81.74 L
145.889 81.765 L
146.133 81.79 L
146.378 81.816 L
146.623 81.843 L
146.868 81.87 L
147.112 81.897 L
147.357 81.925 L
147.602 81.953 L
147.847 81.982 L
148.091 82.011 L
148.336 82.04 L
148.581 82.07 L
148.826 82.1 L
149.071 82.131 L
149.315 82.162 L
149.56 82.194 L
149.805 82.226 L
150.05 82.259 L
150.294 82.292 L
150.539 82.326 L
150.784 82.36 L
151.029 82.394 L
151.274 82.43 L
151.518 82.466 L
151.763 82.502 L
152.008 82.539 L
152.253 82.576 L
152.497 82.613 L
152.742 82.651 L
152.987 82.69 L
153.232 82.728 L
153.476 82.767 L
153.721 82.805 L
153.966 82.844 L
154.211 82.882 L
154.456 82.919 L
154.7 82.956 L
154.945 82.992 L
155.19 83.027 L
155.435 83.06 L
155.679 83.092 L
155.924 83.121 L
156.169 83.149 L
156.414 83.173 L
156.659 83.195 L
156.903 83.213 L
157.148 83.227 L
157.393 83.238 L
157.638 83.243 L
157.882 83.244 L
158.127 83.239 L
158.372 83.228 L
158.617 83.21 L
158.861 83.186 L
159.106 83.155 L
159.351 83.117 L
159.596 83.07 L
159.841 83.016 L
160.085 82.953 L
160.33 82.881 L
160.575 82.801 L
160.82 82.711 L
161.064 82.613 L
161.309 82.505 L
161.554 82.389 L
161.799 82.264 L
162.044 82.13 L
162.288 81.988 L
162.533 81.838 L
162.778 81.68 L
163.023 81.516 L
163.267 81.344 L
163.512 81.167 L
163.757 80.984 L
164.002 80.797 L
164.247 80.605 L
164.491 80.411 L
164.736 80.213 L
164.981 80.015 L
165.226 79.815 L
165.47 79.616 L
165.715 79.417 L
165.96 79.22 L
166.205 79.026 L
166.449 78.836 L
166.694 78.65 L
166.939 78.47 L
167.184 78.296 L
167.429 78.13 L
167.673 77.972 L
167.918 77.823 L
168.163 77.683 L
168.408 77.554 L
168.652 77.435 L
168.897 77.327 L
169.142 77.23 L
169.387 77.144 L
169.632 77.068 L
169.876 77.001 L
170.121 76.944 L
170.366 76.895 L
170.611 76.853 L
170.855 76.818 L
171.1 76.788 L
171.345 76.763 L
171.59 76.741 L
171.834 76.722 L
172.079 76.706 L
172.324 76.691 L
172.569 76.677 L
172.814 76.664 L
173.058 76.652 L
173.303 76.641 L
173.548 76.629 L
173.793 76.618 L
174.037 76.607 L
174.282 76.597 L
174.527 76.587 L
174.772 76.577 L
175.017 76.568 L
175.261 76.56 L
175.506 76.552 L
175.751 76.546 L
175.996 76.542 L
176.24 76.539 L
176.485 76.538 L
176.73 76.54 L
176.975 76.543 L
177.22 76.55 L
177.464 76.559 L
177.709 76.57 L
177.954 76.585 L
178.199 76.602 L
178.443 76.621 L
178.688 76.642 L
178.933 76.666 L
179.178 76.691 L
179.422 76.718 L
179.667 76.745 L
179.912 76.773 L
180.157 76.801 L
180.402 76.829 L
180.646 76.856 L
180.891 76.882 L
181.136 76.906 L
181.381 76.93 L
181.625 76.951 L
181.87 76.97 L
182.115 76.986 L
182.36 77 L
182.605 77.012 L
182.849 77.021 L
183.094 77.028 L
183.339 77.032 L
183.584 77.034 L
183.828 77.034 L
184.073 77.032 L
184.318 77.028 L
184.563 77.023 L
184.807 77.016 L
185.052 77.008 L
185.297 77 L
185.542 76.991 L
185.787 76.981 L
186.031 76.972 L
186.276 76.962 L
186.521 76.953 L
186.766 76.945 L
187.01 76.937 L
187.255 76.929 L
187.5 76.923 L
187.745 76.917 L
187.99 76.913 L
188.234 76.909 L
188.479 76.906 L
188.724 76.904 L
188.969 76.902 L
189.213 76.901 L
189.458 76.901 L
189.703 76.901 L
189.948 76.9 L
190.193 76.9 L
190.437 76.9 L
190.682 76.899 L
190.927 76.898 L
191.172 76.896 L
191.416 76.893 L
191.661 76.888 L
191.906 76.882 L
192.151 76.875 L
192.395 76.866 L
192.64 76.855 L
192.885 76.843 L
193.13 76.828 L
193.375 76.812 L
193.619 76.793 L
193.864 76.773 L
194.109 76.751 L
194.354 76.727 L
194.598 76.701 L
194.843 76.674 L
195.088 76.646 L
195.333 76.618 L
195.578 76.588 L
195.822 76.559 L
196.067 76.529 L
196.312 76.5 L
196.557 76.472 L
196.801 76.446 L
197.046 76.421 L
197.291 76.399 L
197.536 76.379 L
197.78 76.363 L
198.025 76.35 L
198.27 76.342 L
198.515 76.339 L
198.76 76.34 L
199.004 76.347 L
199.249 76.36 L
199.494 76.379 L
199.739 76.404 L
199.983 76.436 L
200.228 76.474 L
200.473 76.519 L
200.718 76.57 L
200.963 76.628 L
201.207 76.692 L
201.452 76.763 L
201.697 76.838 L
201.942 76.919 L
202.186 77.005 L
202.431 77.094 L
202.676 77.187 L
202.921 77.283 L
203.166 77.38 L
203.41 77.477 L
203.655 77.575 L
203.9 77.671 L
204.145 77.766 L
204.389 77.857 L
204.634 77.944 L
204.879 78.027 L
205.124 78.105 L
205.368 78.177 L
205.613 78.243 L
205.858 78.303 L
206.103 78.357 L
206.348 78.406 L
206.592 78.451 L
206.837 78.493 L
207.082 78.533 L
207.327 78.573 L
207.571 78.616 L
207.816 78.664 L
208.061 78.72 L
208.306 78.786 L
208.551 78.866 L
208.795 78.962 L
209.04 79.079 L
209.285 79.217 L
209.53 79.38 L
209.774 79.57 L
210.019 79.789 L
210.264 80.037 L
210.509 80.316 L
210.753 80.625 L
210.998 80.962 L
211.243 81.328 L
211.488 81.719 L
211.733 82.132 L
211.977 82.565 L
212.222 83.012 L
212.467 83.47 L
212.712 83.933 L
212.956 84.396 L
213.201 84.853 L
213.446 85.297 L
213.691 85.723 L
213.936 86.124 L
214.18 86.497 L
214.425 86.836 L
214.67 87.139 L
214.915 87.404 L
215.159 87.633 L
215.404 87.826 L
215.649 87.988 L
215.894 88.124 L
216.139 88.24 L
216.383 88.341 L
216.628 88.433 L
216.873 88.521 L
217.118 88.608 L
217.362 88.698 L
217.607 88.789 L
217.852 88.881 L
218.097 88.971 L
218.341 89.059 L
218.586 89.139 L
218.831 89.211 L
219.076 89.272 L
219.321 89.322 L
219.565 89.36 L
219.81 89.386 L
220.055 89.401 L
220.3 89.403 L
220.544 89.393 L
220.789 89.371 L
221.034 89.335 L
221.279 89.287 L
221.524 89.225 L
221.768 89.149 L
222.013 89.06 L
222.258 88.959 L
222.503 88.846 L
222.747 88.723 L
222.992 88.59 L
223.237 88.448 L
223.482 88.3 L
223.726 88.146 L
223.971 87.987 L
224.216 87.826 L
224.461 87.662 L
224.706 87.498 L
224.95 87.334 L
225.195 87.17 L
225.44 87.007 L
225.685 86.846 L
225.929 86.684 L
226.174 86.523 L
226.419 86.361 L
226.664 86.196 L
226.909 86.029 L
227.153 85.857 L
227.398 85.679 L
227.643 85.494 L
227.888 85.301 L
228.132 85.099 L
228.377 84.888 L
228.622 84.668 L
228.867 84.439 L
229.111 84.203 L
229.356 83.96 L
229.601 83.715 L
229.846 83.469 L
230.091 83.226 L
230.335 82.991 L
230.58 82.765 L
230.825 82.555 L
231.07 82.362 L
231.314 82.189 L
231.559 82.038 L
231.804 81.909 L
232.049 81.8 L
232.294 81.705 L
232.538 81.617 L
232.783 81.521 L
233.028 81.401 L
233.273 81.239 L
233.517 81.015 L
233.762 80.718 L
234.007 80.346 L
234.252 79.914 L
234.497 79.454 L
234.741 79.017 L
234.986 78.666 L
235.231 78.465 L
235.476 78.471 L
235.72 78.722 L
235.965 79.224 L
236.21 79.955 L
236.455 80.868 L
236.699 81.897 L
236.944 82.974 L
237.189 84.044 L
237.434 85.071 L
237.679 86.049 L
237.923 86.994 L
238.168 87.937 L
238.413 88.916 L
238.658 89.967 L
238.902 91.118 L
239.147 92.381 L
239.392 93.753 L
239.637 95.216 L
239.882 96.744 L
240.126 98.312 L
240.371 99.898 L
240.616 101.486 L
240.861 103.07 L
241.105 104.648 L
241.35 106.22 L
241.595 107.789 L
241.84 109.358 L
242.084 110.925 L
242.329 112.491 L
242.574 114.051 L
242.819 115.597 L
243.064 117.116 L
243.308 118.595 L
243.553 120.014 L
243.798 121.356 L
244.043 122.605 L
244.287 123.747 L
244.532 124.772 L
244.777 125.668 L
245.022 126.429 L
245.267 127.049 L
245.511 127.521 L
245.756 127.845 L
246.001 128.017 L
246.246 128.037 L
246.49 127.904 L
246.735 127.622 L
246.98 127.196 L
247.225 126.636 L
247.469 125.956 L
247.714 125.172 L
247.959 124.303 L
248.204 123.366 L
248.449 122.378 L
248.693 121.353 L
248.938 120.307 L
249.183 119.251 L
249.428 118.196 L
249.672 117.15 L
249.917 116.117 L
250.162 115.095 L
250.407 114.08 L
250.652 113.064 L
250.896 112.035 L
251.141 110.977 L
251.386 109.87 L
251.631 108.694 L
251.875 107.425 L
252.12 106.048 L
252.365 104.55 L
252.61 102.931 L
252.855 101.2 L
253.099 99.381 L
253.344 97.509 L
253.589 95.626 L
253.834 93.776 L
254.078 91.994 L
254.323 90.304 L
254.568 88.714 L
254.813 87.221 L
255.057 85.821 L
255.302 84.509 L
255.547 83.289 L
255.792 82.173 L
256.037 81.176 L
256.281 80.313 L
256.526 79.594 L
256.771 79.023 L
257.016 78.595 L
257.26 78.301 L
257.505 78.126 L
257.75 78.054 L
257.995 78.073 L
258.24 78.171 L
258.484 78.338 L
258.729 78.565 L
258.974 78.838 L
259.219 79.145 L
259.463 79.469 L
259.708 79.797 L
259.953 80.113 L
260.198 80.405 L
260.443 80.664 L
260.687 80.885 L
260.932 81.07 L
261.177 81.227 L
261.422 81.368 L
261.666 81.512 L
261.911 81.678 L
262.156 81.886 L
262.401 82.152 L
262.645 82.494 L
262.89 82.924 L
263.135 83.454 L
263.38 84.094 L
263.625 84.848 L
263.869 85.713 L
264.114 86.679 L
264.359 87.727 L
264.604 88.831 L
264.848 89.961 L
265.093 91.09 L
265.338 92.192 L
265.583 93.247 L
265.828 94.243 L
266.072 95.173 L
266.317 96.032 L
266.562 96.818 L
266.807 97.524 L
267.051 98.148 L
267.296 98.687 L
267.541 99.141 L
267.786 99.509 L
268.03 99.788 L
268.275 99.972 L
268.52 100.047 L
268.765 99.996 L
269.01 99.808 L
269.254 99.478 L
269.499 99.013 L
269.744 98.433 L
269.989 97.759 L
270.233 97.005 L
270.478 96.171 L
270.723 95.243 L
270.968 94.198 L
271.213 93.011 L
271.457 91.658 L
271.702 90.119 L
271.947 88.377 L
272.192 86.422 L
272.436 84.249 L
272.681 81.859 L
272.926 79.267 L
273.171 76.513 L
273.415 73.666 L
273.66 70.831 L
273.905 68.14 L
274.15 65.726 L
274.395 63.708 L
274.639 62.169 L
274.884 61.153 L
275.129 60.658 L
275.374 60.642 L
275.618 61.024 L
275.863 61.694 L
276.108 62.522 L
276.353 63.383 L
276.598 64.172 L
276.842 64.817 L
277.087 65.29 L
277.332 65.6 L
277.577 65.785 L
277.821 65.902 L
278.066 66.017 L
278.311 66.192 L
278.556 66.473 L
278.801 66.88 L
279.045 67.41 L
279.29 68.038 L
279.535 68.727 L
279.78 69.442 L
280.024 70.159 L
280.269 70.875 L
280.514 71.613 L
280.759 72.411 L
281.003 73.312 L
281.248 74.358 L
281.493 75.576 L
281.738 76.973 L
281.983 78.539 L
282.227 80.247 L
282.472 82.066 L
282.717 83.966 L
282.962 85.922 L
283.206 87.92 L
283.451 89.951 L
283.696 92.008 L
283.941 94.082 L
284.186 96.164 L
284.43 98.244 L
284.675 100.305 L
284.92 102.321 L
285.165 104.258 L
285.409 106.083 L
285.654 107.763 L
285.899 109.281 L
286.144 110.639 L
286.388 111.855 L
286.633 112.961 L
286.878 113.986 L
287.123 114.958 L
287.368 115.896 L
287.612 116.809 L
287.857 117.707 L
288.102 118.6 L
288.347 119.504 L
288.591 120.437 L
288.836 121.419 L
289.081 122.462 L
289.326 123.573 L
289.571 124.752 L
289.815 125.999 L
290.06 127.313 L
290.305 128.697 L
290.55 130.153 L
290.794 131.679 L
291.039 133.272 L
291.284 134.923 L
291.529 136.624 L
291.774 138.363 L
292.018 140.133 L
292.263 141.925 L
292.508 143.731 L
292.753 145.541 L
292.997 147.347 L
293.242 149.142 L
293.487 150.92 L
293.732 152.677 L
293.976 154.412 L
294.221 156.12 L
294.466 157.797 L
294.711 159.434 L
294.956 161.022 L
295.2 162.549 L
295.445 164.002 L
295.69 165.369 L
295.935 166.638 L
296.179 167.799 L
296.424 168.842 L
296.669 169.757 L
296.914 170.534 L
297.159 171.161 L
297.403 171.624 L
297.648 171.91 L
297.893 172 L
298.138 171.874 L
298.382 171.5 L
298.627 170.833 L
298.872 169.807 L
299.117 168.348 L
299.362 166.384 L
299.606 163.866 L
299.851 160.788 L
300.096 157.204 L
300.341 153.228 L
300.585 149.026 L
300.83 144.782 L
301.075 140.646 L
301.32 136.701 L
301.564 132.94 L
301.809 129.293 L
302.054 125.674 L
302.299 122.025 L
302.544 118.356 L
302.788 114.743 L
303.033 111.295 L
303.278 108.096 L
303.523 105.16 L
303.767 102.428 L
304.012 99.805 L
304.257 97.199 L
304.502 94.544 L
304.747 91.84 L
304.991 89.152 L
305.236 86.586 L
305.481 84.238 L
305.726 82.131 L
305.97 80.199 L
306.215 78.331 L
306.46 76.453 L
306.705 74.553 L
306.949 72.676 L
307.194 70.892 L
307.439 69.246 L
307.684 67.725 L
307.929 66.28 L
308.173 64.872 L
308.418 63.492 L
308.663 62.138 L
308.908 60.812 L
309.152 59.523 L
309.397 58.289 L
309.642 57.13 L
309.887 56.035 L
310.132 54.975 L
310.376 53.933 L
310.621 52.927 L
310.866 51.981 L
311.111 51.101 L
311.355 50.274 L
311.6 49.485 L
311.845 48.728 L
312.09 48.006 L
312.335 47.324 L
312.579 46.688 L
312.824 46.103 L
313.069 45.561 L
313.314 45.038 L
313.558 44.501 L
313.803 43.931 L
314.048 43.34 L
314.293 42.755 L
314.537 42.188 L
314.782 41.63 L
315.027 41.057 L
315.272 40.447 L
315.517 39.793 L
315.761 39.094 L
316.006 38.355 L
316.251 37.588 L
316.496 36.806 L
316.74 36.017 L
316.985 35.218 L
317.23 34.404 L
317.475 33.576 L
317.72 32.742 L
317.964 31.913 L
318.209 31.097 L
318.454 30.301 L
318.699 29.529 L
318.943 28.789 L
319.188 28.088 L
319.433 27.433 L
319.678 26.827 L
319.922 26.279 L
320.167 25.801 L
320.412 25.412 L
320.657 25.123 L
320.902 24.947 L
321.146 24.889 L
321.391 24.958 L
321.636 25.163 L
321.881 25.507 L
322.125 25.992 L
322.37 26.619 L
322.615 27.386 L
322.86 28.291 L
323.105 29.33 L
323.349 30.498 L
323.594 31.795 L
323.839 33.217 L
324.084 34.759 L
324.328 36.411 L
324.573 38.163 L
324.818 39.999 L
325.063 41.904 L
325.307 43.859 L
325.552 45.848 L
325.797 47.858 L
326.042 49.877 L
326.287 51.897 L
326.531 53.912 L
326.776 55.919 L
327.021 57.916 L
327.266 59.898 L
327.51 61.857 L
327.755 63.787 L
328 65.683 L
328.034 65.937 L
S
GR
GS
[0.78305 0 0 0.78377 0 -0.07875] CT
1 LJ
2.172 LW
N
47 91.782 M
47.245 91.361 L
47.49 91.13 L
47.734 91.727 L
47.979 91.663 L
48.224 91.144 L
48.469 90.241 L
48.713 92.341 L
48.958 91.744 L
49.203 90.422 L
49.448 90.843 L
49.693 91.112 L
49.937 90.185 L
50.182 90.383 L
50.427 89.94 L
50.672 90.433 L
50.916 90.796 L
51.161 90.48 L
51.406 90.562 L
51.651 89.376 L
51.895 88.886 L
52.14 88.456 L
52.385 89.514 L
52.63 90.302 L
52.875 89.109 L
53.119 88.873 L
53.364 88.439 L
53.609 88.359 L
53.854 88.045 L
54.098 87.494 L
54.343 88.17 L
54.588 87.706 L
54.833 87.81 L
55.078 86.589 L
55.322 86.949 L
55.567 85.549 L
55.812 87.422 L
56.057 86.077 L
56.301 86.502 L
56.546 86.754 L
56.791 86.26 L
57.036 85.739 L
57.28 86.328 L
57.525 86.825 L
57.77 86.136 L
58.015 85.188 L
58.26 85.004 L
58.504 85.315 L
58.749 85.033 L
58.994 83.747 L
59.239 82.879 L
59.483 84.475 L
59.728 82.956 L
59.973 83.525 L
60.218 82.486 L
60.463 83.059 L
60.707 82.683 L
60.952 82.727 L
61.197 82.116 L
61.442 82.673 L
61.686 82.394 L
61.931 81.934 L
62.176 81.629 L
62.421 81.702 L
62.666 81.564 L
62.91 81.091 L
63.155 81.425 L
63.4 80.113 L
63.645 79.748 L
63.889 79.835 L
64.134 80.639 L
64.379 80.613 L
64.624 79.833 L
64.868 78.741 L
65.113 79.466 L
65.358 79.712 L
65.603 79.66 L
65.848 79.476 L
66.092 79.485 L
66.337 78.541 L
66.582 79.209 L
66.827 78.518 L
67.071 78.469 L
67.316 79.458 L
67.561 77.316 L
67.806 78.17 L
68.051 78.181 L
68.295 78.263 L
68.54 77.671 L
68.785 78.275 L
69.03 77.659 L
69.274 77.71 L
69.519 78.45 L
69.764 77.903 L
70.009 78.003 L
70.253 77.363 L
70.498 77.223 L
70.743 77.831 L
70.988 77.694 L
71.233 77.2 L
71.477 77.225 L
71.722 77.628 L
71.967 77.183 L
72.212 77.798 L
72.456 76.598 L
72.701 76.885 L
72.946 76.512 L
73.191 76.845 L
73.436 77.337 L
73.68 77.664 L
73.925 77.474 L
74.17 77.801 L
74.415 78.125 L
74.659 77.901 L
74.904 77.169 L
75.149 77.81 L
75.394 77.181 L
75.639 77.449 L
75.883 77.428 L
76.128 76.569 L
76.373 77.647 L
76.618 77.195 L
76.862 77.997 L
77.107 78.375 L
77.352 77.106 L
77.597 77.997 L
77.841 79.131 L
78.086 78.255 L
78.331 78.861 L
78.576 78.69 L
78.821 78.294 L
79.065 79.568 L
79.31 79.935 L
79.555 79.5 L
79.8 79.476 L
80.044 79.818 L
80.289 78.977 L
80.534 78.968 L
80.779 79.85 L
81.024 79.671 L
81.268 79.249 L
81.513 80.852 L
81.758 80.255 L
82.003 81.615 L
82.247 80.26 L
82.492 82.563 L
82.737 81.341 L
82.982 80.522 L
83.226 81.439 L
83.471 81.545 L
83.716 81.988 L
83.961 81.302 L
84.206 81.903 L
84.45 81.078 L
84.695 82.315 L
84.94 82.502 L
85.185 81.882 L
85.429 83.011 L
85.674 82.541 L
85.919 82.613 L
86.164 82.982 L
86.409 82.838 L
86.653 83.905 L
86.898 82.554 L
87.143 82.984 L
87.388 83.134 L
87.632 82.936 L
87.877 83.572 L
88.122 84.67 L
88.367 84.069 L
88.611 83.946 L
88.856 84.57 L
89.101 83.496 L
89.346 83.748 L
89.591 85.368 L
89.835 84.674 L
90.08 84.223 L
90.325 84.336 L
90.57 84.93 L
90.814 84.51 L
91.059 84.978 L
91.304 85.915 L
91.549 85.24 L
91.794 84.786 L
92.038 85.046 L
92.283 85.677 L
92.528 86.642 L
92.773 85.61 L
93.017 85.245 L
93.262 85.977 L
93.507 86.697 L
93.752 85.925 L
93.997 85.671 L
94.241 85.866 L
94.486 86.358 L
94.731 86.403 L
94.976 86.104 L
95.22 86.43 L
95.465 86.208 L
95.71 84.69 L
95.955 85.838 L
96.199 84.53 L
96.444 86.555 L
96.689 86.33 L
96.934 86.663 L
97.179 85.912 L
97.423 86.483 L
97.668 85.933 L
97.913 85.28 L
98.158 85.648 L
98.402 85.887 L
98.647 85.701 L
98.892 86.754 L
99.137 85.213 L
99.382 85.543 L
99.626 85.206 L
99.871 85.246 L
100.116 85.374 L
100.361 85.882 L
100.605 84.544 L
100.85 84.459 L
101.095 85.114 L
101.34 84.632 L
101.584 84.777 L
101.829 84.589 L
102.074 84.423 L
102.319 83.206 L
102.564 83.679 L
102.808 83.359 L
103.053 84.593 L
103.298 84.149 L
103.543 83.892 L
103.787 84.153 L
104.032 83.819 L
104.277 82.86 L
104.522 84.06 L
104.767 83.593 L
105.011 84.68 L
105.256 83.681 L
105.501 83.589 L
105.746 83.531 L
105.99 83.029 L
106.235 82.633 L
106.48 83.449 L
106.725 83.493 L
106.97 82.946 L
107.214 82.912 L
107.459 82.78 L
107.704 83.378 L
107.949 81.828 L
108.193 81.816 L
108.438 81.297 L
108.683 82.171 L
108.928 83.468 L
109.172 81.747 L
109.417 81.947 L
109.662 81.907 L
109.907 82.039 L
110.152 82.228 L
110.396 81.896 L
110.641 82.641 L
110.886 82.47 L
111.131 81.207 L
111.375 81.654 L
111.62 83.003 L
111.865 81.309 L
112.11 81.113 L
112.355 81.488 L
112.599 81.97 L
112.844 82.601 L
113.089 81.18 L
113.334 80.629 L
113.578 81.972 L
113.823 81.996 L
114.068 81.858 L
114.313 81.774 L
114.557 81.831 L
114.802 80.91 L
115.047 82.163 L
115.292 80.655 L
115.537 81.103 L
115.781 81.065 L
116.026 81.087 L
116.271 81.478 L
116.516 81.788 L
116.76 81.583 L
117.005 81.302 L
117.25 81.002 L
117.495 81.48 L
117.74 81.708 L
117.984 80.704 L
118.229 81.876 L
118.474 83.221 L
118.719 81.175 L
118.963 82.316 L
119.208 81.206 L
119.453 81.612 L
119.698 82.613 L
119.943 82.161 L
120.187 81.218 L
120.432 82.231 L
120.677 83.174 L
120.922 82.045 L
121.166 81.786 L
121.411 82.41 L
121.656 81.838 L
121.901 82.104 L
122.145 82.239 L
122.39 82.645 L
122.635 82.805 L
122.88 82.268 L
123.125 82.877 L
123.369 82.91 L
123.614 82.759 L
123.859 82.884 L
124.104 82.268 L
124.348 82.878 L
124.593 83.207 L
124.838 83.13 L
125.083 83.503 L
125.328 83.076 L
125.572 82.948 L
125.817 83.395 L
126.062 82.479 L
126.307 83.825 L
126.551 83.689 L
126.796 84.263 L
127.041 83.016 L
127.286 83.92 L
127.53 84.152 L
127.775 84.434 L
128.02 83.175 L
128.265 83.256 L
128.51 83.478 L
128.754 84.798 L
128.999 84.419 L
129.244 84.301 L
129.489 84.55 L
129.733 84.924 L
129.978 84.79 L
130.223 84.869 L
130.468 83.491 L
130.713 85.45 L
130.957 84.486 L
131.202 84.948 L
131.447 84.673 L
131.692 84.192 L
131.936 84.526 L
132.181 84.934 L
132.426 85.958 L
132.671 85.238 L
132.916 85.294 L
133.16 85.672 L
133.405 84.701 L
133.65 85.689 L
133.895 85.074 L
134.139 85.196 L
134.384 85.749 L
134.629 85.14 L
134.874 85.853 L
135.118 85.501 L
135.363 85.852 L
135.608 85.821 L
135.853 85.62 L
136.098 84.891 L
136.342 85.443 L
136.587 85.482 L
136.832 85.843 L
137.077 85.695 L
137.321 85.496 L
137.566 85.391 L
137.811 85.461 L
138.056 85.985 L
138.301 85.382 L
138.545 85.776 L
138.79 85.922 L
139.035 86.547 L
139.28 85.949 L
139.524 85.405 L
139.769 84.895 L
140.014 86.691 L
140.259 86.222 L
140.503 85.98 L
140.748 85.885 L
140.993 84.379 L
141.238 85.461 L
141.483 84.823 L
141.727 84.931 L
141.972 84.37 L
142.217 84.841 L
142.462 84.682 L
142.706 84.433 L
142.951 84.435 L
143.196 84.144 L
143.441 83.887 L
143.686 84.344 L
143.93 83.808 L
144.175 84.446 L
144.42 82.885 L
144.665 83.656 L
144.909 83.787 L
145.154 83.356 L
145.399 83.036 L
145.644 82.865 L
145.889 82.514 L
146.133 83.211 L
146.378 82.957 L
146.623 82.525 L
146.868 82.175 L
147.112 82.337 L
147.357 82.926 L
147.602 81.677 L
147.847 82.837 L
148.091 82.279 L
148.336 81.132 L
148.581 81.76 L
148.826 81.307 L
149.071 81.936 L
149.315 81.145 L
149.56 81.199 L
149.805 80.541 L
150.05 81.195 L
150.294 81.484 L
150.539 79.315 L
150.784 80.549 L
151.029 81.023 L
151.274 80.771 L
151.518 80.111 L
151.763 80.461 L
152.008 81.093 L
152.253 80.318 L
152.497 81.031 L
152.742 80.87 L
152.987 80.106 L
153.232 80.29 L
153.476 80.779 L
153.721 81.061 L
153.966 80.728 L
154.211 81.204 L
154.456 80.107 L
154.7 80.556 L
154.945 80.932 L
155.19 80.08 L
155.435 80.213 L
155.679 80.72 L
155.924 80.394 L
156.169 80.279 L
156.414 78.977 L
156.659 80.964 L
156.903 80.47 L
157.148 80.861 L
157.393 79.946 L
157.638 80.194 L
157.882 80.932 L
158.127 81.661 L
158.372 80.462 L
158.617 80.76 L
158.861 80.759 L
159.106 80.288 L
159.351 80.824 L
159.596 81.594 L
159.841 80.151 L
160.085 81.993 L
160.33 81.233 L
160.575 79.577 L
160.82 80.826 L
161.064 80.375 L
161.309 81.105 L
161.554 79.861 L
161.799 81.092 L
162.044 79.112 L
162.288 79.795 L
162.533 81.389 L
162.778 80.289 L
163.023 81.964 L
163.267 81.82 L
163.512 81.377 L
163.757 81.085 L
164.002 80.11 L
164.247 81.704 L
164.491 80.792 L
164.736 80.256 L
164.981 81.177 L
165.226 80.685 L
165.47 81.256 L
165.715 81.523 L
165.96 80.732 L
166.205 82.218 L
166.449 82.7 L
166.694 80.823 L
166.939 81.834 L
167.184 81.954 L
167.429 80.698 L
167.673 81.368 L
167.918 81.146 L
168.163 80.13 L
168.408 81.695 L
168.652 82.248 L
168.897 81.095 L
169.142 81.321 L
169.387 81.62 L
169.632 83.134 L
169.876 82.607 L
170.121 81.406 L
170.366 83.16 L
170.611 82.236 L
170.855 80.915 L
171.1 82.161 L
171.345 83.227 L
171.59 82.05 L
171.834 83.055 L
172.079 83.407 L
172.324 82.723 L
172.569 82.27 L
172.814 83.139 L
173.058 82.993 L
173.303 83.045 L
173.548 82.33 L
173.793 82.888 L
174.037 83.897 L
174.282 83.515 L
174.527 83.868 L
174.772 84.164 L
175.017 83.432 L
175.261 83.288 L
175.506 84.888 L
175.751 84.359 L
175.996 84.28 L
176.24 84.841 L
176.485 86.285 L
176.73 85.408 L
176.975 85.439 L
177.22 84.128 L
177.464 84.196 L
177.709 85.078 L
177.954 84.56 L
178.199 85.052 L
178.443 85.544 L
178.688 85.526 L
178.933 85.317 L
179.178 86.336 L
179.422 85.728 L
179.667 85.748 L
179.912 86.14 L
180.157 85.219 L
180.402 86.329 L
180.646 85.427 L
180.891 86.659 L
181.136 85.899 L
181.381 85.033 L
181.625 85.681 L
181.87 86.265 L
182.115 86.089 L
182.36 87.904 L
182.605 85.298 L
182.849 87.088 L
183.094 85.344 L
183.339 85.635 L
183.584 86.663 L
183.828 87.073 L
184.073 86.369 L
184.318 86.283 L
184.563 85.775 L
184.807 86.437 L
185.052 87.08 L
185.297 86.077 L
185.542 86.361 L
185.787 86.853 L
186.031 85.972 L
186.276 86.513 L
186.521 86.291 L
186.766 86.495 L
187.01 87.457 L
187.255 86.425 L
187.5 86.325 L
187.745 86.586 L
187.99 86.042 L
188.234 86.792 L
188.479 86.691 L
188.724 87.015 L
188.969 86.591 L
189.213 84.892 L
189.458 86.79 L
189.703 86.794 L
189.948 86.593 L
190.193 85.809 L
190.437 86.902 L
190.682 85.529 L
190.927 86.701 L
191.172 86.384 L
191.416 86.724 L
191.661 86.402 L
191.906 85.178 L
192.151 85.719 L
192.395 87.316 L
192.64 85.621 L
192.885 86.858 L
193.13 85.984 L
193.375 86.111 L
193.619 86.822 L
193.864 86.52 L
194.109 86.307 L
194.354 87.365 L
194.598 85.369 L
194.843 87.094 L
195.088 86.605 L
195.333 86.651 L
195.578 87.781 L
195.822 86.548 L
196.067 85.864 L
196.312 87.508 L
196.557 86.982 L
196.801 86.743 L
197.046 86.942 L
197.291 86.168 L
197.536 87.075 L
197.78 85.833 L
198.025 87.736 L
198.27 87.161 L
198.515 86.587 L
198.76 87.794 L
199.004 88.061 L
199.249 86.667 L
199.494 87.299 L
199.739 87.154 L
199.983 87.234 L
200.228 87.215 L
200.473 86.463 L
200.718 87.519 L
200.963 85.481 L
201.207 86.555 L
201.452 86.915 L
201.697 87.712 L
201.942 86.835 L
202.186 85.633 L
202.431 87.63 L
202.676 87.09 L
202.921 87.659 L
203.166 87.301 L
203.41 87.453 L
203.655 86.571 L
203.9 86.611 L
204.145 87.098 L
204.389 86.081 L
204.634 87.611 L
204.879 86.401 L
205.124 86.54 L
205.368 86.588 L
205.613 86.884 L
205.858 86.928 L
206.103 87.356 L
206.348 86.931 L
206.592 88.017 L
206.837 86.922 L
207.082 86.666 L
207.327 87.429 L
207.571 87.945 L
207.816 87.175 L
208.061 86.551 L
208.306 86.07 L
208.551 87.278 L
208.795 86.962 L
209.04 86.272 L
209.285 87.272 L
209.53 87.256 L
209.774 87.326 L
210.019 87.609 L
210.264 86.332 L
210.509 85.671 L
210.753 86.866 L
210.998 86.756 L
211.243 86.564 L
211.488 87.006 L
211.733 86.53 L
211.977 87.641 L
212.222 88.138 L
212.467 87.369 L
212.712 86.552 L
212.956 86.747 L
213.201 87.008 L
213.446 86.188 L
213.691 86.895 L
213.936 86.463 L
214.18 88.017 L
214.425 86.879 L
214.67 86.833 L
214.915 85.63 L
215.159 85.413 L
215.404 84.72 L
215.649 84.932 L
215.894 84.232 L
216.139 84.16 L
216.383 83.963 L
216.628 83.317 L
216.873 82.974 L
217.118 83.05 L
217.362 81.021 L
217.607 81.324 L
217.852 80.305 L
218.097 78.81 L
218.341 78.944 L
218.586 77.766 L
218.831 76.376 L
219.076 76.409 L
219.321 75.46 L
219.565 76.215 L
219.81 73.67 L
220.055 74.718 L
220.3 73.138 L
220.544 72.52 L
220.789 72.2 L
221.034 70.572 L
221.279 70.236 L
221.524 68.826 L
221.768 69.261 L
222.013 67.998 L
222.258 68.416 L
222.503 66.138 L
222.747 66.201 L
222.992 67.716 L
223.237 65.716 L
223.482 65.927 L
223.726 65.102 L
223.971 64.739 L
224.216 65.193 L
224.461 64.004 L
224.706 64.988 L
224.95 63.665 L
225.195 63.292 L
225.44 63.476 L
225.685 63.288 L
225.929 64.113 L
226.174 62.695 L
226.419 63.72 L
226.664 63.018 L
226.909 63.829 L
227.153 63.268 L
227.398 63.602 L
227.643 63.748 L
227.888 65.079 L
228.132 64.924 L
228.377 65.127 L
228.622 63.736 L
228.867 64.164 L
229.111 65.226 L
229.356 65.696 L
229.601 65.46 L
229.846 65.804 L
230.091 65.852 L
230.335 65.623 L
230.58 66.414 L
230.825 66.676 L
231.07 67.262 L
231.314 67.238 L
231.559 67.57 L
231.804 68.293 L
232.049 68.585 L
232.294 68.538 L
232.538 70.116 L
232.783 70.324 L
233.028 70.223 L
233.273 70.42 L
233.517 71.558 L
233.762 73.021 L
234.007 74.563 L
234.252 74.235 L
234.497 75.374 L
234.741 75.703 L
234.986 77.935 L
235.231 77.284 L
235.476 79.145 L
235.72 79.781 L
235.965 81.168 L
236.21 82.333 L
236.455 82.455 L
236.699 85.684 L
236.944 85.378 L
237.189 85.486 L
237.434 87.746 L
237.679 88.133 L
237.923 88.44 L
238.168 89.47 L
238.413 89.931 L
238.658 90.306 L
238.902 92.175 L
239.147 92.566 L
239.392 92.666 L
239.637 92.528 L
239.882 93.969 L
240.126 92.551 L
240.371 93.305 L
240.616 91.998 L
240.861 93.408 L
241.105 92.547 L
241.35 92.269 L
241.595 90.695 L
241.84 91.436 L
242.084 89.513 L
242.329 90.718 L
242.574 88.429 L
242.819 87.935 L
243.064 87.979 L
243.308 87.348 L
243.553 86.605 L
243.798 84.48 L
244.043 82.372 L
244.287 82.918 L
244.532 80.635 L
244.777 80.101 L
245.022 78.275 L
245.267 77.624 L
245.511 76.875 L
245.756 73.842 L
246.001 72.623 L
246.246 71.105 L
246.49 70.348 L
246.735 67.146 L
246.98 66.311 L
247.225 63.632 L
247.469 62.434 L
247.714 61.155 L
247.959 58.471 L
248.204 57.4 L
248.449 54.438 L
248.693 52.871 L
248.938 50.91 L
249.183 49.119 L
249.428 47.323 L
249.672 46.298 L
249.917 44.109 L
250.162 41.302 L
250.407 40.049 L
250.652 37.902 L
250.896 35.928 L
251.141 34.929 L
251.386 32.854 L
251.631 32.737 L
251.875 29.344 L
252.12 29.772 L
252.365 26.534 L
252.61 24.825 L
252.855 23.973 L
253.099 23.043 L
253.344 21.26 L
253.589 21.542 L
253.834 19.213 L
254.078 18.206 L
254.323 17.649 L
254.568 17.99 L
254.813 17.043 L
255.057 16.575 L
255.302 17.37 L
255.547 16 L
255.792 17.056 L
256.037 16.639 L
256.281 16.243 L
256.526 17.734 L
256.771 18.594 L
257.016 18.018 L
257.26 19.872 L
257.505 19.838 L
257.75 18.276 L
257.995 20.925 L
258.24 21.421 L
258.484 22.02 L
258.729 22.754 L
258.974 24.83 L
259.219 24.69 L
259.463 24.829 L
259.708 26.179 L
259.953 27.787 L
260.198 28.062 L
260.443 29.661 L
260.687 30.923 L
260.932 32.788 L
261.177 33.571 L
261.422 34.129 L
261.666 35.689 L
261.911 37.076 L
262.156 38.445 L
262.401 38.704 L
262.645 38.914 L
262.89 39.516 L
263.135 41.662 L
263.38 42.386 L
263.625 43.648 L
263.869 44.478 L
264.114 45.788 L
264.359 46.785 L
264.604 48.869 L
264.848 49.373 L
265.093 51.282 L
265.338 52.536 L
265.583 52.205 L
265.828 52.448 L
266.072 53.942 L
266.317 55.065 L
266.562 55.777 L
266.807 56.534 L
267.051 57.864 L
267.296 59.797 L
267.541 60.48 L
267.786 61.317 L
268.03 62.853 L
268.275 64.064 L
268.52 64.461 L
268.765 66.356 L
269.01 66.196 L
269.254 67.892 L
269.499 67.638 L
269.744 69.098 L
269.989 70.703 L
270.233 70.922 L
270.478 72.407 L
270.723 73.536 L
270.968 73.836 L
271.213 74.374 L
271.457 75.674 L
271.702 76.287 L
271.947 75.413 L
272.192 77.701 L
272.436 78.779 L
272.681 79.396 L
272.926 79.324 L
273.171 79.973 L
273.415 79.514 L
273.66 82.071 L
273.905 82.613 L
274.15 82.997 L
274.395 83.461 L
274.639 83.55 L
274.884 82.877 L
275.129 84.856 L
275.374 84.597 L
275.618 85.411 L
275.863 85.584 L
276.108 86.3 L
276.353 86.226 L
276.598 86.771 L
276.842 88.362 L
277.087 87.4 L
277.332 87.842 L
277.577 88.102 L
277.821 89.439 L
278.066 88.208 L
278.311 88.754 L
278.556 89.248 L
278.801 88.213 L
279.045 88.93 L
279.29 90.29 L
279.535 89.142 L
279.78 90.168 L
280.024 89.428 L
280.269 90.852 L
280.514 89.901 L
280.759 89.563 L
281.003 90.959 L
281.248 89.692 L
281.493 89.868 L
281.738 89.728 L
281.983 90.219 L
282.227 90.242 L
282.472 90.137 L
282.717 90.137 L
282.962 89.82 L
283.206 90.154 L
283.451 89.309 L
283.696 89.778 L
283.941 90.069 L
284.186 90.926 L
284.43 90.277 L
284.675 89.691 L
284.92 89.37 L
285.165 90.872 L
285.409 90.467 L
285.654 89.469 L
285.899 91.212 L
286.144 89.897 L
286.388 90.387 L
286.633 91.138 L
286.878 90.922 L
287.123 91.142 L
287.368 91.65 L
287.612 91.671 L
287.857 90.672 L
288.102 91.414 L
288.347 92.221 L
288.591 91.998 L
288.836 92.653 L
289.081 92.218 L
289.326 93.173 L
289.571 92.087 L
289.815 93.193 L
290.06 93.333 L
290.305 94.042 L
290.55 93.333 L
290.794 93.983 L
291.039 94.56 L
291.284 93.54 L
291.529 94.626 L
291.774 94.331 L
292.018 94.607 L
292.263 94.844 L
292.508 95.276 L
292.753 96.636 L
292.997 96.008 L
293.242 96.921 L
293.487 96.996 L
293.732 97.63 L
293.976 98.348 L
294.221 98.104 L
294.466 99.446 L
294.711 97.956 L
294.956 98.766 L
295.2 100.343 L
295.445 101.057 L
295.69 101.806 L
295.935 102.185 L
296.179 101.729 L
296.424 102.285 L
296.669 101.423 L
296.914 103.341 L
297.159 102.089 L
297.403 104.009 L
297.648 104.157 L
297.893 105.033 L
298.138 104.89 L
298.382 106.704 L
298.627 106.514 L
298.872 106.068 L
299.117 106.138 L
299.362 106.139 L
299.606 107.022 L
299.851 107.944 L
300.096 107.667 L
300.341 107.879 L
300.585 109.069 L
300.83 109.902 L
301.075 109.259 L
301.32 108.534 L
301.564 110.198 L
301.809 110.011 L
302.054 110.914 L
302.299 110.524 L
302.544 110.506 L
302.788 111.409 L
303.033 110.279 L
303.278 109.363 L
303.523 112.403 L
303.767 112.333 L
304.012 112.333 L
304.257 111.909 L
304.502 112.191 L
304.747 111.249 L
304.991 110.875 L
305.236 111.357 L
305.481 111.655 L
305.726 111.313 L
305.97 111.816 L
306.215 110.883 L
306.46 112.07 L
306.705 111.551 L
306.949 110.543 L
307.194 111.105 L
307.439 110.266 L
307.684 110.175 L
307.929 110.098 L
308.173 109.468 L
308.418 110.894 L
308.663 110.172 L
308.908 109.35 L
309.152 109.236 L
309.397 107.234 L
309.642 108.984 L
309.887 108.619 L
310.132 108.363 L
310.376 106.993 L
310.621 107.549 L
310.866 106.971 L
311.111 106.204 L
311.355 105.959 L
311.6 105.909 L
311.845 105.195 L
312.09 104.124 L
312.335 104.632 L
312.579 104.727 L
312.824 104.257 L
313.069 104.219 L
313.314 104.296 L
313.558 102.913 L
313.803 102.624 L
314.048 102.328 L
314.293 102.136 L
314.537 102.347 L
314.782 101.643 L
315.027 100.888 L
315.272 100.478 L
315.517 99.344 L
315.761 99.432 L
316.006 99.749 L
316.251 99.25 L
316.496 99.474 L
316.74 97.606 L
316.985 97.879 L
317.23 96.51 L
317.475 97.036 L
317.72 96.297 L
317.964 96.482 L
318.209 95.579 L
318.454 96.684 L
318.699 95.843 L
318.943 94.378 L
319.188 94.724 L
319.433 93.536 L
319.678 94.397 L
319.922 92.529 L
320.167 93.987 L
320.412 93.254 L
320.657 92.555 L
320.902 92.341 L
321.146 91.616 L
321.391 92.357 L
321.636 91.07 L
321.881 91.167 L
322.125 90.163 L
322.37 89.208 L
322.615 89.647 L
322.86 88.43 L
323.105 88.664 L
323.349 89.544 L
323.594 87.998 L
323.839 88.16 L
324.084 86.49 L
324.328 86.664 L
324.573 88.093 L
324.818 86.467 L
325.063 86.62 L
325.307 86.939 L
325.552 85.152 L
325.797 85.867 L
326.042 84.998 L
326.287 84.655 L
326.531 84.933 L
326.776 84.321 L
327.021 84.042 L
327.266 83.049 L
327.51 84.357 L
327.755 83.18 L
328 82.82 L
328.034 82.793 L
S
GR
GS
[0.78305 0 0 0.78377 0 -0.07875] CT
1 0 0 RC
[10 6] 0 setdash
2 LJ
1.789 LW
N
47 92.228 M
47.245 91.936 L
47.49 91.814 L
47.734 91.646 L
47.979 91.693 L
48.224 91.775 L
48.469 91.765 L
48.713 91.477 L
48.958 91.531 L
49.203 91.475 L
49.448 91.335 L
49.693 91.16 L
49.937 91.005 L
50.182 90.794 L
50.427 90.765 L
50.672 90.475 L
50.916 90.376 L
51.161 90.321 L
51.406 90.044 L
51.651 89.822 L
51.895 89.805 L
52.14 89.652 L
52.385 89.54 L
52.63 89.167 L
52.875 89.106 L
53.119 88.867 L
53.364 88.657 L
53.609 88.36 L
53.854 88.197 L
54.098 88.014 L
54.343 87.734 L
54.588 87.505 L
54.833 87.255 L
55.078 87.001 L
55.322 86.707 L
55.567 86.499 L
55.812 86.196 L
56.057 85.962 L
56.301 85.673 L
56.546 85.464 L
56.791 85.214 L
57.036 84.948 L
57.28 84.703 L
57.525 84.454 L
57.77 84.206 L
58.015 83.939 L
58.26 83.681 L
58.504 83.423 L
58.749 83.168 L
58.994 82.897 L
59.239 82.646 L
59.483 82.396 L
59.728 82.16 L
59.973 81.911 L
60.218 81.671 L
60.463 81.436 L
60.707 81.203 L
60.952 80.971 L
61.197 80.747 L
61.442 80.521 L
61.686 80.308 L
61.931 80.091 L
62.176 79.884 L
62.421 79.68 L
62.666 79.483 L
62.91 79.283 L
63.155 79.095 L
63.4 78.91 L
63.645 78.728 L
63.889 78.55 L
64.134 78.382 L
64.379 78.217 L
64.624 78.06 L
64.868 77.902 L
65.113 77.755 L
65.358 77.614 L
65.603 77.474 L
65.848 77.341 L
66.092 77.213 L
66.337 77.092 L
66.582 76.974 L
66.827 76.861 L
67.071 76.754 L
67.316 76.652 L
67.561 76.555 L
67.806 76.463 L
68.051 76.376 L
68.295 76.296 L
68.54 76.219 L
68.785 76.147 L
69.03 76.081 L
69.274 76.019 L
69.519 75.962 L
69.764 75.909 L
70.009 75.861 L
70.253 75.818 L
70.498 75.778 L
70.743 75.743 L
70.988 75.713 L
71.233 75.686 L
71.477 75.664 L
71.722 75.645 L
71.967 75.631 L
72.212 75.62 L
72.456 75.613 L
72.701 75.609 L
72.946 75.61 L
73.191 75.613 L
73.436 75.62 L
73.68 75.63 L
73.925 75.644 L
74.17 75.66 L
74.415 75.679 L
74.659 75.701 L
74.904 75.725 L
75.149 75.752 L
75.394 75.782 L
75.639 75.813 L
75.883 75.847 L
76.128 75.883 L
76.373 75.92 L
76.618 75.959 L
76.862 76 L
77.107 76.042 L
77.352 76.086 L
77.597 76.13 L
77.841 76.176 L
78.086 76.223 L
78.331 76.27 L
78.576 76.318 L
78.821 76.366 L
79.065 76.415 L
79.31 76.464 L
79.555 76.512 L
79.8 76.561 L
80.044 76.609 L
80.289 76.658 L
80.534 76.705 L
80.779 76.752 L
81.024 76.798 L
81.268 76.843 L
81.513 76.887 L
81.758 76.93 L
82.003 76.972 L
82.247 77.012 L
82.492 77.051 L
82.737 77.088 L
82.982 77.123 L
83.226 77.157 L
83.471 77.189 L
83.716 77.218 L
83.961 77.246 L
84.206 77.271 L
84.45 77.295 L
84.695 77.316 L
84.94 77.335 L
85.185 77.351 L
85.429 77.365 L
85.674 77.376 L
85.919 77.385 L
86.164 77.392 L
86.409 77.396 L
86.653 77.397 L
86.898 77.396 L
87.143 77.393 L
87.388 77.387 L
87.632 77.378 L
87.877 77.367 L
88.122 77.354 L
88.367 77.338 L
88.611 77.32 L
88.856 77.3 L
89.101 77.277 L
89.346 77.253 L
89.591 77.226 L
89.835 77.197 L
90.08 77.167 L
90.325 77.134 L
90.57 77.1 L
90.814 77.064 L
91.059 77.026 L
91.304 76.987 L
91.549 76.947 L
91.794 76.905 L
92.038 76.862 L
92.283 76.819 L
92.528 76.774 L
92.773 76.728 L
93.017 76.681 L
93.262 76.634 L
93.507 76.587 L
93.752 76.538 L
93.997 76.49 L
94.241 76.441 L
94.486 76.392 L
94.731 76.343 L
94.976 76.294 L
95.22 76.245 L
95.465 76.196 L
95.71 76.147 L
95.955 76.099 L
96.199 76.051 L
96.444 76.003 L
96.689 75.956 L
96.934 75.909 L
97.179 75.863 L
97.423 75.818 L
97.668 75.773 L
97.913 75.729 L
98.158 75.685 L
98.402 75.643 L
98.647 75.601 L
98.892 75.56 L
99.137 75.519 L
99.382 75.48 L
99.626 75.441 L
99.871 75.403 L
100.116 75.367 L
100.361 75.331 L
100.605 75.296 L
100.85 75.262 L
101.095 75.229 L
101.34 75.197 L
101.584 75.166 L
101.829 75.136 L
102.074 75.107 L
102.319 75.08 L
102.564 75.054 L
102.808 75.029 L
103.053 75.006 L
103.298 74.984 L
103.543 74.964 L
103.787 74.945 L
104.032 74.928 L
104.277 74.914 L
104.522 74.901 L
104.767 74.891 L
105.011 74.883 L
105.256 74.878 L
105.501 74.875 L
105.746 74.876 L
105.99 74.881 L
106.235 74.889 L
106.48 74.901 L
106.725 74.917 L
106.97 74.938 L
107.214 74.964 L
107.459 74.995 L
107.704 75.032 L
107.949 75.076 L
108.193 75.126 L
108.438 75.183 L
108.683 75.247 L
108.928 75.32 L
109.172 75.401 L
109.417 75.491 L
109.662 75.59 L
109.907 75.699 L
110.152 75.818 L
110.396 75.947 L
110.641 76.088 L
110.886 76.24 L
111.131 76.404 L
111.375 76.58 L
111.62 76.768 L
111.865 76.969 L
112.11 77.182 L
112.355 77.408 L
112.599 77.647 L
112.844 77.898 L
113.089 78.163 L
113.334 78.44 L
113.578 78.73 L
113.823 79.032 L
114.068 79.346 L
114.313 79.672 L
114.557 80.009 L
114.802 80.357 L
115.047 80.715 L
115.292 81.082 L
115.537 81.459 L
115.781 81.845 L
116.026 82.238 L
116.271 82.638 L
116.516 83.045 L
116.76 83.457 L
117.005 83.875 L
117.25 84.296 L
117.495 84.721 L
117.74 85.149 L
117.984 85.579 L
118.229 86.01 L
118.474 86.442 L
118.719 86.872 L
118.963 87.302 L
119.208 87.729 L
119.453 88.152 L
119.698 88.571 L
119.943 88.984 L
120.187 89.39 L
120.432 89.788 L
120.677 90.177 L
120.922 90.555 L
121.166 90.922 L
121.411 91.277 L
121.656 91.618 L
121.901 91.946 L
122.145 92.26 L
122.39 92.56 L
122.635 92.845 L
122.88 93.115 L
123.125 93.37 L
123.369 93.611 L
123.614 93.836 L
123.859 94.046 L
124.104 94.241 L
124.348 94.42 L
124.593 94.584 L
124.838 94.733 L
125.083 94.865 L
125.328 94.982 L
125.572 95.082 L
125.817 95.166 L
126.062 95.234 L
126.307 95.285 L
126.551 95.319 L
126.796 95.337 L
127.041 95.337 L
127.286 95.322 L
127.53 95.289 L
127.775 95.241 L
128.02 95.177 L
128.265 95.097 L
128.51 95.003 L
128.754 94.895 L
128.999 94.773 L
129.244 94.639 L
129.489 94.492 L
129.733 94.335 L
129.978 94.167 L
130.223 93.989 L
130.468 93.803 L
130.713 93.609 L
130.957 93.408 L
131.202 93.2 L
131.447 92.987 L
131.692 92.769 L
131.936 92.546 L
132.181 92.32 L
132.426 92.09 L
132.671 91.857 L
132.916 91.622 L
133.16 91.385 L
133.405 91.146 L
133.65 90.906 L
133.895 90.663 L
134.139 90.418 L
134.384 90.17 L
134.629 89.92 L
134.874 89.666 L
135.118 89.408 L
135.363 89.145 L
135.608 88.876 L
135.853 88.6 L
136.098 88.316 L
136.342 88.023 L
136.587 87.72 L
136.832 87.405 L
137.077 87.077 L
137.321 86.735 L
137.566 86.378 L
137.811 86.004 L
138.056 85.612 L
138.301 85.203 L
138.545 84.774 L
138.79 84.324 L
139.035 83.855 L
139.28 83.364 L
139.524 82.851 L
139.769 82.317 L
140.014 81.761 L
140.259 81.183 L
140.503 80.582 L
140.748 79.96 L
140.993 79.316 L
141.238 78.651 L
141.483 77.964 L
141.727 77.257 L
141.972 76.53 L
142.217 75.785 L
142.462 75.022 L
142.706 74.244 L
142.951 73.451 L
143.196 72.647 L
143.441 71.835 L
143.686 71.016 L
143.93 70.195 L
144.175 69.376 L
144.42 68.561 L
144.665 67.756 L
144.909 66.964 L
145.154 66.189 L
145.399 65.435 L
145.644 64.706 L
145.889 64.004 L
146.133 63.33 L
146.378 62.686 L
146.623 62.071 L
146.868 61.484 L
147.112 60.924 L
147.357 60.387 L
147.602 59.869 L
147.847 59.368 L
148.091 58.88 L
148.336 58.401 L
148.581 57.928 L
148.826 57.459 L
149.071 56.992 L
149.315 56.526 L
149.56 56.059 L
149.805 55.591 L
150.05 55.122 L
150.294 54.652 L
150.539 54.179 L
150.784 53.703 L
151.029 53.225 L
151.274 52.742 L
151.518 52.253 L
151.763 51.758 L
152.008 51.255 L
152.253 50.743 L
152.497 50.219 L
152.742 49.682 L
152.987 49.131 L
153.232 48.564 L
153.476 47.979 L
153.721 47.377 L
153.966 46.755 L
154.211 46.114 L
154.456 45.452 L
154.7 44.771 L
154.945 44.069 L
155.19 43.349 L
155.435 42.61 L
155.679 41.855 L
155.924 41.083 L
156.169 40.298 L
156.414 39.501 L
156.659 38.694 L
156.903 37.88 L
157.148 37.06 L
157.393 36.239 L
157.638 35.419 L
157.882 34.603 L
158.127 33.794 L
158.372 32.998 L
158.617 32.217 L
158.861 31.455 L
159.106 30.716 L
159.351 30.005 L
159.596 29.324 L
159.841 28.678 L
160.085 28.071 L
160.33 27.505 L
160.575 26.985 L
160.82 26.514 L
161.064 26.095 L
161.309 25.73 L
161.554 25.424 L
161.799 25.178 L
162.044 24.994 L
162.288 24.874 L
162.533 24.819 L
162.778 24.829 L
163.023 24.904 L
163.267 25.044 L
163.512 25.247 L
163.757 25.509 L
164.002 25.829 L
164.247 26.201 L
164.491 26.621 L
164.736 27.084 L
164.981 27.584 L
165.226 28.116 L
165.47 28.675 L
165.715 29.255 L
165.96 29.852 L
166.205 30.462 L
166.449 31.08 L
166.694 31.705 L
166.939 32.333 L
167.184 32.963 L
167.429 33.594 L
167.673 34.223 L
167.918 34.849 L
168.163 35.472 L
168.408 36.09 L
168.652 36.702 L
168.897 37.307 L
169.142 37.904 L
169.387 38.491 L
169.632 39.068 L
169.876 39.634 L
170.121 40.188 L
170.366 40.729 L
170.611 41.256 L
170.855 41.77 L
171.1 42.27 L
171.345 42.757 L
171.59 43.231 L
171.834 43.691 L
172.079 44.139 L
172.324 44.575 L
172.569 45 L
172.814 45.413 L
173.058 45.817 L
173.303 46.211 L
173.548 46.596 L
173.793 46.972 L
174.037 47.34 L
174.282 47.701 L
174.527 48.054 L
174.772 48.401 L
175.017 48.743 L
175.261 49.078 L
175.506 49.41 L
175.751 49.736 L
175.996 50.06 L
176.24 50.38 L
176.485 50.699 L
176.73 51.015 L
176.975 51.331 L
177.22 51.646 L
177.464 51.962 L
177.709 52.279 L
177.954 52.598 L
178.199 52.919 L
178.443 53.243 L
178.688 53.571 L
178.933 53.902 L
179.178 54.238 L
179.422 54.58 L
179.667 54.926 L
179.912 55.279 L
180.157 55.638 L
180.402 56.004 L
180.646 56.377 L
180.891 56.758 L
181.136 57.147 L
181.381 57.543 L
181.625 57.948 L
181.87 58.362 L
182.115 58.785 L
182.36 59.217 L
182.605 59.658 L
182.849 60.108 L
183.094 60.568 L
183.339 61.036 L
183.584 61.514 L
183.828 62.002 L
184.073 62.498 L
184.318 63.003 L
184.563 63.516 L
184.807 64.037 L
185.052 64.566 L
185.297 65.102 L
185.542 65.645 L
185.787 66.194 L
186.031 66.749 L
186.276 67.309 L
186.521 67.873 L
186.766 68.441 L
187.01 69.012 L
187.255 69.585 L
187.5 70.159 L
187.745 70.734 L
187.99 71.307 L
188.234 71.88 L
188.479 72.449 L
188.724 73.016 L
188.969 73.577 L
189.213 74.133 L
189.458 74.683 L
189.703 75.225 L
189.948 75.758 L
190.193 76.282 L
190.437 76.797 L
190.682 77.3 L
190.927 77.792 L
191.172 78.273 L
191.416 78.741 L
191.661 79.196 L
191.906 79.638 L
192.151 80.068 L
192.395 80.484 L
192.64 80.887 L
192.885 81.277 L
193.13 81.654 L
193.375 82.018 L
193.619 82.37 L
193.864 82.709 L
194.109 83.036 L
194.354 83.352 L
194.598 83.656 L
194.843 83.948 L
195.088 84.23 L
195.333 84.501 L
195.578 84.762 L
195.822 85.013 L
196.067 85.254 L
196.312 85.486 L
196.557 85.709 L
196.801 85.924 L
197.046 86.13 L
197.291 86.328 L
197.536 86.518 L
197.78 86.7 L
198.025 86.876 L
198.27 87.045 L
198.515 87.207 L
198.76 87.363 L
199.004 87.513 L
199.249 87.657 L
199.494 87.796 L
199.739 87.93 L
199.983 88.059 L
200.228 88.184 L
200.473 88.304 L
200.718 88.421 L
200.963 88.534 L
201.207 88.643 L
201.452 88.749 L
201.697 88.853 L
201.942 88.954 L
202.186 89.053 L
202.431 89.149 L
202.676 89.245 L
202.921 89.339 L
203.166 89.431 L
203.41 89.523 L
203.655 89.615 L
203.9 89.706 L
204.145 89.796 L
204.389 89.887 L
204.634 89.978 L
204.879 90.07 L
205.124 90.161 L
205.368 90.253 L
205.613 90.345 L
205.858 90.437 L
206.103 90.529 L
206.348 90.621 L
206.592 90.712 L
206.837 90.803 L
207.082 90.892 L
207.327 90.98 L
207.571 91.065 L
207.816 91.149 L
208.061 91.23 L
208.306 91.307 L
208.551 91.382 L
208.795 91.453 L
209.04 91.521 L
209.285 91.585 L
209.53 91.646 L
209.774 91.704 L
210.019 91.759 L
210.264 91.811 L
210.509 91.862 L
210.753 91.912 L
210.998 91.961 L
211.243 92.011 L
211.488 92.063 L
211.733 92.117 L
211.977 92.174 L
212.222 92.236 L
212.467 92.302 L
212.712 92.375 L
212.956 92.455 L
213.201 92.542 L
213.446 92.637 L
213.691 92.742 L
213.936 92.856 L
214.18 92.98 L
214.425 93.116 L
214.67 93.262 L
214.915 93.421 L
215.159 93.591 L
215.404 93.775 L
215.649 93.972 L
215.894 94.183 L
216.139 94.408 L
216.383 94.648 L
216.628 94.904 L
216.873 95.175 L
217.118 95.462 L
217.362 95.767 L
217.607 96.088 L
217.852 96.427 L
218.097 96.784 L
218.341 97.159 L
218.586 97.552 L
218.831 97.964 L
219.076 98.395 L
219.321 98.844 L
219.565 99.313 L
219.81 99.799 L
220.055 100.305 L
220.3 100.828 L
220.544 101.37 L
220.789 101.928 L
221.034 102.504 L
221.279 103.096 L
221.524 103.704 L
221.768 104.326 L
222.013 104.963 L
222.258 105.612 L
222.503 106.275 L
222.747 106.948 L
222.992 107.632 L
223.237 108.324 L
223.482 109.025 L
223.726 109.732 L
223.971 110.445 L
224.216 111.162 L
224.461 111.882 L
224.706 112.604 L
224.95 113.326 L
225.195 114.047 L
225.44 114.766 L
225.685 115.48 L
225.929 116.19 L
226.174 116.893 L
226.419 117.589 L
226.664 118.276 L
226.909 118.952 L
227.153 119.616 L
227.398 120.267 L
227.643 120.904 L
227.888 121.526 L
228.132 122.13 L
228.377 122.717 L
228.622 123.284 L
228.867 123.831 L
229.111 124.357 L
229.356 124.861 L
229.601 125.341 L
229.846 125.798 L
230.091 126.231 L
230.335 126.639 L
230.58 127.021 L
230.825 127.378 L
231.07 127.709 L
231.314 128.014 L
231.559 128.293 L
231.804 128.547 L
232.049 128.774 L
232.294 128.977 L
232.538 129.154 L
232.783 129.306 L
233.028 129.433 L
233.273 129.536 L
233.517 129.616 L
233.762 129.672 L
234.007 129.706 L
234.252 129.717 L
234.497 129.706 L
234.741 129.673 L
234.986 129.619 L
235.231 129.544 L
235.476 129.448 L
235.72 129.332 L
235.965 129.197 L
236.21 129.041 L
236.455 128.865 L
236.699 128.67 L
236.944 128.456 L
237.189 128.222 L
237.434 127.969 L
237.679 127.697 L
237.923 127.406 L
238.168 127.097 L
238.413 126.769 L
238.658 126.424 L
238.902 126.06 L
239.147 125.679 L
239.392 125.281 L
239.637 124.867 L
239.882 124.437 L
240.126 123.993 L
240.371 123.534 L
240.616 123.061 L
240.861 122.576 L
241.105 122.08 L
241.35 121.573 L
241.595 121.057 L
241.84 120.532 L
242.084 120 L
242.329 119.462 L
242.574 118.919 L
242.819 118.372 L
243.064 117.822 L
243.308 117.27 L
243.553 116.718 L
243.798 116.165 L
244.043 115.614 L
244.287 115.065 L
244.532 114.519 L
244.777 113.976 L
245.022 113.438 L
245.267 112.905 L
245.511 112.378 L
245.756 111.857 L
246.001 111.343 L
246.246 110.837 L
246.49 110.339 L
246.735 109.849 L
246.98 109.367 L
247.225 108.895 L
247.469 108.432 L
247.714 107.979 L
247.959 107.536 L
248.204 107.103 L
248.449 106.679 L
248.693 106.267 L
248.938 105.864 L
249.183 105.472 L
249.428 105.089 L
249.672 104.717 L
249.917 104.355 L
250.162 104.002 L
250.407 103.659 L
250.652 103.326 L
250.896 103 L
251.141 102.684 L
251.386 102.376 L
251.631 102.075 L
251.875 101.781 L
252.12 101.494 L
252.365 101.213 L
252.61 100.938 L
252.855 100.668 L
253.099 100.402 L
253.344 100.14 L
253.589 99.882 L
253.834 99.626 L
254.078 99.372 L
254.323 99.119 L
254.568 98.867 L
254.813 98.615 L
255.057 98.363 L
255.302 98.109 L
255.547 97.854 L
255.792 97.596 L
256.037 97.335 L
256.281 97.07 L
256.526 96.802 L
256.771 96.528 L
257.016 96.25 L
257.26 95.966 L
257.505 95.676 L
257.75 95.38 L
257.995 95.076 L
258.24 94.766 L
258.484 94.448 L
258.729 94.123 L
258.974 93.79 L
259.219 93.449 L
259.463 93.1 L
259.708 92.744 L
259.953 92.38 L
260.198 92.007 L
260.443 91.628 L
260.687 91.241 L
260.932 90.847 L
261.177 90.446 L
261.422 90.039 L
261.666 89.626 L
261.911 89.207 L
262.156 88.784 L
262.401 88.356 L
262.645 87.924 L
262.89 87.489 L
263.135 87.051 L
263.38 86.612 L
263.625 86.17 L
263.869 85.729 L
264.114 85.287 L
264.359 84.846 L
264.604 84.406 L
264.848 83.969 L
265.093 83.534 L
265.338 83.104 L
265.583 82.678 L
265.828 82.257 L
266.072 81.842 L
266.317 81.433 L
266.562 81.032 L
266.807 80.64 L
267.051 80.255 L
267.296 79.88 L
267.541 79.515 L
267.786 79.16 L
268.03 78.816 L
268.275 78.482 L
268.52 78.16 L
268.765 77.849 L
269.01 77.549 L
269.254 77.261 L
269.499 76.984 L
269.744 76.719 L
269.989 76.464 L
270.233 76.221 L
270.478 75.988 L
270.723 75.766 L
270.968 75.554 L
271.213 75.353 L
271.457 75.16 L
271.702 74.977 L
271.947 74.803 L
272.192 74.638 L
272.436 74.481 L
272.681 74.332 L
272.926 74.19 L
273.171 74.056 L
273.415 73.928 L
273.66 73.808 L
273.905 73.694 L
274.15 73.586 L
274.395 73.484 L
274.639 73.388 L
274.884 73.298 L
275.129 73.213 L
275.374 73.133 L
275.618 73.058 L
275.863 72.988 L
276.108 72.923 L
276.353 72.863 L
276.598 72.807 L
276.842 72.755 L
277.087 72.707 L
277.332 72.663 L
277.577 72.623 L
277.821 72.587 L
278.066 72.554 L
278.311 72.524 L
278.556 72.498 L
278.801 72.475 L
279.045 72.455 L
279.29 72.437 L
279.535 72.422 L
279.78 72.41 L
280.024 72.4 L
280.269 72.392 L
280.514 72.386 L
280.759 72.382 L
281.003 72.38 L
281.248 72.38 L
281.493 72.381 L
281.738 72.384 L
281.983 72.388 L
282.227 72.393 L
282.472 72.4 L
282.717 72.407 L
282.962 72.416 L
283.206 72.425 L
283.451 72.435 L
283.696 72.446 L
283.941 72.458 L
284.186 72.47 L
284.43 72.483 L
284.675 72.497 L
284.92 72.511 L
285.165 72.526 L
285.409 72.541 L
285.654 72.557 L
285.899 72.574 L
286.144 72.592 L
286.388 72.61 L
286.633 72.63 L
286.878 72.65 L
287.123 72.671 L
287.368 72.694 L
287.612 72.718 L
287.857 72.744 L
288.102 72.771 L
288.347 72.8 L
288.591 72.831 L
288.836 72.865 L
289.081 72.901 L
289.326 72.939 L
289.571 72.981 L
289.815 73.025 L
290.06 73.074 L
290.305 73.126 L
290.55 73.182 L
290.794 73.242 L
291.039 73.307 L
291.284 73.377 L
291.529 73.453 L
291.774 73.534 L
292.018 73.622 L
292.263 73.716 L
292.508 73.816 L
292.753 73.924 L
292.997 74.04 L
293.242 74.163 L
293.487 74.295 L
293.732 74.436 L
293.976 74.586 L
294.221 74.745 L
294.466 74.915 L
294.711 75.094 L
294.956 75.284 L
295.2 75.486 L
295.445 75.698 L
295.69 75.922 L
295.935 76.159 L
296.179 76.407 L
296.424 76.668 L
296.669 76.942 L
296.914 77.229 L
297.159 77.529 L
297.403 77.843 L
297.648 78.17 L
297.893 78.511 L
298.138 78.866 L
298.382 79.234 L
298.627 79.616 L
298.872 80.013 L
299.117 80.423 L
299.362 80.846 L
299.606 81.284 L
299.851 81.734 L
300.096 82.198 L
300.341 82.674 L
300.585 83.163 L
300.83 83.663 L
301.075 84.176 L
301.32 84.699 L
301.564 85.233 L
301.809 85.777 L
302.054 86.331 L
302.299 86.893 L
302.544 87.463 L
302.788 88.041 L
303.033 88.625 L
303.278 89.214 L
303.523 89.809 L
303.767 90.408 L
304.012 91.01 L
304.257 91.615 L
304.502 92.222 L
304.747 92.829 L
304.991 93.437 L
305.236 94.045 L
305.481 94.652 L
305.726 95.256 L
305.97 95.859 L
306.215 96.458 L
306.46 97.054 L
306.705 97.646 L
306.949 98.233 L
307.194 98.816 L
307.439 99.392 L
307.684 99.964 L
307.929 100.529 L
308.173 101.087 L
308.418 101.639 L
308.663 102.184 L
308.908 102.722 L
309.152 103.253 L
309.397 103.776 L
309.642 104.292 L
309.887 104.8 L
310.132 105.3 L
310.376 105.791 L
310.621 106.275 L
310.866 106.75 L
311.111 107.216 L
311.355 107.674 L
311.6 108.123 L
311.845 108.563 L
312.09 108.994 L
312.335 109.416 L
312.579 109.829 L
312.824 110.233 L
313.069 110.627 L
313.314 111.012 L
313.558 111.388 L
313.803 111.755 L
314.048 112.114 L
314.293 112.463 L
314.537 112.804 L
314.782 113.136 L
315.027 113.459 L
315.272 113.774 L
315.517 114.082 L
315.761 114.381 L
316.006 114.673 L
316.251 114.956 L
316.496 115.233 L
316.74 115.503 L
316.985 115.765 L
317.23 116.021 L
317.475 116.27 L
317.72 116.513 L
317.964 116.749 L
318.209 116.98 L
318.454 117.205 L
318.699 117.424 L
318.943 117.637 L
319.188 117.845 L
319.433 118.048 L
319.678 118.245 L
319.922 118.437 L
320.167 118.623 L
320.412 118.804 L
320.657 118.98 L
320.902 119.15 L
321.146 119.315 L
321.391 119.473 L
321.636 119.626 L
321.881 119.773 L
322.125 119.914 L
322.37 120.047 L
322.615 120.175 L
322.86 120.295 L
323.105 120.408 L
323.349 120.513 L
323.594 120.61 L
323.839 120.699 L
324.084 120.78 L
324.328 120.851 L
324.573 120.913 L
324.818 120.966 L
325.063 121.008 L
325.307 121.04 L
325.552 121.062 L
325.797 121.072 L
326.042 121.071 L
326.287 121.058 L
326.531 121.034 L
326.776 120.997 L
327.021 120.948 L
327.266 120.887 L
327.51 120.814 L
327.755 120.728 L
328 120.63 L
328.034 120.615 L
S
GR
%%Trailer
%%Pages: 1
%%EOF
