%!PS-Adobe-3.0 EPSF-3.0
%%Creator: (MATLAB, The Mathworks, Inc. Version 9.10.0.1684407 \(R2021a\) Update 3. Operating System: Linux)
%%Title: /home/adoan/Code/PRoSA_PI-ESN_Git/pi-esn/Results/MFE_results_Noise/Figures/FIG9B.eps
%%CreationDate: 2021-07-21T19:03:29
%%Pages: (atend)
%%BoundingBox:     0     0   283   170
%%LanguageLevel: 3
%%EndComments
%%BeginProlog
%%BeginResource: procset (Apache XML Graphics Std ProcSet) 1.2 0
%%Version: 1.2 0
%%Copyright: (Copyright 2001-2003,2010 The Apache Software Foundation. License terms: http://www.apache.org/licenses/LICENSE-2.0)
/bd{bind def}bind def
/ld{load def}bd
/GR/grestore ld
/GS/gsave ld
/RM/rmoveto ld
/C/curveto ld
/t/show ld
/L/lineto ld
/ML/setmiterlimit ld
/CT/concat ld
/f/fill ld
/N/newpath ld
/S/stroke ld
/CC/setcmykcolor ld
/A/ashow ld
/cp/closepath ld
/RC/setrgbcolor ld
/LJ/setlinejoin ld
/GC/setgray ld
/LW/setlinewidth ld
/M/moveto ld
/re {4 2 roll M
1 index 0 rlineto
0 exch rlineto
neg 0 rlineto
cp } bd
/_ctm matrix def
/_tm matrix def
/BT { _ctm currentmatrix pop matrix _tm copy pop 0 0 moveto } bd
/ET { _ctm setmatrix } bd
/iTm { _ctm setmatrix _tm concat } bd
/Tm { _tm astore pop iTm 0 0 moveto } bd
/ux 0.0 def
/uy 0.0 def
/F {
  /Tp exch def
  /Tf exch def
  Tf findfont Tp scalefont setfont
  /cf Tf def  /cs Tp def
} bd
/ULS {currentpoint /uy exch def /ux exch def} bd
/ULE {
  /Tcx currentpoint pop def
  gsave
  newpath
  cf findfont cs scalefont dup
  /FontMatrix get 0 get /Ts exch def /FontInfo get dup
  /UnderlinePosition get Ts mul /To exch def
  /UnderlineThickness get Ts mul /Tt exch def
  ux uy To add moveto  Tcx uy To add lineto
  Tt setlinewidth stroke
  grestore
} bd
/OLE {
  /Tcx currentpoint pop def
  gsave
  newpath
  cf findfont cs scalefont dup
  /FontMatrix get 0 get /Ts exch def /FontInfo get dup
  /UnderlinePosition get Ts mul /To exch def
  /UnderlineThickness get Ts mul /Tt exch def
  ux uy To add cs add moveto Tcx uy To add cs add lineto
  Tt setlinewidth stroke
  grestore
} bd
/SOE {
  /Tcx currentpoint pop def
  gsave
  newpath
  cf findfont cs scalefont dup
  /FontMatrix get 0 get /Ts exch def /FontInfo get dup
  /UnderlinePosition get Ts mul /To exch def
  /UnderlineThickness get Ts mul /Tt exch def
  ux uy To add cs 10 mul 26 idiv add moveto Tcx uy To add cs 10 mul 26 idiv add lineto
  Tt setlinewidth stroke
  grestore
} bd
/QT {
/Y22 exch store
/X22 exch store
/Y21 exch store
/X21 exch store
currentpoint
/Y21 load 2 mul add 3 div exch
/X21 load 2 mul add 3 div exch
/X21 load 2 mul /X22 load add 3 div
/Y21 load 2 mul /Y22 load add 3 div
/X22 load /Y22 load curveto
} bd
/SSPD {
dup length /d exch dict def
{
/v exch def
/k exch def
currentpagedevice k known {
/cpdv currentpagedevice k get def
v cpdv ne {
/upd false def
/nullv v type /nulltype eq def
/nullcpdv cpdv type /nulltype eq def
nullv nullcpdv or
{
/upd true def
} {
/sametype v type cpdv type eq def
sametype {
v type /arraytype eq {
/vlen v length def
/cpdvlen cpdv length def
vlen cpdvlen eq {
0 1 vlen 1 sub {
/i exch def
/obj v i get def
/cpdobj cpdv i get def
obj cpdobj ne {
/upd true def
exit
} if
} for
} {
/upd true def
} ifelse
} {
v type /dicttype eq {
v {
/dv exch def
/dk exch def
/cpddv cpdv dk get def
dv cpddv ne {
/upd true def
exit
} if
} forall
} {
/upd true def
} ifelse
} ifelse
} if
} ifelse
upd true eq {
d k v put
} if
} if
} if
} forall
d length 0 gt {
d setpagedevice
} if
} bd
/RE { % /NewFontName [NewEncodingArray] /FontName RE -
  findfont dup length dict begin
  {
    1 index /FID ne
    {def} {pop pop} ifelse
  } forall
  /Encoding exch def
  /FontName 1 index def
  currentdict definefont pop
  end
} bind def
%%EndResource
%%BeginResource: procset (Apache XML Graphics EPS ProcSet) 1.0 0
%%Version: 1.0 0
%%Copyright: (Copyright 2002-2003 The Apache Software Foundation. License terms: http://www.apache.org/licenses/LICENSE-2.0)
/BeginEPSF { %def
/b4_Inc_state save def         % Save state for cleanup
/dict_count countdictstack def % Count objects on dict stack
/op_count count 1 sub def      % Count objects on operand stack
userdict begin                 % Push userdict on dict stack
/showpage { } def              % Redefine showpage, { } = null proc
0 setgray 0 setlinecap         % Prepare graphics state
1 setlinewidth 0 setlinejoin
10 setmiterlimit [ ] 0 setdash newpath
/languagelevel where           % If level not equal to 1 then
{pop languagelevel             % set strokeadjust and
1 ne                           % overprint to their defaults.
{false setstrokeadjust false setoverprint
} if
} if
} bd
/EndEPSF { %def
count op_count sub {pop} repeat            % Clean up stacks
countdictstack dict_count sub {end} repeat
b4_Inc_state restore
} bd
%%EndResource
%FOPBeginFontDict
%%IncludeResource: font Courier-Oblique
%%IncludeResource: font Courier-BoldOblique
%%IncludeResource: font Courier-Bold
%%IncludeResource: font ZapfDingbats
%%IncludeResource: font Symbol
%%IncludeResource: font Helvetica
%%IncludeResource: font Helvetica-Oblique
%%IncludeResource: font Helvetica-Bold
%%IncludeResource: font Helvetica-BoldOblique
%%IncludeResource: font Times-Roman
%%IncludeResource: font Times-Italic
%%IncludeResource: font Times-Bold
%%IncludeResource: font Times-BoldItalic
%%IncludeResource: font Courier
%FOPEndFontDict
%%BeginResource: encoding WinAnsiEncoding
/WinAnsiEncoding [
/.notdef /.notdef /.notdef /.notdef /.notdef
/.notdef /.notdef /.notdef /.notdef /.notdef
/.notdef /.notdef /.notdef /.notdef /.notdef
/.notdef /.notdef /.notdef /.notdef /.notdef
/.notdef /.notdef /.notdef /.notdef /.notdef
/.notdef /.notdef /.notdef /.notdef /.notdef
/.notdef /.notdef /space /exclam /quotedbl
/numbersign /dollar /percent /ampersand /quotesingle
/parenleft /parenright /asterisk /plus /comma
/hyphen /period /slash /zero /one
/two /three /four /five /six
/seven /eight /nine /colon /semicolon
/less /equal /greater /question /at
/A /B /C /D /E
/F /G /H /I /J
/K /L /M /N /O
/P /Q /R /S /T
/U /V /W /X /Y
/Z /bracketleft /backslash /bracketright /asciicircum
/underscore /quoteleft /a /b /c
/d /e /f /g /h
/i /j /k /l /m
/n /o /p /q /r
/s /t /u /v /w
/x /y /z /braceleft /bar
/braceright /asciitilde /bullet /Euro /bullet
/quotesinglbase /florin /quotedblbase /ellipsis /dagger
/daggerdbl /circumflex /perthousand /Scaron /guilsinglleft
/OE /bullet /Zcaron /bullet /bullet
/quoteleft /quoteright /quotedblleft /quotedblright /bullet
/endash /emdash /asciitilde /trademark /scaron
/guilsinglright /oe /bullet /zcaron /Ydieresis
/space /exclamdown /cent /sterling /currency
/yen /brokenbar /section /dieresis /copyright
/ordfeminine /guillemotleft /logicalnot /sfthyphen /registered
/macron /degree /plusminus /twosuperior /threesuperior
/acute /mu /paragraph /middot /cedilla
/onesuperior /ordmasculine /guillemotright /onequarter /onehalf
/threequarters /questiondown /Agrave /Aacute /Acircumflex
/Atilde /Adieresis /Aring /AE /Ccedilla
/Egrave /Eacute /Ecircumflex /Edieresis /Igrave
/Iacute /Icircumflex /Idieresis /Eth /Ntilde
/Ograve /Oacute /Ocircumflex /Otilde /Odieresis
/multiply /Oslash /Ugrave /Uacute /Ucircumflex
/Udieresis /Yacute /Thorn /germandbls /agrave
/aacute /acircumflex /atilde /adieresis /aring
/ae /ccedilla /egrave /eacute /ecircumflex
/edieresis /igrave /iacute /icircumflex /idieresis
/eth /ntilde /ograve /oacute /ocircumflex
/otilde /odieresis /divide /oslash /ugrave
/uacute /ucircumflex /udieresis /yacute /thorn
/ydieresis
] def
%%EndResource
%FOPBeginFontReencode
/Courier-Oblique findfont
dup length dict begin
  {1 index /FID ne {def} {pop pop} ifelse} forall
  /Encoding WinAnsiEncoding def
  currentdict
end
/Courier-Oblique exch definefont pop
/Courier-BoldOblique findfont
dup length dict begin
  {1 index /FID ne {def} {pop pop} ifelse} forall
  /Encoding WinAnsiEncoding def
  currentdict
end
/Courier-BoldOblique exch definefont pop
/Courier-Bold findfont
dup length dict begin
  {1 index /FID ne {def} {pop pop} ifelse} forall
  /Encoding WinAnsiEncoding def
  currentdict
end
/Courier-Bold exch definefont pop
/Helvetica findfont
dup length dict begin
  {1 index /FID ne {def} {pop pop} ifelse} forall
  /Encoding WinAnsiEncoding def
  currentdict
end
/Helvetica exch definefont pop
/Helvetica-Oblique findfont
dup length dict begin
  {1 index /FID ne {def} {pop pop} ifelse} forall
  /Encoding WinAnsiEncoding def
  currentdict
end
/Helvetica-Oblique exch definefont pop
/Helvetica-Bold findfont
dup length dict begin
  {1 index /FID ne {def} {pop pop} ifelse} forall
  /Encoding WinAnsiEncoding def
  currentdict
end
/Helvetica-Bold exch definefont pop
/Helvetica-BoldOblique findfont
dup length dict begin
  {1 index /FID ne {def} {pop pop} ifelse} forall
  /Encoding WinAnsiEncoding def
  currentdict
end
/Helvetica-BoldOblique exch definefont pop
/Times-Roman findfont
dup length dict begin
  {1 index /FID ne {def} {pop pop} ifelse} forall
  /Encoding WinAnsiEncoding def
  currentdict
end
/Times-Roman exch definefont pop
/Times-Italic findfont
dup length dict begin
  {1 index /FID ne {def} {pop pop} ifelse} forall
  /Encoding WinAnsiEncoding def
  currentdict
end
/Times-Italic exch definefont pop
/Times-Bold findfont
dup length dict begin
  {1 index /FID ne {def} {pop pop} ifelse} forall
  /Encoding WinAnsiEncoding def
  currentdict
end
/Times-Bold exch definefont pop
/Times-BoldItalic findfont
dup length dict begin
  {1 index /FID ne {def} {pop pop} ifelse} forall
  /Encoding WinAnsiEncoding def
  currentdict
end
/Times-BoldItalic exch definefont pop
/Courier findfont
dup length dict begin
  {1 index /FID ne {def} {pop pop} ifelse} forall
  /Encoding WinAnsiEncoding def
  currentdict
end
/Courier exch definefont pop
%FOPEndFontReencode
%%EndProlog
%%Page: 1 1
%%PageBoundingBox: 0 0 283 170
%%BeginPageSetup
[1 0 0 -1 0 170] CT
%%EndPageSetup
GS
[0.78305 0 0 0.78377 0 -0.07875] CT
1 GC
N
0 0 362 217 re
f
GR
GS
[0.78305 0 0 0.78377 0 -0.07875] CT
1 GC
N
0 0 362 217 re
f
GR
GS
[0.78305 0 0 0.78377 0 -0.07875] CT
1 GC
N
47 172 M
328 172 L
328 16 L
47 16 L
cp
f
GR
GS
[0.78305 0 0 0.78377 0 -0.07875] CT
0.149 GC
2 setlinecap
1 LJ
0.639 LW
N
47 172 M
328 172 L
S
GR
GS
[0.78305 0 0 0.78377 0 -0.07875] CT
0.149 GC
2 setlinecap
1 LJ
0.639 LW
N
47 16 M
328 16 L
S
GR
GS
[0.78305 0 0 0.78377 0 -0.07875] CT
0.149 GC
2 setlinecap
1 LJ
0.639 LW
N
47 172 M
47 169.19 L
S
GR
GS
[0.78305 0 0 0.78377 0 -0.07875] CT
0.149 GC
2 setlinecap
1 LJ
0.639 LW
N
127.286 172 M
127.286 169.19 L
S
GR
GS
[0.78305 0 0 0.78377 0 -0.07875] CT
0.149 GC
2 setlinecap
1 LJ
0.639 LW
N
207.571 172 M
207.571 169.19 L
S
GR
GS
[0.78305 0 0 0.78377 0 -0.07875] CT
0.149 GC
2 setlinecap
1 LJ
0.639 LW
N
287.857 172 M
287.857 169.19 L
S
GR
GS
[0.78305 0 0 0.78377 0 -0.07875] CT
0.149 GC
2 setlinecap
1 LJ
0.639 LW
N
47 16 M
47 18.81 L
S
GR
GS
[0.78305 0 0 0.78377 0 -0.07875] CT
0.149 GC
2 setlinecap
1 LJ
0.639 LW
N
127.286 16 M
127.286 18.81 L
S
GR
GS
[0.78305 0 0 0.78377 0 -0.07875] CT
0.149 GC
2 setlinecap
1 LJ
0.639 LW
N
207.571 16 M
207.571 18.81 L
S
GR
GS
[0.78305 0 0 0.78377 0 -0.07875] CT
0.149 GC
2 setlinecap
1 LJ
0.639 LW
N
287.857 16 M
287.857 18.81 L
S
GR
GS
[0.78305 0 0 0.78377 36.80341 139.13676] CT
0.149 GC
N
-0.083 13.208 M
-1.927 13.208 -2.583 11.692 QT
-3.24 10.177 -3.24 8.099 QT
-3.24 6.786 -3.005 5.638 QT
-2.771 4.489 -2.068 3.692 QT
-1.365 2.896 -0.083 2.896 QT
0.901 2.896 1.534 3.372 QT
2.167 3.849 2.495 4.614 QT
2.823 5.38 2.948 6.255 QT
3.073 7.13 3.073 8.099 QT
3.073 9.38 2.831 10.505 QT
2.589 11.63 1.893 12.419 QT
1.198 13.208 -0.083 13.208 QT
cp
-0.083 12.817 M
0.745 12.817 1.159 11.966 QT
1.573 11.114 1.667 10.067 QT
1.76 9.021 1.76 7.849 QT
1.76 6.724 1.667 5.771 QT
1.573 4.817 1.167 4.044 QT
0.76 3.271 -0.083 3.271 QT
-0.927 3.271 -1.341 4.052 QT
-1.755 4.833 -1.849 5.778 QT
-1.943 6.724 -1.943 7.849 QT
-1.943 8.692 -1.904 9.435 QT
-1.865 10.177 -1.685 10.958 QT
-1.505 11.739 -1.115 12.278 QT
-0.724 12.817 -0.083 12.817 QT
cp
f
GR
GS
[0.78305 0 0 0.78377 99.67124 139.13676] CT
0.149 GC
N
-3.083 12.88 M
-3.083 12.474 L
-3.083 12.442 -3.052 12.396 QT
-0.724 9.817 L
-0.193 9.239 0.135 8.857 QT
0.464 8.474 0.784 7.966 QT
1.104 7.458 1.292 6.935 QT
1.479 6.411 1.479 5.833 QT
1.479 5.208 1.253 4.646 QT
1.026 4.083 0.573 3.747 QT
0.12 3.411 -0.521 3.411 QT
-1.161 3.411 -1.685 3.81 QT
-2.208 4.208 -2.427 4.817 QT
-2.365 4.802 -2.255 4.802 QT
-1.927 4.802 -1.685 5.028 QT
-1.443 5.255 -1.443 5.614 QT
-1.443 5.958 -1.685 6.2 QT
-1.927 6.442 -2.255 6.442 QT
-2.615 6.442 -2.849 6.2 QT
-3.083 5.958 -3.083 5.614 QT
-3.083 5.052 -2.872 4.56 QT
-2.661 4.067 -2.263 3.685 QT
-1.865 3.302 -1.365 3.099 QT
-0.865 2.896 -0.302 2.896 QT
0.557 2.896 1.299 3.255 QT
2.042 3.614 2.471 4.278 QT
2.901 4.942 2.901 5.833 QT
2.901 6.474 2.62 7.06 QT
2.339 7.646 1.893 8.13 QT
1.448 8.614 0.745 9.224 QT
0.042 9.833 -0.177 10.036 QT
-1.865 11.661 L
-0.427 11.661 L
0.635 11.661 1.346 11.646 QT
2.057 11.63 2.104 11.583 QT
2.276 11.396 2.464 10.208 QT
2.901 10.208 L
2.479 12.88 L
-3.083 12.88 L
cp
f
GR
GS
[0.78305 0 0 0.78377 162.53907 139.13676] CT
0.149 GC
N
-3.411 10.411 M
-3.411 9.88 L
1.214 2.958 L
1.276 2.896 1.37 2.896 QT
1.589 2.896 L
1.76 2.896 1.76 3.052 QT
1.76 9.88 L
3.229 9.88 L
3.229 10.411 L
1.76 10.411 L
1.76 11.88 L
1.76 12.177 2.198 12.263 QT
2.635 12.349 3.214 12.349 QT
3.214 12.88 L
-0.911 12.88 L
-0.911 12.349 L
-0.333 12.349 0.104 12.263 QT
0.542 12.177 0.542 11.88 QT
0.542 10.411 L
-3.411 10.411 L
cp
-2.911 9.88 M
0.635 9.88 L
0.635 4.567 L
-2.911 9.88 L
cp
f
GR
GS
[0.78305 0 0 0.78377 225.40691 139.13676] CT
0.149 GC
N
-0.083 13.208 M
-1.021 13.208 -1.638 12.716 QT
-2.255 12.224 -2.599 11.435 QT
-2.943 10.646 -3.076 9.778 QT
-3.208 8.911 -3.208 8.036 QT
-3.208 6.849 -2.747 5.653 QT
-2.286 4.458 -1.388 3.677 QT
-0.49 2.896 0.745 2.896 QT
1.26 2.896 1.706 3.083 QT
2.151 3.271 2.401 3.653 QT
2.651 4.036 2.651 4.567 QT
2.651 4.88 2.44 5.083 QT
2.229 5.286 1.917 5.286 QT
1.635 5.286 1.424 5.075 QT
1.214 4.864 1.214 4.567 QT
1.214 4.271 1.424 4.06 QT
1.635 3.849 1.917 3.849 QT
2.01 3.849 L
1.807 3.583 1.464 3.45 QT
1.12 3.317 0.745 3.317 QT
0.292 3.317 -0.091 3.521 QT
-0.474 3.724 -0.786 4.06 QT
-1.099 4.396 -1.302 4.802 QT
-1.505 5.208 -1.615 5.724 QT
-1.724 6.239 -1.755 6.692 QT
-1.786 7.146 -1.786 7.833 QT
-1.521 7.224 -1.036 6.833 QT
-0.552 6.442 0.042 6.442 QT
0.714 6.442 1.26 6.716 QT
1.807 6.989 2.206 7.466 QT
2.604 7.942 2.815 8.56 QT
3.026 9.177 3.026 9.802 QT
3.026 10.677 2.635 11.474 QT
2.245 12.271 1.534 12.739 QT
0.823 13.208 -0.083 13.208 QT
cp
-0.083 12.739 M
0.495 12.739 0.846 12.474 QT
1.198 12.208 1.362 11.771 QT
1.526 11.333 1.565 10.888 QT
1.604 10.442 1.604 9.802 QT
1.604 8.958 1.526 8.357 QT
1.448 7.755 1.089 7.294 QT
0.729 6.833 -0.005 6.833 QT
-0.615 6.833 -1.005 7.247 QT
-1.396 7.661 -1.576 8.286 QT
-1.755 8.911 -1.755 9.489 QT
-1.755 9.692 -1.74 9.786 QT
-1.74 9.817 -1.747 9.825 QT
-1.755 9.833 -1.755 9.864 QT
-1.755 10.505 -1.622 11.161 QT
-1.49 11.817 -1.122 12.278 QT
-0.755 12.739 -0.083 12.739 QT
cp
f
GR
GS
[0.78305 0 0 0.78377 146.82223 154.13644] CT
0.149 GC
N
-7.012 12.793 M
-7.012 12.543 -6.949 12.324 QT
-5.73 7.434 L
-7.512 7.434 L
-7.684 7.434 -7.684 7.215 QT
-7.621 6.84 -7.465 6.84 QT
-5.574 6.84 L
-4.902 4.059 L
-4.824 3.84 -4.629 3.684 QT
-4.434 3.527 -4.184 3.527 QT
-3.965 3.527 -3.816 3.652 QT
-3.668 3.777 -3.668 3.996 QT
-3.668 4.043 -3.676 4.074 QT
-3.684 4.105 -3.699 4.137 QT
-4.371 6.84 L
-2.621 6.84 L
-2.449 6.84 -2.449 7.059 QT
-2.449 7.105 -2.48 7.207 QT
-2.512 7.309 -2.551 7.371 QT
-2.59 7.434 -2.668 7.434 QT
-4.527 7.434 L
-5.746 12.355 L
-5.871 12.824 -5.871 13.184 QT
-5.871 13.918 -5.371 13.918 QT
-4.621 13.918 -4.043 13.215 QT
-3.465 12.512 -3.168 11.668 QT
-3.09 11.574 -3.027 11.574 QT
-2.824 11.574 L
-2.762 11.574 -2.715 11.621 QT
-2.668 11.668 -2.668 11.715 QT
-2.668 11.746 -2.684 11.762 QT
-3.059 12.793 -3.777 13.574 QT
-4.496 14.355 -5.418 14.355 QT
-6.09 14.355 -6.551 13.918 QT
-7.012 13.48 -7.012 12.793 QT
cp
f
GR
GS
[0.78305 0 0 0.78377 146.82223 154.13644] CT
0.149 GC
N
-1.062 5.282 M
-1.171 5.282 -1.233 5.211 QT
-1.296 5.141 -1.296 5.047 QT
-1.296 4.953 -1.233 4.883 QT
-1.171 4.813 -1.062 4.813 QT
2.47 4.813 L
2.47 1.266 L
2.47 1.172 2.54 1.11 QT
2.61 1.047 2.704 1.047 QT
2.798 1.047 2.868 1.11 QT
2.938 1.172 2.938 1.266 QT
2.938 4.813 L
6.47 4.813 L
6.563 4.813 6.626 4.883 QT
6.688 4.953 6.688 5.047 QT
6.688 5.141 6.626 5.211 QT
6.563 5.282 6.47 5.282 QT
2.938 5.282 L
2.938 8.828 L
2.938 8.922 2.868 8.985 QT
2.798 9.047 2.704 9.047 QT
2.61 9.047 2.54 8.985 QT
2.47 8.922 2.47 8.828 QT
2.47 5.282 L
-1.062 5.282 L
cp
f
GR
GS
[0.78305 0 0 0.78377 0 -0.07875] CT
0.149 GC
2 setlinecap
1 LJ
0.639 LW
N
47 172 M
47 16 L
S
GR
GS
[0.78305 0 0 0.78377 0 -0.07875] CT
0.149 GC
2 setlinecap
1 LJ
0.639 LW
N
328 172 M
328 16 L
S
GR
GS
[0.78305 0 0 0.78377 0 -0.07875] CT
0.149 GC
2 setlinecap
1 LJ
0.639 LW
N
47 172 M
49.81 172 L
S
GR
GS
[0.78305 0 0 0.78377 0 -0.07875] CT
0.149 GC
2 setlinecap
1 LJ
0.639 LW
N
47 133 M
49.81 133 L
S
GR
GS
[0.78305 0 0 0.78377 0 -0.07875] CT
0.149 GC
2 setlinecap
1 LJ
0.639 LW
N
47 94 M
49.81 94 L
S
GR
GS
[0.78305 0 0 0.78377 0 -0.07875] CT
0.149 GC
2 setlinecap
1 LJ
0.639 LW
N
47 55 M
49.81 55 L
S
GR
GS
[0.78305 0 0 0.78377 0 -0.07875] CT
0.149 GC
2 setlinecap
1 LJ
0.639 LW
N
47 16 M
49.81 16 L
S
GR
GS
[0.78305 0 0 0.78377 0 -0.07875] CT
0.149 GC
2 setlinecap
1 LJ
0.639 LW
N
328 172 M
325.19 172 L
S
GR
GS
[0.78305 0 0 0.78377 0 -0.07875] CT
0.149 GC
2 setlinecap
1 LJ
0.639 LW
N
328 133 M
325.19 133 L
S
GR
GS
[0.78305 0 0 0.78377 0 -0.07875] CT
0.149 GC
2 setlinecap
1 LJ
0.639 LW
N
328 94 M
325.19 94 L
S
GR
GS
[0.78305 0 0 0.78377 0 -0.07875] CT
0.149 GC
2 setlinecap
1 LJ
0.639 LW
N
328 55 M
325.19 55 L
S
GR
GS
[0.78305 0 0 0.78377 0 -0.07875] CT
0.149 GC
2 setlinecap
1 LJ
0.639 LW
N
328 16 M
325.19 16 L
S
GR
GS
[0.78305 0 0 0.78377 32.40092 134.73021] CT
0.149 GC
N
-24.532 0.899 M
-24.532 -0.023 L
-20.563 -0.023 L
-20.563 0.899 L
-24.532 0.899 L
cp
f
GR
GS
[0.78305 0 0 0.78377 32.40092 134.73021] CT
0.149 GC
N
-15.843 4.008 M
-17.686 4.008 -18.343 2.492 QT
-18.999 0.977 -18.999 -1.101 QT
-18.999 -2.414 -18.765 -3.562 QT
-18.53 -4.711 -17.827 -5.508 QT
-17.124 -6.304 -15.843 -6.304 QT
-14.858 -6.304 -14.225 -5.828 QT
-13.593 -5.351 -13.265 -4.586 QT
-12.936 -3.82 -12.811 -2.945 QT
-12.686 -2.07 -12.686 -1.101 QT
-12.686 0.18 -12.929 1.305 QT
-13.171 2.43 -13.866 3.219 QT
-14.561 4.008 -15.843 4.008 QT
cp
-15.843 3.617 M
-15.015 3.617 -14.6 2.766 QT
-14.186 1.914 -14.093 0.867 QT
-13.999 -0.179 -13.999 -1.351 QT
-13.999 -2.476 -14.093 -3.429 QT
-14.186 -4.383 -14.593 -5.156 QT
-14.999 -5.929 -15.843 -5.929 QT
-16.686 -5.929 -17.1 -5.148 QT
-17.515 -4.367 -17.608 -3.422 QT
-17.702 -2.476 -17.702 -1.351 QT
-17.702 -0.508 -17.663 0.235 QT
-17.624 0.977 -17.444 1.758 QT
-17.265 2.539 -16.874 3.078 QT
-16.483 3.617 -15.843 3.617 QT
cp
f
GR
GS
[0.78305 0 0 0.78377 32.40092 134.73021] CT
0.149 GC
N
-10.66 2.852 M
-10.66 2.508 -10.41 2.274 QT
-10.16 2.039 -9.832 2.039 QT
-9.629 2.039 -9.434 2.149 QT
-9.238 2.258 -9.129 2.453 QT
-9.02 2.649 -9.02 2.852 QT
-9.02 3.18 -9.262 3.43 QT
-9.504 3.68 -9.832 3.68 QT
-10.16 3.68 -10.41 3.43 QT
-10.66 3.18 -10.66 2.852 QT
cp
f
GR
GS
[0.78305 0 0 0.78377 32.40092 134.73021] CT
0.149 GC
N
-7.245 1.211 M
-7.245 0.68 L
-2.62 -6.242 L
-2.557 -6.304 -2.464 -6.304 QT
-2.245 -6.304 L
-2.073 -6.304 -2.073 -6.148 QT
-2.073 0.68 L
-0.604 0.68 L
-0.604 1.211 L
-2.073 1.211 L
-2.073 2.68 L
-2.073 2.977 -1.635 3.063 QT
-1.198 3.149 -0.62 3.149 QT
-0.62 3.68 L
-4.745 3.68 L
-4.745 3.149 L
-4.167 3.149 -3.729 3.063 QT
-3.292 2.977 -3.292 2.68 QT
-3.292 1.211 L
-7.245 1.211 L
cp
-6.745 0.68 M
-3.198 0.68 L
-3.198 -4.633 L
-6.745 0.68 L
cp
f
GR
GS
[0.78305 0 0 0.78377 32.40092 104.16306] CT
0.149 GC
N
/f-975976711{-24.532 0.899 M
-24.532 -0.023 L
-20.563 -0.023 L
-20.563 0.899 L
-24.532 0.899 L
cp}def
f-975976711
f
GR
GS
[0.78305 0 0 0.78377 32.40092 104.16306] CT
0.149 GC
N
/f-1716017318{-15.843 4.008 M
-17.686 4.008 -18.343 2.492 QT
-18.999 0.977 -18.999 -1.101 QT
-18.999 -2.414 -18.765 -3.562 QT
-18.53 -4.711 -17.827 -5.508 QT
-17.124 -6.304 -15.843 -6.304 QT
-14.858 -6.304 -14.225 -5.828 QT
-13.593 -5.351 -13.265 -4.586 QT
-12.936 -3.82 -12.811 -2.945 QT
-12.686 -2.07 -12.686 -1.101 QT
-12.686 0.18 -12.929 1.305 QT
-13.171 2.43 -13.866 3.219 QT
-14.561 4.008 -15.843 4.008 QT
cp
-15.843 3.617 M
-15.015 3.617 -14.6 2.766 QT
-14.186 1.914 -14.093 0.867 QT
-13.999 -0.179 -13.999 -1.351 QT
-13.999 -2.476 -14.093 -3.429 QT
-14.186 -4.383 -14.593 -5.156 QT
-14.999 -5.929 -15.843 -5.929 QT
-16.686 -5.929 -17.1 -5.148 QT
-17.515 -4.367 -17.608 -3.422 QT
-17.702 -2.476 -17.702 -1.351 QT
-17.702 -0.508 -17.663 0.235 QT
-17.624 0.977 -17.444 1.758 QT
-17.265 2.539 -16.874 3.078 QT
-16.483 3.617 -15.843 3.617 QT
cp}def
f-1716017318
f
GR
GS
[0.78305 0 0 0.78377 32.40092 104.16306] CT
0.149 GC
N
/f-606985051{-10.66 2.852 M
-10.66 2.508 -10.41 2.274 QT
-10.16 2.039 -9.832 2.039 QT
-9.629 2.039 -9.434 2.149 QT
-9.238 2.258 -9.129 2.453 QT
-9.02 2.649 -9.02 2.852 QT
-9.02 3.18 -9.262 3.43 QT
-9.504 3.68 -9.832 3.68 QT
-10.16 3.68 -10.41 3.43 QT
-10.66 3.18 -10.66 2.852 QT
cp}def
f-606985051
f
GR
GS
[0.78305 0 0 0.78377 32.40092 104.16306] CT
0.149 GC
N
/f274154036{-6.917 3.68 M
-6.917 3.274 L
-6.917 3.242 -6.885 3.196 QT
-4.557 0.617 L
-4.026 0.039 -3.698 -0.343 QT
-3.37 -0.726 -3.05 -1.234 QT
-2.729 -1.742 -2.542 -2.265 QT
-2.354 -2.789 -2.354 -3.367 QT
-2.354 -3.992 -2.581 -4.554 QT
-2.807 -5.117 -3.26 -5.453 QT
-3.714 -5.789 -4.354 -5.789 QT
-4.995 -5.789 -5.518 -5.39 QT
-6.042 -4.992 -6.26 -4.383 QT
-6.198 -4.398 -6.089 -4.398 QT
-5.76 -4.398 -5.518 -4.172 QT
-5.276 -3.945 -5.276 -3.586 QT
-5.276 -3.242 -5.518 -3 QT
-5.76 -2.758 -6.089 -2.758 QT
-6.448 -2.758 -6.682 -3 QT
-6.917 -3.242 -6.917 -3.586 QT
-6.917 -4.148 -6.706 -4.64 QT
-6.495 -5.133 -6.096 -5.515 QT
-5.698 -5.898 -5.198 -6.101 QT
-4.698 -6.304 -4.135 -6.304 QT
-3.276 -6.304 -2.534 -5.945 QT
-1.792 -5.586 -1.362 -4.922 QT
-0.932 -4.258 -0.932 -3.367 QT
-0.932 -2.726 -1.214 -2.14 QT
-1.495 -1.554 -1.94 -1.07 QT
-2.385 -0.586 -3.089 0.024 QT
-3.792 0.633 -4.01 0.836 QT
-5.698 2.461 L
-4.26 2.461 L
-3.198 2.461 -2.487 2.446 QT
-1.776 2.43 -1.729 2.383 QT
-1.557 2.196 -1.37 1.008 QT
-0.932 1.008 L
-1.354 3.68 L
-6.917 3.68 L
cp}def
f274154036
f
GR
GS
[0.78305 0 0 0.78377 32.40092 73.59592] CT
0.149 GC
N
/f1704323170{-3.917 4.008 M
-5.76 4.008 -6.417 2.492 QT
-7.073 0.977 -7.073 -1.101 QT
-7.073 -2.414 -6.839 -3.562 QT
-6.604 -4.711 -5.901 -5.508 QT
-5.198 -6.304 -3.917 -6.304 QT
-2.932 -6.304 -2.3 -5.828 QT
-1.667 -5.351 -1.339 -4.586 QT
-1.01 -3.82 -0.885 -2.945 QT
-0.76 -2.07 -0.76 -1.101 QT
-0.76 0.18 -1.003 1.305 QT
-1.245 2.43 -1.94 3.219 QT
-2.635 4.008 -3.917 4.008 QT
cp
-3.917 3.617 M
-3.089 3.617 -2.675 2.766 QT
-2.26 1.914 -2.167 0.867 QT
-2.073 -0.179 -2.073 -1.351 QT
-2.073 -2.476 -2.167 -3.429 QT
-2.26 -4.383 -2.667 -5.156 QT
-3.073 -5.929 -3.917 -5.929 QT
-4.76 -5.929 -5.175 -5.148 QT
-5.589 -4.367 -5.682 -3.422 QT
-5.776 -2.476 -5.776 -1.351 QT
-5.776 -0.508 -5.737 0.235 QT
-5.698 0.977 -5.518 1.758 QT
-5.339 2.539 -4.948 3.078 QT
-4.557 3.617 -3.917 3.617 QT
cp}def
f1704323170
f
GR
GS
[0.78305 0 0 0.78377 32.40092 43.02877] CT
0.149 GC
N
f-1716017318
f
GR
GS
[0.78305 0 0 0.78377 32.40092 43.02877] CT
0.149 GC
N
f-606985051
f
GR
GS
[0.78305 0 0 0.78377 32.40092 43.02877] CT
0.149 GC
N
f274154036
f
GR
GS
[0.78305 0 0 0.78377 32.40092 12.46162] CT
0.149 GC
N
f-1716017318
f
GR
GS
[0.78305 0 0 0.78377 32.40092 12.46162] CT
0.149 GC
N
f-606985051
f
GR
GS
[0.78305 0 0 0.78377 32.40092 12.46162] CT
0.149 GC
N
/f-376320310{-7.245 1.211 M
-7.245 0.68 L
-2.62 -6.242 L
-2.557 -6.304 -2.464 -6.304 QT
-2.245 -6.304 L
-2.073 -6.304 -2.073 -6.148 QT
-2.073 0.68 L
-0.604 0.68 L
-0.604 1.211 L
-2.073 1.211 L
-2.073 2.68 L
-2.073 2.977 -1.635 3.063 QT
-1.198 3.149 -0.62 3.149 QT
-0.62 3.68 L
-4.745 3.68 L
-4.745 3.149 L
-4.167 3.149 -3.729 3.063 QT
-3.292 2.977 -3.292 2.68 QT
-3.292 1.211 L
-7.245 1.211 L
cp
-6.745 0.68 M
-3.198 0.68 L
-3.198 -4.633 L
-6.745 0.68 L
cp}def
f-376320310
f
GR
GS
[0.78305 0 0 0.78377 0 -0.07875] CT
0.251 0.251 1 RC
1 LJ
1.917 LW
N
47 84.3 M
47.245 84.162 L
47.49 83.8 L
47.734 83.892 L
47.979 83.951 L
48.224 83.94 L
48.469 83.71 L
48.713 83.685 L
48.958 83.861 L
49.203 83.771 L
49.448 83.795 L
49.693 83.716 L
49.937 83.761 L
50.182 83.943 L
50.427 83.917 L
50.672 83.958 L
50.916 84.051 L
51.161 84.117 L
51.406 84.238 L
51.651 84.282 L
51.895 84.442 L
52.14 84.628 L
52.385 84.737 L
52.63 84.954 L
52.875 85.024 L
53.119 85.228 L
53.364 85.43 L
53.609 85.558 L
53.854 85.753 L
54.098 85.937 L
54.343 86.126 L
54.588 86.334 L
54.833 86.569 L
55.078 86.783 L
55.322 87.025 L
55.567 87.278 L
55.812 87.519 L
56.057 87.773 L
56.301 88.032 L
56.546 88.296 L
56.791 88.553 L
57.036 88.813 L
57.28 89.089 L
57.525 89.353 L
57.77 89.636 L
58.015 89.914 L
58.26 90.208 L
58.504 90.493 L
58.749 90.782 L
58.994 91.071 L
59.239 91.365 L
59.483 91.655 L
59.728 91.953 L
59.973 92.25 L
60.218 92.545 L
60.463 92.847 L
60.707 93.14 L
60.952 93.441 L
61.197 93.73 L
61.442 94.022 L
61.686 94.309 L
61.931 94.6 L
62.176 94.883 L
62.421 95.17 L
62.666 95.449 L
62.91 95.729 L
63.155 96.005 L
63.4 96.28 L
63.645 96.553 L
63.889 96.822 L
64.134 97.089 L
64.379 97.351 L
64.624 97.611 L
64.868 97.865 L
65.113 98.119 L
65.358 98.367 L
65.603 98.612 L
65.848 98.852 L
66.092 99.09 L
66.337 99.324 L
66.582 99.554 L
66.827 99.781 L
67.071 100.003 L
67.316 100.222 L
67.561 100.438 L
67.806 100.65 L
68.051 100.859 L
68.295 101.064 L
68.54 101.266 L
68.785 101.465 L
69.03 101.661 L
69.274 101.853 L
69.519 102.042 L
69.764 102.228 L
70.009 102.411 L
70.253 102.591 L
70.498 102.768 L
70.743 102.941 L
70.988 103.112 L
71.233 103.28 L
71.477 103.446 L
71.722 103.608 L
71.967 103.767 L
72.212 103.924 L
72.456 104.078 L
72.701 104.229 L
72.946 104.377 L
73.191 104.523 L
73.436 104.666 L
73.68 104.806 L
73.925 104.943 L
74.17 105.078 L
74.415 105.209 L
74.659 105.338 L
74.904 105.463 L
75.149 105.586 L
75.394 105.706 L
75.639 105.822 L
75.883 105.936 L
76.128 106.046 L
76.373 106.153 L
76.618 106.257 L
76.862 106.357 L
77.107 106.454 L
77.352 106.548 L
77.597 106.638 L
77.841 106.724 L
78.086 106.806 L
78.331 106.885 L
78.576 106.96 L
78.821 107.031 L
79.065 107.098 L
79.31 107.162 L
79.555 107.221 L
79.8 107.276 L
80.044 107.327 L
80.289 107.374 L
80.534 107.416 L
80.779 107.455 L
81.024 107.489 L
81.268 107.519 L
81.513 107.545 L
81.758 107.566 L
82.003 107.583 L
82.247 107.596 L
82.492 107.604 L
82.737 107.609 L
82.982 107.609 L
83.226 107.605 L
83.471 107.596 L
83.716 107.584 L
83.961 107.567 L
84.206 107.547 L
84.45 107.522 L
84.695 107.494 L
84.94 107.461 L
85.185 107.425 L
85.429 107.385 L
85.674 107.342 L
85.919 107.295 L
86.164 107.244 L
86.409 107.191 L
86.653 107.133 L
86.898 107.073 L
87.143 107.009 L
87.388 106.943 L
87.632 106.873 L
87.877 106.801 L
88.122 106.726 L
88.367 106.648 L
88.611 106.568 L
88.856 106.485 L
89.101 106.4 L
89.346 106.313 L
89.591 106.224 L
89.835 106.133 L
90.08 106.039 L
90.325 105.944 L
90.57 105.847 L
90.814 105.749 L
91.059 105.649 L
91.304 105.547 L
91.549 105.445 L
91.794 105.341 L
92.038 105.236 L
92.283 105.13 L
92.528 105.023 L
92.773 104.915 L
93.017 104.806 L
93.262 104.697 L
93.507 104.588 L
93.752 104.478 L
93.997 104.368 L
94.241 104.257 L
94.486 104.147 L
94.731 104.037 L
94.976 103.927 L
95.22 103.817 L
95.465 103.708 L
95.71 103.6 L
95.955 103.492 L
96.199 103.386 L
96.444 103.28 L
96.689 103.176 L
96.934 103.073 L
97.179 102.971 L
97.423 102.872 L
97.668 102.774 L
97.913 102.678 L
98.158 102.585 L
98.402 102.494 L
98.647 102.405 L
98.892 102.319 L
99.137 102.236 L
99.382 102.156 L
99.626 102.079 L
99.871 102.005 L
100.116 101.935 L
100.361 101.868 L
100.605 101.805 L
100.85 101.745 L
101.095 101.689 L
101.34 101.637 L
101.584 101.59 L
101.829 101.546 L
102.074 101.506 L
102.319 101.47 L
102.564 101.438 L
102.808 101.411 L
103.053 101.387 L
103.298 101.368 L
103.543 101.352 L
103.787 101.34 L
104.032 101.332 L
104.277 101.327 L
104.522 101.326 L
104.767 101.328 L
105.011 101.333 L
105.256 101.342 L
105.501 101.352 L
105.746 101.365 L
105.99 101.381 L
106.235 101.398 L
106.48 101.416 L
106.725 101.436 L
106.97 101.456 L
107.214 101.477 L
107.459 101.498 L
107.704 101.519 L
107.949 101.539 L
108.193 101.558 L
108.438 101.575 L
108.683 101.591 L
108.928 101.603 L
109.172 101.613 L
109.417 101.62 L
109.662 101.622 L
109.907 101.621 L
110.152 101.614 L
110.396 101.602 L
110.641 101.585 L
110.886 101.561 L
111.131 101.53 L
111.375 101.493 L
111.62 101.448 L
111.865 101.395 L
112.11 101.334 L
112.355 101.265 L
112.599 101.186 L
112.844 101.099 L
113.089 101.002 L
113.334 100.895 L
113.578 100.778 L
113.823 100.652 L
114.068 100.515 L
114.313 100.368 L
114.557 100.211 L
114.802 100.044 L
115.047 99.867 L
115.292 99.68 L
115.537 99.483 L
115.781 99.277 L
116.026 99.061 L
116.271 98.836 L
116.516 98.602 L
116.76 98.36 L
117.005 98.111 L
117.25 97.853 L
117.495 97.589 L
117.74 97.318 L
117.984 97.041 L
118.229 96.759 L
118.474 96.471 L
118.719 96.18 L
118.963 95.884 L
119.208 95.585 L
119.453 95.282 L
119.698 94.978 L
119.943 94.672 L
120.187 94.364 L
120.432 94.055 L
120.677 93.746 L
120.922 93.436 L
121.166 93.127 L
121.411 92.819 L
121.656 92.511 L
121.901 92.204 L
122.145 91.899 L
122.39 91.595 L
122.635 91.293 L
122.88 90.993 L
123.125 90.695 L
123.369 90.399 L
123.614 90.105 L
123.859 89.813 L
124.104 89.524 L
124.348 89.236 L
124.593 88.951 L
124.838 88.667 L
125.083 88.386 L
125.328 88.107 L
125.572 87.83 L
125.817 87.554 L
126.062 87.281 L
126.307 87.009 L
126.551 86.74 L
126.796 86.472 L
127.041 86.206 L
127.286 85.942 L
127.53 85.68 L
127.775 85.42 L
128.02 85.163 L
128.265 84.907 L
128.51 84.654 L
128.754 84.404 L
128.999 84.156 L
129.244 83.912 L
129.489 83.67 L
129.733 83.433 L
129.978 83.198 L
130.223 82.968 L
130.468 82.742 L
130.713 82.521 L
130.957 82.304 L
131.202 82.092 L
131.447 81.886 L
131.692 81.685 L
131.936 81.489 L
132.181 81.3 L
132.426 81.117 L
132.671 80.94 L
132.916 80.769 L
133.16 80.605 L
133.405 80.448 L
133.65 80.297 L
133.895 80.154 L
134.139 80.016 L
134.384 79.886 L
134.629 79.763 L
134.874 79.646 L
135.118 79.535 L
135.363 79.432 L
135.608 79.334 L
135.853 79.242 L
136.098 79.157 L
136.342 79.077 L
136.587 79.003 L
136.832 78.934 L
137.077 78.869 L
137.321 78.81 L
137.566 78.755 L
137.811 78.704 L
138.056 78.657 L
138.301 78.614 L
138.545 78.574 L
138.79 78.537 L
139.035 78.502 L
139.28 78.47 L
139.524 78.44 L
139.769 78.412 L
140.014 78.386 L
140.259 78.361 L
140.503 78.337 L
140.748 78.313 L
140.993 78.291 L
141.238 78.268 L
141.483 78.246 L
141.727 78.224 L
141.972 78.202 L
142.217 78.179 L
142.462 78.156 L
142.706 78.132 L
142.951 78.108 L
143.196 78.083 L
143.441 78.057 L
143.686 78.031 L
143.93 78.003 L
144.175 77.975 L
144.42 77.946 L
144.665 77.916 L
144.909 77.885 L
145.154 77.853 L
145.399 77.82 L
145.644 77.787 L
145.889 77.753 L
146.133 77.719 L
146.378 77.683 L
146.623 77.648 L
146.868 77.612 L
147.112 77.575 L
147.357 77.539 L
147.602 77.502 L
147.847 77.465 L
148.091 77.427 L
148.336 77.39 L
148.581 77.353 L
148.826 77.315 L
149.071 77.277 L
149.315 77.239 L
149.56 77.201 L
149.805 77.162 L
150.05 77.124 L
150.294 77.084 L
150.539 77.044 L
150.784 77.003 L
151.029 76.961 L
151.274 76.917 L
151.518 76.873 L
151.763 76.826 L
152.008 76.777 L
152.253 76.727 L
152.497 76.673 L
152.742 76.617 L
152.987 76.558 L
153.232 76.495 L
153.476 76.429 L
153.721 76.359 L
153.966 76.284 L
154.211 76.205 L
154.456 76.122 L
154.7 76.033 L
154.945 75.94 L
155.19 75.842 L
155.435 75.738 L
155.679 75.63 L
155.924 75.517 L
156.169 75.399 L
156.414 75.276 L
156.659 75.149 L
156.903 75.019 L
157.148 74.885 L
157.393 74.749 L
157.638 74.61 L
157.882 74.471 L
158.127 74.332 L
158.372 74.193 L
158.617 74.057 L
158.861 73.924 L
159.106 73.795 L
159.351 73.673 L
159.596 73.559 L
159.841 73.455 L
160.085 73.361 L
160.33 73.281 L
160.575 73.216 L
160.82 73.168 L
161.064 73.139 L
161.309 73.131 L
161.554 73.147 L
161.799 73.187 L
162.044 73.254 L
162.288 73.35 L
162.533 73.476 L
162.778 73.634 L
163.023 73.825 L
163.267 74.051 L
163.512 74.312 L
163.757 74.61 L
164.002 74.944 L
164.247 75.314 L
164.491 75.721 L
164.736 76.163 L
164.981 76.641 L
165.226 77.152 L
165.47 77.695 L
165.715 78.269 L
165.96 78.872 L
166.205 79.5 L
166.449 80.152 L
166.694 80.824 L
166.939 81.514 L
167.184 82.218 L
167.429 82.934 L
167.673 83.659 L
167.918 84.388 L
168.163 85.119 L
168.408 85.849 L
168.652 86.575 L
168.897 87.294 L
169.142 88.005 L
169.387 88.704 L
169.632 89.39 L
169.876 90.062 L
170.121 90.718 L
170.366 91.357 L
170.611 91.979 L
170.855 92.585 L
171.1 93.173 L
171.345 93.746 L
171.59 94.303 L
171.834 94.845 L
172.079 95.375 L
172.324 95.894 L
172.569 96.402 L
172.814 96.903 L
173.058 97.398 L
173.303 97.888 L
173.548 98.375 L
173.793 98.862 L
174.037 99.349 L
174.282 99.838 L
174.527 100.33 L
174.772 100.827 L
175.017 101.328 L
175.261 101.834 L
175.506 102.347 L
175.751 102.865 L
175.996 103.388 L
176.24 103.917 L
176.485 104.45 L
176.73 104.987 L
176.975 105.526 L
177.22 106.066 L
177.464 106.606 L
177.709 107.144 L
177.954 107.679 L
178.199 108.208 L
178.443 108.731 L
178.688 109.245 L
178.933 109.749 L
179.178 110.241 L
179.422 110.719 L
179.667 111.183 L
179.912 111.631 L
180.157 112.063 L
180.402 112.477 L
180.646 112.873 L
180.891 113.251 L
181.136 113.61 L
181.381 113.95 L
181.625 114.272 L
181.87 114.577 L
182.115 114.864 L
182.36 115.134 L
182.605 115.388 L
182.849 115.628 L
183.094 115.853 L
183.339 116.065 L
183.584 116.265 L
183.828 116.455 L
184.073 116.634 L
184.318 116.805 L
184.563 116.968 L
184.807 117.124 L
185.052 117.275 L
185.297 117.421 L
185.542 117.563 L
185.787 117.702 L
186.031 117.838 L
186.276 117.973 L
186.521 118.106 L
186.766 118.238 L
187.01 118.37 L
187.255 118.502 L
187.5 118.634 L
187.745 118.766 L
187.99 118.899 L
188.234 119.033 L
188.479 119.167 L
188.724 119.302 L
188.969 119.438 L
189.213 119.575 L
189.458 119.713 L
189.703 119.851 L
189.948 119.99 L
190.193 120.131 L
190.437 120.272 L
190.682 120.414 L
190.927 120.557 L
191.172 120.701 L
191.416 120.846 L
191.661 120.992 L
191.906 121.14 L
192.151 121.289 L
192.395 121.44 L
192.64 121.592 L
192.885 121.747 L
193.13 121.903 L
193.375 122.062 L
193.619 122.223 L
193.864 122.387 L
194.109 122.552 L
194.354 122.721 L
194.598 122.891 L
194.843 123.064 L
195.088 123.239 L
195.333 123.416 L
195.578 123.593 L
195.822 123.772 L
196.067 123.951 L
196.312 124.129 L
196.557 124.305 L
196.801 124.479 L
197.046 124.649 L
197.291 124.814 L
197.536 124.972 L
197.78 125.122 L
198.025 125.262 L
198.27 125.39 L
198.515 125.504 L
198.76 125.601 L
199.004 125.68 L
199.249 125.739 L
199.494 125.774 L
199.739 125.783 L
199.983 125.764 L
200.228 125.716 L
200.473 125.634 L
200.718 125.519 L
200.963 125.367 L
201.207 125.177 L
201.452 124.948 L
201.697 124.678 L
201.942 124.368 L
202.186 124.018 L
202.431 123.626 L
202.676 123.195 L
202.921 122.725 L
203.166 122.218 L
203.41 121.676 L
203.655 121.101 L
203.9 120.497 L
204.145 119.867 L
204.389 119.214 L
204.634 118.542 L
204.879 117.855 L
205.124 117.157 L
205.368 116.453 L
205.613 115.746 L
205.858 115.041 L
206.103 114.341 L
206.348 113.65 L
206.592 112.97 L
206.837 112.304 L
207.082 111.655 L
207.327 111.023 L
207.571 110.409 L
207.816 109.813 L
208.061 109.235 L
208.306 108.672 L
208.551 108.123 L
208.795 107.584 L
209.04 107.05 L
209.285 106.518 L
209.53 105.981 L
209.774 105.433 L
210.019 104.866 L
210.264 104.274 L
210.509 103.647 L
210.753 102.978 L
210.998 102.258 L
211.243 101.477 L
211.488 100.629 L
211.733 99.704 L
211.977 98.696 L
212.222 97.598 L
212.467 96.406 L
212.712 95.117 L
212.956 93.728 L
213.201 92.242 L
213.446 90.66 L
213.691 88.988 L
213.936 87.234 L
214.18 85.409 L
214.425 83.524 L
214.67 81.594 L
214.915 79.634 L
215.159 77.662 L
215.404 75.693 L
215.649 73.746 L
215.894 71.834 L
216.139 69.973 L
216.383 68.175 L
216.628 66.448 L
216.873 64.802 L
217.118 63.24 L
217.362 61.766 L
217.607 60.38 L
217.852 59.083 L
218.097 57.872 L
218.341 56.744 L
218.586 55.695 L
218.831 54.72 L
219.076 53.815 L
219.321 52.972 L
219.565 52.186 L
219.81 51.452 L
220.055 50.763 L
220.3 50.116 L
220.544 49.505 L
220.789 48.928 L
221.034 48.381 L
221.279 47.862 L
221.524 47.37 L
221.768 46.902 L
222.013 46.458 L
222.258 46.036 L
222.503 45.635 L
222.747 45.254 L
222.992 44.892 L
223.237 44.547 L
223.482 44.22 L
223.726 43.909 L
223.971 43.613 L
224.216 43.333 L
224.461 43.068 L
224.706 42.819 L
224.95 42.586 L
225.195 42.372 L
225.44 42.176 L
225.685 42.003 L
225.929 41.855 L
226.174 41.737 L
226.419 41.653 L
226.664 41.611 L
226.909 41.617 L
227.153 41.68 L
227.398 41.812 L
227.643 42.024 L
227.888 42.329 L
228.132 42.742 L
228.377 43.281 L
228.622 43.962 L
228.867 44.805 L
229.111 45.827 L
229.356 47.048 L
229.601 48.485 L
229.846 50.153 L
230.091 52.066 L
230.335 54.232 L
230.58 56.655 L
230.825 59.337 L
231.07 62.27 L
231.314 65.444 L
231.559 68.842 L
231.804 72.444 L
232.049 76.223 L
232.294 80.149 L
232.538 84.189 L
232.783 88.302 L
233.028 92.444 L
233.273 96.568 L
233.517 100.623 L
233.762 104.556 L
234.007 108.317 L
234.252 111.858 L
234.497 115.137 L
234.741 118.116 L
234.986 120.768 L
235.231 123.073 L
235.476 125.023 L
235.72 126.629 L
235.965 127.915 L
236.21 128.917 L
236.455 129.675 L
236.699 130.224 L
236.944 130.586 L
237.189 130.774 L
237.434 130.79 L
237.679 130.631 L
237.923 130.296 L
238.168 129.788 L
238.413 129.111 L
238.658 128.274 L
238.902 127.291 L
239.147 126.175 L
239.392 124.944 L
239.637 123.612 L
239.882 122.19 L
240.126 120.683 L
240.371 119.091 L
240.616 117.409 L
240.861 115.63 L
241.105 113.75 L
241.35 111.769 L
241.595 109.696 L
241.84 107.544 L
242.084 105.33 L
242.329 103.074 L
242.574 100.791 L
242.819 98.496 L
243.064 96.204 L
243.308 93.925 L
243.553 91.673 L
243.798 89.46 L
244.043 87.299 L
244.287 85.197 L
244.532 83.163 L
244.777 81.205 L
245.022 79.329 L
245.267 77.543 L
245.511 75.856 L
245.756 74.275 L
246.001 72.806 L
246.246 71.456 L
246.49 70.228 L
246.735 69.128 L
246.98 68.165 L
247.225 67.348 L
247.469 66.693 L
247.714 66.217 L
247.959 65.941 L
248.204 65.89 L
248.449 66.086 L
248.693 66.553 L
248.938 67.312 L
249.183 68.382 L
249.428 69.774 L
249.672 71.491 L
249.917 73.528 L
250.162 75.873 L
250.407 78.503 L
250.652 81.389 L
250.896 84.494 L
251.141 87.775 L
251.386 91.183 L
251.631 94.666 L
251.875 98.168 L
252.12 101.635 L
252.365 105.012 L
252.61 108.25 L
252.855 111.305 L
253.099 114.141 L
253.344 116.729 L
253.589 119.048 L
253.834 121.081 L
254.078 122.814 L
254.323 124.235 L
254.568 125.331 L
254.813 126.096 L
255.057 126.529 L
255.302 126.642 L
255.547 126.462 L
255.792 126.025 L
256.037 125.375 L
256.281 124.553 L
256.526 123.593 L
256.771 122.521 L
257.016 121.358 L
257.26 120.122 L
257.505 118.833 L
257.75 117.515 L
257.995 116.19 L
258.24 114.883 L
258.484 113.613 L
258.729 112.398 L
258.974 111.252 L
259.219 110.188 L
259.463 109.217 L
259.708 108.344 L
259.953 107.576 L
260.198 106.911 L
260.443 106.344 L
260.687 105.861 L
260.932 105.442 L
261.177 105.058 L
261.422 104.677 L
261.666 104.263 L
261.911 103.777 L
262.156 103.181 L
262.401 102.437 L
262.645 101.512 L
262.89 100.372 L
263.135 98.988 L
263.38 97.339 L
263.625 95.41 L
263.869 93.195 L
264.114 90.702 L
264.359 87.949 L
264.604 84.964 L
264.848 81.784 L
265.093 78.448 L
265.338 74.997 L
265.583 71.465 L
265.828 67.884 L
266.072 64.282 L
266.317 60.688 L
266.562 57.137 L
266.807 53.672 L
267.051 50.343 L
267.296 47.208 L
267.541 44.32 L
267.786 41.732 L
268.03 39.486 L
268.275 37.623 L
268.52 36.172 L
268.765 35.155 L
269.01 34.581 L
269.254 34.451 L
269.499 34.751 L
269.744 35.464 L
269.989 36.569 L
270.233 38.046 L
270.478 39.878 L
270.723 42.049 L
270.968 44.541 L
271.213 47.332 L
271.457 50.398 L
271.702 53.708 L
271.947 57.232 L
272.192 60.936 L
272.436 64.782 L
272.681 68.728 L
272.926 72.727 L
273.171 76.729 L
273.415 80.685 L
273.66 84.546 L
273.905 88.267 L
274.15 91.806 L
274.395 95.131 L
274.639 98.214 L
274.884 101.047 L
275.129 103.632 L
275.374 105.992 L
275.618 108.16 L
275.863 110.174 L
276.108 112.069 L
276.353 113.866 L
276.598 115.573 L
276.842 117.186 L
277.087 118.691 L
277.332 120.073 L
277.577 121.319 L
277.821 122.423 L
278.066 123.39 L
278.311 124.239 L
278.556 125.006 L
278.801 125.73 L
279.045 126.446 L
279.29 127.17 L
279.535 127.894 L
279.78 128.591 L
280.024 129.224 L
280.269 129.76 L
280.514 130.181 L
280.759 130.484 L
281.003 130.679 L
281.248 130.777 L
281.493 130.785 L
281.738 130.703 L
281.983 130.52 L
282.227 130.221 L
282.472 129.791 L
282.717 129.21 L
282.962 128.462 L
283.206 127.536 L
283.451 126.42 L
283.696 125.11 L
283.941 123.606 L
284.186 121.916 L
284.43 120.057 L
284.675 118.053 L
284.92 115.935 L
285.165 113.739 L
285.409 111.5 L
285.654 109.249 L
285.899 107.017 L
286.144 104.831 L
286.388 102.715 L
286.633 100.692 L
286.878 98.776 L
287.123 96.968 L
287.368 95.261 L
287.612 93.645 L
287.857 92.11 L
288.102 90.648 L
288.347 89.252 L
288.591 87.914 L
288.836 86.626 L
289.081 85.377 L
289.326 84.155 L
289.571 82.952 L
289.815 81.76 L
290.06 80.572 L
290.305 79.385 L
290.55 78.194 L
290.794 76.998 L
291.039 75.792 L
291.284 74.575 L
291.529 73.346 L
291.774 72.102 L
292.018 70.846 L
292.263 69.577 L
292.508 68.296 L
292.753 67.004 L
292.997 65.702 L
293.242 64.396 L
293.487 63.092 L
293.732 61.801 L
293.976 60.537 L
294.221 59.316 L
294.466 58.157 L
294.711 57.078 L
294.956 56.097 L
295.2 55.232 L
295.445 54.501 L
295.69 53.921 L
295.935 53.508 L
296.179 53.279 L
296.424 53.25 L
296.669 53.435 L
296.914 53.847 L
297.159 54.497 L
297.403 55.391 L
297.648 56.534 L
297.893 57.928 L
298.138 59.572 L
298.382 61.461 L
298.627 63.587 L
298.872 65.934 L
299.117 68.474 L
299.362 71.17 L
299.606 73.962 L
299.851 76.77 L
300.096 79.494 L
300.341 82.027 L
300.585 84.282 L
300.83 86.209 L
301.075 87.805 L
301.32 89.099 L
301.564 90.132 L
301.809 90.937 L
302.054 91.528 L
302.299 91.885 L
302.544 91.956 L
302.788 91.684 L
303.033 91.037 L
303.278 90.029 L
303.523 88.713 L
303.767 87.154 L
304.012 85.418 L
304.257 83.565 L
304.502 81.664 L
304.747 79.785 L
304.991 77.984 L
305.236 76.282 L
305.481 74.66 L
305.726 73.085 L
305.97 71.552 L
306.215 70.08 L
306.46 68.681 L
306.705 67.34 L
306.949 66.037 L
307.194 64.787 L
307.439 63.644 L
307.684 62.667 L
307.929 61.87 L
308.173 61.224 L
308.418 60.695 L
308.663 60.269 L
308.908 59.946 L
309.152 59.72 L
309.397 59.59 L
309.642 59.561 L
309.887 59.651 L
310.132 59.878 L
310.376 60.245 L
310.621 60.737 L
310.866 61.337 L
311.111 62.031 L
311.355 62.806 L
311.6 63.658 L
311.845 64.597 L
312.09 65.639 L
312.335 66.794 L
312.579 68.064 L
312.824 69.438 L
313.069 70.891 L
313.314 72.406 L
313.558 73.977 L
313.803 75.606 L
314.048 77.291 L
314.293 79.038 L
314.537 80.853 L
314.782 82.743 L
315.027 84.701 L
315.272 86.706 L
315.517 88.73 L
315.761 90.758 L
316.006 92.794 L
316.251 94.854 L
316.496 96.945 L
316.74 99.065 L
316.985 101.201 L
317.23 103.34 L
317.475 105.469 L
317.72 107.576 L
317.964 109.648 L
318.209 111.676 L
318.454 113.647 L
318.699 115.549 L
318.943 117.361 L
319.188 119.066 L
319.433 120.647 L
319.678 122.091 L
319.922 123.384 L
320.167 124.513 L
320.412 125.469 L
320.657 126.248 L
320.902 126.844 L
321.146 127.253 L
321.391 127.469 L
321.636 127.493 L
321.881 127.33 L
322.125 126.987 L
322.37 126.469 L
322.615 125.779 L
322.86 124.924 L
323.105 123.911 L
323.349 122.749 L
323.594 121.447 L
323.839 120.021 L
324.084 118.485 L
324.328 116.856 L
324.573 115.148 L
324.818 113.377 L
325.063 111.56 L
325.307 109.715 L
325.552 107.861 L
325.797 106.013 L
326.042 104.19 L
326.287 102.406 L
326.531 100.675 L
326.776 99.009 L
327.021 97.42 L
327.266 95.921 L
327.51 94.521 L
327.755 93.232 L
328 92.059 L
328.034 91.915 L
S
GR
GS
[0.78305 0 0 0.78377 0 -0.07875] CT
1 LJ
2.172 LW
N
47 84.283 M
47.245 83.353 L
47.49 83.679 L
47.734 83.245 L
47.979 83.788 L
48.224 83.403 L
48.469 83.608 L
48.713 82.92 L
48.958 83.331 L
49.203 83.852 L
49.448 83.452 L
49.693 83.895 L
49.937 83.605 L
50.182 83.427 L
50.427 83.391 L
50.672 83.875 L
50.916 83.049 L
51.161 83.862 L
51.406 83.648 L
51.651 82.863 L
51.895 83.455 L
52.14 83.886 L
52.385 84.36 L
52.63 83.787 L
52.875 83.214 L
53.119 83.853 L
53.364 84.242 L
53.609 84.115 L
53.854 84.868 L
54.098 84.496 L
54.343 84.549 L
54.588 85.327 L
54.833 85.48 L
55.078 85.639 L
55.322 85.629 L
55.567 85.107 L
55.812 86.097 L
56.057 86.113 L
56.301 85.585 L
56.546 86.308 L
56.791 86.641 L
57.036 87.968 L
57.28 87.175 L
57.525 87.166 L
57.77 87.667 L
58.015 88.688 L
58.26 88.007 L
58.504 88.218 L
58.749 88.865 L
58.994 88.8 L
59.239 89.467 L
59.483 89.484 L
59.728 89.52 L
59.973 90.149 L
60.218 90.551 L
60.463 90.423 L
60.707 90.554 L
60.952 90.206 L
61.197 91.257 L
61.442 91.811 L
61.686 91.082 L
61.931 92.222 L
62.176 91.795 L
62.421 91.65 L
62.666 91.687 L
62.91 92.619 L
63.155 91.824 L
63.4 93.734 L
63.645 93.347 L
63.889 94.1 L
64.134 93.511 L
64.379 94.732 L
64.624 94.516 L
64.868 95.402 L
65.113 94.72 L
65.358 95.412 L
65.603 96.241 L
65.848 96.532 L
66.092 96.702 L
66.337 96.838 L
66.582 96.266 L
66.827 97.396 L
67.071 97.945 L
67.316 97.146 L
67.561 98.018 L
67.806 97.63 L
68.051 98.215 L
68.295 98.249 L
68.54 99.778 L
68.785 99.167 L
69.03 98.698 L
69.274 98.53 L
69.519 99.168 L
69.764 98.959 L
70.009 99.559 L
70.253 100.086 L
70.498 100.778 L
70.743 100.427 L
70.988 100.59 L
71.233 99.919 L
71.477 101.278 L
71.722 100.981 L
71.967 100.691 L
72.212 101.383 L
72.456 101.145 L
72.701 101.585 L
72.946 101.908 L
73.191 102.035 L
73.436 102.023 L
73.68 102.657 L
73.925 102.125 L
74.17 101.966 L
74.415 103.329 L
74.659 102.57 L
74.904 103.37 L
75.149 102.948 L
75.394 103.199 L
75.639 102.95 L
75.883 103.272 L
76.128 103.176 L
76.373 103.415 L
76.618 104.244 L
76.862 103.99 L
77.107 104.582 L
77.352 104.036 L
77.597 104.162 L
77.841 103.506 L
78.086 104.494 L
78.331 104.467 L
78.576 104.3 L
78.821 104.847 L
79.065 104.842 L
79.31 104.662 L
79.555 105.2 L
79.8 105.078 L
80.044 105.523 L
80.289 105.168 L
80.534 105.355 L
80.779 105.529 L
81.024 105.529 L
81.268 106.174 L
81.513 104.968 L
81.758 105.049 L
82.003 105.298 L
82.247 105.246 L
82.492 105.235 L
82.737 105.038 L
82.982 105.498 L
83.226 105.636 L
83.471 105.394 L
83.716 105.816 L
83.961 105.529 L
84.206 105.789 L
84.45 105.035 L
84.695 105.28 L
84.94 105.111 L
85.185 104.745 L
85.429 105.106 L
85.674 104.461 L
85.919 104.532 L
86.164 104.271 L
86.409 104.185 L
86.653 104.864 L
86.898 104.113 L
87.143 103.54 L
87.388 104.129 L
87.632 104.372 L
87.877 103.522 L
88.122 103.389 L
88.367 103.324 L
88.611 103.725 L
88.856 103.963 L
89.101 102.952 L
89.346 103.509 L
89.591 103.359 L
89.835 102.393 L
90.08 102.684 L
90.325 102.139 L
90.57 101.742 L
90.814 101.853 L
91.059 101.119 L
91.304 102.052 L
91.549 100.401 L
91.794 100.423 L
92.038 100.724 L
92.283 100.094 L
92.528 101.033 L
92.773 100.199 L
93.017 99.644 L
93.262 99.689 L
93.507 100.358 L
93.752 99.235 L
93.997 98.867 L
94.241 98.499 L
94.486 98.029 L
94.731 97.618 L
94.976 98.303 L
95.22 98.217 L
95.465 96.394 L
95.71 96.896 L
95.955 97.096 L
96.199 96.516 L
96.444 96.064 L
96.689 95.896 L
96.934 95.641 L
97.179 95.242 L
97.423 95.094 L
97.668 94.514 L
97.913 94.468 L
98.158 94.088 L
98.402 94.756 L
98.647 93.743 L
98.892 93.493 L
99.137 93.543 L
99.382 92.991 L
99.626 93.496 L
99.871 92.647 L
100.116 92.46 L
100.361 91.986 L
100.605 91.963 L
100.85 91.606 L
101.095 91.299 L
101.34 90.995 L
101.584 91.739 L
101.829 90.828 L
102.074 89.792 L
102.319 90.36 L
102.564 90.342 L
102.808 90.108 L
103.053 89.557 L
103.298 90.022 L
103.543 90.048 L
103.787 89.341 L
104.032 88.592 L
104.277 89.245 L
104.522 88.775 L
104.767 88.07 L
105.011 88.349 L
105.256 88.334 L
105.501 88.051 L
105.746 87.979 L
105.99 88.069 L
106.235 87.327 L
106.48 87.415 L
106.725 87.493 L
106.97 87.019 L
107.214 86.429 L
107.459 86.396 L
107.704 87.184 L
107.949 86.441 L
108.193 87.419 L
108.438 86.866 L
108.683 87.289 L
108.928 86.72 L
109.172 86.744 L
109.417 86.613 L
109.662 86.683 L
109.907 86.413 L
110.152 86.727 L
110.396 85.63 L
110.641 85.756 L
110.886 85.963 L
111.131 85.987 L
111.375 86.05 L
111.62 86.467 L
111.865 85.34 L
112.11 86.892 L
112.355 85.633 L
112.599 85.913 L
112.844 86.319 L
113.089 85.832 L
113.334 86.107 L
113.578 86.24 L
113.823 86.432 L
114.068 86.139 L
114.313 86.245 L
114.557 85.734 L
114.802 85.504 L
115.047 85.367 L
115.292 85.95 L
115.537 86.344 L
115.781 85.178 L
116.026 86.384 L
116.271 85.594 L
116.516 86.301 L
116.76 86.446 L
117.005 85.677 L
117.25 86.192 L
117.495 85.601 L
117.74 85.904 L
117.984 86.021 L
118.229 85.837 L
118.474 86.306 L
118.719 85.571 L
118.963 86.074 L
119.208 85.741 L
119.453 85.458 L
119.698 85.242 L
119.943 85.51 L
120.187 86.387 L
120.432 85.079 L
120.677 85.218 L
120.922 85.606 L
121.166 85.066 L
121.411 84.466 L
121.656 85.733 L
121.901 85.357 L
122.145 85.324 L
122.39 84.714 L
122.635 84.8 L
122.88 85.627 L
123.125 85.475 L
123.369 84.631 L
123.614 84.032 L
123.859 84.666 L
124.104 84.986 L
124.348 84.681 L
124.593 85.064 L
124.838 84.115 L
125.083 83.268 L
125.328 84.722 L
125.572 83.313 L
125.817 83.586 L
126.062 83.778 L
126.307 83.789 L
126.551 83.604 L
126.796 84.328 L
127.041 83.634 L
127.286 84.012 L
127.53 82.847 L
127.775 82.336 L
128.02 82.297 L
128.265 83.119 L
128.51 83.077 L
128.754 82.299 L
128.999 81.813 L
129.244 82.143 L
129.489 81.677 L
129.733 82.183 L
129.978 81.43 L
130.223 81.833 L
130.468 81.802 L
130.713 81.948 L
130.957 80.671 L
131.202 80.324 L
131.447 81.417 L
131.692 80.584 L
131.936 80.465 L
132.181 80.353 L
132.426 79.739 L
132.671 79.913 L
132.916 78.875 L
133.16 79.262 L
133.405 79.106 L
133.65 79.34 L
133.895 79.063 L
134.139 78.648 L
134.384 78.507 L
134.629 77.7 L
134.874 77.563 L
135.118 77.828 L
135.363 77.436 L
135.608 77.313 L
135.853 77.445 L
136.098 77.928 L
136.342 76.231 L
136.587 76.059 L
136.832 75.596 L
137.077 76.009 L
137.321 75.423 L
137.566 74.932 L
137.811 75.638 L
138.056 75.335 L
138.301 75.236 L
138.545 75.331 L
138.79 73.68 L
139.035 73.467 L
139.28 72.691 L
139.524 72.93 L
139.769 73.626 L
140.014 72.57 L
140.259 71.642 L
140.503 73.388 L
140.748 72.099 L
140.993 72.126 L
141.238 72.016 L
141.483 71.91 L
141.727 71.802 L
141.972 71.735 L
142.217 71.778 L
142.462 71.857 L
142.706 71.451 L
142.951 70.571 L
143.196 70.366 L
143.441 71.639 L
143.686 70.919 L
143.93 71.341 L
144.175 71.916 L
144.42 71.186 L
144.665 71.064 L
144.909 71.4 L
145.154 70.867 L
145.399 71.182 L
145.644 71.5 L
145.889 72.066 L
146.133 72.042 L
146.378 72.664 L
146.623 71.592 L
146.868 71.664 L
147.112 73.342 L
147.357 73.655 L
147.602 73.512 L
147.847 73.447 L
148.091 74.433 L
148.336 74.739 L
148.581 74.576 L
148.826 75.823 L
149.071 75.402 L
149.315 77.039 L
149.56 77.61 L
149.805 76.98 L
150.05 77.855 L
150.294 77.653 L
150.539 78.898 L
150.784 79.407 L
151.029 79.938 L
151.274 80.329 L
151.518 79.535 L
151.763 80.893 L
152.008 81.718 L
152.253 82.3 L
152.497 82.191 L
152.742 83.066 L
152.987 82.316 L
153.232 83.889 L
153.476 83.921 L
153.721 84.823 L
153.966 84.487 L
154.211 84.31 L
154.456 85.546 L
154.7 85.354 L
154.945 85.827 L
155.19 86.089 L
155.435 86.573 L
155.679 87.027 L
155.924 87.64 L
156.169 88.039 L
156.414 88.519 L
156.659 89.01 L
156.903 88.738 L
157.148 89.01 L
157.393 89.9 L
157.638 89.806 L
157.882 90.688 L
158.127 91.519 L
158.372 91.607 L
158.617 92.478 L
158.861 92.518 L
159.106 92.969 L
159.351 93.813 L
159.596 94.747 L
159.841 95.363 L
160.085 95.912 L
160.33 95.856 L
160.575 96.87 L
160.82 97.665 L
161.064 98.408 L
161.309 99.8 L
161.554 100.368 L
161.799 100.615 L
162.044 101.956 L
162.288 102.282 L
162.533 102.439 L
162.778 103.641 L
163.023 103.834 L
163.267 105.118 L
163.512 105.87 L
163.757 106.39 L
164.002 107.785 L
164.247 107.761 L
164.491 107.716 L
164.736 108.472 L
164.981 109.46 L
165.226 108.346 L
165.47 109.481 L
165.715 110.522 L
165.96 111.099 L
166.205 110.579 L
166.449 110.98 L
166.694 111.003 L
166.939 112.73 L
167.184 112.465 L
167.429 111.89 L
167.673 112.103 L
167.918 111.934 L
168.163 113.059 L
168.408 112.517 L
168.652 112.975 L
168.897 112.254 L
169.142 112.152 L
169.387 112.038 L
169.632 112.827 L
169.876 112.483 L
170.121 112.45 L
170.366 112.447 L
170.611 112.568 L
170.855 111.998 L
171.1 110.558 L
171.345 112.51 L
171.59 111.006 L
171.834 111.758 L
172.079 111.313 L
172.324 111.236 L
172.569 111.679 L
172.814 111.009 L
173.058 110.659 L
173.303 110.617 L
173.548 110.46 L
173.793 110.368 L
174.037 110.153 L
174.282 109.357 L
174.527 109.853 L
174.772 109.593 L
175.017 109.355 L
175.261 108.724 L
175.506 108.751 L
175.751 108.731 L
175.996 108.694 L
176.24 108.082 L
176.485 108.054 L
176.73 107.828 L
176.975 107.448 L
177.22 107.451 L
177.464 106.663 L
177.709 105.641 L
177.954 105.573 L
178.199 105.663 L
178.443 105.351 L
178.688 104.44 L
178.933 104.501 L
179.178 103.692 L
179.422 103.068 L
179.667 103.593 L
179.912 103.066 L
180.157 102.121 L
180.402 102.024 L
180.646 102.172 L
180.891 101.7 L
181.136 101.082 L
181.381 100.948 L
181.625 100.338 L
181.87 99.935 L
182.115 99.057 L
182.36 98.495 L
182.605 98.831 L
182.849 97.624 L
183.094 97.386 L
183.339 96.865 L
183.584 96.985 L
183.828 95.851 L
184.073 95.442 L
184.318 94.376 L
184.563 93.971 L
184.807 94.614 L
185.052 93.26 L
185.297 93.122 L
185.542 92.535 L
185.787 91.592 L
186.031 91.371 L
186.276 91.64 L
186.521 90.316 L
186.766 90.09 L
187.01 89.257 L
187.255 88.195 L
187.5 87.982 L
187.745 88.444 L
187.99 87.722 L
188.234 87.343 L
188.479 86.857 L
188.724 85.802 L
188.969 85.915 L
189.213 85.333 L
189.458 85.571 L
189.703 84.15 L
189.948 84.181 L
190.193 83.549 L
190.437 83.323 L
190.682 82.675 L
190.927 82.835 L
191.172 82.389 L
191.416 82.693 L
191.661 81.835 L
191.906 81.393 L
192.151 81.297 L
192.395 80.401 L
192.64 80.21 L
192.885 79.526 L
193.13 79.751 L
193.375 78.719 L
193.619 78.17 L
193.864 77.928 L
194.109 77.449 L
194.354 77.396 L
194.598 77.377 L
194.843 76.38 L
195.088 76.215 L
195.333 75.557 L
195.578 75.107 L
195.822 75.129 L
196.067 74.861 L
196.312 74.872 L
196.557 73.653 L
196.801 74.479 L
197.046 73.416 L
197.291 72.769 L
197.536 71.681 L
197.78 71.562 L
198.025 72.303 L
198.27 70.965 L
198.515 70.207 L
198.76 70.186 L
199.004 69.649 L
199.249 68.842 L
199.494 68.666 L
199.739 67.833 L
199.983 68.853 L
200.228 67.974 L
200.473 66.988 L
200.718 67.247 L
200.963 66.543 L
201.207 66.297 L
201.452 65.742 L
201.697 65.934 L
201.942 65.877 L
202.186 65.389 L
202.431 65.033 L
202.676 64.143 L
202.921 64.387 L
203.166 64.597 L
203.41 64.222 L
203.655 64.042 L
203.9 63.773 L
204.145 63.51 L
204.389 63.567 L
204.634 63.867 L
204.879 63.56 L
205.124 63.722 L
205.368 63.26 L
205.613 64.013 L
205.858 63.511 L
206.103 64.467 L
206.348 63.953 L
206.592 65.271 L
206.837 65.563 L
207.082 65.63 L
207.327 66.681 L
207.571 67.047 L
207.816 67.185 L
208.061 68.026 L
208.306 69.336 L
208.551 69.68 L
208.795 70.296 L
209.04 70.892 L
209.285 71.111 L
209.53 72.302 L
209.774 73.074 L
210.019 73.349 L
210.264 73.388 L
210.509 74.556 L
210.753 75.785 L
210.998 75.645 L
211.243 76.524 L
211.488 77.094 L
211.733 77.61 L
211.977 77.206 L
212.222 77.317 L
212.467 78.097 L
212.712 78.99 L
212.956 79.135 L
213.201 79.722 L
213.446 79.373 L
213.691 80.238 L
213.936 80.291 L
214.18 80.781 L
214.425 81.644 L
214.67 81.568 L
214.915 81.495 L
215.159 82.928 L
215.404 82.794 L
215.649 83.266 L
215.894 83.912 L
216.139 84.629 L
216.383 85.515 L
216.628 87.057 L
216.873 88.239 L
217.118 88.957 L
217.362 90.652 L
217.607 92.388 L
217.852 94.706 L
218.097 96.407 L
218.341 97.816 L
218.586 99.857 L
218.831 102.023 L
219.076 104.84 L
219.321 107.932 L
219.565 109.881 L
219.81 112.69 L
220.055 115.231 L
220.3 117.885 L
220.544 119.425 L
220.789 121.092 L
221.034 124.484 L
221.279 126.317 L
221.524 128.749 L
221.768 129.706 L
222.013 132.587 L
222.258 133.381 L
222.503 135.151 L
222.747 136.684 L
222.992 137.243 L
223.237 138.477 L
223.482 140.689 L
223.726 141.639 L
223.971 142.379 L
224.216 143.455 L
224.461 143.986 L
224.706 145.142 L
224.95 145.252 L
225.195 146.782 L
225.44 146.383 L
225.685 146.572 L
225.929 147.542 L
226.174 147.262 L
226.419 148.602 L
226.664 148.907 L
226.909 149.145 L
227.153 150.137 L
227.398 150.039 L
227.643 150.13 L
227.888 150.051 L
228.132 150.765 L
228.377 150.464 L
228.622 150.149 L
228.867 152.022 L
229.111 150.788 L
229.356 150.525 L
229.601 150.303 L
229.846 151.224 L
230.091 149.883 L
230.335 150.098 L
230.58 150.297 L
230.825 149.395 L
231.07 150.239 L
231.314 149.208 L
231.559 148.453 L
231.804 149.039 L
232.049 147.773 L
232.294 146.491 L
232.538 146.869 L
232.783 144.604 L
233.028 144.103 L
233.273 141.752 L
233.517 140.706 L
233.762 138.172 L
234.007 136.994 L
234.252 134.211 L
234.497 132.608 L
234.741 129.618 L
234.986 126.454 L
235.231 123.38 L
235.476 119.73 L
235.72 115.879 L
235.965 111.851 L
236.21 109.215 L
236.455 105.061 L
236.699 100.677 L
236.944 96.393 L
237.189 92.53 L
237.434 89.576 L
237.679 84.863 L
237.923 81.719 L
238.168 79.411 L
238.413 75.438 L
238.658 72.158 L
238.902 70.617 L
239.147 67.734 L
239.392 65.604 L
239.637 64.251 L
239.882 62.382 L
240.126 61.333 L
240.371 60.158 L
240.616 59.435 L
240.861 58.505 L
241.105 57.626 L
241.35 57.473 L
241.595 56.625 L
241.84 56.527 L
242.084 56.608 L
242.329 56.123 L
242.574 55.865 L
242.819 55.766 L
243.064 56.057 L
243.308 56.021 L
243.553 56.671 L
243.798 57.113 L
244.043 56.52 L
244.287 57.221 L
244.532 57.334 L
244.777 58.417 L
245.022 58.15 L
245.267 58.83 L
245.511 59.151 L
245.756 59.709 L
246.001 60.834 L
246.246 61.195 L
246.49 62.084 L
246.735 63.509 L
246.98 63.896 L
247.225 65.525 L
247.469 65.812 L
247.714 67.246 L
247.959 68.856 L
248.204 70.379 L
248.449 72.292 L
248.693 73.11 L
248.938 73.967 L
249.183 76.145 L
249.428 77.514 L
249.672 78.949 L
249.917 79.735 L
250.162 82.206 L
250.407 83.087 L
250.652 85.388 L
250.896 86.791 L
251.141 88.828 L
251.386 90.057 L
251.631 91.108 L
251.875 92.752 L
252.12 93.845 L
252.365 95.694 L
252.61 96.304 L
252.855 97.926 L
253.099 98.784 L
253.344 99.6 L
253.589 100.938 L
253.834 100.691 L
254.078 101.664 L
254.323 101.91 L
254.568 102.534 L
254.813 102.491 L
255.057 102.558 L
255.302 103.003 L
255.547 102.53 L
255.792 102.254 L
256.037 102.341 L
256.281 102.422 L
256.526 101.187 L
256.771 100.6 L
257.016 99.678 L
257.26 99.574 L
257.505 98.735 L
257.75 98.569 L
257.995 97.074 L
258.24 96.691 L
258.484 94.824 L
258.729 94.181 L
258.974 93.414 L
259.219 92.178 L
259.463 91.123 L
259.708 90.513 L
259.953 89.32 L
260.198 88.423 L
260.443 87.306 L
260.687 87.405 L
260.932 84.759 L
261.177 86.08 L
261.422 83.957 L
261.666 82.987 L
261.911 82.699 L
262.156 82.662 L
262.401 81.979 L
262.645 82.032 L
262.89 80.67 L
263.135 81.211 L
263.38 80.897 L
263.625 80.268 L
263.869 80.253 L
264.114 79.513 L
264.359 81.214 L
264.604 80.833 L
264.848 80.988 L
265.093 81.218 L
265.338 81.944 L
265.583 82.088 L
265.828 82.337 L
266.072 83.406 L
266.317 84.225 L
266.562 85.307 L
266.807 85.513 L
267.051 86.976 L
267.296 87.418 L
267.541 88.019 L
267.786 89.294 L
268.03 90.763 L
268.275 92.416 L
268.52 91.961 L
268.765 93.168 L
269.01 93.606 L
269.254 95.883 L
269.499 97.946 L
269.744 97.91 L
269.989 99.808 L
270.233 99.732 L
270.478 101.006 L
270.723 101.492 L
270.968 102.691 L
271.213 103.959 L
271.457 104.331 L
271.702 105.621 L
271.947 107.03 L
272.192 108.329 L
272.436 108.687 L
272.681 109.491 L
272.926 109.502 L
273.171 110.533 L
273.415 111.238 L
273.66 111.407 L
273.905 112.049 L
274.15 111.742 L
274.395 112.666 L
274.639 113.417 L
274.884 114.251 L
275.129 113.246 L
275.374 114.092 L
275.618 113.53 L
275.863 114.11 L
276.108 114.786 L
276.353 113.944 L
276.598 113.698 L
276.842 113.63 L
277.087 113.213 L
277.332 113.628 L
277.577 113.589 L
277.821 113.147 L
278.066 112.766 L
278.311 112.513 L
278.556 112.404 L
278.801 112.351 L
279.045 111.855 L
279.29 111.752 L
279.535 110.763 L
279.78 110.724 L
280.024 109.235 L
280.269 109.416 L
280.514 108.258 L
280.759 108.228 L
281.003 107.967 L
281.248 106.35 L
281.493 105.503 L
281.738 105.256 L
281.983 103.984 L
282.227 104.015 L
282.472 103.882 L
282.717 102.129 L
282.962 101.55 L
283.206 101.666 L
283.451 100.749 L
283.696 100.44 L
283.941 99.621 L
284.186 98.621 L
284.43 98.591 L
284.675 97.531 L
284.92 97.402 L
285.165 96.29 L
285.409 95.654 L
285.654 95.132 L
285.899 95.62 L
286.144 94.393 L
286.388 93.052 L
286.633 94.059 L
286.878 92.897 L
287.123 92.632 L
287.368 92.045 L
287.612 91.449 L
287.857 90.203 L
288.102 90.869 L
288.347 90.047 L
288.591 90.531 L
288.836 89.89 L
289.081 89.613 L
289.326 88.644 L
289.571 88.692 L
289.815 88.171 L
290.06 88.699 L
290.305 87.649 L
290.55 87.835 L
290.794 87.56 L
291.039 86.976 L
291.284 87.441 L
291.529 86.101 L
291.774 86.701 L
292.018 86.735 L
292.263 85.925 L
292.508 85.313 L
292.753 85.601 L
292.997 85.77 L
293.242 84.653 L
293.487 84.365 L
293.732 84.933 L
293.976 84.434 L
294.221 83.727 L
294.466 83.74 L
294.711 83.869 L
294.956 83.477 L
295.2 83.309 L
295.445 82.91 L
295.69 83.195 L
295.935 82.428 L
296.179 82.826 L
296.424 82.558 L
296.669 82.495 L
296.914 82.763 L
297.159 82.605 L
297.403 82.355 L
297.648 82.058 L
297.893 82.677 L
298.138 82.074 L
298.382 81.682 L
298.627 82.181 L
298.872 82.635 L
299.117 81.992 L
299.362 82.322 L
299.606 82.271 L
299.851 82.316 L
300.096 82.866 L
300.341 82.806 L
300.585 82.626 L
300.83 82.959 L
301.075 82.897 L
301.32 82.6 L
301.564 83.148 L
301.809 83.344 L
302.054 83.517 L
302.299 83.173 L
302.544 83.439 L
302.788 83.775 L
303.033 84.683 L
303.278 84.051 L
303.523 83.932 L
303.767 84.584 L
304.012 84.663 L
304.257 84.29 L
304.502 84.941 L
304.747 85.776 L
304.991 85.198 L
305.236 85.28 L
305.481 85.629 L
305.726 85.069 L
305.97 85.696 L
306.215 85.486 L
306.46 85.687 L
306.705 85.286 L
306.949 86.313 L
307.194 86.663 L
307.439 85.884 L
307.684 86.225 L
307.929 86.119 L
308.173 86.015 L
308.418 86.104 L
308.663 86.516 L
308.908 86.001 L
309.152 87.38 L
309.397 86.488 L
309.642 86.164 L
309.887 86.874 L
310.132 87.201 L
310.376 86.713 L
310.621 86.09 L
310.866 86.476 L
311.111 87.269 L
311.355 86.783 L
311.6 87.48 L
311.845 86.64 L
312.09 86.795 L
312.335 86.833 L
312.579 86.726 L
312.824 86.616 L
313.069 87.18 L
313.314 87.836 L
313.558 86.512 L
313.803 86.097 L
314.048 87.696 L
314.293 87.545 L
314.537 87.102 L
314.782 87.494 L
315.027 86.994 L
315.272 87.762 L
315.517 87.111 L
315.761 87.929 L
316.006 87.675 L
316.251 88.244 L
316.496 87.862 L
316.74 87.991 L
316.985 87.627 L
317.23 88.19 L
317.475 87.633 L
317.72 88.221 L
317.964 88.541 L
318.209 88.161 L
318.454 88.665 L
318.699 89.032 L
318.943 88.917 L
319.188 89.008 L
319.433 89.143 L
319.678 89.848 L
319.922 89.317 L
320.167 89.583 L
320.412 89.219 L
320.657 90.454 L
320.902 90.091 L
321.146 90.67 L
321.391 91.044 L
321.636 90.488 L
321.881 91.148 L
322.125 90.673 L
322.37 92.355 L
322.615 91.526 L
322.86 92.058 L
323.105 91.682 L
323.349 92.581 L
323.594 92.567 L
323.839 92.34 L
324.084 93.47 L
324.328 93.608 L
324.573 93.786 L
324.818 93.702 L
325.063 93.59 L
325.307 94.26 L
325.552 94.15 L
325.797 93.929 L
326.042 95.143 L
326.287 94.613 L
326.531 95.299 L
326.776 95.249 L
327.021 95.984 L
327.266 96.182 L
327.51 96.307 L
327.755 95.745 L
328 96.584 L
328.034 96.534 L
S
GR
GS
[0.78305 0 0 0.78377 0 -0.07875] CT
1 0 0 RC
[10 6] 0 setdash
2 LJ
1.789 LW
N
47 84.148 M
47.245 83.976 L
47.49 83.533 L
47.734 83.615 L
47.979 83.647 L
48.224 83.717 L
48.469 83.396 L
48.713 83.393 L
48.958 83.591 L
49.203 83.501 L
49.448 83.5 L
49.693 83.416 L
49.937 83.499 L
50.182 83.621 L
50.427 83.558 L
50.672 83.579 L
50.916 83.665 L
51.161 83.733 L
51.406 83.83 L
51.651 83.864 L
51.895 84.046 L
52.14 84.18 L
52.385 84.299 L
52.63 84.52 L
52.875 84.59 L
53.119 84.789 L
53.364 85.001 L
53.609 85.116 L
53.854 85.312 L
54.098 85.495 L
54.343 85.683 L
54.588 85.901 L
54.833 86.135 L
55.078 86.344 L
55.322 86.595 L
55.567 86.848 L
55.812 87.089 L
56.057 87.348 L
56.301 87.61 L
56.546 87.879 L
56.791 88.144 L
57.036 88.412 L
57.28 88.697 L
57.525 88.961 L
57.77 89.26 L
58.015 89.549 L
58.26 89.851 L
58.504 90.146 L
58.749 90.445 L
58.994 90.749 L
59.239 91.051 L
59.483 91.351 L
59.728 91.667 L
59.973 91.974 L
60.218 92.283 L
60.463 92.599 L
60.707 92.905 L
60.952 93.221 L
61.197 93.521 L
61.442 93.828 L
61.686 94.127 L
61.931 94.433 L
62.176 94.731 L
62.421 95.031 L
62.666 95.325 L
62.91 95.617 L
63.155 95.908 L
63.4 96.198 L
63.645 96.485 L
63.889 96.768 L
64.134 97.051 L
64.379 97.328 L
64.624 97.603 L
64.868 97.872 L
65.113 98.142 L
65.358 98.405 L
65.603 98.666 L
65.848 98.922 L
66.092 99.176 L
66.337 99.425 L
66.582 99.672 L
66.827 99.916 L
67.071 100.155 L
67.316 100.391 L
67.561 100.625 L
67.806 100.855 L
68.051 101.083 L
68.295 101.309 L
68.54 101.531 L
68.785 101.752 L
69.03 101.969 L
69.274 102.185 L
69.519 102.398 L
69.764 102.608 L
70.009 102.817 L
70.253 103.023 L
70.498 103.228 L
70.743 103.43 L
70.988 103.631 L
71.233 103.829 L
71.477 104.026 L
71.722 104.221 L
71.967 104.414 L
72.212 104.606 L
72.456 104.796 L
72.701 104.985 L
72.946 105.172 L
73.191 105.358 L
73.436 105.541 L
73.68 105.724 L
73.925 105.905 L
74.17 106.084 L
74.415 106.261 L
74.659 106.437 L
74.904 106.611 L
75.149 106.783 L
75.394 106.954 L
75.639 107.122 L
75.883 107.288 L
76.128 107.452 L
76.373 107.614 L
76.618 107.773 L
76.862 107.931 L
77.107 108.085 L
77.352 108.237 L
77.597 108.387 L
77.841 108.534 L
78.086 108.678 L
78.331 108.819 L
78.576 108.957 L
78.821 109.092 L
79.065 109.224 L
79.31 109.353 L
79.555 109.478 L
79.8 109.601 L
80.044 109.719 L
80.289 109.835 L
80.534 109.947 L
80.779 110.055 L
81.024 110.16 L
81.268 110.262 L
81.513 110.359 L
81.758 110.454 L
82.003 110.544 L
82.247 110.631 L
82.492 110.715 L
82.737 110.795 L
82.982 110.872 L
83.226 110.945 L
83.471 111.014 L
83.716 111.081 L
83.961 111.143 L
84.206 111.203 L
84.45 111.259 L
84.695 111.313 L
84.94 111.363 L
85.185 111.41 L
85.429 111.454 L
85.674 111.495 L
85.919 111.534 L
86.164 111.569 L
86.409 111.602 L
86.653 111.633 L
86.898 111.66 L
87.143 111.686 L
87.388 111.709 L
87.632 111.729 L
87.877 111.748 L
88.122 111.764 L
88.367 111.777 L
88.611 111.789 L
88.856 111.799 L
89.101 111.806 L
89.346 111.812 L
89.591 111.815 L
89.835 111.817 L
90.08 111.816 L
90.325 111.813 L
90.57 111.809 L
90.814 111.802 L
91.059 111.793 L
91.304 111.782 L
91.549 111.768 L
91.794 111.753 L
92.038 111.735 L
92.283 111.714 L
92.528 111.691 L
92.773 111.666 L
93.017 111.638 L
93.262 111.607 L
93.507 111.574 L
93.752 111.537 L
93.997 111.497 L
94.241 111.455 L
94.486 111.409 L
94.731 111.36 L
94.976 111.307 L
95.22 111.251 L
95.465 111.192 L
95.71 111.129 L
95.955 111.063 L
96.199 110.993 L
96.444 110.919 L
96.689 110.842 L
96.934 110.761 L
97.179 110.677 L
97.423 110.589 L
97.668 110.498 L
97.913 110.404 L
98.158 110.306 L
98.402 110.206 L
98.647 110.103 L
98.892 109.998 L
99.137 109.891 L
99.382 109.782 L
99.626 109.671 L
99.871 109.559 L
100.116 109.446 L
100.361 109.333 L
100.605 109.22 L
100.85 109.108 L
101.095 108.997 L
101.34 108.887 L
101.584 108.779 L
101.829 108.674 L
102.074 108.572 L
102.319 108.473 L
102.564 108.378 L
102.808 108.288 L
103.053 108.203 L
103.298 108.124 L
103.543 108.051 L
103.787 107.984 L
104.032 107.924 L
104.277 107.872 L
104.522 107.827 L
104.767 107.789 L
105.011 107.76 L
105.256 107.739 L
105.501 107.726 L
105.746 107.722 L
105.99 107.725 L
106.235 107.737 L
106.48 107.756 L
106.725 107.783 L
106.97 107.817 L
107.214 107.857 L
107.459 107.903 L
107.704 107.955 L
107.949 108.01 L
108.193 108.069 L
108.438 108.131 L
108.683 108.193 L
108.928 108.256 L
109.172 108.317 L
109.417 108.375 L
109.662 108.428 L
109.907 108.475 L
110.152 108.513 L
110.396 108.541 L
110.641 108.557 L
110.886 108.557 L
111.131 108.541 L
111.375 108.505 L
111.62 108.448 L
111.865 108.366 L
112.11 108.256 L
112.355 108.117 L
112.599 107.945 L
112.844 107.738 L
113.089 107.493 L
113.334 107.208 L
113.578 106.88 L
113.823 106.506 L
114.068 106.085 L
114.313 105.615 L
114.557 105.094 L
114.802 104.521 L
115.047 103.894 L
115.292 103.214 L
115.537 102.48 L
115.781 101.692 L
116.026 100.852 L
116.271 99.961 L
116.516 99.021 L
116.76 98.034 L
117.005 97.004 L
117.25 95.935 L
117.495 94.83 L
117.74 93.694 L
117.984 92.533 L
118.229 91.351 L
118.474 90.153 L
118.719 88.946 L
118.963 87.735 L
119.208 86.525 L
119.453 85.322 L
119.698 84.13 L
119.943 82.955 L
120.187 81.8 L
120.432 80.669 L
120.677 79.567 L
120.922 78.495 L
121.166 77.457 L
121.411 76.454 L
121.656 75.488 L
121.901 74.56 L
122.145 73.672 L
122.39 72.823 L
122.635 72.014 L
122.88 71.246 L
123.125 70.517 L
123.369 69.829 L
123.614 69.179 L
123.859 68.568 L
124.104 67.994 L
124.348 67.458 L
124.593 66.957 L
124.838 66.492 L
125.083 66.061 L
125.328 65.663 L
125.572 65.298 L
125.817 64.964 L
126.062 64.661 L
126.307 64.387 L
126.551 64.143 L
126.796 63.926 L
127.041 63.736 L
127.286 63.571 L
127.53 63.432 L
127.775 63.317 L
128.02 63.226 L
128.265 63.156 L
128.51 63.108 L
128.754 63.08 L
128.999 63.072 L
129.244 63.083 L
129.489 63.112 L
129.733 63.159 L
129.978 63.221 L
130.223 63.3 L
130.468 63.394 L
130.713 63.502 L
130.957 63.624 L
131.202 63.759 L
131.447 63.907 L
131.692 64.067 L
131.936 64.238 L
132.181 64.421 L
132.426 64.615 L
132.671 64.819 L
132.916 65.034 L
133.16 65.259 L
133.405 65.495 L
133.65 65.741 L
133.895 65.999 L
134.139 66.268 L
134.384 66.55 L
134.629 66.845 L
134.874 67.154 L
135.118 67.479 L
135.363 67.823 L
135.608 68.186 L
135.853 68.571 L
136.098 68.98 L
136.342 69.417 L
136.587 69.885 L
136.832 70.388 L
137.077 70.928 L
137.321 71.511 L
137.566 72.14 L
137.811 72.82 L
138.056 73.555 L
138.301 74.35 L
138.545 75.208 L
138.79 76.133 L
139.035 77.129 L
139.28 78.199 L
139.524 79.345 L
139.769 80.568 L
140.014 81.868 L
140.259 83.245 L
140.503 84.697 L
140.748 86.22 L
140.993 87.811 L
141.238 89.463 L
141.483 91.169 L
141.727 92.921 L
141.972 94.71 L
142.217 96.525 L
142.462 98.355 L
142.706 100.189 L
142.951 102.015 L
143.196 103.821 L
143.441 105.597 L
143.686 107.329 L
143.93 109.009 L
144.175 110.626 L
144.42 112.172 L
144.665 113.638 L
144.909 115.019 L
145.154 116.308 L
145.399 117.503 L
145.644 118.599 L
145.889 119.596 L
146.133 120.493 L
146.378 121.291 L
146.623 121.993 L
146.868 122.601 L
147.112 123.12 L
147.357 123.554 L
147.602 123.909 L
147.847 124.189 L
148.091 124.401 L
148.336 124.549 L
148.581 124.638 L
148.826 124.674 L
149.071 124.658 L
149.315 124.595 L
149.56 124.487 L
149.805 124.336 L
150.05 124.143 L
150.294 123.908 L
150.539 123.631 L
150.784 123.314 L
151.029 122.956 L
151.274 122.558 L
151.518 122.118 L
151.763 121.638 L
152.008 121.118 L
152.253 120.557 L
152.497 119.957 L
152.742 119.316 L
152.987 118.636 L
153.232 117.916 L
153.476 117.158 L
153.721 116.362 L
153.966 115.529 L
154.211 114.659 L
154.456 113.755 L
154.7 112.818 L
154.945 111.85 L
155.19 110.853 L
155.435 109.83 L
155.679 108.783 L
155.924 107.715 L
156.169 106.63 L
156.414 105.531 L
156.659 104.422 L
156.903 103.308 L
157.148 102.193 L
157.393 101.081 L
157.638 99.979 L
157.882 98.89 L
158.127 97.821 L
158.372 96.777 L
158.617 95.762 L
158.861 94.784 L
159.106 93.846 L
159.351 92.954 L
159.596 92.114 L
159.841 91.329 L
160.085 90.604 L
160.33 89.943 L
160.575 89.349 L
160.82 88.825 L
161.064 88.373 L
161.309 87.994 L
161.554 87.689 L
161.799 87.461 L
162.044 87.307 L
162.288 87.228 L
162.533 87.223 L
162.778 87.291 L
163.023 87.429 L
163.267 87.636 L
163.512 87.908 L
163.757 88.242 L
164.002 88.634 L
164.247 89.078 L
164.491 89.57 L
164.736 90.103 L
164.981 90.672 L
165.226 91.271 L
165.47 91.892 L
165.715 92.531 L
165.96 93.181 L
166.205 93.838 L
166.449 94.496 L
166.694 95.152 L
166.939 95.802 L
167.184 96.446 L
167.429 97.08 L
167.673 97.704 L
167.918 98.317 L
168.163 98.919 L
168.408 99.51 L
168.652 100.091 L
168.897 100.659 L
169.142 101.217 L
169.387 101.763 L
169.632 102.296 L
169.876 102.816 L
170.121 103.323 L
170.366 103.816 L
170.611 104.293 L
170.855 104.755 L
171.1 105.2 L
171.345 105.629 L
171.59 106.041 L
171.834 106.436 L
172.079 106.814 L
172.324 107.177 L
172.569 107.523 L
172.814 107.854 L
173.058 108.17 L
173.303 108.471 L
173.548 108.757 L
173.793 109.029 L
174.037 109.287 L
174.282 109.531 L
174.527 109.76 L
174.772 109.974 L
175.017 110.174 L
175.261 110.358 L
175.506 110.527 L
175.751 110.679 L
175.996 110.815 L
176.24 110.934 L
176.485 111.035 L
176.73 111.118 L
176.975 111.183 L
177.22 111.228 L
177.464 111.254 L
177.709 111.26 L
177.954 111.245 L
178.199 111.209 L
178.443 111.151 L
178.688 111.07 L
178.933 110.966 L
179.178 110.837 L
179.422 110.683 L
179.667 110.504 L
179.912 110.298 L
180.157 110.064 L
180.402 109.801 L
180.646 109.51 L
180.891 109.188 L
181.136 108.836 L
181.381 108.452 L
181.625 108.037 L
181.87 107.589 L
182.115 107.108 L
182.36 106.594 L
182.605 106.048 L
182.849 105.468 L
183.094 104.856 L
183.339 104.211 L
183.584 103.535 L
183.828 102.827 L
184.073 102.09 L
184.318 101.324 L
184.563 100.53 L
184.807 99.711 L
185.052 98.867 L
185.297 98.002 L
185.542 97.116 L
185.787 96.213 L
186.031 95.296 L
186.276 94.366 L
186.521 93.426 L
186.766 92.479 L
187.01 91.529 L
187.255 90.577 L
187.5 89.627 L
187.745 88.682 L
187.99 87.744 L
188.234 86.816 L
188.479 85.899 L
188.724 84.998 L
188.969 84.112 L
189.213 83.246 L
189.458 82.399 L
189.703 81.574 L
189.948 80.772 L
190.193 79.995 L
190.437 79.242 L
190.682 78.515 L
190.927 77.815 L
191.172 77.142 L
191.416 76.495 L
191.661 75.877 L
191.906 75.285 L
192.151 74.721 L
192.395 74.183 L
192.64 73.673 L
192.885 73.189 L
193.13 72.73 L
193.375 72.298 L
193.619 71.89 L
193.864 71.506 L
194.109 71.147 L
194.354 70.81 L
194.598 70.496 L
194.843 70.204 L
195.088 69.934 L
195.333 69.684 L
195.578 69.455 L
195.822 69.246 L
196.067 69.056 L
196.312 68.885 L
196.557 68.733 L
196.801 68.599 L
197.046 68.484 L
197.291 68.387 L
197.536 68.308 L
197.78 68.247 L
198.025 68.204 L
198.27 68.179 L
198.515 68.174 L
198.76 68.187 L
199.004 68.22 L
199.249 68.272 L
199.494 68.346 L
199.739 68.441 L
199.983 68.559 L
200.228 68.7 L
200.473 68.865 L
200.718 69.056 L
200.963 69.274 L
201.207 69.52 L
201.452 69.795 L
201.697 70.101 L
201.942 70.439 L
202.186 70.81 L
202.431 71.215 L
202.676 71.657 L
202.921 72.135 L
203.166 72.652 L
203.41 73.208 L
203.655 73.803 L
203.9 74.44 L
204.145 75.117 L
204.389 75.836 L
204.634 76.596 L
204.879 77.398 L
205.124 78.24 L
205.368 79.121 L
205.613 80.042 L
205.858 80.999 L
206.103 81.992 L
206.348 83.018 L
206.592 84.075 L
206.837 85.16 L
207.082 86.27 L
207.327 87.401 L
207.571 88.55 L
207.816 89.713 L
208.061 90.885 L
208.306 92.064 L
208.551 93.244 L
208.795 94.421 L
209.04 95.591 L
209.285 96.749 L
209.53 97.892 L
209.774 99.014 L
210.019 100.113 L
210.264 101.184 L
210.509 102.223 L
210.753 103.229 L
210.998 104.196 L
211.243 105.124 L
211.488 106.009 L
211.733 106.85 L
211.977 107.645 L
212.222 108.393 L
212.467 109.093 L
212.712 109.744 L
212.956 110.346 L
213.201 110.9 L
213.446 111.405 L
213.691 111.863 L
213.936 112.273 L
214.18 112.638 L
214.425 112.957 L
214.67 113.233 L
214.915 113.465 L
215.159 113.655 L
215.404 113.804 L
215.649 113.913 L
215.894 113.981 L
216.139 114.011 L
216.383 114.003 L
216.628 113.956 L
216.873 113.872 L
217.118 113.75 L
217.362 113.59 L
217.607 113.394 L
217.852 113.16 L
218.097 112.89 L
218.341 112.583 L
218.586 112.239 L
218.831 111.858 L
219.076 111.442 L
219.321 110.989 L
219.565 110.5 L
219.81 109.976 L
220.055 109.417 L
220.3 108.824 L
220.544 108.198 L
220.789 107.54 L
221.034 106.851 L
221.279 106.131 L
221.524 105.384 L
221.768 104.611 L
222.013 103.812 L
222.258 102.992 L
222.503 102.152 L
222.747 101.295 L
222.992 100.424 L
223.237 99.542 L
223.482 98.653 L
223.726 97.759 L
223.971 96.865 L
224.216 95.974 L
224.461 95.09 L
224.706 94.217 L
224.95 93.36 L
225.195 92.522 L
225.44 91.707 L
225.685 90.919 L
225.929 90.162 L
226.174 89.439 L
226.419 88.754 L
226.664 88.11 L
226.909 87.511 L
227.153 86.958 L
227.398 86.454 L
227.643 86.001 L
227.888 85.601 L
228.132 85.254 L
228.377 84.962 L
228.622 84.726 L
228.867 84.544 L
229.111 84.418 L
229.356 84.346 L
229.601 84.328 L
229.846 84.362 L
230.091 84.447 L
230.335 84.58 L
230.58 84.761 L
230.825 84.986 L
231.07 85.253 L
231.314 85.559 L
231.559 85.902 L
231.804 86.279 L
232.049 86.686 L
232.294 87.12 L
232.538 87.579 L
232.783 88.058 L
233.028 88.555 L
233.273 89.065 L
233.517 89.586 L
233.762 90.115 L
234.007 90.646 L
234.252 91.178 L
234.497 91.707 L
234.741 92.229 L
234.986 92.742 L
235.231 93.241 L
235.476 93.725 L
235.72 94.19 L
235.965 94.633 L
236.21 95.051 L
236.455 95.443 L
236.699 95.805 L
236.944 96.135 L
237.189 96.433 L
237.434 96.694 L
237.679 96.919 L
237.923 97.105 L
238.168 97.252 L
238.413 97.358 L
238.658 97.424 L
238.902 97.448 L
239.147 97.43 L
239.392 97.37 L
239.637 97.27 L
239.882 97.128 L
240.126 96.947 L
240.371 96.727 L
240.616 96.469 L
240.861 96.176 L
241.105 95.848 L
241.35 95.487 L
241.595 95.096 L
241.84 94.676 L
242.084 94.231 L
242.329 93.761 L
242.574 93.27 L
242.819 92.76 L
243.064 92.234 L
243.308 91.693 L
243.553 91.141 L
243.798 90.578 L
244.043 90.009 L
244.287 89.434 L
244.532 88.857 L
244.777 88.278 L
245.022 87.699 L
245.267 87.123 L
245.511 86.551 L
245.756 85.984 L
246.001 85.424 L
246.246 84.872 L
246.49 84.328 L
246.735 83.795 L
246.98 83.272 L
247.225 82.761 L
247.469 82.262 L
247.714 81.776 L
247.959 81.303 L
248.204 80.844 L
248.449 80.399 L
248.693 79.968 L
248.938 79.552 L
249.183 79.151 L
249.428 78.765 L
249.672 78.394 L
249.917 78.038 L
250.162 77.698 L
250.407 77.374 L
250.652 77.065 L
250.896 76.772 L
251.141 76.495 L
251.386 76.235 L
251.631 75.991 L
251.875 75.763 L
252.12 75.552 L
252.365 75.358 L
252.61 75.181 L
252.855 75.022 L
253.099 74.882 L
253.344 74.759 L
253.589 74.656 L
253.834 74.572 L
254.078 74.508 L
254.323 74.465 L
254.568 74.442 L
254.813 74.442 L
255.057 74.464 L
255.302 74.51 L
255.547 74.579 L
255.792 74.674 L
256.037 74.794 L
256.281 74.941 L
256.526 75.115 L
256.771 75.318 L
257.016 75.55 L
257.26 75.812 L
257.505 76.105 L
257.75 76.43 L
257.995 76.789 L
258.24 77.18 L
258.484 77.606 L
258.729 78.067 L
258.974 78.564 L
259.219 79.096 L
259.463 79.665 L
259.708 80.27 L
259.953 80.912 L
260.198 81.591 L
260.443 82.306 L
260.687 83.057 L
260.932 83.843 L
261.177 84.663 L
261.422 85.517 L
261.666 86.402 L
261.911 87.317 L
262.156 88.261 L
262.401 89.231 L
262.645 90.225 L
262.89 91.24 L
263.135 92.274 L
263.38 93.324 L
263.625 94.387 L
263.869 95.459 L
264.114 96.537 L
264.359 97.618 L
264.604 98.699 L
264.848 99.775 L
265.093 100.844 L
265.338 101.903 L
265.583 102.948 L
265.828 103.977 L
266.072 104.986 L
266.317 105.973 L
266.562 106.936 L
266.807 107.872 L
267.051 108.78 L
267.296 109.658 L
267.541 110.506 L
267.786 111.32 L
268.03 112.102 L
268.275 112.85 L
268.52 113.564 L
268.765 114.244 L
269.01 114.89 L
269.254 115.503 L
269.499 116.082 L
269.744 116.628 L
269.989 117.142 L
270.233 117.625 L
270.478 118.078 L
270.723 118.501 L
270.968 118.896 L
271.213 119.264 L
271.457 119.605 L
271.702 119.921 L
271.947 120.213 L
272.192 120.482 L
272.436 120.729 L
272.681 120.955 L
272.926 121.16 L
273.171 121.346 L
273.415 121.514 L
273.66 121.664 L
273.905 121.797 L
274.15 121.913 L
274.395 122.014 L
274.639 122.1 L
274.884 122.172 L
275.129 122.229 L
275.374 122.273 L
275.618 122.304 L
275.863 122.323 L
276.108 122.329 L
276.353 122.323 L
276.598 122.306 L
276.842 122.278 L
277.087 122.238 L
277.332 122.188 L
277.577 122.128 L
277.821 122.057 L
278.066 121.977 L
278.311 121.887 L
278.556 121.787 L
278.801 121.678 L
279.045 121.56 L
279.29 121.433 L
279.535 121.298 L
279.78 121.153 L
280.024 121 L
280.269 120.839 L
280.514 120.67 L
280.759 120.492 L
281.003 120.307 L
281.248 120.114 L
281.493 119.914 L
281.738 119.707 L
281.983 119.492 L
282.227 119.271 L
282.472 119.043 L
282.717 118.809 L
282.962 118.569 L
283.206 118.323 L
283.451 118.071 L
283.696 117.815 L
283.941 117.553 L
284.186 117.287 L
284.43 117.016 L
284.675 116.742 L
284.92 116.464 L
285.165 116.183 L
285.409 115.899 L
285.654 115.612 L
285.899 115.324 L
286.144 115.034 L
286.388 114.743 L
286.633 114.451 L
286.878 114.16 L
287.123 113.868 L
287.368 113.577 L
287.612 113.286 L
287.857 112.998 L
288.102 112.711 L
288.347 112.427 L
288.591 112.145 L
288.836 111.866 L
289.081 111.59 L
289.326 111.319 L
289.571 111.051 L
289.815 110.788 L
290.06 110.529 L
290.305 110.274 L
290.55 110.025 L
290.794 109.78 L
291.039 109.541 L
291.284 109.306 L
291.529 109.077 L
291.774 108.852 L
292.018 108.632 L
292.263 108.417 L
292.508 108.206 L
292.753 107.999 L
292.997 107.796 L
293.242 107.596 L
293.487 107.399 L
293.732 107.203 L
293.976 107.01 L
294.221 106.817 L
294.466 106.624 L
294.711 106.431 L
294.956 106.236 L
295.2 106.038 L
295.445 105.838 L
295.69 105.632 L
295.935 105.421 L
296.179 105.204 L
296.424 104.979 L
296.669 104.745 L
296.914 104.501 L
297.159 104.245 L
297.403 103.977 L
297.648 103.695 L
297.893 103.399 L
298.138 103.086 L
298.382 102.756 L
298.627 102.408 L
298.872 102.04 L
299.117 101.652 L
299.362 101.243 L
299.606 100.812 L
299.851 100.357 L
300.096 99.88 L
300.341 99.379 L
300.585 98.853 L
300.83 98.304 L
301.075 97.73 L
301.32 97.132 L
301.564 96.511 L
301.809 95.866 L
302.054 95.199 L
302.299 94.51 L
302.544 93.8 L
302.788 93.071 L
303.033 92.324 L
303.278 91.56 L
303.523 90.782 L
303.767 89.991 L
304.012 89.188 L
304.257 88.376 L
304.502 87.558 L
304.747 86.734 L
304.991 85.909 L
305.236 85.083 L
305.481 84.26 L
305.726 83.441 L
305.97 82.63 L
306.215 81.829 L
306.46 81.04 L
306.705 80.266 L
306.949 79.509 L
307.194 78.771 L
307.439 78.055 L
307.684 77.363 L
307.929 76.697 L
308.173 76.058 L
308.418 75.45 L
308.663 74.872 L
308.908 74.327 L
309.152 73.817 L
309.397 73.341 L
309.642 72.902 L
309.887 72.5 L
310.132 72.135 L
310.376 71.808 L
310.621 71.519 L
310.866 71.269 L
311.111 71.057 L
311.355 70.883 L
311.6 70.747 L
311.845 70.649 L
312.09 70.588 L
312.335 70.563 L
312.579 70.575 L
312.824 70.623 L
313.069 70.705 L
313.314 70.822 L
313.558 70.972 L
313.803 71.155 L
314.048 71.37 L
314.293 71.616 L
314.537 71.893 L
314.782 72.2 L
315.027 72.536 L
315.272 72.901 L
315.517 73.293 L
315.761 73.711 L
316.006 74.156 L
316.251 74.625 L
316.496 75.119 L
316.74 75.636 L
316.985 76.176 L
317.23 76.737 L
317.475 77.319 L
317.72 77.921 L
317.964 78.541 L
318.209 79.178 L
318.454 79.833 L
318.699 80.502 L
318.943 81.186 L
319.188 81.882 L
319.433 82.59 L
319.678 83.308 L
319.922 84.034 L
320.167 84.767 L
320.412 85.506 L
320.657 86.249 L
320.902 86.993 L
321.146 87.738 L
321.391 88.481 L
321.636 89.221 L
321.881 89.954 L
322.125 90.681 L
322.37 91.397 L
322.615 92.101 L
322.86 92.792 L
323.105 93.466 L
323.349 94.122 L
323.594 94.757 L
323.839 95.369 L
324.084 95.957 L
324.328 96.517 L
324.573 97.048 L
324.818 97.549 L
325.063 98.016 L
325.307 98.448 L
325.552 98.844 L
325.797 99.201 L
326.042 99.519 L
326.287 99.796 L
326.531 100.03 L
326.776 100.222 L
327.021 100.37 L
327.266 100.474 L
327.51 100.533 L
327.755 100.548 L
328 100.518 L
328.034 100.508 L
S
GR
%%Trailer
%%Pages: 1
%%EOF
