%!PS-Adobe-3.0 EPSF-3.0
%%Creator: (MATLAB, The Mathworks, Inc. Version 9.10.0.1684407 \(R2021a\) Update 3. Operating System: Linux)
%%Title: /home/adoan/Code/PRoSA_PI-ESN_Git/pi-esn/Results/MFE_results_Noise/Figures/FIG9A.eps
%%CreationDate: 2021-07-21T19:03:36
%%Pages: (atend)
%%BoundingBox:     0     0   283   170
%%LanguageLevel: 3
%%EndComments
%%BeginProlog
%%BeginResource: procset (Apache XML Graphics Std ProcSet) 1.2 0
%%Version: 1.2 0
%%Copyright: (Copyright 2001-2003,2010 The Apache Software Foundation. License terms: http://www.apache.org/licenses/LICENSE-2.0)
/bd{bind def}bind def
/ld{load def}bd
/GR/grestore ld
/GS/gsave ld
/RM/rmoveto ld
/C/curveto ld
/t/show ld
/L/lineto ld
/ML/setmiterlimit ld
/CT/concat ld
/f/fill ld
/N/newpath ld
/S/stroke ld
/CC/setcmykcolor ld
/A/ashow ld
/cp/closepath ld
/RC/setrgbcolor ld
/LJ/setlinejoin ld
/GC/setgray ld
/LW/setlinewidth ld
/M/moveto ld
/re {4 2 roll M
1 index 0 rlineto
0 exch rlineto
neg 0 rlineto
cp } bd
/_ctm matrix def
/_tm matrix def
/BT { _ctm currentmatrix pop matrix _tm copy pop 0 0 moveto } bd
/ET { _ctm setmatrix } bd
/iTm { _ctm setmatrix _tm concat } bd
/Tm { _tm astore pop iTm 0 0 moveto } bd
/ux 0.0 def
/uy 0.0 def
/F {
  /Tp exch def
  /Tf exch def
  Tf findfont Tp scalefont setfont
  /cf Tf def  /cs Tp def
} bd
/ULS {currentpoint /uy exch def /ux exch def} bd
/ULE {
  /Tcx currentpoint pop def
  gsave
  newpath
  cf findfont cs scalefont dup
  /FontMatrix get 0 get /Ts exch def /FontInfo get dup
  /UnderlinePosition get Ts mul /To exch def
  /UnderlineThickness get Ts mul /Tt exch def
  ux uy To add moveto  Tcx uy To add lineto
  Tt setlinewidth stroke
  grestore
} bd
/OLE {
  /Tcx currentpoint pop def
  gsave
  newpath
  cf findfont cs scalefont dup
  /FontMatrix get 0 get /Ts exch def /FontInfo get dup
  /UnderlinePosition get Ts mul /To exch def
  /UnderlineThickness get Ts mul /Tt exch def
  ux uy To add cs add moveto Tcx uy To add cs add lineto
  Tt setlinewidth stroke
  grestore
} bd
/SOE {
  /Tcx currentpoint pop def
  gsave
  newpath
  cf findfont cs scalefont dup
  /FontMatrix get 0 get /Ts exch def /FontInfo get dup
  /UnderlinePosition get Ts mul /To exch def
  /UnderlineThickness get Ts mul /Tt exch def
  ux uy To add cs 10 mul 26 idiv add moveto Tcx uy To add cs 10 mul 26 idiv add lineto
  Tt setlinewidth stroke
  grestore
} bd
/QT {
/Y22 exch store
/X22 exch store
/Y21 exch store
/X21 exch store
currentpoint
/Y21 load 2 mul add 3 div exch
/X21 load 2 mul add 3 div exch
/X21 load 2 mul /X22 load add 3 div
/Y21 load 2 mul /Y22 load add 3 div
/X22 load /Y22 load curveto
} bd
/SSPD {
dup length /d exch dict def
{
/v exch def
/k exch def
currentpagedevice k known {
/cpdv currentpagedevice k get def
v cpdv ne {
/upd false def
/nullv v type /nulltype eq def
/nullcpdv cpdv type /nulltype eq def
nullv nullcpdv or
{
/upd true def
} {
/sametype v type cpdv type eq def
sametype {
v type /arraytype eq {
/vlen v length def
/cpdvlen cpdv length def
vlen cpdvlen eq {
0 1 vlen 1 sub {
/i exch def
/obj v i get def
/cpdobj cpdv i get def
obj cpdobj ne {
/upd true def
exit
} if
} for
} {
/upd true def
} ifelse
} {
v type /dicttype eq {
v {
/dv exch def
/dk exch def
/cpddv cpdv dk get def
dv cpddv ne {
/upd true def
exit
} if
} forall
} {
/upd true def
} ifelse
} ifelse
} if
} ifelse
upd true eq {
d k v put
} if
} if
} if
} forall
d length 0 gt {
d setpagedevice
} if
} bd
/RE { % /NewFontName [NewEncodingArray] /FontName RE -
  findfont dup length dict begin
  {
    1 index /FID ne
    {def} {pop pop} ifelse
  } forall
  /Encoding exch def
  /FontName 1 index def
  currentdict definefont pop
  end
} bind def
%%EndResource
%%BeginResource: procset (Apache XML Graphics EPS ProcSet) 1.0 0
%%Version: 1.0 0
%%Copyright: (Copyright 2002-2003 The Apache Software Foundation. License terms: http://www.apache.org/licenses/LICENSE-2.0)
/BeginEPSF { %def
/b4_Inc_state save def         % Save state for cleanup
/dict_count countdictstack def % Count objects on dict stack
/op_count count 1 sub def      % Count objects on operand stack
userdict begin                 % Push userdict on dict stack
/showpage { } def              % Redefine showpage, { } = null proc
0 setgray 0 setlinecap         % Prepare graphics state
1 setlinewidth 0 setlinejoin
10 setmiterlimit [ ] 0 setdash newpath
/languagelevel where           % If level not equal to 1 then
{pop languagelevel             % set strokeadjust and
1 ne                           % overprint to their defaults.
{false setstrokeadjust false setoverprint
} if
} if
} bd
/EndEPSF { %def
count op_count sub {pop} repeat            % Clean up stacks
countdictstack dict_count sub {end} repeat
b4_Inc_state restore
} bd
%%EndResource
%FOPBeginFontDict
%%IncludeResource: font Courier-Oblique
%%IncludeResource: font Courier-BoldOblique
%%IncludeResource: font Courier-Bold
%%IncludeResource: font ZapfDingbats
%%IncludeResource: font Symbol
%%IncludeResource: font Helvetica
%%IncludeResource: font Helvetica-Oblique
%%IncludeResource: font Helvetica-Bold
%%IncludeResource: font Helvetica-BoldOblique
%%IncludeResource: font Times-Roman
%%IncludeResource: font Times-Italic
%%IncludeResource: font Times-Bold
%%IncludeResource: font Times-BoldItalic
%%IncludeResource: font Courier
%FOPEndFontDict
%%BeginResource: encoding WinAnsiEncoding
/WinAnsiEncoding [
/.notdef /.notdef /.notdef /.notdef /.notdef
/.notdef /.notdef /.notdef /.notdef /.notdef
/.notdef /.notdef /.notdef /.notdef /.notdef
/.notdef /.notdef /.notdef /.notdef /.notdef
/.notdef /.notdef /.notdef /.notdef /.notdef
/.notdef /.notdef /.notdef /.notdef /.notdef
/.notdef /.notdef /space /exclam /quotedbl
/numbersign /dollar /percent /ampersand /quotesingle
/parenleft /parenright /asterisk /plus /comma
/hyphen /period /slash /zero /one
/two /three /four /five /six
/seven /eight /nine /colon /semicolon
/less /equal /greater /question /at
/A /B /C /D /E
/F /G /H /I /J
/K /L /M /N /O
/P /Q /R /S /T
/U /V /W /X /Y
/Z /bracketleft /backslash /bracketright /asciicircum
/underscore /quoteleft /a /b /c
/d /e /f /g /h
/i /j /k /l /m
/n /o /p /q /r
/s /t /u /v /w
/x /y /z /braceleft /bar
/braceright /asciitilde /bullet /Euro /bullet
/quotesinglbase /florin /quotedblbase /ellipsis /dagger
/daggerdbl /circumflex /perthousand /Scaron /guilsinglleft
/OE /bullet /Zcaron /bullet /bullet
/quoteleft /quoteright /quotedblleft /quotedblright /bullet
/endash /emdash /asciitilde /trademark /scaron
/guilsinglright /oe /bullet /zcaron /Ydieresis
/space /exclamdown /cent /sterling /currency
/yen /brokenbar /section /dieresis /copyright
/ordfeminine /guillemotleft /logicalnot /sfthyphen /registered
/macron /degree /plusminus /twosuperior /threesuperior
/acute /mu /paragraph /middot /cedilla
/onesuperior /ordmasculine /guillemotright /onequarter /onehalf
/threequarters /questiondown /Agrave /Aacute /Acircumflex
/Atilde /Adieresis /Aring /AE /Ccedilla
/Egrave /Eacute /Ecircumflex /Edieresis /Igrave
/Iacute /Icircumflex /Idieresis /Eth /Ntilde
/Ograve /Oacute /Ocircumflex /Otilde /Odieresis
/multiply /Oslash /Ugrave /Uacute /Ucircumflex
/Udieresis /Yacute /Thorn /germandbls /agrave
/aacute /acircumflex /atilde /adieresis /aring
/ae /ccedilla /egrave /eacute /ecircumflex
/edieresis /igrave /iacute /icircumflex /idieresis
/eth /ntilde /ograve /oacute /ocircumflex
/otilde /odieresis /divide /oslash /ugrave
/uacute /ucircumflex /udieresis /yacute /thorn
/ydieresis
] def
%%EndResource
%FOPBeginFontReencode
/Courier-Oblique findfont
dup length dict begin
  {1 index /FID ne {def} {pop pop} ifelse} forall
  /Encoding WinAnsiEncoding def
  currentdict
end
/Courier-Oblique exch definefont pop
/Courier-BoldOblique findfont
dup length dict begin
  {1 index /FID ne {def} {pop pop} ifelse} forall
  /Encoding WinAnsiEncoding def
  currentdict
end
/Courier-BoldOblique exch definefont pop
/Courier-Bold findfont
dup length dict begin
  {1 index /FID ne {def} {pop pop} ifelse} forall
  /Encoding WinAnsiEncoding def
  currentdict
end
/Courier-Bold exch definefont pop
/Helvetica findfont
dup length dict begin
  {1 index /FID ne {def} {pop pop} ifelse} forall
  /Encoding WinAnsiEncoding def
  currentdict
end
/Helvetica exch definefont pop
/Helvetica-Oblique findfont
dup length dict begin
  {1 index /FID ne {def} {pop pop} ifelse} forall
  /Encoding WinAnsiEncoding def
  currentdict
end
/Helvetica-Oblique exch definefont pop
/Helvetica-Bold findfont
dup length dict begin
  {1 index /FID ne {def} {pop pop} ifelse} forall
  /Encoding WinAnsiEncoding def
  currentdict
end
/Helvetica-Bold exch definefont pop
/Helvetica-BoldOblique findfont
dup length dict begin
  {1 index /FID ne {def} {pop pop} ifelse} forall
  /Encoding WinAnsiEncoding def
  currentdict
end
/Helvetica-BoldOblique exch definefont pop
/Times-Roman findfont
dup length dict begin
  {1 index /FID ne {def} {pop pop} ifelse} forall
  /Encoding WinAnsiEncoding def
  currentdict
end
/Times-Roman exch definefont pop
/Times-Italic findfont
dup length dict begin
  {1 index /FID ne {def} {pop pop} ifelse} forall
  /Encoding WinAnsiEncoding def
  currentdict
end
/Times-Italic exch definefont pop
/Times-Bold findfont
dup length dict begin
  {1 index /FID ne {def} {pop pop} ifelse} forall
  /Encoding WinAnsiEncoding def
  currentdict
end
/Times-Bold exch definefont pop
/Times-BoldItalic findfont
dup length dict begin
  {1 index /FID ne {def} {pop pop} ifelse} forall
  /Encoding WinAnsiEncoding def
  currentdict
end
/Times-BoldItalic exch definefont pop
/Courier findfont
dup length dict begin
  {1 index /FID ne {def} {pop pop} ifelse} forall
  /Encoding WinAnsiEncoding def
  currentdict
end
/Courier exch definefont pop
%FOPEndFontReencode
%%EndProlog
%%Page: 1 1
%%PageBoundingBox: 0 0 283 170
%%BeginPageSetup
[1 0 0 -1 0 170] CT
%%EndPageSetup
GS
[0.78305 0 0 0.78377 0 -0.07875] CT
1 GC
N
0 0 362 217 re
f
GR
GS
[0.78305 0 0 0.78377 0 -0.07875] CT
1 GC
N
0 0 362 217 re
f
GR
GS
[0.78305 0 0 0.78377 0 -0.07875] CT
1 GC
N
47 172 M
328 172 L
328 16 L
47 16 L
cp
f
GR
GS
[0.78305 0 0 0.78377 0 -0.07875] CT
0.149 GC
2 setlinecap
1 LJ
0.639 LW
N
47 172 M
328 172 L
S
GR
GS
[0.78305 0 0 0.78377 0 -0.07875] CT
0.149 GC
2 setlinecap
1 LJ
0.639 LW
N
47 16 M
328 16 L
S
GR
GS
[0.78305 0 0 0.78377 0 -0.07875] CT
0.149 GC
2 setlinecap
1 LJ
0.639 LW
N
47 172 M
47 169.19 L
S
GR
GS
[0.78305 0 0 0.78377 0 -0.07875] CT
0.149 GC
2 setlinecap
1 LJ
0.639 LW
N
127.286 172 M
127.286 169.19 L
S
GR
GS
[0.78305 0 0 0.78377 0 -0.07875] CT
0.149 GC
2 setlinecap
1 LJ
0.639 LW
N
207.571 172 M
207.571 169.19 L
S
GR
GS
[0.78305 0 0 0.78377 0 -0.07875] CT
0.149 GC
2 setlinecap
1 LJ
0.639 LW
N
287.857 172 M
287.857 169.19 L
S
GR
GS
[0.78305 0 0 0.78377 0 -0.07875] CT
0.149 GC
2 setlinecap
1 LJ
0.639 LW
N
47 16 M
47 18.81 L
S
GR
GS
[0.78305 0 0 0.78377 0 -0.07875] CT
0.149 GC
2 setlinecap
1 LJ
0.639 LW
N
127.286 16 M
127.286 18.81 L
S
GR
GS
[0.78305 0 0 0.78377 0 -0.07875] CT
0.149 GC
2 setlinecap
1 LJ
0.639 LW
N
207.571 16 M
207.571 18.81 L
S
GR
GS
[0.78305 0 0 0.78377 0 -0.07875] CT
0.149 GC
2 setlinecap
1 LJ
0.639 LW
N
287.857 16 M
287.857 18.81 L
S
GR
GS
[0.78305 0 0 0.78377 36.80341 139.13676] CT
0.149 GC
N
-0.083 13.208 M
-1.927 13.208 -2.583 11.692 QT
-3.24 10.177 -3.24 8.099 QT
-3.24 6.786 -3.005 5.638 QT
-2.771 4.489 -2.068 3.692 QT
-1.365 2.896 -0.083 2.896 QT
0.901 2.896 1.534 3.372 QT
2.167 3.849 2.495 4.614 QT
2.823 5.38 2.948 6.255 QT
3.073 7.13 3.073 8.099 QT
3.073 9.38 2.831 10.505 QT
2.589 11.63 1.893 12.419 QT
1.198 13.208 -0.083 13.208 QT
cp
-0.083 12.817 M
0.745 12.817 1.159 11.966 QT
1.573 11.114 1.667 10.067 QT
1.76 9.021 1.76 7.849 QT
1.76 6.724 1.667 5.771 QT
1.573 4.817 1.167 4.044 QT
0.76 3.271 -0.083 3.271 QT
-0.927 3.271 -1.341 4.052 QT
-1.755 4.833 -1.849 5.778 QT
-1.943 6.724 -1.943 7.849 QT
-1.943 8.692 -1.904 9.435 QT
-1.865 10.177 -1.685 10.958 QT
-1.505 11.739 -1.115 12.278 QT
-0.724 12.817 -0.083 12.817 QT
cp
f
GR
GS
[0.78305 0 0 0.78377 99.67124 139.13676] CT
0.149 GC
N
-3.083 12.88 M
-3.083 12.474 L
-3.083 12.442 -3.052 12.396 QT
-0.724 9.817 L
-0.193 9.239 0.135 8.857 QT
0.464 8.474 0.784 7.966 QT
1.104 7.458 1.292 6.935 QT
1.479 6.411 1.479 5.833 QT
1.479 5.208 1.253 4.646 QT
1.026 4.083 0.573 3.747 QT
0.12 3.411 -0.521 3.411 QT
-1.161 3.411 -1.685 3.81 QT
-2.208 4.208 -2.427 4.817 QT
-2.365 4.802 -2.255 4.802 QT
-1.927 4.802 -1.685 5.028 QT
-1.443 5.255 -1.443 5.614 QT
-1.443 5.958 -1.685 6.2 QT
-1.927 6.442 -2.255 6.442 QT
-2.615 6.442 -2.849 6.2 QT
-3.083 5.958 -3.083 5.614 QT
-3.083 5.052 -2.872 4.56 QT
-2.661 4.067 -2.263 3.685 QT
-1.865 3.302 -1.365 3.099 QT
-0.865 2.896 -0.302 2.896 QT
0.557 2.896 1.299 3.255 QT
2.042 3.614 2.471 4.278 QT
2.901 4.942 2.901 5.833 QT
2.901 6.474 2.62 7.06 QT
2.339 7.646 1.893 8.13 QT
1.448 8.614 0.745 9.224 QT
0.042 9.833 -0.177 10.036 QT
-1.865 11.661 L
-0.427 11.661 L
0.635 11.661 1.346 11.646 QT
2.057 11.63 2.104 11.583 QT
2.276 11.396 2.464 10.208 QT
2.901 10.208 L
2.479 12.88 L
-3.083 12.88 L
cp
f
GR
GS
[0.78305 0 0 0.78377 162.53907 139.13676] CT
0.149 GC
N
-3.411 10.411 M
-3.411 9.88 L
1.214 2.958 L
1.276 2.896 1.37 2.896 QT
1.589 2.896 L
1.76 2.896 1.76 3.052 QT
1.76 9.88 L
3.229 9.88 L
3.229 10.411 L
1.76 10.411 L
1.76 11.88 L
1.76 12.177 2.198 12.263 QT
2.635 12.349 3.214 12.349 QT
3.214 12.88 L
-0.911 12.88 L
-0.911 12.349 L
-0.333 12.349 0.104 12.263 QT
0.542 12.177 0.542 11.88 QT
0.542 10.411 L
-3.411 10.411 L
cp
-2.911 9.88 M
0.635 9.88 L
0.635 4.567 L
-2.911 9.88 L
cp
f
GR
GS
[0.78305 0 0 0.78377 225.40691 139.13676] CT
0.149 GC
N
-0.083 13.208 M
-1.021 13.208 -1.638 12.716 QT
-2.255 12.224 -2.599 11.435 QT
-2.943 10.646 -3.076 9.778 QT
-3.208 8.911 -3.208 8.036 QT
-3.208 6.849 -2.747 5.653 QT
-2.286 4.458 -1.388 3.677 QT
-0.49 2.896 0.745 2.896 QT
1.26 2.896 1.706 3.083 QT
2.151 3.271 2.401 3.653 QT
2.651 4.036 2.651 4.567 QT
2.651 4.88 2.44 5.083 QT
2.229 5.286 1.917 5.286 QT
1.635 5.286 1.424 5.075 QT
1.214 4.864 1.214 4.567 QT
1.214 4.271 1.424 4.06 QT
1.635 3.849 1.917 3.849 QT
2.01 3.849 L
1.807 3.583 1.464 3.45 QT
1.12 3.317 0.745 3.317 QT
0.292 3.317 -0.091 3.521 QT
-0.474 3.724 -0.786 4.06 QT
-1.099 4.396 -1.302 4.802 QT
-1.505 5.208 -1.615 5.724 QT
-1.724 6.239 -1.755 6.692 QT
-1.786 7.146 -1.786 7.833 QT
-1.521 7.224 -1.036 6.833 QT
-0.552 6.442 0.042 6.442 QT
0.714 6.442 1.26 6.716 QT
1.807 6.989 2.206 7.466 QT
2.604 7.942 2.815 8.56 QT
3.026 9.177 3.026 9.802 QT
3.026 10.677 2.635 11.474 QT
2.245 12.271 1.534 12.739 QT
0.823 13.208 -0.083 13.208 QT
cp
-0.083 12.739 M
0.495 12.739 0.846 12.474 QT
1.198 12.208 1.362 11.771 QT
1.526 11.333 1.565 10.888 QT
1.604 10.442 1.604 9.802 QT
1.604 8.958 1.526 8.357 QT
1.448 7.755 1.089 7.294 QT
0.729 6.833 -0.005 6.833 QT
-0.615 6.833 -1.005 7.247 QT
-1.396 7.661 -1.576 8.286 QT
-1.755 8.911 -1.755 9.489 QT
-1.755 9.692 -1.74 9.786 QT
-1.74 9.817 -1.747 9.825 QT
-1.755 9.833 -1.755 9.864 QT
-1.755 10.505 -1.622 11.161 QT
-1.49 11.817 -1.122 12.278 QT
-0.755 12.739 -0.083 12.739 QT
cp
f
GR
GS
[0.78305 0 0 0.78377 146.82223 154.13643] CT
0.149 GC
N
-7.012 12.793 M
-7.012 12.543 -6.949 12.324 QT
-5.73 7.434 L
-7.512 7.434 L
-7.684 7.434 -7.684 7.215 QT
-7.621 6.84 -7.465 6.84 QT
-5.574 6.84 L
-4.902 4.059 L
-4.824 3.84 -4.629 3.684 QT
-4.434 3.527 -4.184 3.527 QT
-3.965 3.527 -3.816 3.652 QT
-3.668 3.777 -3.668 3.996 QT
-3.668 4.043 -3.676 4.074 QT
-3.684 4.105 -3.699 4.137 QT
-4.371 6.84 L
-2.621 6.84 L
-2.449 6.84 -2.449 7.059 QT
-2.449 7.105 -2.48 7.207 QT
-2.512 7.309 -2.551 7.371 QT
-2.59 7.434 -2.668 7.434 QT
-4.527 7.434 L
-5.746 12.355 L
-5.871 12.824 -5.871 13.184 QT
-5.871 13.918 -5.371 13.918 QT
-4.621 13.918 -4.043 13.215 QT
-3.465 12.512 -3.168 11.668 QT
-3.09 11.574 -3.027 11.574 QT
-2.824 11.574 L
-2.762 11.574 -2.715 11.621 QT
-2.668 11.668 -2.668 11.715 QT
-2.668 11.746 -2.684 11.762 QT
-3.059 12.793 -3.777 13.574 QT
-4.496 14.355 -5.418 14.355 QT
-6.09 14.355 -6.551 13.918 QT
-7.012 13.48 -7.012 12.793 QT
cp
f
GR
GS
[0.78305 0 0 0.78377 146.82223 154.13643] CT
0.149 GC
N
-1.062 5.282 M
-1.171 5.282 -1.233 5.211 QT
-1.296 5.141 -1.296 5.047 QT
-1.296 4.953 -1.233 4.883 QT
-1.171 4.813 -1.062 4.813 QT
2.47 4.813 L
2.47 1.266 L
2.47 1.172 2.54 1.11 QT
2.61 1.047 2.704 1.047 QT
2.798 1.047 2.868 1.11 QT
2.938 1.172 2.938 1.266 QT
2.938 4.813 L
6.47 4.813 L
6.563 4.813 6.626 4.883 QT
6.688 4.953 6.688 5.047 QT
6.688 5.141 6.626 5.211 QT
6.563 5.282 6.47 5.282 QT
2.938 5.282 L
2.938 8.828 L
2.938 8.922 2.868 8.985 QT
2.798 9.047 2.704 9.047 QT
2.61 9.047 2.54 8.985 QT
2.47 8.922 2.47 8.828 QT
2.47 5.282 L
-1.062 5.282 L
cp
f
GR
GS
[0.78305 0 0 0.78377 0 -0.07875] CT
0.149 GC
2 setlinecap
1 LJ
0.639 LW
N
47 172 M
47 16 L
S
GR
GS
[0.78305 0 0 0.78377 0 -0.07875] CT
0.149 GC
2 setlinecap
1 LJ
0.639 LW
N
328 172 M
328 16 L
S
GR
GS
[0.78305 0 0 0.78377 0 -0.07875] CT
0.149 GC
2 setlinecap
1 LJ
0.639 LW
N
47 172 M
49.81 172 L
S
GR
GS
[0.78305 0 0 0.78377 0 -0.07875] CT
0.149 GC
2 setlinecap
1 LJ
0.639 LW
N
47 121.537 M
49.81 121.537 L
S
GR
GS
[0.78305 0 0 0.78377 0 -0.07875] CT
0.149 GC
2 setlinecap
1 LJ
0.639 LW
N
47 71.074 M
49.81 71.074 L
S
GR
GS
[0.78305 0 0 0.78377 0 -0.07875] CT
0.149 GC
2 setlinecap
1 LJ
0.639 LW
N
47 20.61 M
49.81 20.61 L
S
GR
GS
[0.78305 0 0 0.78377 0 -0.07875] CT
0.149 GC
2 setlinecap
1 LJ
0.639 LW
N
328 172 M
325.19 172 L
S
GR
GS
[0.78305 0 0 0.78377 0 -0.07875] CT
0.149 GC
2 setlinecap
1 LJ
0.639 LW
N
328 121.537 M
325.19 121.537 L
S
GR
GS
[0.78305 0 0 0.78377 0 -0.07875] CT
0.149 GC
2 setlinecap
1 LJ
0.639 LW
N
328 71.074 M
325.19 71.074 L
S
GR
GS
[0.78305 0 0 0.78377 0 -0.07875] CT
0.149 GC
2 setlinecap
1 LJ
0.639 LW
N
328 20.61 M
325.19 20.61 L
S
GR
GS
[0.78305 0 0 0.78377 32.40092 134.73021] CT
0.149 GC
N
-3.917 4.008 M
-5.76 4.008 -6.417 2.492 QT
-7.073 0.977 -7.073 -1.101 QT
-7.073 -2.414 -6.839 -3.562 QT
-6.604 -4.711 -5.901 -5.508 QT
-5.198 -6.304 -3.917 -6.304 QT
-2.932 -6.304 -2.3 -5.828 QT
-1.667 -5.351 -1.339 -4.586 QT
-1.01 -3.82 -0.885 -2.945 QT
-0.76 -2.07 -0.76 -1.101 QT
-0.76 0.18 -1.003 1.305 QT
-1.245 2.43 -1.94 3.219 QT
-2.635 4.008 -3.917 4.008 QT
cp
-3.917 3.617 M
-3.089 3.617 -2.675 2.766 QT
-2.26 1.914 -2.167 0.867 QT
-2.073 -0.179 -2.073 -1.351 QT
-2.073 -2.476 -2.167 -3.429 QT
-2.26 -4.383 -2.667 -5.156 QT
-3.073 -5.929 -3.917 -5.929 QT
-4.76 -5.929 -5.175 -5.148 QT
-5.589 -4.367 -5.682 -3.422 QT
-5.776 -2.476 -5.776 -1.351 QT
-5.776 -0.508 -5.737 0.235 QT
-5.698 0.977 -5.518 1.758 QT
-5.339 2.539 -4.948 3.078 QT
-4.557 3.617 -3.917 3.617 QT
cp
f
GR
GS
[0.78305 0 0 0.78377 32.40092 95.17849] CT
0.149 GC
N
-15.843 4.008 M
-17.686 4.008 -18.343 2.492 QT
-18.999 0.977 -18.999 -1.101 QT
-18.999 -2.414 -18.765 -3.562 QT
-18.53 -4.711 -17.827 -5.508 QT
-17.124 -6.304 -15.843 -6.304 QT
-14.858 -6.304 -14.225 -5.828 QT
-13.593 -5.351 -13.265 -4.586 QT
-12.936 -3.82 -12.811 -2.945 QT
-12.686 -2.07 -12.686 -1.101 QT
-12.686 0.18 -12.929 1.305 QT
-13.171 2.43 -13.866 3.219 QT
-14.561 4.008 -15.843 4.008 QT
cp
-15.843 3.617 M
-15.015 3.617 -14.6 2.766 QT
-14.186 1.914 -14.093 0.867 QT
-13.999 -0.179 -13.999 -1.351 QT
-13.999 -2.476 -14.093 -3.429 QT
-14.186 -4.383 -14.593 -5.156 QT
-14.999 -5.929 -15.843 -5.929 QT
-16.686 -5.929 -17.1 -5.148 QT
-17.515 -4.367 -17.608 -3.422 QT
-17.702 -2.476 -17.702 -1.351 QT
-17.702 -0.508 -17.663 0.235 QT
-17.624 0.977 -17.444 1.758 QT
-17.265 2.539 -16.874 3.078 QT
-16.483 3.617 -15.843 3.617 QT
cp
f
GR
GS
[0.78305 0 0 0.78377 32.40092 95.17849] CT
0.149 GC
N
-10.66 2.852 M
-10.66 2.508 -10.41 2.274 QT
-10.16 2.039 -9.832 2.039 QT
-9.629 2.039 -9.434 2.149 QT
-9.238 2.258 -9.129 2.453 QT
-9.02 2.649 -9.02 2.852 QT
-9.02 3.18 -9.262 3.43 QT
-9.504 3.68 -9.832 3.68 QT
-10.16 3.68 -10.41 3.43 QT
-10.66 3.18 -10.66 2.852 QT
cp
f
GR
GS
[0.78305 0 0 0.78377 32.40092 95.17849] CT
0.149 GC
N
-6.917 3.68 M
-6.917 3.274 L
-6.917 3.242 -6.885 3.196 QT
-4.557 0.617 L
-4.026 0.039 -3.698 -0.343 QT
-3.37 -0.726 -3.05 -1.234 QT
-2.729 -1.742 -2.542 -2.265 QT
-2.354 -2.789 -2.354 -3.367 QT
-2.354 -3.992 -2.581 -4.554 QT
-2.807 -5.117 -3.26 -5.453 QT
-3.714 -5.789 -4.354 -5.789 QT
-4.995 -5.789 -5.518 -5.39 QT
-6.042 -4.992 -6.26 -4.383 QT
-6.198 -4.398 -6.089 -4.398 QT
-5.76 -4.398 -5.518 -4.172 QT
-5.276 -3.945 -5.276 -3.586 QT
-5.276 -3.242 -5.518 -3 QT
-5.76 -2.758 -6.089 -2.758 QT
-6.448 -2.758 -6.682 -3 QT
-6.917 -3.242 -6.917 -3.586 QT
-6.917 -4.148 -6.706 -4.64 QT
-6.495 -5.133 -6.096 -5.515 QT
-5.698 -5.898 -5.198 -6.101 QT
-4.698 -6.304 -4.135 -6.304 QT
-3.276 -6.304 -2.534 -5.945 QT
-1.792 -5.586 -1.362 -4.922 QT
-0.932 -4.258 -0.932 -3.367 QT
-0.932 -2.726 -1.214 -2.14 QT
-1.495 -1.554 -1.94 -1.07 QT
-2.385 -0.586 -3.089 0.024 QT
-3.792 0.633 -4.01 0.836 QT
-5.698 2.461 L
-4.26 2.461 L
-3.198 2.461 -2.487 2.446 QT
-1.776 2.43 -1.729 2.383 QT
-1.557 2.196 -1.37 1.008 QT
-0.932 1.008 L
-1.354 3.68 L
-6.917 3.68 L
cp
f
GR
GS
[0.78305 0 0 0.78377 32.40092 55.62676] CT
0.149 GC
N
/f-1716017318{-15.843 4.008 M
-17.686 4.008 -18.343 2.492 QT
-18.999 0.977 -18.999 -1.101 QT
-18.999 -2.414 -18.765 -3.562 QT
-18.53 -4.711 -17.827 -5.508 QT
-17.124 -6.304 -15.843 -6.304 QT
-14.858 -6.304 -14.225 -5.828 QT
-13.593 -5.351 -13.265 -4.586 QT
-12.936 -3.82 -12.811 -2.945 QT
-12.686 -2.07 -12.686 -1.101 QT
-12.686 0.18 -12.929 1.305 QT
-13.171 2.43 -13.866 3.219 QT
-14.561 4.008 -15.843 4.008 QT
cp
-15.843 3.617 M
-15.015 3.617 -14.6 2.766 QT
-14.186 1.914 -14.093 0.867 QT
-13.999 -0.179 -13.999 -1.351 QT
-13.999 -2.476 -14.093 -3.429 QT
-14.186 -4.383 -14.593 -5.156 QT
-14.999 -5.929 -15.843 -5.929 QT
-16.686 -5.929 -17.1 -5.148 QT
-17.515 -4.367 -17.608 -3.422 QT
-17.702 -2.476 -17.702 -1.351 QT
-17.702 -0.508 -17.663 0.235 QT
-17.624 0.977 -17.444 1.758 QT
-17.265 2.539 -16.874 3.078 QT
-16.483 3.617 -15.843 3.617 QT
cp}def
f-1716017318
f
GR
GS
[0.78305 0 0 0.78377 32.40092 55.62676] CT
0.149 GC
N
/f-606985051{-10.66 2.852 M
-10.66 2.508 -10.41 2.274 QT
-10.16 2.039 -9.832 2.039 QT
-9.629 2.039 -9.434 2.149 QT
-9.238 2.258 -9.129 2.453 QT
-9.02 2.649 -9.02 2.852 QT
-9.02 3.18 -9.262 3.43 QT
-9.504 3.68 -9.832 3.68 QT
-10.16 3.68 -10.41 3.43 QT
-10.66 3.18 -10.66 2.852 QT
cp}def
f-606985051
f
GR
GS
[0.78305 0 0 0.78377 32.40092 55.62676] CT
0.149 GC
N
/f-376320310{-7.245 1.211 M
-7.245 0.68 L
-2.62 -6.242 L
-2.557 -6.304 -2.464 -6.304 QT
-2.245 -6.304 L
-2.073 -6.304 -2.073 -6.148 QT
-2.073 0.68 L
-0.604 0.68 L
-0.604 1.211 L
-2.073 1.211 L
-2.073 2.68 L
-2.073 2.977 -1.635 3.063 QT
-1.198 3.149 -0.62 3.149 QT
-0.62 3.68 L
-4.745 3.68 L
-4.745 3.149 L
-4.167 3.149 -3.729 3.063 QT
-3.292 2.977 -3.292 2.68 QT
-3.292 1.211 L
-7.245 1.211 L
cp
-6.745 0.68 M
-3.198 0.68 L
-3.198 -4.633 L
-6.745 0.68 L
cp}def
f-376320310
f
GR
GS
[0.78305 0 0 0.78377 32.40092 16.07503] CT
0.149 GC
N
f-1716017318
f
GR
GS
[0.78305 0 0 0.78377 32.40092 16.07503] CT
0.149 GC
N
f-606985051
f
GR
GS
[0.78305 0 0 0.78377 32.40092 16.07503] CT
0.149 GC
N
/f-33945120{-3.917 4.008 M
-4.854 4.008 -5.471 3.516 QT
-6.089 3.024 -6.432 2.235 QT
-6.776 1.446 -6.909 0.578 QT
-7.042 -0.289 -7.042 -1.164 QT
-7.042 -2.351 -6.581 -3.547 QT
-6.12 -4.742 -5.221 -5.523 QT
-4.323 -6.304 -3.089 -6.304 QT
-2.573 -6.304 -2.128 -6.117 QT
-1.682 -5.929 -1.432 -5.547 QT
-1.182 -5.164 -1.182 -4.633 QT
-1.182 -4.32 -1.393 -4.117 QT
-1.604 -3.914 -1.917 -3.914 QT
-2.198 -3.914 -2.409 -4.125 QT
-2.62 -4.336 -2.62 -4.633 QT
-2.62 -4.929 -2.409 -5.14 QT
-2.198 -5.351 -1.917 -5.351 QT
-1.823 -5.351 L
-2.026 -5.617 -2.37 -5.75 QT
-2.714 -5.883 -3.089 -5.883 QT
-3.542 -5.883 -3.925 -5.679 QT
-4.307 -5.476 -4.62 -5.14 QT
-4.932 -4.804 -5.135 -4.398 QT
-5.339 -3.992 -5.448 -3.476 QT
-5.557 -2.961 -5.589 -2.508 QT
-5.62 -2.054 -5.62 -1.367 QT
-5.354 -1.976 -4.87 -2.367 QT
-4.385 -2.758 -3.792 -2.758 QT
-3.12 -2.758 -2.573 -2.484 QT
-2.026 -2.211 -1.628 -1.734 QT
-1.229 -1.258 -1.018 -0.64 QT
-0.807 -0.023 -0.807 0.602 QT
-0.807 1.477 -1.198 2.274 QT
-1.589 3.071 -2.3 3.539 QT
-3.01 4.008 -3.917 4.008 QT
cp
-3.917 3.539 M
-3.339 3.539 -2.987 3.274 QT
-2.635 3.008 -2.471 2.571 QT
-2.307 2.133 -2.268 1.688 QT
-2.229 1.242 -2.229 0.602 QT
-2.229 -0.242 -2.307 -0.843 QT
-2.385 -1.445 -2.745 -1.906 QT
-3.104 -2.367 -3.839 -2.367 QT
-4.448 -2.367 -4.839 -1.953 QT
-5.229 -1.539 -5.409 -0.914 QT
-5.589 -0.289 -5.589 0.289 QT
-5.589 0.492 -5.573 0.586 QT
-5.573 0.617 -5.581 0.625 QT
-5.589 0.633 -5.589 0.664 QT
-5.589 1.305 -5.456 1.961 QT
-5.323 2.617 -4.956 3.078 QT
-4.589 3.539 -3.917 3.539 QT
cp}def
f-33945120
f
GR
GS
[0.78305 0 0 0.78377 0 -0.07875] CT
0.251 0.251 1 RC
1 LJ
1.917 LW
N
47 131.62 M
47.245 131.273 L
47.49 131.484 L
47.734 131.732 L
47.979 131.586 L
48.224 131.843 L
48.469 131.126 L
48.713 131.359 L
48.958 131.413 L
49.203 131.602 L
49.448 131.595 L
49.693 131.527 L
49.937 131.635 L
50.182 131.624 L
50.427 131.458 L
50.672 131.61 L
50.916 131.613 L
51.161 131.531 L
51.406 131.644 L
51.651 131.487 L
51.895 131.418 L
52.14 131.501 L
52.385 131.311 L
52.63 131.268 L
52.875 131.09 L
53.119 131.076 L
53.364 130.895 L
53.609 130.838 L
53.854 130.679 L
54.098 130.651 L
54.343 130.599 L
54.588 130.461 L
54.833 130.406 L
55.078 130.282 L
55.322 130.26 L
55.567 130.168 L
55.812 130.067 L
56.057 129.92 L
56.301 129.811 L
56.546 129.709 L
56.791 129.598 L
57.036 129.438 L
57.28 129.316 L
57.525 129.162 L
57.77 128.998 L
58.015 128.828 L
58.26 128.646 L
58.504 128.491 L
58.749 128.316 L
58.994 128.137 L
59.239 127.957 L
59.483 127.784 L
59.728 127.614 L
59.973 127.44 L
60.218 127.264 L
60.463 127.079 L
60.707 126.898 L
60.952 126.708 L
61.197 126.515 L
61.442 126.313 L
61.686 126.12 L
61.931 125.911 L
62.176 125.704 L
62.421 125.492 L
62.666 125.282 L
62.91 125.069 L
63.155 124.852 L
63.4 124.635 L
63.645 124.413 L
63.889 124.194 L
64.134 123.97 L
64.379 123.752 L
64.624 123.527 L
64.868 123.305 L
65.113 123.079 L
65.358 122.854 L
65.603 122.629 L
65.848 122.402 L
66.092 122.174 L
66.337 121.946 L
66.582 121.717 L
66.827 121.486 L
67.071 121.258 L
67.316 121.026 L
67.561 120.798 L
67.806 120.566 L
68.051 120.337 L
68.295 120.105 L
68.54 119.877 L
68.785 119.646 L
69.03 119.417 L
69.274 119.188 L
69.519 118.959 L
69.764 118.731 L
70.009 118.503 L
70.253 118.277 L
70.498 118.05 L
70.743 117.825 L
70.988 117.599 L
71.233 117.375 L
71.477 117.151 L
71.722 116.928 L
71.967 116.706 L
72.212 116.484 L
72.456 116.263 L
72.701 116.043 L
72.946 115.823 L
73.191 115.605 L
73.436 115.386 L
73.68 115.169 L
73.925 114.952 L
74.17 114.736 L
74.415 114.52 L
74.659 114.305 L
74.904 114.091 L
75.149 113.877 L
75.394 113.663 L
75.639 113.45 L
75.883 113.238 L
76.128 113.026 L
76.373 112.814 L
76.618 112.602 L
76.862 112.391 L
77.107 112.18 L
77.352 111.968 L
77.597 111.757 L
77.841 111.547 L
78.086 111.336 L
78.331 111.125 L
78.576 110.914 L
78.821 110.703 L
79.065 110.492 L
79.31 110.281 L
79.555 110.069 L
79.8 109.858 L
80.044 109.646 L
80.289 109.434 L
80.534 109.221 L
80.779 109.008 L
81.024 108.795 L
81.268 108.582 L
81.513 108.368 L
81.758 108.154 L
82.003 107.939 L
82.247 107.724 L
82.492 107.509 L
82.737 107.293 L
82.982 107.077 L
83.226 106.86 L
83.471 106.643 L
83.716 106.426 L
83.961 106.208 L
84.206 105.989 L
84.45 105.771 L
84.695 105.552 L
84.94 105.332 L
85.185 105.113 L
85.429 104.893 L
85.674 104.672 L
85.919 104.452 L
86.164 104.23 L
86.409 104.009 L
86.653 103.788 L
86.898 103.566 L
87.143 103.344 L
87.388 103.121 L
87.632 102.899 L
87.877 102.676 L
88.122 102.453 L
88.367 102.23 L
88.611 102.006 L
88.856 101.783 L
89.101 101.559 L
89.346 101.336 L
89.591 101.112 L
89.835 100.888 L
90.08 100.664 L
90.325 100.44 L
90.57 100.216 L
90.814 99.992 L
91.059 99.767 L
91.304 99.543 L
91.549 99.319 L
91.794 99.095 L
92.038 98.871 L
92.283 98.647 L
92.528 98.423 L
92.773 98.199 L
93.017 97.975 L
93.262 97.751 L
93.507 97.528 L
93.752 97.304 L
93.997 97.081 L
94.241 96.858 L
94.486 96.635 L
94.731 96.412 L
94.976 96.189 L
95.22 95.967 L
95.465 95.745 L
95.71 95.523 L
95.955 95.302 L
96.199 95.081 L
96.444 94.86 L
96.689 94.639 L
96.934 94.419 L
97.179 94.2 L
97.423 93.98 L
97.668 93.762 L
97.913 93.544 L
98.158 93.326 L
98.402 93.109 L
98.647 92.892 L
98.892 92.676 L
99.137 92.461 L
99.382 92.246 L
99.626 92.032 L
99.871 91.819 L
100.116 91.606 L
100.361 91.395 L
100.605 91.184 L
100.85 90.974 L
101.095 90.765 L
101.34 90.557 L
101.584 90.351 L
101.829 90.145 L
102.074 89.94 L
102.319 89.737 L
102.564 89.534 L
102.808 89.333 L
103.053 89.134 L
103.298 88.936 L
103.543 88.739 L
103.787 88.544 L
104.032 88.35 L
104.277 88.158 L
104.522 87.968 L
104.767 87.78 L
105.011 87.594 L
105.256 87.409 L
105.501 87.226 L
105.746 87.046 L
105.99 86.868 L
106.235 86.692 L
106.48 86.518 L
106.725 86.347 L
106.97 86.178 L
107.214 86.011 L
107.459 85.847 L
107.704 85.686 L
107.949 85.527 L
108.193 85.371 L
108.438 85.217 L
108.683 85.067 L
108.928 84.919 L
109.172 84.773 L
109.417 84.631 L
109.662 84.491 L
109.907 84.354 L
110.152 84.22 L
110.396 84.088 L
110.641 83.959 L
110.886 83.833 L
111.131 83.709 L
111.375 83.588 L
111.62 83.469 L
111.865 83.352 L
112.11 83.237 L
112.355 83.124 L
112.599 83.014 L
112.844 82.905 L
113.089 82.797 L
113.334 82.691 L
113.578 82.587 L
113.823 82.483 L
114.068 82.381 L
114.313 82.279 L
114.557 82.178 L
114.802 82.078 L
115.047 81.978 L
115.292 81.878 L
115.537 81.778 L
115.781 81.679 L
116.026 81.579 L
116.271 81.479 L
116.516 81.378 L
116.76 81.277 L
117.005 81.176 L
117.25 81.073 L
117.495 80.971 L
117.74 80.867 L
117.984 80.763 L
118.229 80.658 L
118.474 80.553 L
118.719 80.446 L
118.963 80.34 L
119.208 80.232 L
119.453 80.124 L
119.698 80.016 L
119.943 79.907 L
120.187 79.797 L
120.432 79.688 L
120.677 79.578 L
120.922 79.468 L
121.166 79.358 L
121.411 79.248 L
121.656 79.137 L
121.901 79.027 L
122.145 78.917 L
122.39 78.807 L
122.635 78.697 L
122.88 78.587 L
123.125 78.477 L
123.369 78.367 L
123.614 78.257 L
123.859 78.147 L
124.104 78.037 L
124.348 77.927 L
124.593 77.817 L
124.838 77.706 L
125.083 77.595 L
125.328 77.484 L
125.572 77.372 L
125.817 77.26 L
126.062 77.148 L
126.307 77.035 L
126.551 76.921 L
126.796 76.807 L
127.041 76.691 L
127.286 76.576 L
127.53 76.459 L
127.775 76.342 L
128.02 76.224 L
128.265 76.105 L
128.51 75.985 L
128.754 75.864 L
128.999 75.743 L
129.244 75.621 L
129.489 75.498 L
129.733 75.375 L
129.978 75.251 L
130.223 75.126 L
130.468 75 L
130.713 74.874 L
130.957 74.748 L
131.202 74.621 L
131.447 74.493 L
131.692 74.365 L
131.936 74.237 L
132.181 74.108 L
132.426 73.979 L
132.671 73.85 L
132.916 73.72 L
133.16 73.59 L
133.405 73.46 L
133.65 73.33 L
133.895 73.2 L
134.139 73.069 L
134.384 72.939 L
134.629 72.808 L
134.874 72.677 L
135.118 72.547 L
135.363 72.416 L
135.608 72.285 L
135.853 72.154 L
136.098 72.023 L
136.342 71.893 L
136.587 71.762 L
136.832 71.631 L
137.077 71.501 L
137.321 71.371 L
137.566 71.24 L
137.811 71.11 L
138.056 70.98 L
138.301 70.85 L
138.545 70.721 L
138.79 70.591 L
139.035 70.462 L
139.28 70.333 L
139.524 70.204 L
139.769 70.075 L
140.014 69.947 L
140.259 69.818 L
140.503 69.69 L
140.748 69.562 L
140.993 69.434 L
141.238 69.306 L
141.483 69.179 L
141.727 69.051 L
141.972 68.924 L
142.217 68.797 L
142.462 68.669 L
142.706 68.542 L
142.951 68.415 L
143.196 68.288 L
143.441 68.161 L
143.686 68.034 L
143.93 67.906 L
144.175 67.779 L
144.42 67.651 L
144.665 67.524 L
144.909 67.396 L
145.154 67.268 L
145.399 67.14 L
145.644 67.011 L
145.889 66.882 L
146.133 66.753 L
146.378 66.624 L
146.623 66.494 L
146.868 66.365 L
147.112 66.234 L
147.357 66.103 L
147.602 65.972 L
147.847 65.841 L
148.091 65.709 L
148.336 65.576 L
148.581 65.444 L
148.826 65.31 L
149.071 65.177 L
149.315 65.043 L
149.56 64.908 L
149.805 64.773 L
150.05 64.638 L
150.294 64.502 L
150.539 64.367 L
150.784 64.23 L
151.029 64.094 L
151.274 63.957 L
151.518 63.821 L
151.763 63.684 L
152.008 63.547 L
152.253 63.41 L
152.497 63.274 L
152.742 63.138 L
152.987 63.002 L
153.232 62.867 L
153.476 62.733 L
153.721 62.599 L
153.966 62.466 L
154.211 62.335 L
154.456 62.205 L
154.7 62.076 L
154.945 61.95 L
155.19 61.825 L
155.435 61.702 L
155.679 61.581 L
155.924 61.463 L
156.169 61.348 L
156.414 61.236 L
156.659 61.127 L
156.903 61.021 L
157.148 60.918 L
157.393 60.82 L
157.638 60.725 L
157.882 60.635 L
158.127 60.549 L
158.372 60.467 L
158.617 60.389 L
158.861 60.317 L
159.106 60.249 L
159.351 60.186 L
159.596 60.128 L
159.841 60.074 L
160.085 60.025 L
160.33 59.981 L
160.575 59.941 L
160.82 59.905 L
161.064 59.874 L
161.309 59.846 L
161.554 59.821 L
161.799 59.799 L
162.044 59.779 L
162.288 59.761 L
162.533 59.744 L
162.778 59.727 L
163.023 59.71 L
163.267 59.692 L
163.512 59.672 L
163.757 59.649 L
164.002 59.622 L
164.247 59.591 L
164.491 59.555 L
164.736 59.513 L
164.981 59.464 L
165.226 59.409 L
165.47 59.345 L
165.715 59.274 L
165.96 59.195 L
166.205 59.108 L
166.449 59.013 L
166.694 58.909 L
166.939 58.798 L
167.184 58.68 L
167.429 58.556 L
167.673 58.425 L
167.918 58.289 L
168.163 58.149 L
168.408 58.005 L
168.652 57.858 L
168.897 57.709 L
169.142 57.559 L
169.387 57.407 L
169.632 57.256 L
169.876 57.105 L
170.121 56.954 L
170.366 56.805 L
170.611 56.658 L
170.855 56.512 L
171.1 56.369 L
171.345 56.228 L
171.59 56.09 L
171.834 55.955 L
172.079 55.824 L
172.324 55.696 L
172.569 55.573 L
172.814 55.455 L
173.058 55.343 L
173.303 55.236 L
173.548 55.136 L
173.793 55.042 L
174.037 54.956 L
174.282 54.877 L
174.527 54.805 L
174.772 54.741 L
175.017 54.684 L
175.261 54.634 L
175.506 54.592 L
175.751 54.555 L
175.996 54.524 L
176.24 54.498 L
176.485 54.476 L
176.73 54.458 L
176.975 54.442 L
177.22 54.427 L
177.464 54.414 L
177.709 54.4 L
177.954 54.385 L
178.199 54.369 L
178.443 54.351 L
178.688 54.329 L
178.933 54.304 L
179.178 54.275 L
179.422 54.242 L
179.667 54.204 L
179.912 54.162 L
180.157 54.115 L
180.402 54.063 L
180.646 54.006 L
180.891 53.945 L
181.136 53.879 L
181.381 53.81 L
181.625 53.737 L
181.87 53.661 L
182.115 53.583 L
182.36 53.502 L
182.605 53.42 L
182.849 53.336 L
183.094 53.252 L
183.339 53.168 L
183.584 53.083 L
183.828 53 L
184.073 52.917 L
184.318 52.835 L
184.563 52.755 L
184.807 52.677 L
185.052 52.601 L
185.297 52.526 L
185.542 52.454 L
185.787 52.384 L
186.031 52.317 L
186.276 52.252 L
186.521 52.189 L
186.766 52.129 L
187.01 52.071 L
187.255 52.015 L
187.5 51.961 L
187.745 51.91 L
187.99 51.861 L
188.234 51.814 L
188.479 51.769 L
188.724 51.727 L
188.969 51.686 L
189.213 51.648 L
189.458 51.612 L
189.703 51.578 L
189.948 51.547 L
190.193 51.517 L
190.437 51.49 L
190.682 51.466 L
190.927 51.444 L
191.172 51.425 L
191.416 51.408 L
191.661 51.395 L
191.906 51.384 L
192.151 51.377 L
192.395 51.373 L
192.64 51.373 L
192.885 51.376 L
193.13 51.384 L
193.375 51.395 L
193.619 51.411 L
193.864 51.432 L
194.109 51.459 L
194.354 51.49 L
194.598 51.527 L
194.843 51.57 L
195.088 51.62 L
195.333 51.676 L
195.578 51.74 L
195.822 51.811 L
196.067 51.89 L
196.312 51.977 L
196.557 52.072 L
196.801 52.177 L
197.046 52.29 L
197.291 52.413 L
197.536 52.545 L
197.78 52.686 L
198.025 52.837 L
198.27 52.997 L
198.515 53.167 L
198.76 53.345 L
199.004 53.531 L
199.249 53.724 L
199.494 53.924 L
199.739 54.129 L
199.983 54.339 L
200.228 54.551 L
200.473 54.765 L
200.718 54.977 L
200.963 55.187 L
201.207 55.392 L
201.452 55.59 L
201.697 55.778 L
201.942 55.953 L
202.186 56.114 L
202.431 56.258 L
202.676 56.383 L
202.921 56.485 L
203.166 56.563 L
203.41 56.616 L
203.655 56.642 L
203.9 56.64 L
204.145 56.609 L
204.389 56.548 L
204.634 56.459 L
204.879 56.342 L
205.124 56.197 L
205.368 56.026 L
205.613 55.832 L
205.858 55.617 L
206.103 55.383 L
206.348 55.132 L
206.592 54.869 L
206.837 54.596 L
207.082 54.316 L
207.327 54.031 L
207.571 53.746 L
207.816 53.463 L
208.061 53.183 L
208.306 52.91 L
208.551 52.646 L
208.795 52.392 L
209.04 52.15 L
209.285 51.921 L
209.53 51.706 L
209.774 51.507 L
210.019 51.324 L
210.264 51.158 L
210.509 51.01 L
210.753 50.881 L
210.998 50.771 L
211.243 50.681 L
211.488 50.611 L
211.733 50.561 L
211.977 50.533 L
212.222 50.526 L
212.467 50.539 L
212.712 50.574 L
212.956 50.629 L
213.201 50.705 L
213.446 50.802 L
213.691 50.918 L
213.936 51.055 L
214.18 51.212 L
214.425 51.388 L
214.67 51.582 L
214.915 51.795 L
215.159 52.026 L
215.404 52.274 L
215.649 52.538 L
215.894 52.819 L
216.139 53.116 L
216.383 53.429 L
216.628 53.758 L
216.873 54.101 L
217.118 54.457 L
217.362 54.824 L
217.607 55.201 L
217.852 55.584 L
218.097 55.971 L
218.341 56.359 L
218.586 56.745 L
218.831 57.126 L
219.076 57.498 L
219.321 57.857 L
219.565 58.2 L
219.81 58.522 L
220.055 58.822 L
220.3 59.095 L
220.544 59.341 L
220.789 59.558 L
221.034 59.748 L
221.279 59.911 L
221.524 60.05 L
221.768 60.169 L
222.013 60.269 L
222.258 60.353 L
222.503 60.425 L
222.747 60.485 L
222.992 60.535 L
223.237 60.578 L
223.482 60.613 L
223.726 60.643 L
223.971 60.669 L
224.216 60.693 L
224.461 60.715 L
224.706 60.739 L
224.95 60.766 L
225.195 60.798 L
225.44 60.838 L
225.685 60.887 L
225.929 60.949 L
226.174 61.027 L
226.419 61.123 L
226.664 61.242 L
226.909 61.385 L
227.153 61.556 L
227.398 61.758 L
227.643 61.993 L
227.888 62.263 L
228.132 62.569 L
228.377 62.911 L
228.622 63.288 L
228.867 63.699 L
229.111 64.142 L
229.356 64.614 L
229.601 65.112 L
229.846 65.633 L
230.091 66.174 L
230.335 66.734 L
230.58 67.312 L
230.825 67.908 L
231.07 68.521 L
231.314 69.152 L
231.559 69.8 L
231.804 70.46 L
232.049 71.126 L
232.294 71.788 L
232.538 72.428 L
232.783 73.026 L
233.028 73.559 L
233.273 74.005 L
233.517 74.351 L
233.762 74.603 L
234.007 74.786 L
234.252 74.948 L
234.497 75.152 L
234.741 75.461 L
234.986 75.918 L
235.231 76.539 L
235.476 77.303 L
235.72 78.164 L
235.965 79.068 L
236.21 79.96 L
236.455 80.804 L
236.699 81.576 L
236.944 82.272 L
237.189 82.89 L
237.434 83.431 L
237.679 83.897 L
237.923 84.293 L
238.168 84.626 L
238.413 84.909 L
238.658 85.152 L
238.902 85.364 L
239.147 85.549 L
239.392 85.704 L
239.637 85.821 L
239.882 85.883 L
240.126 85.873 L
240.371 85.773 L
240.616 85.573 L
240.861 85.272 L
241.105 84.876 L
241.35 84.392 L
241.595 83.826 L
241.84 83.178 L
242.084 82.445 L
242.329 81.622 L
242.574 80.706 L
242.819 79.699 L
243.064 78.609 L
243.308 77.449 L
243.553 76.239 L
243.798 75 L
244.043 73.753 L
244.287 72.516 L
244.532 71.303 L
244.777 70.123 L
245.022 68.984 L
245.267 67.888 L
245.511 66.839 L
245.756 65.837 L
246.001 64.886 L
246.246 63.988 L
246.49 63.148 L
246.735 62.375 L
246.98 61.676 L
247.225 61.06 L
247.469 60.532 L
247.714 60.095 L
247.959 59.754 L
248.204 59.512 L
248.449 59.373 L
248.693 59.338 L
248.938 59.409 L
249.183 59.588 L
249.428 59.88 L
249.672 60.287 L
249.917 60.812 L
250.162 61.449 L
250.407 62.188 L
250.652 63.011 L
250.896 63.886 L
251.141 64.771 L
251.386 65.614 L
251.631 66.356 L
251.875 66.939 L
252.12 67.308 L
252.365 67.423 L
252.61 67.257 L
252.855 66.804 L
253.099 66.076 L
253.344 65.102 L
253.589 63.922 L
253.834 62.581 L
254.078 61.119 L
254.323 59.567 L
254.568 57.948 L
254.813 56.273 L
255.057 54.548 L
255.302 52.771 L
255.547 50.944 L
255.792 49.07 L
256.037 47.157 L
256.281 45.222 L
256.526 43.289 L
256.771 41.387 L
257.016 39.542 L
257.26 37.774 L
257.505 36.091 L
257.75 34.486 L
257.995 32.942 L
258.24 31.437 L
258.484 29.949 L
258.729 28.467 L
258.974 26.99 L
259.219 25.53 L
259.463 24.109 L
259.708 22.754 L
259.953 21.494 L
260.198 20.352 L
260.443 19.345 L
260.687 18.483 L
260.932 17.767 L
261.177 17.188 L
261.422 16.737 L
261.666 16.403 L
261.911 16.172 L
262.156 16.04 L
262.401 16 L
262.645 16.053 L
262.89 16.2 L
263.135 16.44 L
263.38 16.769 L
263.625 17.179 L
263.869 17.661 L
264.114 18.202 L
264.359 18.794 L
264.604 19.435 L
264.848 20.13 L
265.093 20.891 L
265.338 21.738 L
265.583 22.692 L
265.828 23.77 L
266.072 24.987 L
266.317 26.348 L
266.562 27.853 L
266.807 29.493 L
267.051 31.253 L
267.296 33.109 L
267.541 35.029 L
267.786 36.979 L
268.03 38.927 L
268.275 40.859 L
268.52 42.777 L
268.765 44.698 L
269.01 46.641 L
269.254 48.618 L
269.499 50.63 L
269.744 52.666 L
269.989 54.717 L
270.233 56.771 L
270.478 58.813 L
270.723 60.817 L
270.968 62.738 L
271.213 64.517 L
271.457 66.09 L
271.702 67.403 L
271.947 68.427 L
272.192 69.173 L
272.436 69.681 L
272.681 70.017 L
272.926 70.248 L
273.171 70.427 L
273.415 70.588 L
273.66 70.747 L
273.905 70.92 L
274.15 71.123 L
274.395 71.374 L
274.639 71.674 L
274.884 72.004 L
275.129 72.326 L
275.374 72.6 L
275.618 72.8 L
275.863 72.916 L
276.108 72.95 L
276.353 72.902 L
276.598 72.766 L
276.842 72.544 L
277.087 72.253 L
277.332 71.923 L
277.577 71.592 L
277.821 71.291 L
278.066 71.038 L
278.311 70.844 L
278.556 70.717 L
278.801 70.66 L
279.045 70.664 L
279.29 70.706 L
279.535 70.764 L
279.78 70.818 L
280.024 70.867 L
280.269 70.92 L
280.514 70.998 L
280.759 71.116 L
281.003 71.282 L
281.248 71.489 L
281.493 71.712 L
281.738 71.908 L
281.983 72.021 L
282.227 72 L
282.472 71.817 L
282.717 71.473 L
282.962 70.995 L
283.206 70.413 L
283.451 69.755 L
283.696 69.038 L
283.941 68.265 L
284.186 67.43 L
284.43 66.522 L
284.675 65.533 L
284.92 64.47 L
285.165 63.353 L
285.409 62.214 L
285.654 61.086 L
285.899 59.995 L
286.144 58.965 L
286.388 58.026 L
286.633 57.207 L
286.878 56.544 L
287.123 56.066 L
287.368 55.796 L
287.612 55.743 L
287.857 55.902 L
288.102 56.261 L
288.347 56.798 L
288.591 57.484 L
288.836 58.282 L
289.081 59.158 L
289.326 60.079 L
289.571 61.016 L
289.815 61.946 L
290.06 62.852 L
290.305 63.723 L
290.55 64.555 L
290.794 65.35 L
291.039 66.112 L
291.284 66.847 L
291.529 67.566 L
291.774 68.281 L
292.018 69.005 L
292.263 69.749 L
292.508 70.522 L
292.753 71.33 L
292.997 72.179 L
293.242 73.074 L
293.487 74.02 L
293.732 75.022 L
293.976 76.084 L
294.221 77.214 L
294.466 78.418 L
294.711 79.708 L
294.956 81.095 L
295.2 82.595 L
295.445 84.227 L
295.69 86.008 L
295.935 87.955 L
296.179 90.086 L
296.424 92.414 L
296.669 94.956 L
296.914 97.725 L
297.159 100.729 L
297.403 103.965 L
297.648 107.419 L
297.893 111.058 L
298.138 114.843 L
298.382 118.726 L
298.627 122.648 L
298.872 126.531 L
299.117 130.264 L
299.362 133.695 L
299.606 136.633 L
299.851 138.871 L
300.096 140.23 L
300.341 140.626 L
300.585 140.147 L
300.83 139.098 L
301.075 137.961 L
301.32 137.238 L
301.564 137.249 L
301.809 138.018 L
302.054 139.323 L
302.299 140.825 L
302.544 142.177 L
302.788 143.092 L
303.033 143.401 L
303.278 143.122 L
303.523 142.483 L
303.767 141.839 L
304.012 141.48 L
304.257 141.483 L
304.502 141.734 L
304.747 142.064 L
304.991 142.341 L
305.236 142.488 L
305.481 142.481 L
305.726 142.339 L
305.97 142.105 L
306.215 141.809 L
306.46 141.466 L
306.705 141.074 L
306.949 140.591 L
307.194 139.953 L
307.439 139.127 L
307.684 138.138 L
307.929 137.047 L
308.173 135.914 L
308.418 134.76 L
308.663 133.562 L
308.908 132.289 L
309.152 130.936 L
309.397 129.505 L
309.642 127.999 L
309.887 126.429 L
310.132 124.821 L
310.376 123.193 L
310.621 121.547 L
310.866 119.871 L
311.111 118.172 L
311.355 116.48 L
311.6 114.826 L
311.845 113.213 L
312.09 111.606 L
312.335 109.973 L
312.579 108.325 L
312.824 106.715 L
313.069 105.204 L
313.314 103.826 L
313.558 102.57 L
313.803 101.396 L
314.048 100.271 L
314.293 99.185 L
314.537 98.149 L
314.782 97.183 L
315.027 96.323 L
315.272 95.619 L
315.517 95.111 L
315.761 94.817 L
316.006 94.726 L
316.251 94.82 L
316.496 95.088 L
316.74 95.539 L
316.985 96.198 L
317.23 97.095 L
317.475 98.253 L
317.72 99.675 L
317.964 101.34 L
318.209 103.21 L
318.454 105.244 L
318.699 107.409 L
318.943 109.68 L
319.188 112.035 L
319.433 114.453 L
319.678 116.914 L
319.922 119.406 L
320.167 121.915 L
320.412 124.423 L
320.657 126.908 L
320.902 129.341 L
321.146 131.696 L
321.391 133.949 L
321.636 136.078 L
321.881 138.073 L
322.125 139.927 L
322.37 141.637 L
322.615 143.204 L
322.86 144.631 L
323.105 145.915 L
323.349 147.049 L
323.594 148.021 L
323.839 148.827 L
324.084 149.468 L
324.328 149.954 L
324.573 150.301 L
324.818 150.531 L
325.063 150.666 L
325.307 150.725 L
325.552 150.72 L
325.797 150.657 L
326.042 150.536 L
326.287 150.361 L
326.531 150.136 L
326.776 149.875 L
327.021 149.592 L
327.266 149.302 L
327.51 149.016 L
327.755 148.744 L
328 148.488 L
328.034 148.456 L
S
GR
GS
[0.78305 0 0 0.78377 0 -0.07875] CT
1 LJ
2.172 LW
N
47 130.81 M
47.245 131.949 L
47.49 133.67 L
47.734 133.265 L
47.979 132.642 L
48.224 132.836 L
48.469 133.478 L
48.713 131.066 L
48.958 133.339 L
49.203 132.496 L
49.448 130.881 L
49.693 132.592 L
49.937 133.306 L
50.182 132.212 L
50.427 132.987 L
50.672 132.041 L
50.916 131.948 L
51.161 132.754 L
51.406 132.404 L
51.651 133.416 L
51.895 132.661 L
52.14 132.422 L
52.385 133.946 L
52.63 132.094 L
52.875 133.765 L
53.119 132.762 L
53.364 133.501 L
53.609 131.408 L
53.854 133.193 L
54.098 132.707 L
54.343 131.369 L
54.588 132.017 L
54.833 133.181 L
55.078 132.96 L
55.322 130.462 L
55.567 133.008 L
55.812 131.309 L
56.057 131.8 L
56.301 133.247 L
56.546 130.479 L
56.791 131.6 L
57.036 129.158 L
57.28 131.921 L
57.525 133.149 L
57.77 132.885 L
58.015 133.933 L
58.26 131.943 L
58.504 131.164 L
58.749 130.758 L
58.994 129.678 L
59.239 129.757 L
59.483 132.068 L
59.728 130.087 L
59.973 132.928 L
60.218 132.792 L
60.463 131.677 L
60.707 130.102 L
60.952 130.08 L
61.197 128.818 L
61.442 131.811 L
61.686 130.254 L
61.931 131.574 L
62.176 127.935 L
62.421 128.778 L
62.666 128.243 L
62.91 129.912 L
63.155 128.043 L
63.4 128.86 L
63.645 130.921 L
63.889 128.459 L
64.134 130.269 L
64.379 129.172 L
64.624 129.359 L
64.868 130.52 L
65.113 128.028 L
65.358 128.487 L
65.603 127.431 L
65.848 128.611 L
66.092 127.902 L
66.337 128.605 L
66.582 127.679 L
66.827 129.483 L
67.071 126.991 L
67.316 127.437 L
67.561 128.896 L
67.806 127.362 L
68.051 126.96 L
68.295 127.106 L
68.54 125.617 L
68.785 126.196 L
69.03 126.992 L
69.274 125.7 L
69.519 127.377 L
69.764 126.7 L
70.009 127.004 L
70.253 125.529 L
70.498 126.087 L
70.743 126.906 L
70.988 124.941 L
71.233 123.703 L
71.477 124.102 L
71.722 123.794 L
71.967 123.035 L
72.212 123.146 L
72.456 125.365 L
72.701 124.732 L
72.946 124.879 L
73.191 122.609 L
73.436 123.909 L
73.68 123.345 L
73.925 123.06 L
74.17 124.469 L
74.415 123.225 L
74.659 124.11 L
74.904 121.554 L
75.149 123.151 L
75.394 122.459 L
75.639 121.733 L
75.883 122.485 L
76.128 121.521 L
76.373 121.168 L
76.618 122.442 L
76.862 122.385 L
77.107 121.155 L
77.352 120.475 L
77.597 122.11 L
77.841 120.066 L
78.086 122.121 L
78.331 120.79 L
78.576 120.694 L
78.821 119.829 L
79.065 119.962 L
79.31 119.126 L
79.555 119.164 L
79.8 119.927 L
80.044 117.153 L
80.289 118.901 L
80.534 119.927 L
80.779 118.253 L
81.024 118.934 L
81.268 117.555 L
81.513 115.234 L
81.758 118.64 L
82.003 118.775 L
82.247 118.744 L
82.492 116.248 L
82.737 116.076 L
82.982 115.663 L
83.226 115.34 L
83.471 115.233 L
83.716 114.637 L
83.961 115.38 L
84.206 116.473 L
84.45 113.73 L
84.695 115.907 L
84.94 114.865 L
85.185 114.03 L
85.429 115.217 L
85.674 115.487 L
85.919 113.251 L
86.164 114.716 L
86.409 114.52 L
86.653 113.285 L
86.898 113.035 L
87.143 112.266 L
87.388 112.542 L
87.632 113.125 L
87.877 111.044 L
88.122 111.347 L
88.367 111.862 L
88.611 111.719 L
88.856 110.451 L
89.101 111.337 L
89.346 111.871 L
89.591 110.664 L
89.835 108.986 L
90.08 109.655 L
90.325 109.9 L
90.57 109.376 L
90.814 109.003 L
91.059 109.126 L
91.304 109.02 L
91.549 108.738 L
91.794 108.777 L
92.038 109.377 L
92.283 107.112 L
92.528 106.326 L
92.773 107.809 L
93.017 105.516 L
93.262 105.838 L
93.507 106.396 L
93.752 106.986 L
93.997 105.68 L
94.241 106.652 L
94.486 104.726 L
94.731 105.136 L
94.976 104.595 L
95.22 103.252 L
95.465 106.363 L
95.71 103.126 L
95.955 103.638 L
96.199 103.452 L
96.444 104.591 L
96.689 101.284 L
96.934 103.03 L
97.179 102.092 L
97.423 102.636 L
97.668 102.137 L
97.913 101.805 L
98.158 102.786 L
98.402 100.325 L
98.647 101.002 L
98.892 100.939 L
99.137 101.271 L
99.382 100.155 L
99.626 98.959 L
99.871 98.963 L
100.116 99.56 L
100.361 100.327 L
100.605 100.271 L
100.85 99.828 L
101.095 99.7 L
101.34 99.243 L
101.584 98.012 L
101.829 99.829 L
102.074 98.891 L
102.319 98.246 L
102.564 99.335 L
102.808 98.928 L
103.053 97.336 L
103.298 98.503 L
103.543 96.5 L
103.787 98.721 L
104.032 96.945 L
104.277 96.465 L
104.522 95.771 L
104.767 96.798 L
105.011 96.046 L
105.256 94.849 L
105.501 96.275 L
105.746 94.673 L
105.99 96.151 L
106.235 94.382 L
106.48 95.394 L
106.725 95.706 L
106.97 94.332 L
107.214 94.143 L
107.459 94.335 L
107.704 95.125 L
107.949 95.581 L
108.193 95.165 L
108.438 93.056 L
108.683 93.726 L
108.928 92.882 L
109.172 92.684 L
109.417 91.69 L
109.662 91.14 L
109.907 93.884 L
110.152 92.708 L
110.396 91.539 L
110.641 93.168 L
110.886 93.878 L
111.131 90.988 L
111.375 92.358 L
111.62 90.275 L
111.865 91.701 L
112.11 90.752 L
112.355 91.191 L
112.599 90.765 L
112.844 90.458 L
113.089 89.183 L
113.334 90.282 L
113.578 90.788 L
113.823 91.731 L
114.068 90.114 L
114.313 90.222 L
114.557 89.708 L
114.802 87.679 L
115.047 88.946 L
115.292 89.639 L
115.537 89.379 L
115.781 86.48 L
116.026 87.936 L
116.271 87.071 L
116.516 88.511 L
116.76 88.667 L
117.005 87.303 L
117.25 87.089 L
117.495 87.879 L
117.74 88.783 L
117.984 88.833 L
118.229 86.828 L
118.474 86.642 L
118.719 86.603 L
118.963 85.489 L
119.208 87.683 L
119.453 87.251 L
119.698 88.556 L
119.943 86.084 L
120.187 86.344 L
120.432 85.716 L
120.677 84.734 L
120.922 84.806 L
121.166 87.377 L
121.411 84.653 L
121.656 83.361 L
121.901 84.896 L
122.145 84.412 L
122.39 85.66 L
122.635 85.726 L
122.88 84.013 L
123.125 84.438 L
123.369 84.157 L
123.614 84.162 L
123.859 84.845 L
124.104 82.642 L
124.348 83.087 L
124.593 83.507 L
124.838 82.125 L
125.083 81.892 L
125.328 82.356 L
125.572 83.043 L
125.817 81.827 L
126.062 80.663 L
126.307 82.487 L
126.551 82.166 L
126.796 82.522 L
127.041 80.408 L
127.286 82.427 L
127.53 82.016 L
127.775 79.756 L
128.02 80.945 L
128.265 79.825 L
128.51 81.005 L
128.754 81.182 L
128.999 80.064 L
129.244 80.498 L
129.489 80.742 L
129.733 82.057 L
129.978 79.831 L
130.223 80.921 L
130.468 80.258 L
130.713 78.881 L
130.957 80.448 L
131.202 80.629 L
131.447 80.249 L
131.692 79.899 L
131.936 80.041 L
132.181 80.387 L
132.426 79.261 L
132.671 77.73 L
132.916 81.239 L
133.16 77.086 L
133.405 78.587 L
133.65 78.283 L
133.895 78.428 L
134.139 78.077 L
134.384 78.829 L
134.629 77.809 L
134.874 77.989 L
135.118 78.874 L
135.363 79.409 L
135.608 76.036 L
135.853 78.486 L
136.098 76.68 L
136.342 77.186 L
136.587 77.588 L
136.832 77.946 L
137.077 76.212 L
137.321 77.199 L
137.566 78.009 L
137.811 75.153 L
138.056 78.117 L
138.301 76.94 L
138.545 77.544 L
138.79 76.124 L
139.035 77.37 L
139.28 75.514 L
139.524 77.642 L
139.769 77.384 L
140.014 76.007 L
140.259 76.301 L
140.503 75.352 L
140.748 77.763 L
140.993 75.861 L
141.238 77.318 L
141.483 76.778 L
141.727 77.322 L
141.972 77.315 L
142.217 77.478 L
142.462 76.811 L
142.706 78.171 L
142.951 75.593 L
143.196 75.52 L
143.441 74.969 L
143.686 75.557 L
143.93 76.878 L
144.175 75.511 L
144.42 77.294 L
144.665 76.056 L
144.909 76.39 L
145.154 76.064 L
145.399 75.511 L
145.644 77.062 L
145.889 75.922 L
146.133 76.963 L
146.378 78.769 L
146.623 77.648 L
146.868 76.94 L
147.112 75.335 L
147.357 75.142 L
147.602 74.442 L
147.847 75.647 L
148.091 76.268 L
148.336 75.468 L
148.581 77.506 L
148.826 75.639 L
149.071 78.117 L
149.315 75.472 L
149.56 76.92 L
149.805 78.028 L
150.05 75.187 L
150.294 77.19 L
150.539 76.354 L
150.784 74.999 L
151.029 74.088 L
151.274 75.675 L
151.518 76.679 L
151.763 75.129 L
152.008 76.2 L
152.253 75.296 L
152.497 75.795 L
152.742 74.719 L
152.987 75.916 L
153.232 75.293 L
153.476 73.207 L
153.721 75.865 L
153.966 72.708 L
154.211 73.653 L
154.456 74.013 L
154.7 74.568 L
154.945 75.699 L
155.19 72.268 L
155.435 72.768 L
155.679 72.405 L
155.924 72.256 L
156.169 72.856 L
156.414 71.868 L
156.659 72.286 L
156.903 70.607 L
157.148 72.315 L
157.393 71.595 L
157.638 72.075 L
157.882 72.758 L
158.127 70.553 L
158.372 73.282 L
158.617 71.127 L
158.861 70 L
159.106 69.939 L
159.351 72.547 L
159.596 71.22 L
159.841 71.912 L
160.085 69.736 L
160.33 70.125 L
160.575 69.963 L
160.82 70.578 L
161.064 70.737 L
161.309 70.316 L
161.554 68.707 L
161.799 70.836 L
162.044 70.083 L
162.288 68.941 L
162.533 69.197 L
162.778 68.357 L
163.023 67.12 L
163.267 68.431 L
163.512 68.89 L
163.757 69.23 L
164.002 66.962 L
164.247 65.233 L
164.491 67.337 L
164.736 66.702 L
164.981 67.81 L
165.226 67.322 L
165.47 66.737 L
165.715 65.35 L
165.96 66.051 L
166.205 65.803 L
166.449 65.425 L
166.694 65.912 L
166.939 66.395 L
167.184 64.444 L
167.429 64.707 L
167.673 63.794 L
167.918 66.174 L
168.163 64.432 L
168.408 64.141 L
168.652 63.092 L
168.897 64.446 L
169.142 64.176 L
169.387 63.791 L
169.632 63.087 L
169.876 63.979 L
170.121 63.561 L
170.366 63.145 L
170.611 62.978 L
170.855 62.884 L
171.1 62.957 L
171.345 63.329 L
171.59 63.4 L
171.834 62.613 L
172.079 61.747 L
172.324 62.98 L
172.569 62.139 L
172.814 61.951 L
173.058 61.705 L
173.303 62.211 L
173.548 59.923 L
173.793 60.692 L
174.037 61.812 L
174.282 61.846 L
174.527 59.932 L
174.772 60.194 L
175.017 59.702 L
175.261 59.819 L
175.506 58.958 L
175.751 59.726 L
175.996 60.814 L
176.24 58.74 L
176.485 58.834 L
176.73 59.109 L
176.975 59.766 L
177.22 58.887 L
177.464 58.699 L
177.709 57.909 L
177.954 57.535 L
178.199 57.284 L
178.443 56.505 L
178.688 57.23 L
178.933 56.746 L
179.178 57.161 L
179.422 56.625 L
179.667 55.351 L
179.912 54.279 L
180.157 56.43 L
180.402 55.994 L
180.646 56.63 L
180.891 54.724 L
181.136 54.38 L
181.381 56.325 L
181.625 54.989 L
181.87 53.312 L
182.115 53.844 L
182.36 54.172 L
182.605 52.646 L
182.849 51.101 L
183.094 53.14 L
183.339 52.988 L
183.584 52.533 L
183.828 51.12 L
184.073 52.427 L
184.318 52.065 L
184.563 53.669 L
184.807 51.521 L
185.052 49.319 L
185.297 52.568 L
185.542 50.882 L
185.787 49.923 L
186.031 51.03 L
186.276 50.232 L
186.521 51.442 L
186.766 49.539 L
187.01 50.198 L
187.255 48.884 L
187.5 50.64 L
187.745 51.544 L
187.99 50.862 L
188.234 50.434 L
188.479 49.633 L
188.724 49.15 L
188.969 51.68 L
189.213 49.162 L
189.458 50.161 L
189.703 48.897 L
189.948 48.945 L
190.193 49.053 L
190.437 50.186 L
190.682 48.709 L
190.927 50.243 L
191.172 48.94 L
191.416 50.158 L
191.661 50.621 L
191.906 49.497 L
192.151 49.271 L
192.395 49.008 L
192.64 48.722 L
192.885 47.44 L
193.13 48.548 L
193.375 46.963 L
193.619 49.046 L
193.864 48.646 L
194.109 47.07 L
194.354 50.055 L
194.598 49.056 L
194.843 49.814 L
195.088 49.989 L
195.333 49.791 L
195.578 48.423 L
195.822 49.098 L
196.067 48.161 L
196.312 48.224 L
196.557 48.545 L
196.801 49.735 L
197.046 48.904 L
197.291 49.019 L
197.536 50.022 L
197.78 47.546 L
198.025 48.717 L
198.27 49.688 L
198.515 46.652 L
198.76 49.822 L
199.004 49.813 L
199.249 48.285 L
199.494 51.078 L
199.739 49.808 L
199.983 49.193 L
200.228 50.89 L
200.473 50.671 L
200.718 50.316 L
200.963 49.985 L
201.207 50.538 L
201.452 49.013 L
201.697 49.883 L
201.942 49.878 L
202.186 51.687 L
202.431 51.279 L
202.676 49.793 L
202.921 50.181 L
203.166 51.055 L
203.41 50.815 L
203.655 50.941 L
203.9 49.235 L
204.145 49.187 L
204.389 51.633 L
204.634 51.053 L
204.879 51.573 L
205.124 51.215 L
205.368 51.962 L
205.613 51.494 L
205.858 52.334 L
206.103 52.399 L
206.348 50.931 L
206.592 51.538 L
206.837 52.735 L
207.082 52.843 L
207.327 52.081 L
207.571 52.763 L
207.816 53.28 L
208.061 52.397 L
208.306 52.265 L
208.551 54.529 L
208.795 52.772 L
209.04 53.566 L
209.285 51.5 L
209.53 53.46 L
209.774 53.932 L
210.019 55.119 L
210.264 53.833 L
210.509 53.284 L
210.753 54.323 L
210.998 53.796 L
211.243 54.506 L
211.488 52.933 L
211.733 54.114 L
211.977 53.792 L
212.222 51.236 L
212.467 53.422 L
212.712 53.251 L
212.956 53.363 L
213.201 53.512 L
213.446 53.553 L
213.691 52.023 L
213.936 52.564 L
214.18 51.107 L
214.425 52.813 L
214.67 53.419 L
214.915 52.526 L
215.159 54.048 L
215.404 52.752 L
215.649 53.159 L
215.894 53.578 L
216.139 53.923 L
216.383 53.679 L
216.628 53.707 L
216.873 52.727 L
217.118 54.061 L
217.362 52.482 L
217.607 52.932 L
217.852 53.086 L
218.097 55.226 L
218.341 53.654 L
218.586 54.956 L
218.831 55.977 L
219.076 56.571 L
219.321 53.827 L
219.565 55.9 L
219.81 55.631 L
220.055 57.181 L
220.3 56.074 L
220.544 56.577 L
220.789 56.937 L
221.034 57.94 L
221.279 57.887 L
221.524 58.855 L
221.768 58.887 L
222.013 60.514 L
222.258 59.144 L
222.503 60.546 L
222.747 62.323 L
222.992 61.155 L
223.237 63.035 L
223.482 60.406 L
223.726 62.308 L
223.971 65.223 L
224.216 63.412 L
224.461 65.455 L
224.706 66.965 L
224.95 67.21 L
225.195 67.712 L
225.44 68.134 L
225.685 69.497 L
225.929 70.339 L
226.174 69.626 L
226.419 71.45 L
226.664 73.636 L
226.909 71.968 L
227.153 73.007 L
227.398 74.929 L
227.643 75.703 L
227.888 76.864 L
228.132 77.349 L
228.377 76.51 L
228.622 77.854 L
228.867 78.946 L
229.111 80.209 L
229.356 79.85 L
229.601 80.447 L
229.846 81.686 L
230.091 82.553 L
230.335 83.011 L
230.58 85.579 L
230.825 84.488 L
231.07 86.422 L
231.314 89.06 L
231.559 88.723 L
231.804 90.073 L
232.049 89.018 L
232.294 91.523 L
232.538 92.113 L
232.783 91.963 L
233.028 93.175 L
233.273 95.834 L
233.517 95.038 L
233.762 98.604 L
234.007 99.667 L
234.252 101.687 L
234.497 102.066 L
234.741 102.328 L
234.986 106.307 L
235.231 107.198 L
235.476 108.519 L
235.72 110.304 L
235.965 112.317 L
236.21 113.832 L
236.455 116.56 L
236.699 118.442 L
236.944 119.57 L
237.189 120.107 L
237.434 123.357 L
237.679 124.568 L
237.923 126.679 L
238.168 127.292 L
238.413 128.801 L
238.658 129.321 L
238.902 132.731 L
239.147 134.079 L
239.392 133.157 L
239.637 134.023 L
239.882 135.47 L
240.126 136.545 L
240.371 138.103 L
240.616 138.264 L
240.861 140.258 L
241.105 137.787 L
241.35 140.165 L
241.595 139.252 L
241.84 137.762 L
242.084 140.385 L
242.329 140.515 L
242.574 138.838 L
242.819 141.212 L
243.064 141.782 L
243.308 142.136 L
243.553 140.078 L
243.798 139.562 L
244.043 141.766 L
244.287 138.417 L
244.532 139.464 L
244.777 137.987 L
245.022 138.317 L
245.267 137.593 L
245.511 137.67 L
245.756 135.921 L
246.001 135.227 L
246.246 137.741 L
246.49 136.081 L
246.735 135.124 L
246.98 135.002 L
247.225 131.926 L
247.469 132.658 L
247.714 131.361 L
247.959 132.242 L
248.204 132.747 L
248.449 131.702 L
248.693 130.669 L
248.938 130.653 L
249.183 126.596 L
249.428 128.24 L
249.672 127.888 L
249.917 125.997 L
250.162 126.619 L
250.407 126.423 L
250.652 126.053 L
250.896 125.644 L
251.141 125.805 L
251.386 122.938 L
251.631 122.591 L
251.875 121.826 L
252.12 122.27 L
252.365 121.84 L
252.61 121.496 L
252.855 122.766 L
253.099 122.346 L
253.344 120.048 L
253.589 120.928 L
253.834 120.958 L
254.078 119.985 L
254.323 121.625 L
254.568 119.364 L
254.813 121.091 L
255.057 121.639 L
255.302 121.194 L
255.547 122.333 L
255.792 121.743 L
256.037 123.763 L
256.281 122.465 L
256.526 123.19 L
256.771 123.376 L
257.016 123.473 L
257.26 124.667 L
257.505 125.971 L
257.75 125.174 L
257.995 126.468 L
258.24 126.932 L
258.484 127.406 L
258.729 128.174 L
258.974 128.981 L
259.219 128.595 L
259.463 127.939 L
259.708 130.531 L
259.953 129.276 L
260.198 130.261 L
260.443 132.378 L
260.687 130.6 L
260.932 130.297 L
261.177 131.274 L
261.422 132.611 L
261.666 131.477 L
261.911 131.628 L
262.156 129.561 L
262.401 134.631 L
262.645 134.146 L
262.89 132.452 L
263.135 134.591 L
263.38 134.082 L
263.625 134.483 L
263.869 134.594 L
264.114 134.594 L
264.359 133.888 L
264.604 135.045 L
264.848 133.959 L
265.093 133.79 L
265.338 133.946 L
265.583 134.723 L
265.828 135.691 L
266.072 136.535 L
266.317 136.276 L
266.562 135.812 L
266.807 137.824 L
267.051 138.913 L
267.296 138.028 L
267.541 137.93 L
267.786 138.749 L
268.03 140.26 L
268.275 140.042 L
268.52 139.201 L
268.765 139.417 L
269.01 139.937 L
269.254 140.278 L
269.499 142.246 L
269.744 140.55 L
269.989 144.005 L
270.233 143.57 L
270.478 143.368 L
270.723 143.976 L
270.968 142.297 L
271.213 144.214 L
271.457 143.535 L
271.702 143.945 L
271.947 145.777 L
272.192 144.28 L
272.436 142.779 L
272.681 145.239 L
272.926 145.417 L
273.171 145.437 L
273.415 144.917 L
273.66 144.521 L
273.905 144.809 L
274.15 145.216 L
274.395 144.579 L
274.639 145.182 L
274.884 144.292 L
275.129 146.092 L
275.374 145.028 L
275.618 144.818 L
275.863 144.629 L
276.108 143.084 L
276.353 143.253 L
276.598 142.913 L
276.842 142.206 L
277.087 143.834 L
277.332 142.925 L
277.577 142.404 L
277.821 143.233 L
278.066 141.681 L
278.311 140.004 L
278.556 141.656 L
278.801 139.951 L
279.045 139.042 L
279.29 139.845 L
279.535 138.89 L
279.78 137.359 L
280.024 136.722 L
280.269 136.388 L
280.514 135.386 L
280.759 135.714 L
281.003 136.087 L
281.248 134.63 L
281.493 131.81 L
281.738 134.151 L
281.983 132.337 L
282.227 131.901 L
282.472 131.419 L
282.717 128.848 L
282.962 129.33 L
283.206 129.741 L
283.451 128.317 L
283.696 129.896 L
283.941 127.207 L
284.186 126.902 L
284.43 127.27 L
284.675 126.434 L
284.92 125.593 L
285.165 125.958 L
285.409 126.474 L
285.654 123.004 L
285.899 124.126 L
286.144 124.056 L
286.388 124.506 L
286.633 123.048 L
286.878 123.972 L
287.123 122.684 L
287.368 121.97 L
287.612 123.528 L
287.857 124.419 L
288.102 121.217 L
288.347 122.949 L
288.591 122.934 L
288.836 123.674 L
289.081 125.236 L
289.326 123.543 L
289.571 123.458 L
289.815 124.205 L
290.06 122.292 L
290.305 123.335 L
290.55 122.75 L
290.794 124.681 L
291.039 123.412 L
291.284 123.782 L
291.529 125.511 L
291.774 125.876 L
292.018 123.73 L
292.263 125.586 L
292.508 126.195 L
292.753 128.048 L
292.997 127.466 L
293.242 128.263 L
293.487 127.041 L
293.732 130.63 L
293.976 129.35 L
294.221 128.958 L
294.466 131.041 L
294.711 129.514 L
294.956 131.353 L
295.2 134.217 L
295.445 132.636 L
295.69 132.417 L
295.935 134.465 L
296.179 134.355 L
296.424 134.335 L
296.669 134.33 L
296.914 134.911 L
297.159 136.457 L
297.403 137.108 L
297.648 136.022 L
297.893 135.725 L
298.138 139.009 L
298.382 139.848 L
298.627 140.141 L
298.872 139.253 L
299.117 138.885 L
299.362 141.644 L
299.606 142.067 L
299.851 141.658 L
300.096 143.276 L
300.341 142.34 L
300.585 143.964 L
300.83 144.426 L
301.075 145.438 L
301.32 143.68 L
301.564 144.201 L
301.809 145.832 L
302.054 145.849 L
302.299 145.695 L
302.544 146.969 L
302.788 146.733 L
303.033 148.981 L
303.278 146.933 L
303.523 146.823 L
303.767 147.97 L
304.012 146.033 L
304.257 148.227 L
304.502 148.813 L
304.747 149.66 L
304.991 148.99 L
305.236 148.228 L
305.481 148.844 L
305.726 147.856 L
305.97 148.066 L
306.215 148.049 L
306.46 149.453 L
306.705 148.056 L
306.949 147.642 L
307.194 145.701 L
307.439 149.213 L
307.684 147.829 L
307.929 149.171 L
308.173 147.635 L
308.418 149.129 L
308.663 147.83 L
308.908 147.274 L
309.152 148.147 L
309.397 148.906 L
309.642 144.629 L
309.887 147.14 L
310.132 147.081 L
310.376 146.638 L
310.621 143.852 L
310.866 146.785 L
311.111 146.285 L
311.355 145.416 L
311.6 145.521 L
311.845 145.484 L
312.09 145.455 L
312.335 144.178 L
312.579 144.171 L
312.824 142.997 L
313.069 142.599 L
313.314 143.73 L
313.558 141.16 L
313.803 142.556 L
314.048 142.865 L
314.293 142.565 L
314.537 141.772 L
314.782 141.356 L
315.027 141.893 L
315.272 141.358 L
315.517 142.245 L
315.761 139.743 L
316.006 139.706 L
316.251 140.628 L
316.496 140.646 L
316.74 139.151 L
316.985 138.934 L
317.23 138.555 L
317.475 138.355 L
317.72 138.815 L
317.964 135.548 L
318.209 136.899 L
318.454 136.007 L
318.699 136.873 L
318.943 137.384 L
319.188 135.012 L
319.433 136.334 L
319.678 136.955 L
319.922 136.238 L
320.167 134.906 L
320.412 134.981 L
320.657 134.108 L
320.902 134.382 L
321.146 133.612 L
321.391 133.892 L
321.636 133.859 L
321.881 132.623 L
322.125 132.114 L
322.37 130.007 L
322.615 133.014 L
322.86 133.064 L
323.105 131.802 L
323.349 129.908 L
323.594 129.108 L
323.839 129.731 L
324.084 129.726 L
324.328 130.923 L
324.573 130.192 L
324.818 130.087 L
325.063 129.867 L
325.307 130.071 L
325.552 127.269 L
325.797 127.799 L
326.042 129.187 L
326.287 127.494 L
326.531 127.848 L
326.776 127.22 L
327.021 126.519 L
327.266 126.549 L
327.51 126.87 L
327.755 125.078 L
328 126.43 L
328.034 126.101 L
S
GR
GS
[0.78305 0 0 0.78377 0 -0.07875] CT
1 0 0 RC
[10 6] 0 setdash
2 LJ
1.789 LW
N
47 131.281 M
47.245 130.961 L
47.49 131.011 L
47.734 131.255 L
47.979 131.174 L
48.224 131.282 L
48.469 130.572 L
48.713 130.71 L
48.958 130.697 L
49.203 130.941 L
49.448 130.95 L
49.693 130.842 L
49.937 130.895 L
50.182 131.008 L
50.427 130.777 L
50.672 130.967 L
50.916 130.953 L
51.161 130.835 L
51.406 130.956 L
51.651 130.778 L
51.895 130.695 L
52.14 130.762 L
52.385 130.567 L
52.63 130.432 L
52.875 130.177 L
53.119 130.14 L
53.364 129.932 L
53.609 129.884 L
53.854 129.666 L
54.098 129.652 L
54.343 129.567 L
54.588 129.368 L
54.833 129.325 L
55.078 129.155 L
55.322 129.149 L
55.567 129.041 L
55.812 128.943 L
56.057 128.773 L
56.301 128.64 L
56.546 128.535 L
56.791 128.415 L
57.036 128.249 L
57.28 128.085 L
57.525 127.916 L
57.77 127.734 L
58.015 127.534 L
58.26 127.328 L
58.504 127.152 L
58.749 126.964 L
58.994 126.761 L
59.239 126.56 L
59.483 126.369 L
59.728 126.188 L
59.973 125.998 L
60.218 125.815 L
60.463 125.612 L
60.707 125.42 L
60.952 125.221 L
61.197 125.018 L
61.442 124.805 L
61.686 124.6 L
61.931 124.385 L
62.176 124.166 L
62.421 123.944 L
62.666 123.728 L
62.91 123.507 L
63.155 123.284 L
63.4 123.062 L
63.645 122.831 L
63.889 122.611 L
64.134 122.38 L
64.379 122.163 L
64.624 121.936 L
64.868 121.714 L
65.113 121.488 L
65.358 121.264 L
65.603 121.042 L
65.848 120.818 L
66.092 120.594 L
66.337 120.371 L
66.582 120.151 L
66.827 119.926 L
67.071 119.705 L
67.316 119.484 L
67.561 119.266 L
67.806 119.046 L
68.051 118.829 L
68.295 118.611 L
68.54 118.399 L
68.785 118.184 L
69.03 117.973 L
69.274 117.763 L
69.519 117.554 L
69.764 117.347 L
70.009 117.142 L
70.253 116.94 L
70.498 116.738 L
70.743 116.538 L
70.988 116.34 L
71.233 116.145 L
71.477 115.95 L
71.722 115.758 L
71.967 115.568 L
72.212 115.38 L
72.456 115.193 L
72.701 115.008 L
72.946 114.826 L
73.191 114.644 L
73.436 114.465 L
73.68 114.287 L
73.925 114.112 L
74.17 113.937 L
74.415 113.764 L
74.659 113.593 L
74.904 113.423 L
75.149 113.254 L
75.394 113.087 L
75.639 112.92 L
75.883 112.755 L
76.128 112.591 L
76.373 112.428 L
76.618 112.266 L
76.862 112.104 L
77.107 111.944 L
77.352 111.784 L
77.597 111.624 L
77.841 111.465 L
78.086 111.307 L
78.331 111.148 L
78.576 110.991 L
78.821 110.833 L
79.065 110.676 L
79.31 110.518 L
79.555 110.361 L
79.8 110.204 L
80.044 110.047 L
80.289 109.889 L
80.534 109.732 L
80.779 109.574 L
81.024 109.416 L
81.268 109.258 L
81.513 109.1 L
81.758 108.942 L
82.003 108.783 L
82.247 108.624 L
82.492 108.464 L
82.737 108.304 L
82.982 108.144 L
83.226 107.984 L
83.471 107.823 L
83.716 107.662 L
83.961 107.5 L
84.206 107.338 L
84.45 107.176 L
84.695 107.014 L
84.94 106.851 L
85.185 106.687 L
85.429 106.524 L
85.674 106.36 L
85.919 106.196 L
86.164 106.031 L
86.409 105.866 L
86.653 105.701 L
86.898 105.536 L
87.143 105.37 L
87.388 105.205 L
87.632 105.039 L
87.877 104.873 L
88.122 104.706 L
88.367 104.54 L
88.611 104.373 L
88.856 104.206 L
89.101 104.039 L
89.346 103.872 L
89.591 103.705 L
89.835 103.538 L
90.08 103.37 L
90.325 103.203 L
90.57 103.035 L
90.814 102.868 L
91.059 102.7 L
91.304 102.532 L
91.549 102.364 L
91.794 102.197 L
92.038 102.029 L
92.283 101.861 L
92.528 101.693 L
92.773 101.525 L
93.017 101.358 L
93.262 101.19 L
93.507 101.022 L
93.752 100.854 L
93.997 100.686 L
94.241 100.519 L
94.486 100.351 L
94.731 100.183 L
94.976 100.015 L
95.22 99.848 L
95.465 99.68 L
95.71 99.513 L
95.955 99.345 L
96.199 99.178 L
96.444 99.01 L
96.689 98.843 L
96.934 98.676 L
97.179 98.509 L
97.423 98.341 L
97.668 98.174 L
97.913 98.007 L
98.158 97.84 L
98.402 97.674 L
98.647 97.507 L
98.892 97.34 L
99.137 97.174 L
99.382 97.007 L
99.626 96.841 L
99.871 96.675 L
100.116 96.509 L
100.361 96.343 L
100.605 96.177 L
100.85 96.012 L
101.095 95.846 L
101.34 95.681 L
101.584 95.516 L
101.829 95.352 L
102.074 95.188 L
102.319 95.024 L
102.564 94.861 L
102.808 94.698 L
103.053 94.535 L
103.298 94.374 L
103.543 94.213 L
103.787 94.052 L
104.032 93.893 L
104.277 93.735 L
104.522 93.578 L
104.767 93.423 L
105.011 93.269 L
105.256 93.116 L
105.501 92.966 L
105.746 92.818 L
105.99 92.672 L
106.235 92.529 L
106.48 92.389 L
106.725 92.252 L
106.97 92.118 L
107.214 91.988 L
107.459 91.863 L
107.704 91.741 L
107.949 91.625 L
108.193 91.514 L
108.438 91.408 L
108.683 91.308 L
108.928 91.215 L
109.172 91.128 L
109.417 91.047 L
109.662 90.975 L
109.907 90.909 L
110.152 90.852 L
110.396 90.803 L
110.641 90.762 L
110.886 90.73 L
111.131 90.707 L
111.375 90.693 L
111.62 90.688 L
111.865 90.693 L
112.11 90.706 L
112.355 90.729 L
112.599 90.76 L
112.844 90.801 L
113.089 90.85 L
113.334 90.907 L
113.578 90.972 L
113.823 91.045 L
114.068 91.125 L
114.313 91.211 L
114.557 91.304 L
114.802 91.402 L
115.047 91.504 L
115.292 91.612 L
115.537 91.723 L
115.781 91.838 L
116.026 91.956 L
116.271 92.077 L
116.516 92.2 L
116.76 92.326 L
117.005 92.455 L
117.25 92.586 L
117.495 92.719 L
117.74 92.856 L
117.984 92.995 L
118.229 93.138 L
118.474 93.285 L
118.719 93.436 L
118.963 93.591 L
119.208 93.75 L
119.453 93.914 L
119.698 94.083 L
119.943 94.257 L
120.187 94.436 L
120.432 94.621 L
120.677 94.812 L
120.922 95.01 L
121.166 95.214 L
121.411 95.425 L
121.656 95.645 L
121.901 95.874 L
122.145 96.112 L
122.39 96.361 L
122.635 96.619 L
122.88 96.889 L
123.125 97.169 L
123.369 97.459 L
123.614 97.759 L
123.859 98.067 L
124.104 98.383 L
124.348 98.706 L
124.593 99.033 L
124.838 99.364 L
125.083 99.696 L
125.328 100.028 L
125.572 100.359 L
125.817 100.686 L
126.062 101.009 L
126.307 101.326 L
126.551 101.637 L
126.796 101.939 L
127.041 102.233 L
127.286 102.517 L
127.53 102.791 L
127.775 103.053 L
128.02 103.305 L
128.265 103.544 L
128.51 103.771 L
128.754 103.985 L
128.999 104.186 L
129.244 104.372 L
129.489 104.545 L
129.733 104.702 L
129.978 104.845 L
130.223 104.973 L
130.468 105.086 L
130.713 105.184 L
130.957 105.266 L
131.202 105.334 L
131.447 105.388 L
131.692 105.428 L
131.936 105.454 L
132.181 105.469 L
132.426 105.471 L
132.671 105.464 L
132.916 105.447 L
133.16 105.422 L
133.405 105.392 L
133.65 105.357 L
133.895 105.319 L
134.139 105.28 L
134.384 105.242 L
134.629 105.209 L
134.874 105.181 L
135.118 105.161 L
135.363 105.153 L
135.608 105.159 L
135.853 105.181 L
136.098 105.224 L
136.342 105.289 L
136.587 105.379 L
136.832 105.499 L
137.077 105.65 L
137.321 105.835 L
137.566 106.058 L
137.811 106.321 L
138.056 106.625 L
138.301 106.973 L
138.545 107.366 L
138.79 107.804 L
139.035 108.288 L
139.28 108.816 L
139.524 109.388 L
139.769 110 L
140.014 110.65 L
140.259 111.334 L
140.503 112.046 L
140.748 112.782 L
140.993 113.535 L
141.238 114.299 L
141.483 115.069 L
141.727 115.839 L
141.972 116.604 L
142.217 117.36 L
142.462 118.106 L
142.706 118.839 L
142.951 119.561 L
143.196 120.272 L
143.441 120.977 L
143.686 121.678 L
143.93 122.378 L
144.175 123.083 L
144.42 123.796 L
144.665 124.518 L
144.909 125.25 L
145.154 125.993 L
145.399 126.744 L
145.644 127.499 L
145.889 128.253 L
146.133 128.999 L
146.378 129.729 L
146.623 130.435 L
146.868 131.109 L
147.112 131.746 L
147.357 132.338 L
147.602 132.882 L
147.847 133.376 L
148.091 133.819 L
148.336 134.215 L
148.581 134.567 L
148.826 134.88 L
149.071 135.161 L
149.315 135.417 L
149.56 135.655 L
149.805 135.88 L
150.05 136.097 L
150.294 136.311 L
150.539 136.524 L
150.784 136.737 L
151.029 136.948 L
151.274 137.158 L
151.518 137.362 L
151.763 137.559 L
152.008 137.744 L
152.253 137.914 L
152.497 138.066 L
152.742 138.197 L
152.987 138.306 L
153.232 138.39 L
153.476 138.451 L
153.721 138.489 L
153.966 138.506 L
154.211 138.504 L
154.456 138.485 L
154.7 138.453 L
154.945 138.41 L
155.19 138.358 L
155.435 138.3 L
155.679 138.237 L
155.924 138.168 L
156.169 138.093 L
156.414 138.012 L
156.659 137.924 L
156.903 137.827 L
157.148 137.72 L
157.393 137.604 L
157.638 137.477 L
157.882 137.34 L
158.127 137.194 L
158.372 137.04 L
158.617 136.878 L
158.861 136.712 L
159.106 136.541 L
159.351 136.369 L
159.596 136.196 L
159.841 136.023 L
160.085 135.851 L
160.33 135.681 L
160.575 135.512 L
160.82 135.346 L
161.064 135.182 L
161.309 135.02 L
161.554 134.859 L
161.799 134.7 L
162.044 134.543 L
162.288 134.387 L
162.533 134.233 L
162.778 134.081 L
163.023 133.931 L
163.267 133.785 L
163.512 133.642 L
163.757 133.503 L
164.002 133.37 L
164.247 133.244 L
164.491 133.125 L
164.736 133.014 L
164.981 132.912 L
165.226 132.819 L
165.47 132.735 L
165.715 132.66 L
165.96 132.593 L
166.205 132.534 L
166.449 132.481 L
166.694 132.434 L
166.939 132.39 L
167.184 132.35 L
167.429 132.312 L
167.673 132.275 L
167.918 132.238 L
168.163 132.202 L
168.408 132.166 L
168.652 132.131 L
168.897 132.098 L
169.142 132.066 L
169.387 132.036 L
169.632 132.01 L
169.876 131.988 L
170.121 131.969 L
170.366 131.954 L
170.611 131.944 L
170.855 131.937 L
171.1 131.934 L
171.345 131.934 L
171.59 131.937 L
171.834 131.941 L
172.079 131.946 L
172.324 131.953 L
172.569 131.959 L
172.814 131.965 L
173.058 131.972 L
173.303 131.978 L
173.548 131.983 L
173.793 131.989 L
174.037 131.994 L
174.282 132 L
174.527 132.006 L
174.772 132.012 L
175.017 132.018 L
175.261 132.025 L
175.506 132.031 L
175.751 132.037 L
175.996 132.042 L
176.24 132.046 L
176.485 132.048 L
176.73 132.048 L
176.975 132.044 L
177.22 132.038 L
177.464 132.028 L
177.709 132.014 L
177.954 131.995 L
178.199 131.972 L
178.443 131.944 L
178.688 131.911 L
178.933 131.873 L
179.178 131.83 L
179.422 131.781 L
179.667 131.727 L
179.912 131.668 L
180.157 131.602 L
180.402 131.53 L
180.646 131.452 L
180.891 131.367 L
181.136 131.275 L
181.381 131.177 L
181.625 131.071 L
181.87 130.958 L
182.115 130.837 L
182.36 130.709 L
182.605 130.573 L
182.849 130.429 L
183.094 130.278 L
183.339 130.119 L
183.584 129.953 L
183.828 129.78 L
184.073 129.6 L
184.318 129.414 L
184.563 129.221 L
184.807 129.021 L
185.052 128.816 L
185.297 128.606 L
185.542 128.39 L
185.787 128.169 L
186.031 127.944 L
186.276 127.714 L
186.521 127.48 L
186.766 127.243 L
187.01 127.003 L
187.255 126.76 L
187.5 126.514 L
187.745 126.266 L
187.99 126.017 L
188.234 125.765 L
188.479 125.513 L
188.724 125.26 L
188.969 125.006 L
189.213 124.753 L
189.458 124.499 L
189.703 124.247 L
189.948 123.995 L
190.193 123.745 L
190.437 123.496 L
190.682 123.25 L
190.927 123.007 L
191.172 122.766 L
191.416 122.529 L
191.661 122.296 L
191.906 122.067 L
192.151 121.842 L
192.395 121.622 L
192.64 121.407 L
192.885 121.197 L
193.13 120.992 L
193.375 120.793 L
193.619 120.599 L
193.864 120.41 L
194.109 120.227 L
194.354 120.05 L
194.598 119.879 L
194.843 119.713 L
195.088 119.554 L
195.333 119.4 L
195.578 119.253 L
195.822 119.112 L
196.067 118.977 L
196.312 118.849 L
196.557 118.729 L
196.801 118.615 L
197.046 118.509 L
197.291 118.411 L
197.536 118.321 L
197.78 118.24 L
198.025 118.168 L
198.27 118.105 L
198.515 118.051 L
198.76 118.007 L
199.004 117.974 L
199.249 117.951 L
199.494 117.939 L
199.739 117.939 L
199.983 117.949 L
200.228 117.971 L
200.473 118.006 L
200.718 118.052 L
200.963 118.11 L
201.207 118.18 L
201.452 118.262 L
201.697 118.356 L
201.942 118.463 L
202.186 118.581 L
202.431 118.71 L
202.676 118.85 L
202.921 119.001 L
203.166 119.162 L
203.41 119.332 L
203.655 119.51 L
203.9 119.696 L
204.145 119.889 L
204.389 120.086 L
204.634 120.287 L
204.879 120.491 L
205.124 120.697 L
205.368 120.901 L
205.613 121.104 L
205.858 121.303 L
206.103 121.497 L
206.348 121.684 L
206.592 121.862 L
206.837 122.031 L
207.082 122.189 L
207.327 122.335 L
207.571 122.469 L
207.816 122.589 L
208.061 122.697 L
208.306 122.79 L
208.551 122.872 L
208.795 122.941 L
209.04 122.999 L
209.285 123.048 L
209.53 123.087 L
209.774 123.121 L
210.019 123.148 L
210.264 123.172 L
210.509 123.193 L
210.753 123.213 L
210.998 123.233 L
211.243 123.253 L
211.488 123.274 L
211.733 123.297 L
211.977 123.321 L
212.222 123.346 L
212.467 123.372 L
212.712 123.399 L
212.956 123.426 L
213.201 123.452 L
213.446 123.478 L
213.691 123.502 L
213.936 123.526 L
214.18 123.547 L
214.425 123.567 L
214.67 123.586 L
214.915 123.604 L
215.159 123.622 L
215.404 123.639 L
215.649 123.657 L
215.894 123.677 L
216.139 123.698 L
216.383 123.723 L
216.628 123.751 L
216.873 123.783 L
217.118 123.82 L
217.362 123.863 L
217.607 123.912 L
217.852 123.968 L
218.097 124.03 L
218.341 124.101 L
218.586 124.179 L
218.831 124.265 L
219.076 124.361 L
219.321 124.464 L
219.565 124.577 L
219.81 124.7 L
220.055 124.832 L
220.3 124.973 L
220.544 125.125 L
220.789 125.287 L
221.034 125.459 L
221.279 125.642 L
221.524 125.836 L
221.768 126.041 L
222.013 126.257 L
222.258 126.483 L
222.503 126.721 L
222.747 126.971 L
222.992 127.231 L
223.237 127.503 L
223.482 127.786 L
223.726 128.08 L
223.971 128.384 L
224.216 128.7 L
224.461 129.027 L
224.706 129.365 L
224.95 129.713 L
225.195 130.072 L
225.44 130.442 L
225.685 130.822 L
225.929 131.212 L
226.174 131.612 L
226.419 132.022 L
226.664 132.442 L
226.909 132.871 L
227.153 133.308 L
227.398 133.753 L
227.643 134.205 L
227.888 134.663 L
228.132 135.126 L
228.377 135.593 L
228.622 136.063 L
228.867 136.534 L
229.111 137.005 L
229.356 137.473 L
229.601 137.938 L
229.846 138.397 L
230.091 138.847 L
230.335 139.288 L
230.58 139.717 L
230.825 140.132 L
231.07 140.531 L
231.314 140.911 L
231.559 141.271 L
231.804 141.608 L
232.049 141.921 L
232.294 142.209 L
232.538 142.469 L
232.783 142.7 L
233.028 142.901 L
233.273 143.07 L
233.517 143.208 L
233.762 143.314 L
234.007 143.387 L
234.252 143.426 L
234.497 143.433 L
234.741 143.406 L
234.986 143.347 L
235.231 143.256 L
235.476 143.133 L
235.72 142.979 L
235.965 142.796 L
236.21 142.583 L
236.455 142.343 L
236.699 142.076 L
236.944 141.784 L
237.189 141.468 L
237.434 141.13 L
237.679 140.771 L
237.923 140.393 L
238.168 139.997 L
238.413 139.587 L
238.658 139.163 L
238.902 138.728 L
239.147 138.284 L
239.392 137.832 L
239.637 137.375 L
239.882 136.915 L
240.126 136.453 L
240.371 135.993 L
240.616 135.534 L
240.861 135.08 L
241.105 134.631 L
241.35 134.19 L
241.595 133.757 L
241.84 133.335 L
242.084 132.923 L
242.329 132.523 L
242.574 132.136 L
242.819 131.763 L
243.064 131.404 L
243.308 131.06 L
243.553 130.732 L
243.798 130.418 L
244.043 130.121 L
244.287 129.839 L
244.532 129.573 L
244.777 129.323 L
245.022 129.088 L
245.267 128.869 L
245.511 128.665 L
245.756 128.476 L
246.001 128.302 L
246.246 128.141 L
246.49 127.993 L
246.735 127.859 L
246.98 127.737 L
247.225 127.627 L
247.469 127.529 L
247.714 127.441 L
247.959 127.363 L
248.204 127.294 L
248.449 127.235 L
248.693 127.183 L
248.938 127.139 L
249.183 127.103 L
249.428 127.073 L
249.672 127.049 L
249.917 127.03 L
250.162 127.017 L
250.407 127.008 L
250.652 127.004 L
250.896 127.003 L
251.141 127.006 L
251.386 127.012 L
251.631 127.02 L
251.875 127.031 L
252.12 127.044 L
252.365 127.058 L
252.61 127.074 L
252.855 127.091 L
253.099 127.11 L
253.344 127.129 L
253.589 127.148 L
253.834 127.168 L
254.078 127.188 L
254.323 127.208 L
254.568 127.228 L
254.813 127.247 L
255.057 127.265 L
255.302 127.283 L
255.547 127.3 L
255.792 127.316 L
256.037 127.33 L
256.281 127.344 L
256.526 127.355 L
256.771 127.365 L
257.016 127.373 L
257.26 127.38 L
257.505 127.384 L
257.75 127.386 L
257.995 127.386 L
258.24 127.383 L
258.484 127.378 L
258.729 127.371 L
258.974 127.361 L
259.219 127.348 L
259.463 127.333 L
259.708 127.315 L
259.953 127.295 L
260.198 127.272 L
260.443 127.247 L
260.687 127.22 L
260.932 127.19 L
261.177 127.157 L
261.422 127.123 L
261.666 127.086 L
261.911 127.048 L
262.156 127.008 L
262.401 126.966 L
262.645 126.922 L
262.89 126.877 L
263.135 126.831 L
263.38 126.784 L
263.625 126.736 L
263.869 126.687 L
264.114 126.638 L
264.359 126.59 L
264.604 126.542 L
264.848 126.494 L
265.093 126.448 L
265.338 126.403 L
265.583 126.361 L
265.828 126.32 L
266.072 126.281 L
266.317 126.245 L
266.562 126.212 L
266.807 126.181 L
267.051 126.152 L
267.296 126.125 L
267.541 126.101 L
267.786 126.078 L
268.03 126.056 L
268.275 126.035 L
268.52 126.016 L
268.765 125.996 L
269.01 125.977 L
269.254 125.958 L
269.499 125.94 L
269.744 125.921 L
269.989 125.903 L
270.233 125.885 L
270.478 125.867 L
270.723 125.85 L
270.968 125.835 L
271.213 125.82 L
271.457 125.807 L
271.702 125.796 L
271.947 125.787 L
272.192 125.78 L
272.436 125.775 L
272.681 125.773 L
272.926 125.773 L
273.171 125.775 L
273.415 125.78 L
273.66 125.787 L
273.905 125.796 L
274.15 125.808 L
274.395 125.821 L
274.639 125.836 L
274.884 125.853 L
275.129 125.871 L
275.374 125.89 L
275.618 125.91 L
275.863 125.931 L
276.108 125.953 L
276.353 125.975 L
276.598 125.997 L
276.842 126.018 L
277.087 126.04 L
277.332 126.061 L
277.577 126.08 L
277.821 126.099 L
278.066 126.117 L
278.311 126.133 L
278.556 126.147 L
278.801 126.159 L
279.045 126.168 L
279.29 126.175 L
279.535 126.18 L
279.78 126.181 L
280.024 126.179 L
280.269 126.174 L
280.514 126.166 L
280.759 126.153 L
281.003 126.137 L
281.248 126.117 L
281.493 126.093 L
281.738 126.065 L
281.983 126.032 L
282.227 125.996 L
282.472 125.955 L
282.717 125.909 L
282.962 125.859 L
283.206 125.805 L
283.451 125.747 L
283.696 125.684 L
283.941 125.616 L
284.186 125.545 L
284.43 125.469 L
284.675 125.39 L
284.92 125.306 L
285.165 125.219 L
285.409 125.128 L
285.654 125.033 L
285.899 124.935 L
286.144 124.834 L
286.388 124.73 L
286.633 124.623 L
286.878 124.514 L
287.123 124.403 L
287.368 124.289 L
287.612 124.174 L
287.857 124.057 L
288.102 123.939 L
288.347 123.82 L
288.591 123.7 L
288.836 123.58 L
289.081 123.46 L
289.326 123.34 L
289.571 123.221 L
289.815 123.103 L
290.06 122.986 L
290.305 122.87 L
290.55 122.756 L
290.794 122.645 L
291.039 122.536 L
291.284 122.429 L
291.529 122.326 L
291.774 122.227 L
292.018 122.131 L
292.263 122.04 L
292.508 121.952 L
292.753 121.87 L
292.997 121.793 L
293.242 121.721 L
293.487 121.655 L
293.732 121.596 L
293.976 121.542 L
294.221 121.495 L
294.466 121.455 L
294.711 121.423 L
294.956 121.397 L
295.2 121.38 L
295.445 121.371 L
295.69 121.37 L
295.935 121.377 L
296.179 121.393 L
296.424 121.419 L
296.669 121.453 L
296.914 121.496 L
297.159 121.549 L
297.403 121.612 L
297.648 121.684 L
297.893 121.765 L
298.138 121.856 L
298.382 121.957 L
298.627 122.067 L
298.872 122.186 L
299.117 122.314 L
299.362 122.452 L
299.606 122.597 L
299.851 122.751 L
300.096 122.912 L
300.341 123.081 L
300.585 123.257 L
300.83 123.439 L
301.075 123.626 L
301.32 123.818 L
301.564 124.015 L
301.809 124.216 L
302.054 124.42 L
302.299 124.627 L
302.544 124.836 L
302.788 125.047 L
303.033 125.259 L
303.278 125.473 L
303.523 125.687 L
303.767 125.902 L
304.012 126.118 L
304.257 126.335 L
304.502 126.553 L
304.747 126.773 L
304.991 126.994 L
305.236 127.219 L
305.481 127.447 L
305.726 127.679 L
305.97 127.916 L
306.215 128.159 L
306.46 128.409 L
306.705 128.667 L
306.949 128.933 L
307.194 129.209 L
307.439 129.494 L
307.684 129.791 L
307.929 130.1 L
308.173 130.421 L
308.418 130.755 L
308.663 131.102 L
308.908 131.462 L
309.152 131.835 L
309.397 132.222 L
309.642 132.623 L
309.887 133.036 L
310.132 133.463 L
310.376 133.902 L
310.621 134.353 L
310.866 134.816 L
311.111 135.29 L
311.355 135.775 L
311.6 136.27 L
311.845 136.775 L
312.09 137.288 L
312.335 137.809 L
312.579 138.337 L
312.824 138.872 L
313.069 139.412 L
313.314 139.958 L
313.558 140.507 L
313.803 141.059 L
314.048 141.614 L
314.293 142.17 L
314.537 142.725 L
314.782 143.28 L
315.027 143.834 L
315.272 144.384 L
315.517 144.93 L
315.761 145.471 L
316.006 146.006 L
316.251 146.533 L
316.496 147.052 L
316.74 147.561 L
316.985 148.059 L
317.23 148.545 L
317.475 149.018 L
317.72 149.476 L
317.964 149.919 L
318.209 150.345 L
318.454 150.752 L
318.699 151.141 L
318.943 151.508 L
319.188 151.854 L
319.433 152.177 L
319.678 152.476 L
319.922 152.75 L
320.167 152.998 L
320.412 153.219 L
320.657 153.412 L
320.902 153.576 L
321.146 153.71 L
321.391 153.815 L
321.636 153.888 L
321.881 153.931 L
322.125 153.942 L
322.37 153.922 L
322.615 153.871 L
322.86 153.787 L
323.105 153.673 L
323.349 153.528 L
323.594 153.352 L
323.839 153.146 L
324.084 152.911 L
324.328 152.647 L
324.573 152.356 L
324.818 152.039 L
325.063 151.696 L
325.307 151.329 L
325.552 150.939 L
325.797 150.528 L
326.042 150.097 L
326.287 149.648 L
326.531 149.183 L
326.776 148.702 L
327.021 148.209 L
327.266 147.704 L
327.51 147.19 L
327.755 146.669 L
328 146.142 L
328.034 146.07 L
S
GR
%%Trailer
%%Pages: 1
%%EOF
