%!PS-Adobe-3.0 EPSF-3.0
%%Creator: (MATLAB, The Mathworks, Inc. Version 9.10.0.1684407 \(R2021a\) Update 3. Operating System: Linux)
%%Title: /home/adoan/Code/PRoSA_PI-ESN_Git/pi-esn/Results/MFE_results_Noise/Figures/FIG9D.eps
%%CreationDate: 2021-07-21T19:03:16
%%Pages: (atend)
%%BoundingBox:     0     0   283   170
%%LanguageLevel: 3
%%EndComments
%%BeginProlog
%%BeginResource: procset (Apache XML Graphics Std ProcSet) 1.2 0
%%Version: 1.2 0
%%Copyright: (Copyright 2001-2003,2010 The Apache Software Foundation. License terms: http://www.apache.org/licenses/LICENSE-2.0)
/bd{bind def}bind def
/ld{load def}bd
/GR/grestore ld
/GS/gsave ld
/RM/rmoveto ld
/C/curveto ld
/t/show ld
/L/lineto ld
/ML/setmiterlimit ld
/CT/concat ld
/f/fill ld
/N/newpath ld
/S/stroke ld
/CC/setcmykcolor ld
/A/ashow ld
/cp/closepath ld
/RC/setrgbcolor ld
/LJ/setlinejoin ld
/GC/setgray ld
/LW/setlinewidth ld
/M/moveto ld
/re {4 2 roll M
1 index 0 rlineto
0 exch rlineto
neg 0 rlineto
cp } bd
/_ctm matrix def
/_tm matrix def
/BT { _ctm currentmatrix pop matrix _tm copy pop 0 0 moveto } bd
/ET { _ctm setmatrix } bd
/iTm { _ctm setmatrix _tm concat } bd
/Tm { _tm astore pop iTm 0 0 moveto } bd
/ux 0.0 def
/uy 0.0 def
/F {
  /Tp exch def
  /Tf exch def
  Tf findfont Tp scalefont setfont
  /cf Tf def  /cs Tp def
} bd
/ULS {currentpoint /uy exch def /ux exch def} bd
/ULE {
  /Tcx currentpoint pop def
  gsave
  newpath
  cf findfont cs scalefont dup
  /FontMatrix get 0 get /Ts exch def /FontInfo get dup
  /UnderlinePosition get Ts mul /To exch def
  /UnderlineThickness get Ts mul /Tt exch def
  ux uy To add moveto  Tcx uy To add lineto
  Tt setlinewidth stroke
  grestore
} bd
/OLE {
  /Tcx currentpoint pop def
  gsave
  newpath
  cf findfont cs scalefont dup
  /FontMatrix get 0 get /Ts exch def /FontInfo get dup
  /UnderlinePosition get Ts mul /To exch def
  /UnderlineThickness get Ts mul /Tt exch def
  ux uy To add cs add moveto Tcx uy To add cs add lineto
  Tt setlinewidth stroke
  grestore
} bd
/SOE {
  /Tcx currentpoint pop def
  gsave
  newpath
  cf findfont cs scalefont dup
  /FontMatrix get 0 get /Ts exch def /FontInfo get dup
  /UnderlinePosition get Ts mul /To exch def
  /UnderlineThickness get Ts mul /Tt exch def
  ux uy To add cs 10 mul 26 idiv add moveto Tcx uy To add cs 10 mul 26 idiv add lineto
  Tt setlinewidth stroke
  grestore
} bd
/QT {
/Y22 exch store
/X22 exch store
/Y21 exch store
/X21 exch store
currentpoint
/Y21 load 2 mul add 3 div exch
/X21 load 2 mul add 3 div exch
/X21 load 2 mul /X22 load add 3 div
/Y21 load 2 mul /Y22 load add 3 div
/X22 load /Y22 load curveto
} bd
/SSPD {
dup length /d exch dict def
{
/v exch def
/k exch def
currentpagedevice k known {
/cpdv currentpagedevice k get def
v cpdv ne {
/upd false def
/nullv v type /nulltype eq def
/nullcpdv cpdv type /nulltype eq def
nullv nullcpdv or
{
/upd true def
} {
/sametype v type cpdv type eq def
sametype {
v type /arraytype eq {
/vlen v length def
/cpdvlen cpdv length def
vlen cpdvlen eq {
0 1 vlen 1 sub {
/i exch def
/obj v i get def
/cpdobj cpdv i get def
obj cpdobj ne {
/upd true def
exit
} if
} for
} {
/upd true def
} ifelse
} {
v type /dicttype eq {
v {
/dv exch def
/dk exch def
/cpddv cpdv dk get def
dv cpddv ne {
/upd true def
exit
} if
} forall
} {
/upd true def
} ifelse
} ifelse
} if
} ifelse
upd true eq {
d k v put
} if
} if
} if
} forall
d length 0 gt {
d setpagedevice
} if
} bd
/RE { % /NewFontName [NewEncodingArray] /FontName RE -
  findfont dup length dict begin
  {
    1 index /FID ne
    {def} {pop pop} ifelse
  } forall
  /Encoding exch def
  /FontName 1 index def
  currentdict definefont pop
  end
} bind def
%%EndResource
%%BeginResource: procset (Apache XML Graphics EPS ProcSet) 1.0 0
%%Version: 1.0 0
%%Copyright: (Copyright 2002-2003 The Apache Software Foundation. License terms: http://www.apache.org/licenses/LICENSE-2.0)
/BeginEPSF { %def
/b4_Inc_state save def         % Save state for cleanup
/dict_count countdictstack def % Count objects on dict stack
/op_count count 1 sub def      % Count objects on operand stack
userdict begin                 % Push userdict on dict stack
/showpage { } def              % Redefine showpage, { } = null proc
0 setgray 0 setlinecap         % Prepare graphics state
1 setlinewidth 0 setlinejoin
10 setmiterlimit [ ] 0 setdash newpath
/languagelevel where           % If level not equal to 1 then
{pop languagelevel             % set strokeadjust and
1 ne                           % overprint to their defaults.
{false setstrokeadjust false setoverprint
} if
} if
} bd
/EndEPSF { %def
count op_count sub {pop} repeat            % Clean up stacks
countdictstack dict_count sub {end} repeat
b4_Inc_state restore
} bd
%%EndResource
%FOPBeginFontDict
%%IncludeResource: font Courier-Oblique
%%IncludeResource: font Courier-BoldOblique
%%IncludeResource: font Courier-Bold
%%IncludeResource: font ZapfDingbats
%%IncludeResource: font Symbol
%%IncludeResource: font Helvetica
%%IncludeResource: font Helvetica-Oblique
%%IncludeResource: font Helvetica-Bold
%%IncludeResource: font Helvetica-BoldOblique
%%IncludeResource: font Times-Roman
%%IncludeResource: font Times-Italic
%%IncludeResource: font Times-Bold
%%IncludeResource: font Times-BoldItalic
%%IncludeResource: font Courier
%FOPEndFontDict
%%BeginResource: encoding WinAnsiEncoding
/WinAnsiEncoding [
/.notdef /.notdef /.notdef /.notdef /.notdef
/.notdef /.notdef /.notdef /.notdef /.notdef
/.notdef /.notdef /.notdef /.notdef /.notdef
/.notdef /.notdef /.notdef /.notdef /.notdef
/.notdef /.notdef /.notdef /.notdef /.notdef
/.notdef /.notdef /.notdef /.notdef /.notdef
/.notdef /.notdef /space /exclam /quotedbl
/numbersign /dollar /percent /ampersand /quotesingle
/parenleft /parenright /asterisk /plus /comma
/hyphen /period /slash /zero /one
/two /three /four /five /six
/seven /eight /nine /colon /semicolon
/less /equal /greater /question /at
/A /B /C /D /E
/F /G /H /I /J
/K /L /M /N /O
/P /Q /R /S /T
/U /V /W /X /Y
/Z /bracketleft /backslash /bracketright /asciicircum
/underscore /quoteleft /a /b /c
/d /e /f /g /h
/i /j /k /l /m
/n /o /p /q /r
/s /t /u /v /w
/x /y /z /braceleft /bar
/braceright /asciitilde /bullet /Euro /bullet
/quotesinglbase /florin /quotedblbase /ellipsis /dagger
/daggerdbl /circumflex /perthousand /Scaron /guilsinglleft
/OE /bullet /Zcaron /bullet /bullet
/quoteleft /quoteright /quotedblleft /quotedblright /bullet
/endash /emdash /asciitilde /trademark /scaron
/guilsinglright /oe /bullet /zcaron /Ydieresis
/space /exclamdown /cent /sterling /currency
/yen /brokenbar /section /dieresis /copyright
/ordfeminine /guillemotleft /logicalnot /sfthyphen /registered
/macron /degree /plusminus /twosuperior /threesuperior
/acute /mu /paragraph /middot /cedilla
/onesuperior /ordmasculine /guillemotright /onequarter /onehalf
/threequarters /questiondown /Agrave /Aacute /Acircumflex
/Atilde /Adieresis /Aring /AE /Ccedilla
/Egrave /Eacute /Ecircumflex /Edieresis /Igrave
/Iacute /Icircumflex /Idieresis /Eth /Ntilde
/Ograve /Oacute /Ocircumflex /Otilde /Odieresis
/multiply /Oslash /Ugrave /Uacute /Ucircumflex
/Udieresis /Yacute /Thorn /germandbls /agrave
/aacute /acircumflex /atilde /adieresis /aring
/ae /ccedilla /egrave /eacute /ecircumflex
/edieresis /igrave /iacute /icircumflex /idieresis
/eth /ntilde /ograve /oacute /ocircumflex
/otilde /odieresis /divide /oslash /ugrave
/uacute /ucircumflex /udieresis /yacute /thorn
/ydieresis
] def
%%EndResource
%FOPBeginFontReencode
/Courier-Oblique findfont
dup length dict begin
  {1 index /FID ne {def} {pop pop} ifelse} forall
  /Encoding WinAnsiEncoding def
  currentdict
end
/Courier-Oblique exch definefont pop
/Courier-BoldOblique findfont
dup length dict begin
  {1 index /FID ne {def} {pop pop} ifelse} forall
  /Encoding WinAnsiEncoding def
  currentdict
end
/Courier-BoldOblique exch definefont pop
/Courier-Bold findfont
dup length dict begin
  {1 index /FID ne {def} {pop pop} ifelse} forall
  /Encoding WinAnsiEncoding def
  currentdict
end
/Courier-Bold exch definefont pop
/Helvetica findfont
dup length dict begin
  {1 index /FID ne {def} {pop pop} ifelse} forall
  /Encoding WinAnsiEncoding def
  currentdict
end
/Helvetica exch definefont pop
/Helvetica-Oblique findfont
dup length dict begin
  {1 index /FID ne {def} {pop pop} ifelse} forall
  /Encoding WinAnsiEncoding def
  currentdict
end
/Helvetica-Oblique exch definefont pop
/Helvetica-Bold findfont
dup length dict begin
  {1 index /FID ne {def} {pop pop} ifelse} forall
  /Encoding WinAnsiEncoding def
  currentdict
end
/Helvetica-Bold exch definefont pop
/Helvetica-BoldOblique findfont
dup length dict begin
  {1 index /FID ne {def} {pop pop} ifelse} forall
  /Encoding WinAnsiEncoding def
  currentdict
end
/Helvetica-BoldOblique exch definefont pop
/Times-Roman findfont
dup length dict begin
  {1 index /FID ne {def} {pop pop} ifelse} forall
  /Encoding WinAnsiEncoding def
  currentdict
end
/Times-Roman exch definefont pop
/Times-Italic findfont
dup length dict begin
  {1 index /FID ne {def} {pop pop} ifelse} forall
  /Encoding WinAnsiEncoding def
  currentdict
end
/Times-Italic exch definefont pop
/Times-Bold findfont
dup length dict begin
  {1 index /FID ne {def} {pop pop} ifelse} forall
  /Encoding WinAnsiEncoding def
  currentdict
end
/Times-Bold exch definefont pop
/Times-BoldItalic findfont
dup length dict begin
  {1 index /FID ne {def} {pop pop} ifelse} forall
  /Encoding WinAnsiEncoding def
  currentdict
end
/Times-BoldItalic exch definefont pop
/Courier findfont
dup length dict begin
  {1 index /FID ne {def} {pop pop} ifelse} forall
  /Encoding WinAnsiEncoding def
  currentdict
end
/Courier exch definefont pop
%FOPEndFontReencode
%%EndProlog
%%Page: 1 1
%%PageBoundingBox: 0 0 283 170
%%BeginPageSetup
[1 0 0 -1 0 170] CT
%%EndPageSetup
GS
[0.78305 0 0 0.78377 0 -0.07875] CT
1 GC
N
0 0 362 217 re
f
GR
GS
[0.78305 0 0 0.78377 0 -0.07875] CT
1 GC
N
0 0 362 217 re
f
GR
GS
[0.78305 0 0 0.78377 0 -0.07875] CT
1 GC
N
47 172 M
328 172 L
328 16 L
47 16 L
cp
f
GR
GS
[0.78305 0 0 0.78377 0 -0.07875] CT
0.149 GC
2 setlinecap
1 LJ
0.639 LW
N
47 172 M
328 172 L
S
GR
GS
[0.78305 0 0 0.78377 0 -0.07875] CT
0.149 GC
2 setlinecap
1 LJ
0.639 LW
N
47 16 M
328 16 L
S
GR
GS
[0.78305 0 0 0.78377 0 -0.07875] CT
0.149 GC
2 setlinecap
1 LJ
0.639 LW
N
47 172 M
47 169.19 L
S
GR
GS
[0.78305 0 0 0.78377 0 -0.07875] CT
0.149 GC
2 setlinecap
1 LJ
0.639 LW
N
127.286 172 M
127.286 169.19 L
S
GR
GS
[0.78305 0 0 0.78377 0 -0.07875] CT
0.149 GC
2 setlinecap
1 LJ
0.639 LW
N
207.571 172 M
207.571 169.19 L
S
GR
GS
[0.78305 0 0 0.78377 0 -0.07875] CT
0.149 GC
2 setlinecap
1 LJ
0.639 LW
N
287.857 172 M
287.857 169.19 L
S
GR
GS
[0.78305 0 0 0.78377 0 -0.07875] CT
0.149 GC
2 setlinecap
1 LJ
0.639 LW
N
47 16 M
47 18.81 L
S
GR
GS
[0.78305 0 0 0.78377 0 -0.07875] CT
0.149 GC
2 setlinecap
1 LJ
0.639 LW
N
127.286 16 M
127.286 18.81 L
S
GR
GS
[0.78305 0 0 0.78377 0 -0.07875] CT
0.149 GC
2 setlinecap
1 LJ
0.639 LW
N
207.571 16 M
207.571 18.81 L
S
GR
GS
[0.78305 0 0 0.78377 0 -0.07875] CT
0.149 GC
2 setlinecap
1 LJ
0.639 LW
N
287.857 16 M
287.857 18.81 L
S
GR
GS
[0.78305 0 0 0.78377 36.80341 139.13676] CT
0.149 GC
N
-0.083 13.208 M
-1.927 13.208 -2.583 11.692 QT
-3.24 10.177 -3.24 8.099 QT
-3.24 6.786 -3.005 5.638 QT
-2.771 4.489 -2.068 3.692 QT
-1.365 2.896 -0.083 2.896 QT
0.901 2.896 1.534 3.372 QT
2.167 3.849 2.495 4.614 QT
2.823 5.38 2.948 6.255 QT
3.073 7.13 3.073 8.099 QT
3.073 9.38 2.831 10.505 QT
2.589 11.63 1.893 12.419 QT
1.198 13.208 -0.083 13.208 QT
cp
-0.083 12.817 M
0.745 12.817 1.159 11.966 QT
1.573 11.114 1.667 10.067 QT
1.76 9.021 1.76 7.849 QT
1.76 6.724 1.667 5.771 QT
1.573 4.817 1.167 4.044 QT
0.76 3.271 -0.083 3.271 QT
-0.927 3.271 -1.341 4.052 QT
-1.755 4.833 -1.849 5.778 QT
-1.943 6.724 -1.943 7.849 QT
-1.943 8.692 -1.904 9.435 QT
-1.865 10.177 -1.685 10.958 QT
-1.505 11.739 -1.115 12.278 QT
-0.724 12.817 -0.083 12.817 QT
cp
f
GR
GS
[0.78305 0 0 0.78377 99.67124 139.13676] CT
0.149 GC
N
-3.083 12.88 M
-3.083 12.474 L
-3.083 12.442 -3.052 12.396 QT
-0.724 9.817 L
-0.193 9.239 0.135 8.857 QT
0.464 8.474 0.784 7.966 QT
1.104 7.458 1.292 6.935 QT
1.479 6.411 1.479 5.833 QT
1.479 5.208 1.253 4.646 QT
1.026 4.083 0.573 3.747 QT
0.12 3.411 -0.521 3.411 QT
-1.161 3.411 -1.685 3.81 QT
-2.208 4.208 -2.427 4.817 QT
-2.365 4.802 -2.255 4.802 QT
-1.927 4.802 -1.685 5.028 QT
-1.443 5.255 -1.443 5.614 QT
-1.443 5.958 -1.685 6.2 QT
-1.927 6.442 -2.255 6.442 QT
-2.615 6.442 -2.849 6.2 QT
-3.083 5.958 -3.083 5.614 QT
-3.083 5.052 -2.872 4.56 QT
-2.661 4.067 -2.263 3.685 QT
-1.865 3.302 -1.365 3.099 QT
-0.865 2.896 -0.302 2.896 QT
0.557 2.896 1.299 3.255 QT
2.042 3.614 2.471 4.278 QT
2.901 4.942 2.901 5.833 QT
2.901 6.474 2.62 7.06 QT
2.339 7.646 1.893 8.13 QT
1.448 8.614 0.745 9.224 QT
0.042 9.833 -0.177 10.036 QT
-1.865 11.661 L
-0.427 11.661 L
0.635 11.661 1.346 11.646 QT
2.057 11.63 2.104 11.583 QT
2.276 11.396 2.464 10.208 QT
2.901 10.208 L
2.479 12.88 L
-3.083 12.88 L
cp
f
GR
GS
[0.78305 0 0 0.78377 162.53907 139.13676] CT
0.149 GC
N
-3.411 10.411 M
-3.411 9.88 L
1.214 2.958 L
1.276 2.896 1.37 2.896 QT
1.589 2.896 L
1.76 2.896 1.76 3.052 QT
1.76 9.88 L
3.229 9.88 L
3.229 10.411 L
1.76 10.411 L
1.76 11.88 L
1.76 12.177 2.198 12.263 QT
2.635 12.349 3.214 12.349 QT
3.214 12.88 L
-0.911 12.88 L
-0.911 12.349 L
-0.333 12.349 0.104 12.263 QT
0.542 12.177 0.542 11.88 QT
0.542 10.411 L
-3.411 10.411 L
cp
-2.911 9.88 M
0.635 9.88 L
0.635 4.567 L
-2.911 9.88 L
cp
f
GR
GS
[0.78305 0 0 0.78377 225.40691 139.13676] CT
0.149 GC
N
-0.083 13.208 M
-1.021 13.208 -1.638 12.716 QT
-2.255 12.224 -2.599 11.435 QT
-2.943 10.646 -3.076 9.778 QT
-3.208 8.911 -3.208 8.036 QT
-3.208 6.849 -2.747 5.653 QT
-2.286 4.458 -1.388 3.677 QT
-0.49 2.896 0.745 2.896 QT
1.26 2.896 1.706 3.083 QT
2.151 3.271 2.401 3.653 QT
2.651 4.036 2.651 4.567 QT
2.651 4.88 2.44 5.083 QT
2.229 5.286 1.917 5.286 QT
1.635 5.286 1.424 5.075 QT
1.214 4.864 1.214 4.567 QT
1.214 4.271 1.424 4.06 QT
1.635 3.849 1.917 3.849 QT
2.01 3.849 L
1.807 3.583 1.464 3.45 QT
1.12 3.317 0.745 3.317 QT
0.292 3.317 -0.091 3.521 QT
-0.474 3.724 -0.786 4.06 QT
-1.099 4.396 -1.302 4.802 QT
-1.505 5.208 -1.615 5.724 QT
-1.724 6.239 -1.755 6.692 QT
-1.786 7.146 -1.786 7.833 QT
-1.521 7.224 -1.036 6.833 QT
-0.552 6.442 0.042 6.442 QT
0.714 6.442 1.26 6.716 QT
1.807 6.989 2.206 7.466 QT
2.604 7.942 2.815 8.56 QT
3.026 9.177 3.026 9.802 QT
3.026 10.677 2.635 11.474 QT
2.245 12.271 1.534 12.739 QT
0.823 13.208 -0.083 13.208 QT
cp
-0.083 12.739 M
0.495 12.739 0.846 12.474 QT
1.198 12.208 1.362 11.771 QT
1.526 11.333 1.565 10.888 QT
1.604 10.442 1.604 9.802 QT
1.604 8.958 1.526 8.357 QT
1.448 7.755 1.089 7.294 QT
0.729 6.833 -0.005 6.833 QT
-0.615 6.833 -1.005 7.247 QT
-1.396 7.661 -1.576 8.286 QT
-1.755 8.911 -1.755 9.489 QT
-1.755 9.692 -1.74 9.786 QT
-1.74 9.817 -1.747 9.825 QT
-1.755 9.833 -1.755 9.864 QT
-1.755 10.505 -1.622 11.161 QT
-1.49 11.817 -1.122 12.278 QT
-0.755 12.739 -0.083 12.739 QT
cp
f
GR
GS
[0.78305 0 0 0.78377 146.82223 154.13643] CT
0.149 GC
N
-7.012 12.793 M
-7.012 12.543 -6.949 12.324 QT
-5.73 7.434 L
-7.512 7.434 L
-7.684 7.434 -7.684 7.215 QT
-7.621 6.84 -7.465 6.84 QT
-5.574 6.84 L
-4.902 4.059 L
-4.824 3.84 -4.629 3.684 QT
-4.434 3.527 -4.184 3.527 QT
-3.965 3.527 -3.816 3.652 QT
-3.668 3.777 -3.668 3.996 QT
-3.668 4.043 -3.676 4.074 QT
-3.684 4.105 -3.699 4.137 QT
-4.371 6.84 L
-2.621 6.84 L
-2.449 6.84 -2.449 7.059 QT
-2.449 7.105 -2.48 7.207 QT
-2.512 7.309 -2.551 7.371 QT
-2.59 7.434 -2.668 7.434 QT
-4.527 7.434 L
-5.746 12.355 L
-5.871 12.824 -5.871 13.184 QT
-5.871 13.918 -5.371 13.918 QT
-4.621 13.918 -4.043 13.215 QT
-3.465 12.512 -3.168 11.668 QT
-3.09 11.574 -3.027 11.574 QT
-2.824 11.574 L
-2.762 11.574 -2.715 11.621 QT
-2.668 11.668 -2.668 11.715 QT
-2.668 11.746 -2.684 11.762 QT
-3.059 12.793 -3.777 13.574 QT
-4.496 14.355 -5.418 14.355 QT
-6.09 14.355 -6.551 13.918 QT
-7.012 13.48 -7.012 12.793 QT
cp
f
GR
GS
[0.78305 0 0 0.78377 146.82223 154.13643] CT
0.149 GC
N
-1.062 5.282 M
-1.171 5.282 -1.233 5.211 QT
-1.296 5.141 -1.296 5.047 QT
-1.296 4.953 -1.233 4.883 QT
-1.171 4.813 -1.062 4.813 QT
2.47 4.813 L
2.47 1.266 L
2.47 1.172 2.54 1.11 QT
2.61 1.047 2.704 1.047 QT
2.798 1.047 2.868 1.11 QT
2.938 1.172 2.938 1.266 QT
2.938 4.813 L
6.47 4.813 L
6.563 4.813 6.626 4.883 QT
6.688 4.953 6.688 5.047 QT
6.688 5.141 6.626 5.211 QT
6.563 5.282 6.47 5.282 QT
2.938 5.282 L
2.938 8.828 L
2.938 8.922 2.868 8.985 QT
2.798 9.047 2.704 9.047 QT
2.61 9.047 2.54 8.985 QT
2.47 8.922 2.47 8.828 QT
2.47 5.282 L
-1.062 5.282 L
cp
f
GR
GS
[0.78305 0 0 0.78377 0 -0.07875] CT
0.149 GC
2 setlinecap
1 LJ
0.639 LW
N
47 172 M
47 16 L
S
GR
GS
[0.78305 0 0 0.78377 0 -0.07875] CT
0.149 GC
2 setlinecap
1 LJ
0.639 LW
N
328 172 M
328 16 L
S
GR
GS
[0.78305 0 0 0.78377 0 -0.07875] CT
0.149 GC
2 setlinecap
1 LJ
0.639 LW
N
47 172 M
49.81 172 L
S
GR
GS
[0.78305 0 0 0.78377 0 -0.07875] CT
0.149 GC
2 setlinecap
1 LJ
0.639 LW
N
47 133 M
49.81 133 L
S
GR
GS
[0.78305 0 0 0.78377 0 -0.07875] CT
0.149 GC
2 setlinecap
1 LJ
0.639 LW
N
47 94 M
49.81 94 L
S
GR
GS
[0.78305 0 0 0.78377 0 -0.07875] CT
0.149 GC
2 setlinecap
1 LJ
0.639 LW
N
47 55 M
49.81 55 L
S
GR
GS
[0.78305 0 0 0.78377 0 -0.07875] CT
0.149 GC
2 setlinecap
1 LJ
0.639 LW
N
47 16 M
49.81 16 L
S
GR
GS
[0.78305 0 0 0.78377 0 -0.07875] CT
0.149 GC
2 setlinecap
1 LJ
0.639 LW
N
328 172 M
325.19 172 L
S
GR
GS
[0.78305 0 0 0.78377 0 -0.07875] CT
0.149 GC
2 setlinecap
1 LJ
0.639 LW
N
328 133 M
325.19 133 L
S
GR
GS
[0.78305 0 0 0.78377 0 -0.07875] CT
0.149 GC
2 setlinecap
1 LJ
0.639 LW
N
328 94 M
325.19 94 L
S
GR
GS
[0.78305 0 0 0.78377 0 -0.07875] CT
0.149 GC
2 setlinecap
1 LJ
0.639 LW
N
328 55 M
325.19 55 L
S
GR
GS
[0.78305 0 0 0.78377 0 -0.07875] CT
0.149 GC
2 setlinecap
1 LJ
0.639 LW
N
328 16 M
325.19 16 L
S
GR
GS
[0.78305 0 0 0.78377 32.40092 134.73021] CT
0.149 GC
N
-3.917 4.008 M
-5.76 4.008 -6.417 2.492 QT
-7.073 0.977 -7.073 -1.101 QT
-7.073 -2.414 -6.839 -3.562 QT
-6.604 -4.711 -5.901 -5.508 QT
-5.198 -6.304 -3.917 -6.304 QT
-2.932 -6.304 -2.3 -5.828 QT
-1.667 -5.351 -1.339 -4.586 QT
-1.01 -3.82 -0.885 -2.945 QT
-0.76 -2.07 -0.76 -1.101 QT
-0.76 0.18 -1.003 1.305 QT
-1.245 2.43 -1.94 3.219 QT
-2.635 4.008 -3.917 4.008 QT
cp
-3.917 3.617 M
-3.089 3.617 -2.675 2.766 QT
-2.26 1.914 -2.167 0.867 QT
-2.073 -0.179 -2.073 -1.351 QT
-2.073 -2.476 -2.167 -3.429 QT
-2.26 -4.383 -2.667 -5.156 QT
-3.073 -5.929 -3.917 -5.929 QT
-4.76 -5.929 -5.175 -5.148 QT
-5.589 -4.367 -5.682 -3.422 QT
-5.776 -2.476 -5.776 -1.351 QT
-5.776 -0.508 -5.737 0.235 QT
-5.698 0.977 -5.518 1.758 QT
-5.339 2.539 -4.948 3.078 QT
-4.557 3.617 -3.917 3.617 QT
cp
f
GR
GS
[0.78305 0 0 0.78377 32.40092 104.16306] CT
0.149 GC
N
-15.843 4.008 M
-17.686 4.008 -18.343 2.492 QT
-18.999 0.977 -18.999 -1.101 QT
-18.999 -2.414 -18.765 -3.562 QT
-18.53 -4.711 -17.827 -5.508 QT
-17.124 -6.304 -15.843 -6.304 QT
-14.858 -6.304 -14.225 -5.828 QT
-13.593 -5.351 -13.265 -4.586 QT
-12.936 -3.82 -12.811 -2.945 QT
-12.686 -2.07 -12.686 -1.101 QT
-12.686 0.18 -12.929 1.305 QT
-13.171 2.43 -13.866 3.219 QT
-14.561 4.008 -15.843 4.008 QT
cp
-15.843 3.617 M
-15.015 3.617 -14.6 2.766 QT
-14.186 1.914 -14.093 0.867 QT
-13.999 -0.179 -13.999 -1.351 QT
-13.999 -2.476 -14.093 -3.429 QT
-14.186 -4.383 -14.593 -5.156 QT
-14.999 -5.929 -15.843 -5.929 QT
-16.686 -5.929 -17.1 -5.148 QT
-17.515 -4.367 -17.608 -3.422 QT
-17.702 -2.476 -17.702 -1.351 QT
-17.702 -0.508 -17.663 0.235 QT
-17.624 0.977 -17.444 1.758 QT
-17.265 2.539 -16.874 3.078 QT
-16.483 3.617 -15.843 3.617 QT
cp
f
GR
GS
[0.78305 0 0 0.78377 32.40092 104.16306] CT
0.149 GC
N
-10.66 2.852 M
-10.66 2.508 -10.41 2.274 QT
-10.16 2.039 -9.832 2.039 QT
-9.629 2.039 -9.434 2.149 QT
-9.238 2.258 -9.129 2.453 QT
-9.02 2.649 -9.02 2.852 QT
-9.02 3.18 -9.262 3.43 QT
-9.504 3.68 -9.832 3.68 QT
-10.16 3.68 -10.41 3.43 QT
-10.66 3.18 -10.66 2.852 QT
cp
f
GR
GS
[0.78305 0 0 0.78377 32.40092 104.16306] CT
0.149 GC
N
-6.37 1.977 M
-6.214 2.414 -5.893 2.774 QT
-5.573 3.133 -5.135 3.336 QT
-4.698 3.539 -4.229 3.539 QT
-3.151 3.539 -2.737 2.696 QT
-2.323 1.852 -2.323 0.649 QT
-2.323 0.133 -2.346 -0.226 QT
-2.37 -0.586 -2.448 -0.914 QT
-2.589 -1.445 -2.932 -1.836 QT
-3.276 -2.226 -3.792 -2.226 QT
-4.292 -2.226 -4.651 -2.078 QT
-5.01 -1.929 -5.237 -1.718 QT
-5.464 -1.508 -5.643 -1.281 QT
-5.823 -1.054 -5.87 -1.039 QT
-6.026 -1.039 L
-6.073 -1.039 -6.128 -1.086 QT
-6.182 -1.133 -6.182 -1.179 QT
-6.182 -6.195 L
-6.182 -6.226 -6.135 -6.265 QT
-6.089 -6.304 -6.026 -6.304 QT
-5.995 -6.304 L
-4.979 -5.82 -3.839 -5.82 QT
-2.729 -5.82 -1.698 -6.304 QT
-1.651 -6.304 L
-1.604 -6.304 -1.557 -6.273 QT
-1.51 -6.242 -1.51 -6.195 QT
-1.51 -6.054 L
-1.51 -5.976 -1.542 -5.976 QT
-2.057 -5.304 -2.831 -4.922 QT
-3.604 -4.539 -4.432 -4.539 QT
-5.026 -4.539 -5.667 -4.711 QT
-5.667 -1.867 L
-5.167 -2.273 -4.776 -2.445 QT
-4.385 -2.617 -3.776 -2.617 QT
-2.948 -2.617 -2.292 -2.14 QT
-1.635 -1.664 -1.284 -0.898 QT
-0.932 -0.133 -0.932 0.664 QT
-0.932 1.571 -1.37 2.336 QT
-1.807 3.102 -2.573 3.555 QT
-3.339 4.008 -4.229 4.008 QT
-4.964 4.008 -5.589 3.625 QT
-6.214 3.242 -6.565 2.602 QT
-6.917 1.961 -6.917 1.227 QT
-6.917 0.899 -6.698 0.688 QT
-6.479 0.477 -6.151 0.477 QT
-5.823 0.477 -5.596 0.688 QT
-5.37 0.899 -5.37 1.227 QT
-5.37 1.555 -5.596 1.782 QT
-5.823 2.008 -6.151 2.008 QT
-6.198 2.008 -6.268 1.992 QT
-6.339 1.977 -6.37 1.977 QT
cp
f
GR
GS
[0.78305 0 0 0.78377 32.40092 73.59592] CT
0.149 GC
N
-6.276 3.68 M
-6.276 3.149 L
-4.401 3.149 -4.401 2.68 QT
-4.401 -5.195 L
-5.182 -4.82 -6.37 -4.82 QT
-6.37 -5.351 L
-4.526 -5.351 -3.589 -6.304 QT
-3.37 -6.304 L
-3.323 -6.304 -3.276 -6.265 QT
-3.229 -6.226 -3.229 -6.179 QT
-3.229 2.68 L
-3.229 3.149 -1.354 3.149 QT
-1.354 3.68 L
-6.276 3.68 L
cp
f
GR
GS
[0.78305 0 0 0.78377 32.40092 43.02877] CT
0.149 GC
N
-18.202 3.68 M
-18.202 3.149 L
-16.327 3.149 -16.327 2.68 QT
-16.327 -5.195 L
-17.108 -4.82 -18.296 -4.82 QT
-18.296 -5.351 L
-16.452 -5.351 -15.515 -6.304 QT
-15.296 -6.304 L
-15.249 -6.304 -15.202 -6.265 QT
-15.155 -6.226 -15.155 -6.179 QT
-15.155 2.68 L
-15.155 3.149 -13.28 3.149 QT
-13.28 3.68 L
-18.202 3.68 L
cp
f
GR
GS
[0.78305 0 0 0.78377 32.40092 43.02877] CT
0.149 GC
N
/f-606985051{-10.66 2.852 M
-10.66 2.508 -10.41 2.274 QT
-10.16 2.039 -9.832 2.039 QT
-9.629 2.039 -9.434 2.149 QT
-9.238 2.258 -9.129 2.453 QT
-9.02 2.649 -9.02 2.852 QT
-9.02 3.18 -9.262 3.43 QT
-9.504 3.68 -9.832 3.68 QT
-10.16 3.68 -10.41 3.43 QT
-10.66 3.18 -10.66 2.852 QT
cp}def
f-606985051
f
GR
GS
[0.78305 0 0 0.78377 32.40092 43.02877] CT
0.149 GC
N
/f-321985110{-6.37 1.977 M
-6.214 2.414 -5.893 2.774 QT
-5.573 3.133 -5.135 3.336 QT
-4.698 3.539 -4.229 3.539 QT
-3.151 3.539 -2.737 2.696 QT
-2.323 1.852 -2.323 0.649 QT
-2.323 0.133 -2.346 -0.226 QT
-2.37 -0.586 -2.448 -0.914 QT
-2.589 -1.445 -2.932 -1.836 QT
-3.276 -2.226 -3.792 -2.226 QT
-4.292 -2.226 -4.651 -2.078 QT
-5.01 -1.929 -5.237 -1.718 QT
-5.464 -1.508 -5.643 -1.281 QT
-5.823 -1.054 -5.87 -1.039 QT
-6.026 -1.039 L
-6.073 -1.039 -6.128 -1.086 QT
-6.182 -1.133 -6.182 -1.179 QT
-6.182 -6.195 L
-6.182 -6.226 -6.135 -6.265 QT
-6.089 -6.304 -6.026 -6.304 QT
-5.995 -6.304 L
-4.979 -5.82 -3.839 -5.82 QT
-2.729 -5.82 -1.698 -6.304 QT
-1.651 -6.304 L
-1.604 -6.304 -1.557 -6.273 QT
-1.51 -6.242 -1.51 -6.195 QT
-1.51 -6.054 L
-1.51 -5.976 -1.542 -5.976 QT
-2.057 -5.304 -2.831 -4.922 QT
-3.604 -4.539 -4.432 -4.539 QT
-5.026 -4.539 -5.667 -4.711 QT
-5.667 -1.867 L
-5.167 -2.273 -4.776 -2.445 QT
-4.385 -2.617 -3.776 -2.617 QT
-2.948 -2.617 -2.292 -2.14 QT
-1.635 -1.664 -1.284 -0.898 QT
-0.932 -0.133 -0.932 0.664 QT
-0.932 1.571 -1.37 2.336 QT
-1.807 3.102 -2.573 3.555 QT
-3.339 4.008 -4.229 4.008 QT
-4.964 4.008 -5.589 3.625 QT
-6.214 3.242 -6.565 2.602 QT
-6.917 1.961 -6.917 1.227 QT
-6.917 0.899 -6.698 0.688 QT
-6.479 0.477 -6.151 0.477 QT
-5.823 0.477 -5.596 0.688 QT
-5.37 0.899 -5.37 1.227 QT
-5.37 1.555 -5.596 1.782 QT
-5.823 2.008 -6.151 2.008 QT
-6.198 2.008 -6.268 1.992 QT
-6.339 1.977 -6.37 1.977 QT
cp}def
f-321985110
f
GR
GS
[0.78305 0 0 0.78377 32.40092 12.46162] CT
0.149 GC
N
/f274154036{-6.917 3.68 M
-6.917 3.274 L
-6.917 3.242 -6.885 3.196 QT
-4.557 0.617 L
-4.026 0.039 -3.698 -0.343 QT
-3.37 -0.726 -3.05 -1.234 QT
-2.729 -1.742 -2.542 -2.265 QT
-2.354 -2.789 -2.354 -3.367 QT
-2.354 -3.992 -2.581 -4.554 QT
-2.807 -5.117 -3.26 -5.453 QT
-3.714 -5.789 -4.354 -5.789 QT
-4.995 -5.789 -5.518 -5.39 QT
-6.042 -4.992 -6.26 -4.383 QT
-6.198 -4.398 -6.089 -4.398 QT
-5.76 -4.398 -5.518 -4.172 QT
-5.276 -3.945 -5.276 -3.586 QT
-5.276 -3.242 -5.518 -3 QT
-5.76 -2.758 -6.089 -2.758 QT
-6.448 -2.758 -6.682 -3 QT
-6.917 -3.242 -6.917 -3.586 QT
-6.917 -4.148 -6.706 -4.64 QT
-6.495 -5.133 -6.096 -5.515 QT
-5.698 -5.898 -5.198 -6.101 QT
-4.698 -6.304 -4.135 -6.304 QT
-3.276 -6.304 -2.534 -5.945 QT
-1.792 -5.586 -1.362 -4.922 QT
-0.932 -4.258 -0.932 -3.367 QT
-0.932 -2.726 -1.214 -2.14 QT
-1.495 -1.554 -1.94 -1.07 QT
-2.385 -0.586 -3.089 0.024 QT
-3.792 0.633 -4.01 0.836 QT
-5.698 2.461 L
-4.26 2.461 L
-3.198 2.461 -2.487 2.446 QT
-1.776 2.43 -1.729 2.383 QT
-1.557 2.196 -1.37 1.008 QT
-0.932 1.008 L
-1.354 3.68 L
-6.917 3.68 L
cp}def
f274154036
f
GR
GS
[0.78305 0 0 0.78377 0 -0.07875] CT
0.251 0.251 1 RC
1 LJ
1.917 LW
N
47 170.803 M
47.245 170.302 L
47.49 169.885 L
47.734 169.95 L
47.979 170.498 L
48.224 170.698 L
48.469 169.458 L
48.713 169.687 L
48.958 169.905 L
49.203 170.474 L
49.448 170.979 L
49.693 170.697 L
49.937 170.317 L
50.182 170.686 L
50.427 170.191 L
50.672 170.65 L
50.916 170.306 L
51.161 170.474 L
51.406 170.475 L
51.651 169.1 L
51.895 169.647 L
52.14 170.027 L
52.385 169.301 L
52.63 169.803 L
52.875 168.644 L
53.119 169.352 L
53.364 168.68 L
53.609 169.917 L
53.854 169.399 L
54.098 169.195 L
54.343 169.185 L
54.588 169.906 L
54.833 169.088 L
55.078 168.644 L
55.322 169.807 L
55.567 167.747 L
55.812 168.934 L
56.057 168.614 L
56.301 167.76 L
56.546 169.291 L
56.791 168.702 L
57.036 169.918 L
57.28 168.427 L
57.525 167.067 L
57.77 167.116 L
58.015 166.769 L
58.26 167.823 L
58.504 167.927 L
58.749 168.153 L
58.994 167.676 L
59.239 168.714 L
59.483 166.589 L
59.728 167.277 L
59.973 165.836 L
60.218 165.926 L
60.463 166.371 L
60.707 167.012 L
60.952 166.094 L
61.197 167.276 L
61.442 165.333 L
61.686 166.179 L
61.931 165.461 L
62.176 166.839 L
62.421 165.848 L
62.666 165.629 L
62.91 165.406 L
63.155 165.093 L
63.4 165.981 L
63.645 164.131 L
63.889 165.868 L
64.134 163.985 L
64.379 164.451 L
64.624 164.35 L
64.868 163.859 L
65.113 164.598 L
65.358 163.891 L
65.603 165.593 L
65.848 163.447 L
66.092 164.121 L
66.337 164.207 L
66.582 163.863 L
66.827 162.513 L
67.071 164.148 L
67.316 163.318 L
67.561 162.638 L
67.806 163.316 L
68.051 163.54 L
68.295 163.045 L
68.54 164.335 L
68.785 163.838 L
69.03 162.257 L
69.274 163.182 L
69.519 162.095 L
69.764 162.6 L
70.009 161.996 L
70.253 162.592 L
70.498 161.874 L
70.743 161.561 L
70.988 162.909 L
71.233 162.524 L
71.477 162.96 L
71.722 162.394 L
71.967 163.1 L
72.212 162.492 L
72.456 160.743 L
72.701 160.734 L
72.946 161.004 L
73.191 162.5 L
73.436 161.493 L
73.68 161.718 L
73.925 162.078 L
74.17 160.23 L
74.415 161.431 L
74.659 160.435 L
74.904 162.055 L
75.149 160.482 L
75.394 160.324 L
75.639 161.4 L
75.883 160.589 L
76.128 160.689 L
76.373 161.302 L
76.618 160.227 L
76.862 160.71 L
77.107 161.129 L
77.352 160.979 L
77.597 159.274 L
77.841 161.196 L
78.086 160.052 L
78.331 160.073 L
78.576 160.146 L
78.821 160.613 L
79.065 160.351 L
79.31 161.006 L
79.555 160.409 L
79.8 160.076 L
80.044 161.309 L
80.289 160.304 L
80.534 159.189 L
80.779 160.704 L
81.024 160.079 L
81.268 160.473 L
81.513 161.264 L
81.758 159.343 L
82.003 159.291 L
82.247 159.02 L
82.492 159.553 L
82.737 159.61 L
82.982 160.264 L
83.226 160.373 L
83.471 160.448 L
83.716 159.761 L
83.961 159.754 L
84.206 158.622 L
84.45 160.142 L
84.695 158.821 L
84.94 158.865 L
85.185 159.144 L
85.429 158.025 L
85.674 157.736 L
85.919 159.292 L
86.164 158.298 L
86.409 157.505 L
86.653 158.568 L
86.898 157.954 L
87.143 158.24 L
87.388 158.327 L
87.632 158.102 L
87.877 158.306 L
88.122 157.767 L
88.367 157.797 L
88.611 158.045 L
88.856 157.62 L
89.101 157.051 L
89.346 157.513 L
89.591 156.826 L
89.835 157.572 L
90.08 157.396 L
90.325 156.448 L
90.57 156.089 L
90.814 157.168 L
91.059 155.669 L
91.304 156.448 L
91.549 156.018 L
91.794 155.439 L
92.038 155.38 L
92.283 155.87 L
92.528 156.594 L
92.773 155.502 L
93.017 156.074 L
93.262 155.817 L
93.507 155.973 L
93.752 154.365 L
93.997 155.016 L
94.241 154.02 L
94.486 155.122 L
94.731 154.87 L
94.976 155.017 L
95.22 155.179 L
95.465 153.064 L
95.71 155.252 L
95.955 154.499 L
96.199 154.262 L
96.444 153.076 L
96.689 154.144 L
96.934 153.544 L
97.179 153.25 L
97.423 152.904 L
97.668 152.851 L
97.913 153.465 L
98.158 152.472 L
98.402 153.619 L
98.647 153.312 L
98.892 152.189 L
99.137 152.11 L
99.382 152.633 L
99.626 153.297 L
99.871 152.784 L
100.116 151.818 L
100.361 151.198 L
100.605 151.569 L
100.85 151.513 L
101.095 151.102 L
101.34 151.032 L
101.584 151.629 L
101.829 150.535 L
102.074 150.163 L
102.319 150.252 L
102.564 150.468 L
102.808 150.662 L
103.053 150.83 L
103.298 150.115 L
103.543 150.901 L
103.787 149.323 L
104.032 149.606 L
104.277 150.554 L
104.522 150.147 L
104.767 149.6 L
105.011 149.737 L
105.256 149.428 L
105.501 148.852 L
105.746 149.551 L
105.99 149.782 L
106.235 149.165 L
106.48 148.985 L
106.725 149.047 L
106.97 148.782 L
107.214 148.002 L
107.459 148.762 L
107.704 148.519 L
107.949 148.149 L
108.193 149.213 L
108.438 148.967 L
108.683 148.833 L
108.928 148.833 L
109.172 149.493 L
109.417 149.149 L
109.662 149.454 L
109.907 148.365 L
110.152 149.428 L
110.396 148.498 L
110.641 148.725 L
110.886 148.351 L
111.131 149.276 L
111.375 148.544 L
111.62 149.812 L
111.865 148.361 L
112.11 150.12 L
112.355 148.801 L
112.599 149.038 L
112.844 150.32 L
113.089 149.459 L
113.334 150.009 L
113.578 149.846 L
113.823 150.143 L
114.068 150.286 L
114.313 150.995 L
114.557 150.287 L
114.802 150.979 L
115.047 150.49 L
115.292 151.096 L
115.537 151.464 L
115.781 151.51 L
116.026 151.968 L
116.271 151.863 L
116.516 151.955 L
116.76 152.239 L
117.005 152.54 L
117.25 153.398 L
117.495 152.907 L
117.74 153.252 L
117.984 152.713 L
118.229 154.208 L
118.474 154.181 L
118.719 153.949 L
118.963 155.418 L
119.208 154.96 L
119.453 154.729 L
119.698 153.856 L
119.943 155.055 L
120.187 156.37 L
120.432 155.38 L
120.677 156.612 L
120.922 156.353 L
121.166 155.441 L
121.411 156.033 L
121.656 157.222 L
121.901 156.801 L
122.145 157.074 L
122.39 156.99 L
122.635 157.256 L
122.88 157.971 L
123.125 157.961 L
123.369 157.47 L
123.614 158.358 L
123.859 157.642 L
124.104 158.434 L
124.348 158.955 L
124.593 158.772 L
124.838 158.839 L
125.083 158.149 L
125.328 159.079 L
125.572 159.036 L
125.817 159.075 L
126.062 158.662 L
126.307 158.551 L
126.551 158.79 L
126.796 159.375 L
127.041 159.712 L
127.286 159.045 L
127.53 157.926 L
127.775 159.31 L
128.02 159.43 L
128.265 160.291 L
128.51 159.553 L
128.754 159.374 L
128.999 160.162 L
129.244 159.682 L
129.489 159.47 L
129.733 158.967 L
129.978 160.295 L
130.223 159.308 L
130.468 160.052 L
130.713 160.19 L
130.957 159.513 L
131.202 159.422 L
131.447 159.111 L
131.692 159.558 L
131.936 159.155 L
132.181 158.953 L
132.426 159.569 L
132.671 160.911 L
132.916 158.961 L
133.16 159.63 L
133.405 159.33 L
133.65 159.479 L
133.895 160.375 L
134.139 159.834 L
134.384 158.78 L
134.629 159.468 L
134.874 159.615 L
135.118 158.734 L
135.363 158.927 L
135.608 160.212 L
135.853 159.385 L
136.098 159.63 L
136.342 158.971 L
136.587 159.073 L
136.832 157.732 L
137.077 159.527 L
137.321 158.336 L
137.566 158.432 L
137.811 159.679 L
138.056 158.205 L
138.301 158.786 L
138.545 158.22 L
138.79 157.325 L
139.035 157.6 L
139.28 156.885 L
139.524 157.102 L
139.769 156.711 L
140.014 157.361 L
140.259 156.112 L
140.503 157.502 L
140.748 156.68 L
140.993 156.016 L
141.238 155.492 L
141.483 154.799 L
141.727 155.623 L
141.972 155.085 L
142.217 154.649 L
142.462 154.327 L
142.706 154.042 L
142.951 153.672 L
143.196 153.375 L
143.441 153.193 L
143.686 152.56 L
143.93 151.377 L
144.175 151.478 L
144.42 151.011 L
144.665 150.617 L
144.909 150.15 L
145.154 149.049 L
145.399 148.405 L
145.644 148.704 L
145.889 147.915 L
146.133 146.625 L
146.378 145.745 L
146.623 144.602 L
146.868 144.304 L
147.112 144.259 L
147.357 143.819 L
147.602 142.908 L
147.847 142.681 L
148.091 141.615 L
148.336 140.607 L
148.581 139.646 L
148.826 138.99 L
149.071 137.647 L
149.315 138.384 L
149.56 137.319 L
149.805 136.65 L
150.05 136.007 L
150.294 134.882 L
150.539 134.641 L
150.784 134.483 L
151.029 134.49 L
151.274 133.486 L
151.518 133.175 L
151.763 132.668 L
152.008 132.209 L
152.253 130.924 L
152.497 131.076 L
152.742 130.775 L
152.987 130.554 L
153.232 130.022 L
153.476 130.201 L
153.721 129.176 L
153.966 129.723 L
154.211 129.376 L
154.456 128.65 L
154.7 128.696 L
154.945 128.144 L
155.19 128.111 L
155.435 128.539 L
155.679 127.926 L
155.924 127.307 L
156.169 128.138 L
156.414 127.409 L
156.659 126.417 L
156.903 127.328 L
157.148 126.582 L
157.393 127.167 L
157.638 125.436 L
157.882 125.229 L
158.127 124.799 L
158.372 123.766 L
158.617 123.471 L
158.861 123.634 L
159.106 124.413 L
159.351 121.522 L
159.596 120.993 L
159.841 120.666 L
160.085 119.843 L
160.33 120.648 L
160.575 119.627 L
160.82 118.529 L
161.064 117.721 L
161.309 116.77 L
161.554 116.408 L
161.799 115.325 L
162.044 114.856 L
162.288 114.048 L
162.533 113.845 L
162.778 114.098 L
163.023 113.034 L
163.267 111.701 L
163.512 111.281 L
163.757 110.944 L
164.002 109.653 L
164.247 110.138 L
164.491 110.261 L
164.736 109.164 L
164.981 108.19 L
165.226 109.494 L
165.47 108.942 L
165.715 108.492 L
165.96 107.889 L
166.205 108.872 L
166.449 108.815 L
166.694 108.776 L
166.939 107.61 L
167.184 108.723 L
167.429 108.847 L
167.673 109.727 L
167.918 109.286 L
168.163 109.306 L
168.408 110.477 L
168.652 110.13 L
168.897 110.694 L
169.142 111.571 L
169.387 110.872 L
169.632 111.233 L
169.876 112.21 L
170.121 111.672 L
170.366 112.937 L
170.611 112.25 L
170.855 112.592 L
171.1 114.578 L
171.345 113.39 L
171.59 114.633 L
171.834 114.864 L
172.079 115.329 L
172.324 115.36 L
172.569 116.279 L
172.814 115.834 L
173.058 116.573 L
173.303 116.956 L
173.548 117.373 L
173.793 118.188 L
174.037 118.27 L
174.282 119.301 L
174.527 119.427 L
174.772 120.375 L
175.017 121.207 L
175.261 121.803 L
175.506 122.231 L
175.751 121.196 L
175.996 122.795 L
176.24 123.564 L
176.485 124.489 L
176.73 125.806 L
176.975 125.535 L
177.22 127.138 L
177.464 128.252 L
177.709 127.9 L
177.954 129.649 L
178.199 130.078 L
178.443 130.805 L
178.688 131.376 L
178.933 133.353 L
179.178 133.434 L
179.422 133.501 L
179.667 134.683 L
179.912 135.993 L
180.157 135.783 L
180.402 136.061 L
180.646 137.174 L
180.891 137.86 L
181.136 138.336 L
181.381 138.509 L
181.625 138.496 L
181.87 138.561 L
182.115 139.291 L
182.36 139.159 L
182.605 140.011 L
182.849 139.556 L
183.094 140.761 L
183.339 139.835 L
183.584 140.477 L
183.828 139.389 L
184.073 139.222 L
184.318 138.64 L
184.563 138.298 L
184.807 139.422 L
185.052 138.361 L
185.297 138.186 L
185.542 137.905 L
185.787 136.45 L
186.031 136.604 L
186.276 136.819 L
186.521 135.915 L
186.766 135.533 L
187.01 134.642 L
187.255 133.467 L
187.5 133.192 L
187.745 133.673 L
187.99 132.846 L
188.234 132.272 L
188.479 131.77 L
188.724 130.209 L
188.969 130.629 L
189.213 129.831 L
189.458 129.936 L
189.703 128.18 L
189.948 128.37 L
190.193 127.424 L
190.437 127.066 L
190.682 125.917 L
190.927 126.1 L
191.172 125.357 L
191.416 125.359 L
191.661 124.365 L
191.906 123.89 L
192.151 123.56 L
192.395 122.385 L
192.64 121.953 L
192.885 120.717 L
193.13 120.939 L
193.375 119.395 L
193.619 118.613 L
193.864 118.327 L
194.109 117.045 L
194.354 117.139 L
194.598 117.077 L
194.843 115.494 L
195.088 115.185 L
195.333 114.149 L
195.578 113.121 L
195.822 112.916 L
196.067 112.394 L
196.312 112.156 L
196.557 110.33 L
196.801 111.241 L
197.046 109.638 L
197.291 108.756 L
197.536 107.086 L
197.78 106.98 L
198.025 107.503 L
198.27 105.785 L
198.515 104.507 L
198.76 104.602 L
199.004 103.557 L
199.249 102.51 L
199.494 102.086 L
199.739 101.133 L
199.983 101.837 L
200.228 101.091 L
200.473 99.892 L
200.718 99.759 L
200.963 99.409 L
201.207 98.826 L
201.452 98.293 L
201.697 98.485 L
201.942 98.106 L
202.186 98.147 L
202.431 97.813 L
202.676 96.946 L
202.921 97.331 L
203.166 97.414 L
203.41 97.726 L
203.655 97.402 L
203.9 97.044 L
204.145 96.867 L
204.389 97.494 L
204.634 97.901 L
204.879 97.969 L
205.124 98.074 L
205.368 97.857 L
205.613 98.592 L
205.858 98.5 L
206.103 98.977 L
206.348 98.267 L
206.592 99.584 L
206.837 99.375 L
207.082 100.239 L
207.327 100.923 L
207.571 100.818 L
207.816 100.236 L
208.061 100.933 L
208.306 101.77 L
208.551 102.149 L
208.795 102.123 L
209.04 101.109 L
209.285 101.471 L
209.53 101.548 L
209.774 101.913 L
210.019 102.43 L
210.264 102.224 L
210.509 101.811 L
210.753 102.572 L
210.998 102.336 L
211.243 102.903 L
211.488 102.662 L
211.733 103.055 L
211.977 103.657 L
212.222 102.601 L
212.467 105.264 L
212.712 103.833 L
212.956 104.238 L
213.201 104.493 L
213.446 105.798 L
213.691 106.077 L
213.936 106.3 L
214.18 106.826 L
214.425 108.133 L
214.67 108.754 L
214.915 108.715 L
215.159 108.984 L
215.404 109.742 L
215.649 109.409 L
215.894 110.011 L
216.139 110.168 L
216.383 110.1 L
216.628 108.721 L
216.873 107.727 L
217.118 107.098 L
217.362 106.51 L
217.607 105.742 L
217.852 103.611 L
218.097 101.742 L
218.341 100.144 L
218.586 97.346 L
218.831 96.158 L
219.076 93.467 L
219.321 90.107 L
219.565 88.388 L
219.81 85.924 L
220.055 84.093 L
220.3 81.434 L
220.544 79.832 L
220.789 78.163 L
221.034 75.449 L
221.279 73.152 L
221.524 70.879 L
221.768 69.92 L
222.013 66.677 L
222.258 66.163 L
222.503 64.137 L
222.747 62.368 L
222.992 61.748 L
223.237 60.121 L
223.482 57.556 L
223.726 56.33 L
223.971 55.136 L
224.216 53.792 L
224.461 52.926 L
224.706 51.167 L
224.95 50.695 L
225.195 48.587 L
225.44 48.565 L
225.685 48.147 L
225.929 46.572 L
226.174 46.659 L
226.419 44.648 L
226.664 43.914 L
226.909 43.346 L
227.153 42.137 L
227.398 41.561 L
227.643 41.579 L
227.888 41.378 L
228.132 40.632 L
228.377 41.06 L
228.622 41.552 L
228.867 39.706 L
229.111 41.685 L
229.356 42.437 L
229.601 43.024 L
229.846 42.942 L
230.091 44.899 L
230.335 45.701 L
230.58 46.62 L
230.825 48.954 L
231.07 49.264 L
231.314 51.569 L
231.559 54.074 L
231.804 54.893 L
232.049 57.655 L
232.294 60.358 L
232.538 61.686 L
232.783 66.114 L
233.028 67.107 L
233.273 68.816 L
233.517 70.906 L
233.762 73.198 L
234.007 73.896 L
234.252 75.942 L
234.497 76.469 L
234.741 76.673 L
234.986 76.422 L
235.231 75.75 L
235.476 76.004 L
235.72 74.603 L
235.965 73.71 L
236.21 73.117 L
236.455 71.201 L
236.699 70.267 L
236.944 68.319 L
237.189 66.746 L
237.434 64.668 L
237.679 62.114 L
237.923 60.309 L
238.168 59.437 L
238.413 56.948 L
238.658 56.516 L
238.902 54.6 L
239.147 53.137 L
239.392 52.224 L
239.637 51.611 L
239.882 50.847 L
240.126 50.11 L
240.371 49.606 L
240.616 49.196 L
240.861 48.512 L
241.105 49.008 L
241.35 48.013 L
241.595 47.248 L
241.84 48.125 L
242.084 46.963 L
242.329 46.197 L
242.574 46.514 L
242.819 45.499 L
243.064 45.503 L
243.308 45.167 L
243.553 45.685 L
243.798 46.465 L
244.043 45.218 L
244.287 46.511 L
244.532 46.542 L
244.777 47.325 L
245.022 46.6 L
245.267 47.446 L
245.511 47.841 L
245.756 49.889 L
246.001 50.897 L
246.246 49.873 L
246.49 51.725 L
246.735 52.645 L
246.98 54.189 L
247.225 56.246 L
247.469 56.856 L
247.714 57.996 L
247.959 59.343 L
248.204 60.337 L
248.449 61.589 L
248.693 62.729 L
248.938 63.452 L
249.183 66.259 L
249.428 66.396 L
249.672 66.946 L
249.917 68.3 L
250.162 67.428 L
250.407 68.737 L
250.652 68.539 L
250.896 67.532 L
251.141 67.925 L
251.386 69.053 L
251.631 70.169 L
251.875 69.806 L
252.12 69.081 L
252.365 68.479 L
252.61 68.343 L
252.855 68.078 L
253.099 67.127 L
253.344 67.946 L
253.589 66.778 L
253.834 65.323 L
254.078 65.223 L
254.323 63.217 L
254.568 64 L
254.813 61.671 L
255.057 60.268 L
255.302 59.855 L
255.547 57.836 L
255.792 57.463 L
256.037 55.783 L
256.281 54.935 L
256.526 53.515 L
256.771 52.024 L
257.016 51.456 L
257.26 50.327 L
257.505 49.454 L
257.75 49.412 L
257.995 48.274 L
258.24 48.316 L
258.484 47.836 L
258.729 47.921 L
258.974 47.585 L
259.219 46.98 L
259.463 47.983 L
259.708 46.772 L
259.953 47.487 L
260.198 47.866 L
260.443 46.652 L
260.687 48.544 L
260.932 48.907 L
261.177 49.131 L
261.422 48.686 L
261.666 49.821 L
261.911 50.191 L
262.156 52.555 L
262.401 48.989 L
262.645 50.172 L
262.89 51.962 L
263.135 51.055 L
263.38 51.977 L
263.625 52.047 L
263.869 52.57 L
264.114 52.949 L
264.359 54.501 L
264.604 53.349 L
264.848 54.406 L
265.093 54.6 L
265.338 54.587 L
265.583 53.867 L
265.828 52.926 L
266.072 51.95 L
266.317 52.121 L
266.562 51.941 L
266.807 50.68 L
267.051 49.243 L
267.296 50.051 L
267.541 50.435 L
267.786 49.459 L
268.03 48.559 L
268.275 48.364 L
268.52 49.659 L
268.765 49.732 L
269.01 49.834 L
269.254 49.33 L
269.499 48.338 L
269.744 50.709 L
269.989 49.685 L
270.233 50.637 L
270.478 51.986 L
270.723 52.876 L
270.968 54.849 L
271.213 54.41 L
271.457 56.499 L
271.702 56.323 L
271.947 55.867 L
272.192 57.151 L
272.436 58.915 L
272.681 57.717 L
272.926 58.451 L
273.171 57.211 L
273.415 57.946 L
273.66 58.345 L
273.905 58.034 L
274.15 58.049 L
274.395 57.923 L
274.639 57.921 L
274.884 58.136 L
275.129 57.843 L
275.374 57.73 L
275.618 57.74 L
275.863 57.229 L
276.108 57.695 L
276.353 56.248 L
276.598 56.127 L
276.842 55.335 L
277.087 53.818 L
277.332 53.029 L
277.577 52.893 L
277.821 51.592 L
278.066 51.154 L
278.311 52.006 L
278.556 49.621 L
278.801 50.532 L
279.045 50.986 L
279.29 49.359 L
279.535 49.767 L
279.78 50.559 L
280.024 51.146 L
280.269 51.124 L
280.514 51.251 L
280.759 50.341 L
281.003 51.188 L
281.248 51.255 L
281.493 52.639 L
281.738 51.222 L
281.983 52.48 L
282.227 52.921 L
282.472 53.044 L
282.717 54.066 L
282.962 54.404 L
283.206 54.01 L
283.451 54.133 L
283.696 54.365 L
283.941 54.573 L
284.186 55.447 L
284.43 55.21 L
284.675 55.17 L
284.92 56.662 L
285.165 55.781 L
285.409 55.773 L
285.654 56.595 L
285.899 57.03 L
286.144 56.761 L
286.388 56.748 L
286.633 57.01 L
286.878 56.833 L
287.123 57.756 L
287.368 58.084 L
287.612 57.512 L
287.857 57.681 L
288.102 58.558 L
288.347 58.318 L
288.591 58.501 L
288.836 58.034 L
289.081 57.845 L
289.326 58.353 L
289.571 58.276 L
289.815 57.879 L
290.06 58.118 L
290.305 57.455 L
290.55 57.306 L
290.794 57.166 L
291.039 56.206 L
291.284 54.734 L
291.529 53.695 L
291.774 53.676 L
292.018 54.047 L
292.263 52.794 L
292.508 52.812 L
292.753 51.202 L
292.997 50.752 L
293.242 50.164 L
293.487 50.838 L
293.732 49.617 L
293.976 50.466 L
294.221 50.463 L
294.466 49.746 L
294.711 49.623 L
294.956 49.409 L
295.2 48.849 L
295.445 49.12 L
295.69 49.575 L
295.935 49.05 L
296.179 48.698 L
296.424 50.312 L
296.669 50.159 L
296.914 50.842 L
297.159 50.983 L
297.403 52.611 L
297.648 53.911 L
297.893 55.99 L
298.138 57.674 L
298.382 57.394 L
298.627 59.781 L
298.872 61.187 L
299.117 63.162 L
299.362 64.197 L
299.606 66.717 L
299.851 68.386 L
300.096 70.506 L
300.341 72.118 L
300.585 74.051 L
300.83 75.163 L
301.075 76.888 L
301.32 77.985 L
301.564 78.279 L
301.809 78.68 L
302.054 79.606 L
302.299 79.273 L
302.544 80.959 L
302.788 81.327 L
303.033 81.441 L
303.278 80.739 L
303.523 81.804 L
303.767 81.296 L
304.012 83.538 L
304.257 81.973 L
304.502 82.356 L
304.747 83.225 L
304.991 83.169 L
305.236 84.251 L
305.481 84.311 L
305.726 85.076 L
305.97 85.681 L
306.215 86.46 L
306.46 87.81 L
306.705 88.104 L
306.949 88.66 L
307.194 89.058 L
307.439 89.035 L
307.684 89.796 L
307.929 89.833 L
308.173 90.446 L
308.418 90.29 L
308.663 91.206 L
308.908 91.091 L
309.152 92.017 L
309.397 93.196 L
309.642 93.328 L
309.887 93.006 L
310.132 92.716 L
310.376 92.669 L
310.621 94.877 L
310.866 93.564 L
311.111 93.415 L
311.355 94.011 L
311.6 93.373 L
311.845 93.736 L
312.09 93.205 L
312.335 94.511 L
312.579 93.837 L
312.824 94.049 L
313.069 94.069 L
313.314 93.69 L
313.558 94.022 L
313.803 92.962 L
314.048 93.118 L
314.293 92.485 L
314.537 92.525 L
314.782 92.513 L
315.027 91.149 L
315.272 90.931 L
315.517 89.497 L
315.761 90.683 L
316.006 89.109 L
316.251 88.757 L
316.496 87.249 L
316.74 87.458 L
316.985 86.348 L
317.23 85.494 L
317.475 84.967 L
317.72 84.26 L
317.964 84.192 L
318.209 83.503 L
318.454 82.449 L
318.699 81.535 L
318.943 81.924 L
319.188 81.501 L
319.433 80.599 L
319.678 81.792 L
319.922 81.407 L
320.167 81.956 L
320.412 81.503 L
320.657 82.187 L
320.902 82.818 L
321.146 83.101 L
321.391 83.9 L
321.636 84.047 L
321.881 84.605 L
322.125 84.949 L
322.37 86.756 L
322.615 86.565 L
322.86 87.985 L
323.105 87.756 L
323.349 87.495 L
323.594 88.542 L
323.839 88.49 L
324.084 90.145 L
324.328 90.516 L
324.573 90.696 L
324.818 91.288 L
325.063 91.647 L
325.307 92.54 L
325.552 92.074 L
325.797 92.587 L
326.042 92.652 L
326.287 93.462 L
326.531 94.561 L
326.776 94.905 L
327.021 94.854 L
327.266 95.724 L
327.51 95.577 L
327.755 95.67 L
328 96.795 L
328.034 96.671 L
S
GR
GS
[0.78305 0 0 0.78377 0 -0.07875] CT
1 0 0 RC
[10 6] 0 setdash
2 LJ
1.789 LW
N
47 170.824 M
47.245 170.434 L
47.49 169.471 L
47.734 169.688 L
47.979 170.277 L
48.224 170.314 L
48.469 168.938 L
48.713 169.929 L
48.958 169.42 L
49.203 170.203 L
49.448 170.938 L
49.693 170.045 L
49.937 169.715 L
50.182 170.479 L
50.427 169.625 L
50.672 170.295 L
50.916 170.496 L
51.161 169.917 L
51.406 170.334 L
51.651 168.774 L
51.895 169.158 L
52.14 169.787 L
52.385 168.534 L
52.63 169.222 L
52.875 168.213 L
53.119 168.904 L
53.364 168.144 L
53.609 169.713 L
53.854 168.717 L
54.098 168.602 L
54.343 169.169 L
54.588 169.201 L
54.833 168.205 L
55.078 167.725 L
55.322 169.376 L
55.567 167.015 L
55.812 168.245 L
56.057 167.924 L
56.301 166.997 L
56.546 168.794 L
56.791 167.979 L
57.036 169.414 L
57.28 167.51 L
57.525 165.988 L
57.77 165.925 L
58.015 165.449 L
58.26 166.754 L
58.504 166.81 L
58.749 166.966 L
58.994 166.593 L
59.239 167.729 L
59.483 165.264 L
59.728 166.084 L
59.973 164.402 L
60.218 164.462 L
60.463 164.956 L
60.707 165.693 L
60.952 164.914 L
61.197 166.11 L
61.442 163.73 L
61.686 164.744 L
61.931 163.838 L
62.176 165.788 L
62.421 164.472 L
62.666 164.261 L
62.91 163.84 L
63.155 163.683 L
63.4 164.262 L
63.645 162.536 L
63.889 164.15 L
64.134 162.246 L
64.379 162.551 L
64.624 162.485 L
64.868 161.996 L
65.113 162.727 L
65.358 161.889 L
65.603 163.614 L
65.848 161.275 L
66.092 162.076 L
66.337 162.188 L
66.582 161.802 L
66.827 160.37 L
67.071 161.949 L
67.316 161.16 L
67.561 160.547 L
67.806 161.19 L
68.051 161.363 L
68.295 160.853 L
68.54 162.104 L
68.785 161.556 L
69.03 159.989 L
69.274 160.974 L
69.519 159.828 L
69.764 160.4 L
70.009 159.748 L
70.253 160.364 L
70.498 159.583 L
70.743 159.294 L
70.988 160.607 L
71.233 160.226 L
71.477 160.663 L
71.722 160.077 L
71.967 160.759 L
72.212 160.124 L
72.456 158.479 L
72.701 158.361 L
72.946 158.747 L
73.191 160.111 L
73.436 159.196 L
73.68 159.423 L
73.925 159.817 L
74.17 157.931 L
74.415 159.172 L
74.659 158.205 L
74.904 159.779 L
75.149 158.221 L
75.394 158.034 L
75.639 159.139 L
75.883 158.393 L
76.128 158.438 L
76.373 159.041 L
76.618 158.236 L
76.862 158.731 L
77.107 159 L
77.352 158.833 L
77.597 157.177 L
77.841 158.847 L
78.086 158.119 L
78.331 157.918 L
78.576 157.996 L
78.821 158.578 L
79.065 158.208 L
79.31 158.787 L
79.555 158.278 L
79.8 158.162 L
80.044 159.111 L
80.289 158.297 L
80.534 157.232 L
80.779 158.739 L
81.024 158.12 L
81.268 158.546 L
81.513 158.65 L
81.758 157.341 L
82.003 157.256 L
82.247 157.072 L
82.492 157.238 L
82.737 157.188 L
82.982 157.993 L
83.226 158.081 L
83.471 158.058 L
83.716 157.411 L
83.961 157.565 L
84.206 156.637 L
84.45 157.514 L
84.695 156.598 L
84.94 156.465 L
85.185 156.567 L
85.429 155.638 L
85.674 155.261 L
85.919 156.507 L
86.164 155.662 L
86.409 154.876 L
86.653 155.806 L
86.898 154.985 L
87.143 155.04 L
87.388 155.272 L
87.632 155.272 L
87.877 154.88 L
88.122 154.249 L
88.367 154.419 L
88.611 154.71 L
88.856 154.157 L
89.101 153.522 L
89.346 154.177 L
89.591 153.197 L
89.835 153.285 L
90.08 153.349 L
90.325 152.276 L
90.57 151.736 L
90.814 152.662 L
91.059 150.929 L
91.304 152.003 L
91.549 150.961 L
91.794 150.339 L
92.038 150.473 L
92.283 150.218 L
92.528 150.985 L
92.773 150.065 L
93.017 149.937 L
93.262 149.62 L
93.507 150.103 L
93.752 148.355 L
93.997 148.405 L
94.241 147.474 L
94.486 148.053 L
94.731 147.608 L
94.976 147.802 L
95.22 147.529 L
95.465 145.887 L
95.71 147.19 L
95.955 146.501 L
96.199 146.255 L
96.444 145.02 L
96.689 145.264 L
96.934 144.825 L
97.179 144.296 L
97.423 143.89 L
97.668 143.458 L
97.913 144.055 L
98.158 143.182 L
98.402 143.673 L
98.647 143.418 L
98.892 142.127 L
99.137 142.135 L
99.382 142.095 L
99.626 142.488 L
99.871 142.034 L
100.116 141.196 L
100.361 140.581 L
100.605 140.826 L
100.85 140.566 L
101.095 140.165 L
101.34 140.007 L
101.584 139.902 L
101.829 139.337 L
102.074 138.364 L
102.319 138.437 L
102.564 138.958 L
102.808 139.11 L
103.053 138.847 L
103.298 138.345 L
103.543 138.552 L
103.787 137.605 L
104.032 137.397 L
104.277 138.159 L
104.522 137.364 L
104.767 137.517 L
105.011 137.066 L
105.256 136.704 L
105.501 136.302 L
105.746 136.475 L
105.99 137.109 L
106.235 135.861 L
106.48 136.04 L
106.725 135.972 L
106.97 135.117 L
107.214 134.435 L
107.459 135.251 L
107.704 135.263 L
107.949 135.133 L
108.193 135.912 L
108.438 135.09 L
108.683 134.938 L
108.928 134.909 L
109.172 135.591 L
109.417 134.81 L
109.662 134.804 L
109.907 134.305 L
110.152 134.916 L
110.396 133.639 L
110.641 134.49 L
110.886 134.382 L
111.131 134.111 L
111.375 133.729 L
111.62 134.594 L
111.865 133.299 L
112.11 134.839 L
112.355 133.846 L
112.599 133.776 L
112.844 134.733 L
113.089 133.493 L
113.334 134.341 L
113.578 134.224 L
113.823 134.926 L
114.068 134.37 L
114.313 135.438 L
114.557 134.345 L
114.802 134.888 L
115.047 134.647 L
115.292 135.239 L
115.537 134.948 L
115.781 134.801 L
116.026 135.36 L
116.271 135.118 L
116.516 135.394 L
116.76 135.888 L
117.005 136.174 L
117.25 137.282 L
117.495 136.564 L
117.74 137.316 L
117.984 137.105 L
118.229 137.942 L
118.474 137.505 L
118.719 137.815 L
118.963 138.586 L
119.208 139.774 L
119.453 139.407 L
119.698 139.38 L
119.943 139.347 L
120.187 139.866 L
120.432 139.479 L
120.677 139.995 L
120.922 139.188 L
121.166 140.708 L
121.411 139.678 L
121.656 139.044 L
121.901 138.749 L
122.145 139.045 L
122.39 140.128 L
122.635 139.68 L
122.88 138.53 L
123.125 138.113 L
123.369 138.127 L
123.614 139.126 L
123.859 137.989 L
124.104 136.165 L
124.348 136.479 L
124.593 135.724 L
124.838 135.598 L
125.083 135.244 L
125.328 133.565 L
125.572 135.076 L
125.817 133.453 L
126.062 131.627 L
126.307 132.595 L
126.551 131.704 L
126.796 131.098 L
127.041 129.789 L
127.286 130.506 L
127.53 129.806 L
127.775 129.138 L
128.02 128.509 L
128.265 128.107 L
128.51 127.653 L
128.754 127.672 L
128.999 127.138 L
129.244 126.704 L
129.489 126.811 L
129.733 126.367 L
129.978 125.763 L
130.223 125.151 L
130.468 124.231 L
130.713 123.767 L
130.957 124.485 L
131.202 124.065 L
131.447 122.661 L
131.692 123.114 L
131.936 122.234 L
132.181 122.517 L
132.426 122.212 L
132.671 121.566 L
132.916 123.176 L
133.16 120.121 L
133.405 120.659 L
133.65 120.415 L
133.895 120.713 L
134.139 120.018 L
134.384 119.34 L
134.629 119.584 L
134.874 119.55 L
135.118 119.268 L
135.363 119.411 L
135.608 118.012 L
135.853 119.007 L
136.098 117.195 L
136.342 117.208 L
136.587 117.141 L
136.832 116.251 L
137.077 115.527 L
137.321 115.221 L
137.566 115.439 L
137.811 113.69 L
138.056 113.824 L
138.301 112.641 L
138.545 111.306 L
138.79 109.768 L
139.035 109.444 L
139.28 106.707 L
139.524 107.852 L
139.769 105.831 L
140.014 104.222 L
140.259 102.323 L
140.503 101.879 L
140.748 101.252 L
140.993 98.584 L
141.238 97.148 L
141.483 94.748 L
141.727 94.74 L
141.972 93.047 L
142.217 91.59 L
142.462 89.708 L
142.706 89.655 L
142.951 86.187 L
143.196 84.815 L
143.441 83.729 L
143.686 82.549 L
143.93 81.862 L
144.175 80.548 L
144.42 80.68 L
144.665 78.843 L
144.909 78.418 L
145.154 76.812 L
145.399 75.768 L
145.644 76.671 L
145.889 75.632 L
146.133 75.518 L
146.378 76.133 L
146.623 74.265 L
146.868 73.704 L
147.112 73.9 L
147.357 73.868 L
147.602 73.045 L
147.847 73.984 L
148.091 74.716 L
148.336 74.367 L
148.581 75.095 L
148.826 74.891 L
149.071 75.659 L
149.315 76.028 L
149.56 77.516 L
149.805 77.439 L
150.05 76.583 L
150.294 77.376 L
150.539 77.644 L
150.784 78.001 L
151.029 78.143 L
151.274 79.14 L
151.518 80.051 L
151.763 79.37 L
152.008 81.022 L
152.253 80.753 L
152.497 81.294 L
152.742 81.242 L
152.987 82.001 L
153.232 83.095 L
153.476 82.132 L
153.721 84.42 L
153.966 82.86 L
154.211 83.633 L
154.456 84.475 L
154.7 85.009 L
154.945 85.864 L
155.19 84.735 L
155.435 85.872 L
155.679 86.247 L
155.924 86.368 L
156.169 87.792 L
156.414 87.196 L
156.659 87.298 L
156.903 86.993 L
157.148 87.95 L
157.393 88.346 L
157.638 88.945 L
157.882 89.214 L
158.127 87.509 L
158.372 90.266 L
158.617 88.8 L
158.861 88.098 L
159.106 87.94 L
159.351 89.467 L
159.596 88.995 L
159.841 88.823 L
160.085 87.092 L
160.33 87.299 L
160.575 87.713 L
160.82 87.325 L
161.064 87.102 L
161.309 86.116 L
161.554 84.964 L
161.799 85.764 L
162.044 85.256 L
162.288 84.024 L
162.533 83.555 L
162.778 83.456 L
163.023 82.139 L
163.267 82.117 L
163.512 82.336 L
163.757 82.894 L
164.002 80.921 L
164.247 80.512 L
164.491 81.574 L
164.736 80.663 L
164.981 80.93 L
165.226 81.8 L
165.47 80.985 L
165.715 80.489 L
165.96 80.943 L
166.205 81.326 L
166.449 80.887 L
166.694 82.496 L
166.939 82.148 L
167.184 81.822 L
167.429 82.268 L
167.673 82.649 L
167.918 84.089 L
168.163 83.383 L
168.408 84.169 L
168.652 83.529 L
168.897 85.154 L
169.142 85.201 L
169.387 85.216 L
169.632 85.318 L
169.876 86.506 L
170.121 86.222 L
170.366 87.001 L
170.611 87.053 L
170.855 87.08 L
171.1 88.128 L
171.345 88.322 L
171.59 89.371 L
171.834 89.371 L
172.079 88.92 L
172.324 90.222 L
172.569 90.297 L
172.814 90.156 L
173.058 90.568 L
173.303 90.941 L
173.548 90.412 L
173.793 91.163 L
174.037 91.887 L
174.282 92.483 L
174.527 91.195 L
174.772 91.71 L
175.017 91.797 L
175.261 92.216 L
175.506 91.745 L
175.751 91.871 L
175.996 93.534 L
176.24 92.51 L
176.485 92.547 L
176.73 93.439 L
176.975 93.93 L
177.22 93.642 L
177.464 93.929 L
177.709 93.275 L
177.954 93.564 L
178.199 93.034 L
178.443 93.265 L
178.688 93.679 L
178.933 94.134 L
179.178 93.958 L
179.422 93.924 L
179.667 93.056 L
179.912 92.582 L
180.157 94.483 L
180.402 94.317 L
180.646 95.482 L
180.891 93.635 L
181.136 93.712 L
181.381 95.098 L
181.625 94.277 L
181.87 93.243 L
182.115 93.893 L
182.36 94.002 L
182.605 93.095 L
182.849 91.901 L
183.094 93.288 L
183.339 93.919 L
183.584 93.447 L
183.828 92.29 L
184.073 93.844 L
184.318 93.298 L
184.563 95.126 L
184.807 93.416 L
185.052 91.431 L
185.297 94.215 L
185.542 93.183 L
185.787 92.64 L
186.031 93.415 L
186.276 93.272 L
186.521 93.574 L
186.766 92.771 L
187.01 93.493 L
187.255 92.663 L
187.5 94.204 L
187.745 94.576 L
187.99 94.446 L
188.234 94.126 L
188.479 93.871 L
188.724 94.43 L
188.969 95.618 L
189.213 94.238 L
189.458 95.019 L
189.703 94.341 L
189.948 94.7 L
190.193 95.15 L
190.437 96.138 L
190.682 94.991 L
190.927 96.418 L
191.172 95.953 L
191.416 96.889 L
191.661 97.62 L
191.906 96.971 L
192.151 97.235 L
192.395 97.167 L
192.64 97.082 L
192.885 96.447 L
193.13 97.555 L
193.375 96.962 L
193.619 98.391 L
193.864 98.883 L
194.109 97.649 L
194.354 100.309 L
194.598 99.828 L
194.843 100.592 L
195.088 100.607 L
195.333 101.028 L
195.578 99.965 L
195.822 100.739 L
196.067 100.129 L
196.312 100.698 L
196.557 100.98 L
196.801 102.086 L
197.046 101.372 L
197.291 101.541 L
197.536 102.542 L
197.78 101.112 L
198.025 101.73 L
198.27 102.382 L
198.515 100.091 L
198.76 102.804 L
199.004 102.707 L
199.249 101.2 L
199.494 103.204 L
199.739 102.132 L
199.983 101.016 L
200.228 102.315 L
200.473 101.831 L
200.718 101.224 L
200.963 100.426 L
201.207 100.345 L
201.452 98.526 L
201.697 99.178 L
201.942 98.247 L
202.186 98.778 L
202.431 97.78 L
202.676 95.792 L
202.921 94.829 L
203.166 94.331 L
203.41 93.51 L
203.655 92.434 L
203.9 90.206 L
204.145 88.413 L
204.389 89.07 L
204.634 87.018 L
204.879 86.395 L
205.124 84.697 L
205.368 83.209 L
205.613 81.747 L
205.858 81.221 L
206.103 79.563 L
206.348 77.105 L
206.592 76.29 L
206.837 75.643 L
207.082 74.982 L
207.327 73.205 L
207.571 73.025 L
207.816 71.461 L
208.061 70.692 L
208.306 68.893 L
208.551 70.508 L
208.795 68.673 L
209.04 67.338 L
209.285 66.341 L
209.53 67.007 L
209.774 67.016 L
210.019 68.149 L
210.264 66.865 L
210.509 66.052 L
210.753 67.68 L
210.998 66.952 L
211.243 67.727 L
211.488 66.899 L
211.733 67.913 L
211.977 68.35 L
212.222 66.408 L
212.467 69.983 L
212.712 69.693 L
212.956 69.897 L
213.201 70.404 L
213.446 71.535 L
213.691 71.548 L
213.936 72.168 L
214.18 72.059 L
214.425 74.402 L
214.67 75.209 L
214.915 75.049 L
215.159 77.208 L
215.404 77.154 L
215.649 77.518 L
215.894 78.952 L
216.139 80.081 L
216.383 81.352 L
216.628 81.784 L
216.873 82.135 L
217.118 83.821 L
217.362 84.031 L
217.607 85.757 L
217.852 86.871 L
218.097 88.765 L
218.341 88.514 L
218.586 89.414 L
218.831 91.561 L
219.076 92.747 L
219.321 91.368 L
219.565 93.298 L
219.81 93.518 L
220.055 95.581 L
220.3 94.791 L
220.544 94.749 L
220.789 94.965 L
221.034 95.582 L
221.279 94.372 L
221.524 94.093 L
221.768 94.186 L
222.013 93.501 L
222.258 92.089 L
222.503 91.571 L
222.747 91.597 L
222.992 89.917 L
223.237 89.399 L
223.482 86.045 L
223.726 85.505 L
223.971 85.694 L
224.216 83.198 L
224.461 82.622 L
224.706 81.887 L
224.95 80.624 L
225.195 78.498 L
225.44 77.886 L
225.685 77.129 L
225.929 75.7 L
226.174 74.307 L
226.419 72.682 L
226.664 72.472 L
226.909 70.432 L
227.153 69.065 L
227.398 68.716 L
227.643 68.232 L
227.888 67.567 L
228.132 66.059 L
228.377 65.329 L
228.622 64.95 L
228.867 62.583 L
229.111 63.566 L
229.356 62.988 L
229.601 62.606 L
229.846 61.454 L
230.091 61.897 L
230.335 60.996 L
230.58 61.359 L
230.825 61.041 L
231.07 60.874 L
231.314 62.305 L
231.559 61.719 L
231.804 61.385 L
232.049 60.843 L
232.294 62.537 L
232.538 62.273 L
232.783 62.923 L
233.028 62.627 L
233.273 64.163 L
233.517 64.448 L
233.762 66.198 L
234.007 67.336 L
234.252 68.39 L
234.497 68.694 L
234.741 69.692 L
234.986 70.819 L
235.231 71.33 L
235.476 72.603 L
235.72 74.357 L
235.965 74.581 L
236.21 76.049 L
236.455 76.716 L
236.699 78.896 L
236.944 79.399 L
237.189 79.674 L
237.434 79.865 L
237.679 80.347 L
237.923 80.729 L
238.168 81.675 L
238.413 81.275 L
238.658 81.916 L
238.902 82.222 L
239.147 81.77 L
239.392 81.674 L
239.637 82.366 L
239.882 82.138 L
240.126 81.295 L
240.371 81.826 L
240.616 82.039 L
240.861 82.047 L
241.105 82.08 L
241.35 82.013 L
241.595 82.088 L
241.84 82.215 L
242.084 82.375 L
242.329 82.156 L
242.574 82.09 L
242.819 82.031 L
243.064 81.926 L
243.308 82.154 L
243.553 82.619 L
243.798 82.884 L
244.043 82.214 L
244.287 83.346 L
244.532 83.605 L
244.777 83.655 L
245.022 82.943 L
245.267 83.653 L
245.511 83.619 L
245.756 84.342 L
246.001 83.913 L
246.246 83.574 L
246.49 84.336 L
246.735 84.989 L
246.98 84.845 L
247.225 84.85 L
247.469 85.01 L
247.714 84.839 L
247.959 85.046 L
248.204 84.971 L
248.449 84.408 L
248.693 84.289 L
248.938 83.697 L
249.183 84.01 L
249.428 82.935 L
249.672 83.461 L
249.917 82.94 L
250.162 82.128 L
250.407 82.812 L
250.652 81.861 L
250.896 81.532 L
251.141 81.19 L
251.386 80.27 L
251.631 80.578 L
251.875 80.614 L
252.12 80.047 L
252.365 80.678 L
252.61 79.333 L
252.855 78.435 L
253.099 78.97 L
253.344 78.477 L
253.589 79.29 L
253.834 79.137 L
254.078 79.414 L
254.323 79.792 L
254.568 79.359 L
254.813 79.684 L
255.057 80.719 L
255.302 80.613 L
255.547 81.426 L
255.792 81.694 L
256.037 82.326 L
256.281 82.571 L
256.526 84.044 L
256.771 84.826 L
257.016 85.755 L
257.26 86.22 L
257.505 87.604 L
257.75 87.763 L
257.995 89.902 L
258.24 90.745 L
258.484 91.625 L
258.729 92.787 L
258.974 93.935 L
259.219 95.264 L
259.463 95.568 L
259.708 97.643 L
259.953 98.263 L
260.198 99.96 L
260.443 101.197 L
260.687 101.867 L
260.932 103.728 L
261.177 104.632 L
261.422 105.432 L
261.666 106.139 L
261.911 107.778 L
262.156 108.597 L
262.401 109.631 L
262.645 110.15 L
262.89 110.638 L
263.135 112.477 L
263.38 113.503 L
263.625 113.288 L
263.869 114.024 L
264.114 114.278 L
264.359 115.093 L
264.604 115.607 L
264.848 117.003 L
265.093 116.798 L
265.338 117.601 L
265.583 116.984 L
265.828 117.733 L
266.072 117.374 L
266.317 118.419 L
266.562 118.092 L
266.807 118.148 L
267.051 118.81 L
267.296 118.47 L
267.541 118.798 L
267.786 117.949 L
268.03 118.831 L
268.275 119.689 L
268.52 119.069 L
268.765 118.99 L
269.01 118.671 L
269.254 119.335 L
269.499 119.746 L
269.744 119.761 L
269.989 120.408 L
270.233 118.032 L
270.478 118.946 L
270.723 118.435 L
270.968 119.289 L
271.213 118.335 L
271.457 119.071 L
271.702 118.695 L
271.947 118.306 L
272.192 118.974 L
272.436 119.466 L
272.681 118.426 L
272.926 118.362 L
273.171 117.024 L
273.415 118.085 L
273.66 118.019 L
273.905 117.546 L
274.15 117.156 L
274.395 116.623 L
274.639 116.916 L
274.884 117.443 L
275.129 115.995 L
275.374 116.502 L
275.618 115.917 L
275.863 115.386 L
276.108 116.353 L
276.353 114.899 L
276.598 115.675 L
276.842 114.663 L
277.087 113.638 L
277.332 113.495 L
277.577 113.849 L
277.821 113.082 L
278.066 113.109 L
278.311 113.654 L
278.556 112.093 L
278.801 112.576 L
279.045 112.081 L
279.29 110.366 L
279.535 110.297 L
279.78 111.209 L
280.024 110.408 L
280.269 109.66 L
280.514 108.884 L
280.759 108.955 L
281.003 108.153 L
281.248 107.835 L
281.493 107.484 L
281.738 106.934 L
281.983 106.98 L
282.227 106.615 L
282.472 105.897 L
282.717 105.758 L
282.962 105.745 L
283.206 105.641 L
283.451 104.675 L
283.696 105.454 L
283.941 103.838 L
284.186 104.448 L
284.43 103.931 L
284.675 103.025 L
284.92 104.475 L
285.165 102.95 L
285.409 103.159 L
285.654 102.079 L
285.899 103.143 L
286.144 102.401 L
286.388 102.213 L
286.633 102.068 L
286.878 101.963 L
287.123 102.086 L
287.368 101.942 L
287.612 101.672 L
287.857 102.046 L
288.102 101.21 L
288.347 101.316 L
288.591 101.53 L
288.836 101.303 L
289.081 101.77 L
289.326 100.603 L
289.571 101.612 L
289.815 100.792 L
290.06 101.017 L
290.305 100.431 L
290.55 100.408 L
290.794 100.825 L
291.039 99.688 L
291.284 99.403 L
291.529 98.901 L
291.774 99.458 L
292.018 99.793 L
292.263 99.055 L
292.508 99.118 L
292.753 97.812 L
292.997 97.343 L
293.242 96.894 L
293.487 96.924 L
293.732 97.121 L
293.976 96.99 L
294.221 96.136 L
294.466 95.88 L
294.711 95.985 L
294.956 95.842 L
295.2 95.117 L
295.445 94.484 L
295.69 94.83 L
295.935 93.918 L
296.179 93.579 L
296.424 94.056 L
296.669 93.106 L
296.914 92.632 L
297.159 93.152 L
297.403 92.314 L
297.648 92.665 L
297.893 93.773 L
298.138 93.247 L
298.382 92.125 L
298.627 92.31 L
298.872 92.32 L
299.117 92.433 L
299.362 92.488 L
299.606 92.871 L
299.851 93.609 L
300.096 93.408 L
300.341 93.546 L
300.585 94.107 L
300.83 93.842 L
301.075 94.418 L
301.32 95.376 L
301.564 95.933 L
301.809 96.119 L
302.054 96.546 L
302.299 97.595 L
302.544 97.515 L
302.788 97.911 L
303.033 98.607 L
303.278 100.145 L
303.523 100.076 L
303.767 100.096 L
304.012 102.251 L
304.257 102.797 L
304.502 102.415 L
304.747 103.937 L
304.991 104.963 L
305.236 106.018 L
305.481 106.575 L
305.726 108.462 L
305.97 108.526 L
306.215 108.936 L
306.46 109.647 L
306.705 110.866 L
306.949 111.564 L
307.194 112.897 L
307.439 113.024 L
307.684 114.436 L
307.929 115.106 L
308.173 115.995 L
308.418 116.453 L
308.663 117.198 L
308.908 119.521 L
309.152 118.824 L
309.397 118.799 L
309.642 119.957 L
309.887 120.267 L
310.132 120.974 L
310.376 121.23 L
310.621 123.74 L
310.866 122.949 L
311.111 123.585 L
311.355 123.763 L
311.6 124.352 L
311.845 124.506 L
312.09 124.42 L
312.335 125.936 L
312.579 125.82 L
312.824 126.475 L
313.069 126.373 L
313.314 127.103 L
313.558 126.602 L
313.803 125.828 L
314.048 126.676 L
314.293 126.766 L
314.537 127.505 L
314.782 127.128 L
315.027 126.999 L
315.272 127.272 L
315.517 126.707 L
315.761 126.857 L
316.006 126.706 L
316.251 128.013 L
316.496 127.023 L
316.74 126.668 L
316.985 126.444 L
317.23 127.007 L
317.475 126.835 L
317.72 127.405 L
317.964 125.769 L
318.209 127.256 L
318.454 126.16 L
318.699 125.952 L
318.943 127.036 L
319.188 125.303 L
319.433 124.765 L
319.678 126.413 L
319.922 125.354 L
320.167 125.824 L
320.412 125.219 L
320.657 124.752 L
320.902 125.867 L
321.146 124.817 L
321.391 125.199 L
321.636 124.923 L
321.881 124.796 L
322.125 124.553 L
322.37 124.273 L
322.615 125.124 L
322.86 125.616 L
323.105 125.105 L
323.349 124.915 L
323.594 124.408 L
323.839 124.479 L
324.084 124.632 L
324.328 125.325 L
324.573 125.338 L
324.818 125.48 L
325.063 125.302 L
325.307 126.081 L
325.552 124.934 L
325.797 125.296 L
326.042 125.531 L
326.287 125.401 L
326.531 126.526 L
326.776 125.81 L
327.021 126.16 L
327.266 126.778 L
327.51 127.565 L
327.755 127.285 L
328 127.429 L
328.034 127.301 L
S
GR
%%Trailer
%%Pages: 1
%%EOF
